[gd_scene load_steps=14 format=2]

[ext_resource path="res://scenes/winterislandcastle/tileset.tres" type="TileSet" id=1]
[ext_resource path="res://scenes/winterislandcastle/BGs/wall.png" type="Texture" id=2]
[ext_resource path="res://scenes/winterislandcastle/climbableblock.tscn" type="PackedScene" id=3]
[ext_resource path="res://scenes/common/breakables/lamp.tscn" type="PackedScene" id=4]
[ext_resource path="res://scenes/dungeon/ladder/ladder.tscn" type="PackedScene" id=5]
[ext_resource path="res://scenes/dungeon/ladder/laddertop.tscn" type="PackedScene" id=6]
[ext_resource path="res://scenes/common/breakables/pot.tscn" type="PackedScene" id=7]
[ext_resource path="res://scenes/common/damagables/skeleton/skeleton.tscn" type="PackedScene" id=8]
[ext_resource path="res://scenes/common/teleport.tscn" type="PackedScene" id=9]

[sub_resource type="PhysicsMaterial" id=1]
friction = 0.0

[sub_resource type="PhysicsMaterial" id=2]
friction = 0.0

[sub_resource type="PhysicsMaterial" id=3]
friction = 0.0

[sub_resource type="PhysicsMaterial" id=4]
friction = 0.0

[node name="LVL_NOTITLE" type="Node2D"]
__meta__ = {
"__editor_plugin_screen__": "2D"
}

[node name="BGTiles" type="TileMap" parent="."]
tile_set = ExtResource( 1 )
cell_size = Vector2( 32, 32 )
compatibility_mode = true
format = 1
tile_data = PoolIntArray( -1769479, 10, 0, -1769475, 10, 0, -1835007, 10, 0, -1835003, 10, 0, -1638407, 9, 0, -1638406, 8, 0, -1638405, 8, 0, -1638404, 9, 0, -1638403, 9, 0, -1638402, 8, 0, -1638401, 8, 0, -1703936, 9, 0, -1703935, 9, 0, -1703934, 8, 0, -1703933, 8, 0, -1703932, 9, 0, -1703931, 9, 0, -1703930, 8, 0, -1703929, 8, 0, -1703928, 9, 0, -1572872, 7, 0, -1572871, 11, 0, -1572867, 11, 0, -1638399, 11, 0, -1638395, 11, 0, -1507336, 7, 0, -1441800, 7, 0, -1376264, 7, 0, -1376263, 9, 0, -1376262, 8, 0, -1376261, 8, 0, -1376260, 9, 0, -1376259, 9, 0, -1376258, 8, 0, -1376257, 8, 0, -1441792, 9, 0, -1441791, 9, 0, -1441790, 8, 0, -1441789, 8, 0, -1441788, 9, 0, -1441787, 9, 0, -1441786, 8, 0, -1441785, 8, 0, -1441784, 9, 0, -1310728, 7, 0, -1310727, 6, 0, -1310723, 24, 0, -1376255, 6, 0, -1376251, 24, 0, -1245192, 7, 0, -1245175, 7, 0, -1179639, 7, 0, -1114103, 7, 0, -1048567, 7, 0, -983031, 7, 0, -917495, 7, 0, -786439, 12, 0, -786435, 6, 0, -851967, 12, 0, -851963, 6, 0, -262151, 6, 0, -327679, 6, 0 )

[node name="tilemap" type="TileMap" parent="."]
tile_set = ExtResource( 1 )
cell_size = Vector2( 32, 32 )
compatibility_mode = true
collision_layer = 524288
format = 1
tile_data = PoolIntArray( -1835016, 1610612737, 0, -1835015, 1073741824, 0, -1835014, 1073741824, 0, -1835013, 1073741824, 0, -1835012, 1073741824, 0, -1835011, 1073741824, 0, -1835010, 1073741824, 0, -1835009, 1073741824, 0, -1900544, 1073741824, 0, -1900543, 1073741824, 0, -1900542, 1073741824, 0, -1900541, 1073741824, 0, -1900540, 1073741824, 0, -1900539, 1073741824, 0, -1900538, 1073741824, 0, -1900537, 1073741824, 0, -1900536, 1073741824, 0, -1900535, 1073741825, 0, -1769480, 2, 0, -1834999, 2, 0, -1703944, 2, 0, -1769463, 2, 0, -1638408, 2, 0, -1703927, 2, 0, -1572872, 1073741825, 0, -1638391, 2, 0, -1572855, 2, 0, -1507319, 2, 0, -1441783, 2, 0, -1376247, 2, 0, -1310711, 2, 0, -1179656, 536870913, 0, -1179655, 0, 0, -1179654, 0, 0, -1179653, 0, 0, -1245175, 1610612737, 0, -1114120, 2, 0, -1048584, 2, 0, -983048, 2, 0, -917512, 2, 0, -851976, 2, 0, -786440, 2, 0, -851963, 0, 0, -851962, 0, 0, -851961, 0, 0, -851960, 0, 0, -851959, 1, 0, -720904, 2, 0, -786423, 2, 0, -655368, 2, 0, -720887, 2, 0, -589832, 536870913, 0, -589831, 0, 0, -589830, 0, 0, -589829, 0, 0, -589828, 0, 0, -655351, 2, 0, -524296, 2, 0, -589815, 2, 0, -458760, 2, 0, -524279, 2, 0, -393224, 2, 0, -458743, 2, 0, -327688, 2, 0, -393207, 2, 0, -262152, 2, 0, -262147, 13, 0, -327675, 13, 0, -327671, 2, 0, -196616, 2, 0, -262139, 0, 0, -262138, 0, 0, -262137, 0, 0, -262136, 0, 0, -262135, 1, 0, -131080, 2, 0, -196599, 2, 0, -65544, 2, 0, -131063, 2, 0, -8, 2, 0, -65527, 2, 0, 65528, 2, 0, 9, 2, 0, 131064, 2, 0, 65545, 2, 0, 196600, 2, 0, 131081, 2, 0, 262136, 536870913, 0, 262137, 0, 0, 262138, 0, 0, 262139, 0, 0, 262140, 0, 0, 262141, 0, 0, 262142, 1, 0, 262143, 7, 0, 196608, 7, 0, 196609, 7, 0, 196610, 536870913, 0, 196611, 0, 0, 196612, 0, 0, 196613, 0, 0, 196614, 0, 0, 196615, 0, 0, 196616, 0, 0, 196617, 1, 0, 327672, 2, 0, 327673, 3, 0, 327674, -1610612732, 0, 327675, -1610612732, 0, 327676, -1610612732, 0, 327677, 536870915, 0, 327678, 2, 0, 327679, 7, 0, 262144, 7, 0, 262145, 7, 0, 262146, 2, 0, 262147, 3, 0, 262148, -1610612732, 0, 262149, -1610612732, 0, 262150, -1610612732, 0, 262151, -1610612732, 0, 262152, 536870915, 0, 262153, 2, 0, 393208, 2, 0, 393209, 4, 0, 393210, 5, 0, 393211, 5, 0, 393212, 5, 0, 393213, 4, 0, 393214, 2, 0, 393215, 7, 0, 327680, 7, 0, 327681, 7, 0, 327682, 2, 0, 327683, 4, 0, 327684, 5, 0, 327685, 5, 0, 327686, 5, 0, 327687, 5, 0, 327688, 4, 0, 327689, 2, 0, 458744, 2, 0, 458745, 4, 0, 458746, 5, 0, 458747, 5, 0, 458748, 5, 0, 458749, 4, 0, 458750, 2, 0, 458751, 7, 0, 393216, 7, 0, 393217, 7, 0, 393218, 2, 0, 393219, 4, 0, 393220, 5, 0, 393221, 5, 0, 393222, 5, 0, 393223, 5, 0, 393224, 4, 0, 393225, 2, 0, 524280, 2, 0, 524281, 1073741827, 0, 524282, -1610612732, 0, 524283, -1610612732, 0, 524284, -1610612732, 0, 524285, 1610612739, 0, 524286, 2, 0, 524287, 7, 0, 458752, 7, 0, 458753, 7, 0, 458754, 2, 0, 458755, 1073741827, 0, 458756, -1610612732, 0, 458757, -1610612732, 0, 458758, -1610612732, 0, 458759, -1610612732, 0, 458760, 1610612739, 0, 458761, 2, 0 )

[node name="DecoGroup" type="Node2D" parent="tilemap"]
z_index = -1

[node name="Sprite" type="Sprite" parent="tilemap/DecoGroup"]
position = Vector2( 224, -288 )
texture = ExtResource( 2 )

[node name="ClimbableGroup" type="Node2D" parent="tilemap"]

[node name="ClimbableBlock" parent="tilemap/ClimbableGroup" instance=ExtResource( 3 )]
position = Vector2( 144, -112 )
physics_material_override = SubResource( 1 )

[node name="ClimbableBlock1" parent="tilemap/ClimbableGroup" instance=ExtResource( 3 )]
position = Vector2( -80, -304 )
physics_material_override = SubResource( 2 )

[node name="Sprite" parent="tilemap/ClimbableGroup/ClimbableBlock1" index="0"]
flip_h = false

[node name="ClimbableBlock2" parent="tilemap/ClimbableGroup" instance=ExtResource( 3 )]
position = Vector2( 144, -400 )
physics_material_override = SubResource( 3 )

[node name="ClimbableBlock3" parent="tilemap/ClimbableGroup" instance=ExtResource( 3 )]
position = Vector2( -112, -592 )
physics_material_override = SubResource( 4 )

[node name="Sprite" parent="tilemap/ClimbableGroup/ClimbableBlock3" index="0"]
flip_h = false

[node name="LampGroup" type="Node2D" parent="tilemap"]

[node name="lamp" parent="tilemap/LampGroup" instance=ExtResource( 4 )]
position = Vector2( 96, -560 )

[node name="LadderGroup" type="Node2D" parent="tilemap"]

[node name="TestLadder" parent="tilemap/LadderGroup" instance=ExtResource( 5 )]
position = Vector2( 16, 176 )

[node name="Sprite" parent="tilemap/LadderGroup/TestLadder/KinematicBody2D" index="0"]
region_rect = Rect2( 0, 0, 32, 160 )

[node name="ladder" parent="tilemap/LadderGroup/TestLadder/KinematicBody2D" index="1"]
scale = Vector2( 1, 5 )

[node name="TestLadder 2" parent="tilemap/LadderGroup" instance=ExtResource( 6 )]
position = Vector2( 16, 80 )

[node name="PotGroup" type="Node2D" parent="tilemap"]

[node name="Pot" parent="tilemap/PotGroup" instance=ExtResource( 7 )]
position = Vector2( -160, -656 )

[node name="EnemiesGroup" type="Node2D" parent="tilemap"]

[node name="Skeleton" parent="tilemap/EnemiesGroup" instance=ExtResource( 8 )]
position = Vector2( -144, 48 )
level = 2

[node name="Skeleton1" parent="tilemap/EnemiesGroup" instance=ExtResource( 8 )]
position = Vector2( 208, -176 )
level = 2

[node name="Skeleton2" parent="tilemap/EnemiesGroup" instance=ExtResource( 8 )]
position = Vector2( -176, -368 )
level = 2

[node name="TeleportGroup" type="Node2D" parent="tilemap"]

[node name="Teleport" parent="tilemap/TeleportGroup" instance=ExtResource( 9 )]
position = Vector2( 16, 272 )
is_horizontal = false
target_level = "res://levels/winterislandcastle/0-2.tscn"
teleport_to = Vector2( -144, 80 )

[node name="teleport" parent="tilemap/TeleportGroup/Teleport" index="0"]
scale = Vector2( 3, 1 )

[node name="Teleport1" parent="tilemap/TeleportGroup" instance=ExtResource( 9 )]
position = Vector2( 336, -496 )
target_level = "res://levels/winterislandcastle/5-0.tscn"
teleport_to = Vector2( -236, 80 )

[node name="teleport" parent="tilemap/TeleportGroup/Teleport1" index="0"]
scale = Vector2( 1, 5 )

[node name="Teleport2" parent="tilemap/TeleportGroup" instance=ExtResource( 9 )]
position = Vector2( -272, -688 )
target_level = "res://levels/winterislandcastle/0-4.tscn"
teleport_to = Vector2( 108, 48 )

[node name="teleport" parent="tilemap/TeleportGroup/Teleport2" index="0"]
scale = Vector2( 1, 5 )

[node name="boundaries" type="Node2D" parent="tilemap"]

[node name="NW" type="Position2D" parent="tilemap/boundaries"]
position = Vector2( -262, -934 )

[node name="SE" type="Position2D" parent="tilemap/boundaries"]
position = Vector2( 330, 266 )

[editable path="tilemap/ClimbableGroup/ClimbableBlock1"]

[editable path="tilemap/ClimbableGroup/ClimbableBlock3"]

[editable path="tilemap/LadderGroup/TestLadder"]

[editable path="tilemap/TeleportGroup/Teleport"]

[editable path="tilemap/TeleportGroup/Teleport1"]

[editable path="tilemap/TeleportGroup/Teleport2"]
