[gd_scene load_steps=10 format=2]

[ext_resource path="res://scenes/winterislandcastle/tileset.tres" type="TileSet" id=1]
[ext_resource path="res://scenes/winterislandcastle/slopes/slope0-31.tscn" type="PackedScene" id=2]
[ext_resource path="res://scenes/winterislandcastle/slopes/slope31-0.tscn" type="PackedScene" id=3]
[ext_resource path="res://scenes/dungeon/slopes/slopea-b.tscn" type="PackedScene" id=4]
[ext_resource path="res://scenes/dungeon/ladder/ladder.tscn" type="PackedScene" id=5]
[ext_resource path="res://scenes/dungeon/ladder/laddertop.tscn" type="PackedScene" id=6]
[ext_resource path="res://scenes/common/damagables/enchantedarmor/enchantedarmor.tscn" type="PackedScene" id=7]
[ext_resource path="res://scenes/items/scroll/scroll.tscn" type="PackedScene" id=8]
[ext_resource path="res://scenes/common/teleport.tscn" type="PackedScene" id=9]

[node name="LVL_NOTITLE" type="Node2D"]
__meta__ = {
"__editor_plugin_screen__": "2D"
}

[node name="tilemap" type="TileMap" parent="."]
tile_set = ExtResource( 1 )
cell_size = Vector2( 32, 32 )
compatibility_mode = true
collision_layer = 524288
format = 1
tile_data = PoolIntArray( -720907, 1610612737, 0, -720906, 1073741824, 0, -720905, 1073741824, 0, -720904, 1073741824, 0, -720903, 1073741824, 0, -720902, 1073741824, 0, -720901, 1073741824, 0, -720900, 1073741824, 0, -720899, 1073741824, 0, -720898, 1073741824, 0, -720897, 1073741824, 0, -786432, 1073741824, 0, -786431, 1073741824, 0, -786430, 1073741824, 0, -786429, 1073741824, 0, -786428, 1073741824, 0, -786427, 1073741824, 0, -786426, 1073741824, 0, -786425, 1073741824, 0, -786424, 1073741824, 0, -786423, 1073741824, 0, -786422, 1073741824, 0, -786421, 1073741824, 0, -786420, 1073741824, 0, -786419, 1073741824, 0, -786418, 1073741824, 0, -786417, 1073741824, 0, -786416, 1073741824, 0, -786415, 1073741824, 0, -786414, 1073741824, 0, -786413, 1073741824, 0, -786412, 1073741824, 0, -786411, 1073741824, 0, -786410, 1073741824, 0, -786409, 1073741825, 0, -786408, 7, 0, -786407, 7, 0, -786406, 7, 0, -786405, 1610612737, 0, -786404, 1073741824, 0, -786403, 1073741824, 0, -786402, 1073741824, 0, -786401, 1073741824, 0, -786400, 1073741824, 0, -786399, 1073741824, 0, -786398, 1073741824, 0, -786397, 1073741824, 0, -786396, 1073741824, 0, -786395, 1073741824, 0, -786394, 1073741824, 0, -786393, 1073741824, 0, -786392, 1073741824, 0, -786391, 1073741824, 0, -786390, 1073741824, 0, -786389, 1073741824, 0, -786388, 1073741824, 0, -786387, 1073741824, 0, -786386, 1073741824, 0, -786385, 1073741824, 0, -786384, 1073741824, 0, -786383, 1073741824, 0, -786382, 1073741824, 0, -786381, 1073741824, 0, -786380, 1073741824, 0, -786379, 1073741824, 0, -786378, 1073741824, 0, -786377, 1073741824, 0, -786376, 1073741824, 0, -786375, 1073741824, 0, -786374, 1073741824, 0, -786373, 1073741824, 0, -786372, 1073741824, 0, -786371, 1073741824, 0, -786370, 1073741824, 0, -786369, 1073741824, 0, -786368, 1073741824, 0, -786367, 1073741824, 0, -786366, 1073741824, 0, -786365, 1073741824, 0, -786364, 1073741824, 0, -786363, 1073741824, 0, -786362, 1073741824, 0, -786361, 1073741824, 0, -786360, 1073741824, 0, -786359, 1073741824, 0, -786358, 1073741824, 0, -786357, 1073741824, 0, -786356, 1073741824, 0, -786355, 1073741824, 0, -786354, 1073741824, 0, -786353, 1073741824, 0, -786352, 1073741824, 0, -786351, 1073741824, 0, -786350, 1073741824, 0, -786349, 1073741824, 0, -786348, 1073741824, 0, -786347, 1073741824, 0, -786346, 1073741824, 0, -786345, 1073741824, 0, -786344, 1073741825, 0, -655371, 2, 0, -655370, 10, 0, -655366, 10, 0, -655362, 10, 0, -720894, 10, 0, -720890, 10, 0, -720886, 10, 0, -720882, 10, 0, -720878, 10, 0, -720874, 10, 0, -720870, 10, 0, -720866, 10, 0, -720862, 2, 0, -720861, 3, 0, -720860, -1610612732, 0, -720859, -1610612732, 0, -720858, 536870915, 0, -720857, 2, 0, -720856, 10, 0, -720852, 10, 0, -720848, 10, 0, -720844, 10, 0, -720840, 10, 0, -720836, 10, 0, -720832, 10, 0, -720828, 10, 0, -720824, 10, 0, -720820, 10, 0, -720816, 10, 0, -720812, 10, 0, -720808, 2, 0, -589835, 2, 0, -655326, 2, 0, -655325, 4, 0, -655324, 5, 0, -655323, 5, 0, -655322, 4, 0, -655321, 2, 0, -655272, 2, 0, -524299, 2, 0, -524298, 11, 0, -524294, 11, 0, -524290, 11, 0, -589822, 11, 0, -589818, 11, 0, -589814, 11, 0, -589810, 11, 0, -589806, 11, 0, -589802, 11, 0, -589798, 11, 0, -589794, 11, 0, -589790, 2, 0, -589789, 4, 0, -589788, 5, 0, -589787, 5, 0, -589786, 4, 0, -589785, 2, 0, -589784, 11, 0, -589780, 11, 0, -589776, 11, 0, -589772, 11, 0, -589768, 11, 0, -589764, 11, 0, -589760, 11, 0, -589756, 11, 0, -589752, 11, 0, -589748, 11, 0, -589744, 11, 0, -589740, 11, 0, -589736, 2, 0, -458763, 2, 0, -524254, 2, 0, -524253, 4, 0, -524252, 5, 0, -524251, 5, 0, -524250, 4, 0, -524249, 2, 0, -524200, 2, 0, -393227, 2, 0, -458718, 2, 0, -458717, 4, 0, -458716, 5, 0, -458715, 5, 0, -458714, 4, 0, -458713, 2, 0, -458664, 2, 0, -327691, 2, 0, -327690, 6, 0, -327686, 13, 0, -327682, 6, 0, -393214, 13, 0, -393210, 6, 0, -393206, 13, 0, -393202, 6, 0, -393198, 24, 0, -393194, 25, 0, -393190, 24, 0, -393186, 6, 0, -393182, 2, 0, -393181, 4, 0, -393180, 5, 0, -393179, 5, 0, -393178, 4, 0, -393177, 2, 0, -393176, 13, 0, -393172, 22, 0, -393168, 23, 0, -393164, 22, 0, -393160, 13, 0, -393156, 6, 0, -393152, 23, 0, -393148, 6, 0, -393144, 22, 0, -393140, 6, 0, -393136, 13, 0, -393132, 6, 0, -393128, 2, 0, -262155, 2, 0, -327646, 2, 0, -327645, 4, 0, -327644, 5, 0, -327643, 5, 0, -327642, 4, 0, -327641, 2, 0, -327592, 2, 0, -196619, 2, 0, -262110, 2, 0, -262109, 4, 0, -262108, 5, 0, -262107, 5, 0, -262106, 4, 0, -262105, 2, 0, -262056, 1610612737, 0, -131083, 2, 0, -196574, 2, 0, -196573, 4, 0, -196572, 5, 0, -196571, 5, 0, -196570, 4, 0, -196569, 2, 0, -196520, 7, 0, -65547, 2, 0, -131038, 2, 0, -131037, 4, 0, -131036, 5, 0, -131035, 5, 0, -131034, 4, 0, -131033, 2, 0, -130984, 7, 0, -11, 2, 0, -65502, 2, 0, -65501, 4, 0, -65500, 5, 0, -65499, 5, 0, -65498, 4, 0, -65497, 2, 0, -65448, 7, 0, 65525, 2, 0, 34, 2, 0, 35, 4, 0, 36, 5, 0, 37, 5, 0, 38, 4, 0, 39, 2, 0, 88, 7, 0, 131061, 2, 0, 65560, 21, 0, 65561, 0, 0, 65562, 21, 0, 65570, 2, 0, 65571, 1073741827, 0, 65572, -1610612732, 0, 65573, -1610612732, 0, 65574, 1610612739, 0, 65575, 2, 0, 65584, 21, 0, 65585, 0, 0, 65586, 21, 0, 65624, 7, 0, 196597, 536870913, 0, 196598, 0, 0, 196599, 0, 0, 196600, 0, 0, 196601, 0, 0, 196602, 0, 0, 196603, 1, 0, 196604, 7, 0, 196605, 7, 0, 196606, 7, 0, 196607, 536870913, 0, 131072, 0, 0, 131073, 0, 0, 131074, 0, 0, 131075, 0, 0, 131076, 0, 0, 131077, 0, 0, 131078, 0, 0, 131079, 0, 0, 131080, 0, 0, 131081, 0, 0, 131082, 0, 0, 131083, 0, 0, 131084, 0, 0, 131085, 0, 0, 131086, 0, 0, 131087, 0, 0, 131088, 0, 0, 131089, 0, 0, 131090, 0, 0, 131091, 0, 0, 131092, 0, 0, 131093, 0, 0, 131094, 21, 0, 131095, 536870926, 0, 131096, 3, 0, 131097, -1610612732, 0, 131098, 536870915, 0, 131099, 14, 0, 131100, 21, 0, 131101, 0, 0, 131102, 0, 0, 131103, 0, 0, 131104, 0, 0, 131105, 0, 0, 131106, 0, 0, 131107, 0, 0, 131108, 0, 0, 131109, 0, 0, 131110, 0, 0, 131111, 0, 0, 131112, 0, 0, 131113, 0, 0, 131114, 0, 0, 131115, 0, 0, 131116, 0, 0, 131117, 0, 0, 131118, 21, 0, 131119, 536870926, 0, 131120, 3, 0, 131121, -1610612732, 0, 131122, 536870915, 0, 131123, 14, 0, 131124, 21, 0, 131125, 0, 0, 131126, 0, 0, 131127, 0, 0, 131128, 0, 0, 131129, 0, 0, 131130, 0, 0, 131131, 0, 0, 131132, 0, 0, 131133, 0, 0, 131134, 0, 0, 131135, 0, 0, 131136, 0, 0, 131137, 0, 0, 131138, 0, 0, 131139, 0, 0, 131140, 0, 0, 131141, 0, 0, 131142, 0, 0, 131143, 0, 0, 131144, 0, 0, 131145, 0, 0, 131146, 0, 0, 131147, 0, 0, 131148, 0, 0, 131149, 0, 0, 131150, 0, 0, 131151, 0, 0, 131152, 0, 0, 131153, 0, 0, 131154, 0, 0, 131155, 0, 0, 131156, 0, 0, 131157, 0, 0, 131158, 0, 0, 131159, 0, 0, 131160, 1, 0, 262133, 2, 0, 262134, 3, 0, 262135, -1610612732, 0, 262136, -1610612732, 0, 262137, -1610612732, 0, 262138, 536870915, 0, 262139, 2, 0, 262140, 7, 0, 262141, 7, 0, 262142, 7, 0, 262143, 2, 0, 196608, 3, 0, 196609, -1610612732, 0, 196610, -1610612732, 0, 196611, -1610612732, 0, 196612, -1610612732, 0, 196613, -1610612732, 0, 196614, -1610612732, 0, 196615, -1610612732, 0, 196616, -1610612732, 0, 196617, -1610612732, 0, 196618, -1610612732, 0, 196619, -1610612732, 0, 196620, -1610612732, 0, 196621, -1610612732, 0, 196622, -1610612732, 0, 196623, -1610612732, 0, 196624, -1610612732, 0, 196625, -1610612732, 0, 196626, -1610612732, 0, 196627, -1610612732, 0, 196628, -1610612732, 0, 196629, -1610612732, 0, 196630, -1610612732, 0, 196631, -1610612732, 0, 196632, 1610612739, 0, 196633, 5, 0, 196634, 1073741827, 0, 196635, -1610612732, 0, 196636, -1610612732, 0, 196637, -1610612732, 0, 196638, -1610612732, 0, 196639, -1610612732, 0, 196640, -1610612732, 0, 196641, -1610612732, 0, 196642, -1610612732, 0, 196643, -1610612732, 0, 196644, -1610612732, 0, 196645, -1610612732, 0, 196646, -1610612732, 0, 196647, -1610612732, 0, 196648, -1610612732, 0, 196649, -1610612732, 0, 196650, -1610612732, 0, 196651, -1610612732, 0, 196652, -1610612732, 0, 196653, -1610612732, 0, 196654, -1610612732, 0, 196655, -1610612732, 0, 196656, 1610612739, 0, 196657, 5, 0, 196658, 1073741827, 0, 196659, -1610612732, 0, 196660, -1610612732, 0, 196661, -1610612732, 0, 196662, -1610612732, 0, 196663, -1610612732, 0, 196664, -1610612732, 0, 196665, -1610612732, 0, 196666, -1610612732, 0, 196667, -1610612732, 0, 196668, -1610612732, 0, 196669, -1610612732, 0, 196670, -1610612732, 0, 196671, -1610612732, 0, 196672, -1610612732, 0, 196673, -1610612732, 0, 196674, -1610612732, 0, 196675, -1610612732, 0, 196676, -1610612732, 0, 196677, -1610612732, 0, 196678, -1610612732, 0, 196679, -1610612732, 0, 196680, -1610612732, 0, 196681, -1610612732, 0, 196682, -1610612732, 0, 196683, -1610612732, 0, 196684, -1610612732, 0, 196685, -1610612732, 0, 196686, -1610612732, 0, 196687, -1610612732, 0, 196688, -1610612732, 0, 196689, -1610612732, 0, 196690, -1610612732, 0, 196691, -1610612732, 0, 196692, -1610612732, 0, 196693, -1610612732, 0, 196694, -1610612732, 0, 196695, 536870915, 0, 196696, 2, 0, 327669, 2, 0, 327670, 4, 0, 327671, 5, 0, 327672, 5, 0, 327673, 5, 0, 327674, 4, 0, 327675, 2, 0, 327676, 7, 0, 327677, 7, 0, 327678, 7, 0, 327679, 2, 0, 262144, 4, 0, 262145, 5, 0, 262146, 5, 0, 262147, 5, 0, 262148, 5, 0, 262149, 5, 0, 262150, 5, 0, 262151, 5, 0, 262152, 5, 0, 262153, 5, 0, 262154, 5, 0, 262155, 5, 0, 262156, 5, 0, 262157, 5, 0, 262158, 5, 0, 262159, 5, 0, 262160, 5, 0, 262161, 5, 0, 262162, 5, 0, 262163, 5, 0, 262164, 5, 0, 262165, 5, 0, 262166, 5, 0, 262167, 5, 0, 262168, 5, 0, 262169, 5, 0, 262170, 5, 0, 262171, 5, 0, 262172, 5, 0, 262173, 5, 0, 262174, 5, 0, 262175, 5, 0, 262176, 5, 0, 262177, 5, 0, 262178, 5, 0, 262179, 5, 0, 262180, 5, 0, 262181, 5, 0, 262182, 5, 0, 262183, 5, 0, 262184, 5, 0, 262185, 5, 0, 262186, 5, 0, 262187, 5, 0, 262188, 5, 0, 262189, 5, 0, 262190, 5, 0, 262191, 5, 0, 262192, 5, 0, 262193, 5, 0, 262194, 5, 0, 262195, 5, 0, 262196, 5, 0, 262197, 5, 0, 262198, 5, 0, 262199, 5, 0, 262200, 5, 0, 262201, 5, 0, 262202, 5, 0, 262203, 5, 0, 262204, 5, 0, 262205, 5, 0, 262206, 5, 0, 262207, 5, 0, 262208, 5, 0, 262209, 5, 0, 262210, 5, 0, 262211, 5, 0, 262212, 5, 0, 262213, 5, 0, 262214, 5, 0, 262215, 5, 0, 262216, 5, 0, 262217, 5, 0, 262218, 5, 0, 262219, 5, 0, 262220, 5, 0, 262221, 5, 0, 262222, 5, 0, 262223, 5, 0, 262224, 5, 0, 262225, 5, 0, 262226, 5, 0, 262227, 5, 0, 262228, 5, 0, 262229, 5, 0, 262230, 5, 0, 262231, 4, 0, 262232, 2, 0, 393205, 2, 0, 393206, 4, 0, 393207, 5, 0, 393208, 5, 0, 393209, 5, 0, 393210, 4, 0, 393211, 2, 0, 393212, 7, 0, 393213, 7, 0, 393214, 7, 0, 393215, 2, 0, 327680, 4, 0, 327681, 5, 0, 327682, 5, 0, 327683, 5, 0, 327684, 5, 0, 327685, 5, 0, 327686, 5, 0, 327687, 5, 0, 327688, 5, 0, 327689, 5, 0, 327690, 5, 0, 327691, 5, 0, 327692, 5, 0, 327693, 5, 0, 327694, 5, 0, 327695, 5, 0, 327696, 5, 0, 327697, 5, 0, 327698, 5, 0, 327699, 5, 0, 327700, 5, 0, 327701, 5, 0, 327702, 5, 0, 327703, 5, 0, 327704, 5, 0, 327705, 5, 0, 327706, 5, 0, 327707, 5, 0, 327708, 5, 0, 327709, 5, 0, 327710, 5, 0, 327711, 5, 0, 327712, 5, 0, 327713, 5, 0, 327714, 5, 0, 327715, 5, 0, 327716, 5, 0, 327717, 5, 0, 327718, 5, 0, 327719, 5, 0, 327720, 5, 0, 327721, 5, 0, 327722, 5, 0, 327723, 5, 0, 327724, 5, 0, 327725, 5, 0, 327726, 5, 0, 327727, 5, 0, 327728, 5, 0, 327729, 5, 0, 327730, 5, 0, 327731, 5, 0, 327732, 5, 0, 327733, 5, 0, 327734, 5, 0, 327735, 5, 0, 327736, 5, 0, 327737, 5, 0, 327738, 5, 0, 327739, 5, 0, 327740, 5, 0, 327741, 5, 0, 327742, 5, 0, 327743, 5, 0, 327744, 5, 0, 327745, 5, 0, 327746, 5, 0, 327747, 5, 0, 327748, 5, 0, 327749, 5, 0, 327750, 5, 0, 327751, 5, 0, 327752, 5, 0, 327753, 5, 0, 327754, 5, 0, 327755, 5, 0, 327756, 5, 0, 327757, 5, 0, 327758, 5, 0, 327759, 5, 0, 327760, 5, 0, 327761, 5, 0, 327762, 5, 0, 327763, 5, 0, 327764, 5, 0, 327765, 5, 0, 327766, 5, 0, 327767, 4, 0, 327768, 2, 0, 458741, 2, 0, 458742, 4, 0, 458743, 5, 0, 458744, 5, 0, 458745, 5, 0, 458746, 4, 0, 458747, 2, 0, 458748, 7, 0, 458749, 7, 0, 458750, 7, 0, 458751, 2, 0, 393216, 4, 0, 393217, 5, 0, 393218, 5, 0, 393219, 5, 0, 393220, 5, 0, 393221, 5, 0, 393222, 5, 0, 393223, 5, 0, 393224, 5, 0, 393225, 5, 0, 393226, 5, 0, 393227, 5, 0, 393228, 5, 0, 393229, 5, 0, 393230, 5, 0, 393231, 5, 0, 393232, 5, 0, 393233, 5, 0, 393234, 5, 0, 393235, 5, 0, 393236, 5, 0, 393237, 5, 0, 393238, 5, 0, 393239, 5, 0, 393240, 5, 0, 393241, 5, 0, 393242, 5, 0, 393243, 5, 0, 393244, 5, 0, 393245, 5, 0, 393246, 5, 0, 393247, 5, 0, 393248, 5, 0, 393249, 5, 0, 393250, 5, 0, 393251, 5, 0, 393252, 5, 0, 393253, 5, 0, 393254, 5, 0, 393255, 5, 0, 393256, 5, 0, 393257, 5, 0, 393258, 5, 0, 393259, 5, 0, 393260, 5, 0, 393261, 5, 0, 393262, 5, 0, 393263, 5, 0, 393264, 5, 0, 393265, 5, 0, 393266, 5, 0, 393267, 5, 0, 393268, 5, 0, 393269, 5, 0, 393270, 5, 0, 393271, 5, 0, 393272, 5, 0, 393273, 5, 0, 393274, 5, 0, 393275, 5, 0, 393276, 5, 0, 393277, 5, 0, 393278, 5, 0, 393279, 5, 0, 393280, 5, 0, 393281, 5, 0, 393282, 5, 0, 393283, 5, 0, 393284, 5, 0, 393285, 5, 0, 393286, 5, 0, 393287, 5, 0, 393288, 5, 0, 393289, 5, 0, 393290, 5, 0, 393291, 5, 0, 393292, 5, 0, 393293, 5, 0, 393294, 5, 0, 393295, 5, 0, 393296, 5, 0, 393297, 5, 0, 393298, 5, 0, 393299, 5, 0, 393300, 5, 0, 393301, 5, 0, 393302, 5, 0, 393303, 4, 0, 393304, 2, 0, 524277, 2, 0, 524278, 1073741827, 0, 524279, -1610612732, 0, 524280, -1610612732, 0, 524281, -1610612732, 0, 524282, 1610612739, 0, 524283, 2, 0, 524284, 7, 0, 524285, 7, 0, 524286, 7, 0, 524287, 2, 0, 458752, 1073741827, 0, 458753, -1610612732, 0, 458754, -1610612732, 0, 458755, -1610612732, 0, 458756, -1610612732, 0, 458757, -1610612732, 0, 458758, -1610612732, 0, 458759, -1610612732, 0, 458760, -1610612732, 0, 458761, -1610612732, 0, 458762, -1610612732, 0, 458763, -1610612732, 0, 458764, -1610612732, 0, 458765, -1610612732, 0, 458766, -1610612732, 0, 458767, -1610612732, 0, 458768, -1610612732, 0, 458769, -1610612732, 0, 458770, -1610612732, 0, 458771, -1610612732, 0, 458772, -1610612732, 0, 458773, -1610612732, 0, 458774, -1610612732, 0, 458775, -1610612732, 0, 458776, -1610612732, 0, 458777, -1610612732, 0, 458778, -1610612732, 0, 458779, -1610612732, 0, 458780, -1610612732, 0, 458781, -1610612732, 0, 458782, -1610612732, 0, 458783, -1610612732, 0, 458784, -1610612732, 0, 458785, -1610612732, 0, 458786, -1610612732, 0, 458787, -1610612732, 0, 458788, -1610612732, 0, 458789, -1610612732, 0, 458790, -1610612732, 0, 458791, -1610612732, 0, 458792, -1610612732, 0, 458793, -1610612732, 0, 458794, -1610612732, 0, 458795, -1610612732, 0, 458796, -1610612732, 0, 458797, -1610612732, 0, 458798, -1610612732, 0, 458799, -1610612732, 0, 458800, -1610612732, 0, 458801, -1610612732, 0, 458802, -1610612732, 0, 458803, -1610612732, 0, 458804, -1610612732, 0, 458805, -1610612732, 0, 458806, -1610612732, 0, 458807, -1610612732, 0, 458808, -1610612732, 0, 458809, -1610612732, 0, 458810, -1610612732, 0, 458811, -1610612732, 0, 458812, -1610612732, 0, 458813, -1610612732, 0, 458814, -1610612732, 0, 458815, -1610612732, 0, 458816, -1610612732, 0, 458817, -1610612732, 0, 458818, -1610612732, 0, 458819, -1610612732, 0, 458820, -1610612732, 0, 458821, -1610612732, 0, 458822, -1610612732, 0, 458823, -1610612732, 0, 458824, -1610612732, 0, 458825, -1610612732, 0, 458826, -1610612732, 0, 458827, -1610612732, 0, 458828, -1610612732, 0, 458829, -1610612732, 0, 458830, -1610612732, 0, 458831, -1610612732, 0, 458832, -1610612732, 0, 458833, -1610612732, 0, 458834, -1610612732, 0, 458835, -1610612732, 0, 458836, -1610612732, 0, 458837, -1610612732, 0, 458838, -1610612732, 0, 458839, 1610612739, 0, 458840, 2, 0 )

[node name="SlopeGroup" type="Node2D" parent="tilemap"]

[node name="Slope0-31" parent="tilemap/SlopeGroup" instance=ExtResource( 2 )]
position = Vector2( 880, 48 )

[node name="Slope0-32" parent="tilemap/SlopeGroup" instance=ExtResource( 2 )]
position = Vector2( 1648, 48 )

[node name="Slope31-0" parent="tilemap/SlopeGroup" instance=ExtResource( 3 )]
position = Vector2( 752, 48 )

[node name="Slope31-1" parent="tilemap/SlopeGroup" instance=ExtResource( 3 )]
position = Vector2( 1520, 48 )

[node name="TestSlopea-b" parent="tilemap/SlopeGroup" instance=ExtResource( 4 )]
position = Vector2( 720, 80 )

[node name="TestSlopea-b6 6" parent="tilemap/SlopeGroup" instance=ExtResource( 4 )]
position = Vector2( 1488, 80 )

[node name="TestSlopea-b1" parent="tilemap/SlopeGroup" instance=ExtResource( 4 )]
position = Vector2( 752, 80 )

[node name="TestSlopea-b6" parent="tilemap/SlopeGroup" instance=ExtResource( 4 )]
position = Vector2( 1520, 80 )

[node name="TestSlopea-b2" parent="tilemap/SlopeGroup" instance=ExtResource( 4 )]
position = Vector2( 784, 48 )

[node name="TestSlopea-b6 4" parent="tilemap/SlopeGroup" instance=ExtResource( 4 )]
position = Vector2( 1552, 48 )

[node name="TestSlopea-b3" parent="tilemap/SlopeGroup" instance=ExtResource( 4 )]
position = Vector2( 848, 48 )

[node name="TestSlopea-b6 2" parent="tilemap/SlopeGroup" instance=ExtResource( 4 )]
position = Vector2( 1616, 48 )

[node name="TestSlopea-b4" parent="tilemap/SlopeGroup" instance=ExtResource( 4 )]
position = Vector2( 880, 80 )

[node name="TestSlopea-b6 3" parent="tilemap/SlopeGroup" instance=ExtResource( 4 )]
position = Vector2( 1648, 80 )

[node name="TestSlopea-b5" parent="tilemap/SlopeGroup" instance=ExtResource( 4 )]
position = Vector2( 912, 80 )

[node name="TestSlopea-b6 5" parent="tilemap/SlopeGroup" instance=ExtResource( 4 )]
position = Vector2( 1680, 80 )

[node name="LadderGroup" type="Node2D" parent="tilemap"]

[node name="TestLadder" parent="tilemap/LadderGroup" instance=ExtResource( 5 )]
position = Vector2( 816, -288 )

[node name="Sprite" parent="tilemap/LadderGroup/TestLadder/KinematicBody2D" index="0"]
region_rect = Rect2( 0, 0, 32, 192 )

[node name="ladder" parent="tilemap/LadderGroup/TestLadder/KinematicBody2D" index="1"]
scale = Vector2( 1, 6 )

[node name="TestLadder1" parent="tilemap/LadderGroup" instance=ExtResource( 5 )]
position = Vector2( -80, 160 )

[node name="Sprite" parent="tilemap/LadderGroup/TestLadder1/KinematicBody2D" index="0"]
region_rect = Rect2( 0, 0, 32, 192 )

[node name="ladder" parent="tilemap/LadderGroup/TestLadder1/KinematicBody2D" index="1"]
scale = Vector2( 1, 6 )

[node name="TestLadder 2" parent="tilemap/LadderGroup" instance=ExtResource( 6 )]
position = Vector2( -80, 48 )

[node name="EnemiesGroup" type="Node2D" parent="tilemap"]

[node name="EnchantedArmor" parent="tilemap/EnemiesGroup" instance=ExtResource( 7 )]
position = Vector2( 576, 0 )

[node name="EnchantedArmor1" parent="tilemap/EnemiesGroup" instance=ExtResource( 7 )]
position = Vector2( 1040, 0 )

[node name="EnchantedArmor2" parent="tilemap/EnemiesGroup" instance=ExtResource( 7 )]
position = Vector2( 1360, 0 )

[node name="EnchantedArmor3" parent="tilemap/EnemiesGroup" instance=ExtResource( 7 )]
position = Vector2( 1808, 0 )

[node name="ItemGroup" type="Node2D" parent="tilemap"]

[node name="Scroll" parent="tilemap/ItemGroup" instance=ExtResource( 8 )]
position = Vector2( 1584, 16 )
title = "SCROLL_MOON4"

[node name="TeleportGroup" type="Node2D" parent="tilemap"]

[node name="Teleport" parent="tilemap/TeleportGroup" instance=ExtResource( 9 )]
position = Vector2( -80, 272 )
is_horizontal = false
target_level = "res://levels/winterislandcastle/0-5.tscn"
teleport_to = Vector2( 176, -1840 )

[node name="teleport" parent="tilemap/TeleportGroup/Teleport" index="0"]
scale = Vector2( 3, 1 )

[node name="Teleport1" parent="tilemap/TeleportGroup" instance=ExtResource( 9 )]
position = Vector2( 816, -400 )
is_horizontal = false
target_level = "res://levels/winterislandcastle/0-7.tscn"
teleport_to = Vector2( 16, 128 )

[node name="teleport" parent="tilemap/TeleportGroup/Teleport1" index="0"]
scale = Vector2( 3, 1 )

[node name="Teleport2" parent="tilemap/TeleportGroup" instance=ExtResource( 9 )]
position = Vector2( 2864, -16 )
target_level = "res://levels/winterislandcastle/3-1.tscn"
teleport_to = Vector2( -204, -592 )

[node name="teleport" parent="tilemap/TeleportGroup/Teleport2" index="0"]
scale = Vector2( 1, 5 )

[node name="boundaries" type="Node2D" parent="tilemap"]

[node name="NW" type="Position2D" parent="tilemap/boundaries"]
position = Vector2( -358, -390 )

[node name="SE" type="Position2D" parent="tilemap/boundaries"]
position = Vector2( 2858, 266 )

[editable path="tilemap/LadderGroup/TestLadder"]

[editable path="tilemap/LadderGroup/TestLadder1"]

[editable path="tilemap/TeleportGroup/Teleport"]

[editable path="tilemap/TeleportGroup/Teleport1"]

[editable path="tilemap/TeleportGroup/Teleport2"]
