[gd_scene load_steps=7 format=2]

[ext_resource path="res://scenes/winterislandcastle/tileset.tres" type="TileSet" id=1]
[ext_resource path="res://scenes/winterislandcastle/climbableblock.tscn" type="PackedScene" id=2]
[ext_resource path="res://scenes/common/breakables/pot.tscn" type="PackedScene" id=3]
[ext_resource path="res://scenes/common/damagables/skeleton/skeleton.tscn" type="PackedScene" id=4]
[ext_resource path="res://scenes/common/teleport.tscn" type="PackedScene" id=5]

[sub_resource type="PhysicsMaterial" id=1]
friction = 0.0

[node name="LVL_NOTITLE" type="Node2D"]
__meta__ = {
"__editor_plugin_screen__": "2D"
}

[node name="tilemap" type="TileMap" parent="."]
tile_set = ExtResource( 1 )
cell_size = Vector2( 32, 32 )
compatibility_mode = true
collision_layer = 524288
format = 1
tile_data = PoolIntArray( -655376, 1610612737, 0, -655375, 1073741824, 0, -655374, 1073741824, 0, -655373, 1073741824, 0, -655372, 1073741824, 0, -655371, 1073741824, 0, -655370, 1073741824, 0, -655369, 1073741824, 0, -655368, 1073741824, 0, -655367, 1073741824, 0, -655366, 1073741824, 0, -655365, 1073741824, 0, -655364, 1073741824, 0, -655363, 1073741824, 0, -655362, 1073741824, 0, -655361, 1073741824, 0, -720896, 1073741824, 0, -720895, 1073741824, 0, -720894, 1073741824, 0, -720893, 1073741824, 0, -720892, 1073741824, 0, -720891, 1073741824, 0, -720890, 1073741824, 0, -720889, 1073741824, 0, -720888, 1073741824, 0, -720887, 1073741824, 0, -720886, 1073741824, 0, -720885, 1073741824, 0, -720884, 1073741824, 0, -720883, 1073741825, 0, -589840, 2, 0, -589839, 10, 0, -589835, 10, 0, -589831, 10, 0, -589827, 10, 0, -655359, 10, 0, -655355, 10, 0, -655351, 10, 0, -655347, 2, 0, -524304, 2, 0, -589811, 2, 0, -458768, 2, 0, -458767, 11, 0, -458763, 11, 0, -458759, 11, 0, -458755, 11, 0, -524287, 11, 0, -524283, 11, 0, -524279, 11, 0, -524275, 2, 0, -393232, 2, 0, -458739, 2, 0, -327696, 2, 0, -393203, 2, 0, -262160, 2, 0, -262159, 9, 0, -262158, 8, 0, -262157, 8, 0, -262156, 9, 0, -262155, 9, 0, -262154, 8, 0, -262153, 8, 0, -262152, 9, 0, -262151, 9, 0, -262150, 8, 0, -262149, 8, 0, -262148, 9, 0, -262147, 9, 0, -262146, 8, 0, -262145, 8, 0, -327680, 9, 0, -327679, 9, 0, -327678, 8, 0, -327677, 8, 0, -327676, 9, 0, -327675, 9, 0, -327674, 8, 0, -327673, 8, 0, -327672, 9, 0, -327671, 9, 0, -327670, 8, 0, -327669, 8, 0, -327668, 9, 0, -327667, 2, 0, -196624, 2, 0, -196623, 6, 0, -196619, 13, 0, -196615, 22, 0, -196611, 22, 0, -262143, 23, 0, -262139, 13, 0, -262135, 6, 0, -262134, 0, 0, -262133, 0, 0, -262132, 0, 0, -262131, 1, 0, -131088, 2, 0, -196595, 2, 0, -65552, 1073741825, 0, -131059, 1610612737, 0, -16, 7, 0, -65523, 7, 0, 65520, 7, 0, 13, 7, 0, 131056, 7, 0, 65549, 7, 0, 196592, 7, 0, 131085, 7, 0, 262128, 7, 0, 196621, 7, 0, 327664, 536870913, 0, 327665, 0, 0, 327666, 0, 0, 327667, 0, 0, 327668, 0, 0, 327669, 0, 0, 327670, 0, 0, 327671, 0, 0, 327672, 0, 0, 327673, 0, 0, 327674, 0, 0, 327675, 0, 0, 327676, 0, 0, 327677, 0, 0, 327678, 0, 0, 327679, 0, 0, 262144, 0, 0, 262145, 0, 0, 262146, 0, 0, 262147, 0, 0, 262148, 0, 0, 262149, 0, 0, 262150, 0, 0, 262151, 0, 0, 262152, 0, 0, 262153, 0, 0, 262154, 0, 0, 262155, 0, 0, 262156, 0, 0, 262157, 1, 0, 393200, 2, 0, 393201, 3, 0, 393202, -1610612732, 0, 393203, -1610612732, 0, 393204, -1610612732, 0, 393205, -1610612732, 0, 393206, -1610612732, 0, 393207, -1610612732, 0, 393208, -1610612732, 0, 393209, -1610612732, 0, 393210, -1610612732, 0, 393211, -1610612732, 0, 393212, -1610612732, 0, 393213, -1610612732, 0, 393214, -1610612732, 0, 393215, -1610612732, 0, 327680, -1610612732, 0, 327681, -1610612732, 0, 327682, -1610612732, 0, 327683, -1610612732, 0, 327684, -1610612732, 0, 327685, -1610612732, 0, 327686, -1610612732, 0, 327687, -1610612732, 0, 327688, -1610612732, 0, 327689, -1610612732, 0, 327690, -1610612732, 0, 327691, -1610612732, 0, 327692, 536870915, 0, 327693, 2, 0, 458736, 2, 0, 458737, 4, 0, 458738, 5, 0, 458739, 5, 0, 458740, 5, 0, 458741, 5, 0, 458742, 5, 0, 458743, 5, 0, 458744, 5, 0, 458745, 5, 0, 458746, 5, 0, 458747, 5, 0, 458748, 5, 0, 458749, 5, 0, 458750, 5, 0, 458751, 5, 0, 393216, 5, 0, 393217, 5, 0, 393218, 5, 0, 393219, 5, 0, 393220, 5, 0, 393221, 5, 0, 393222, 5, 0, 393223, 5, 0, 393224, 5, 0, 393225, 5, 0, 393226, 5, 0, 393227, 5, 0, 393228, 4, 0, 393229, 2, 0, 524272, 2, 0, 524273, 4, 0, 524274, 5, 0, 524275, 5, 0, 524276, 5, 0, 524277, 5, 0, 524278, 5, 0, 524279, 5, 0, 524280, 5, 0, 524281, 5, 0, 524282, 5, 0, 524283, 5, 0, 524284, 5, 0, 524285, 5, 0, 524286, 5, 0, 524287, 5, 0, 458752, 5, 0, 458753, 5, 0, 458754, 5, 0, 458755, 5, 0, 458756, 5, 0, 458757, 5, 0, 458758, 5, 0, 458759, 5, 0, 458760, 5, 0, 458761, 5, 0, 458762, 5, 0, 458763, 5, 0, 458764, 4, 0, 458765, 2, 0, 589808, 2, 0, 589809, 1073741827, 0, 589810, -1610612732, 0, 589811, -1610612732, 0, 589812, -1610612732, 0, 589813, -1610612732, 0, 589814, -1610612732, 0, 589815, -1610612732, 0, 589816, -1610612732, 0, 589817, -1610612732, 0, 589818, -1610612732, 0, 589819, -1610612732, 0, 589820, -1610612732, 0, 589821, -1610612732, 0, 589822, -1610612732, 0, 589823, -1610612732, 0, 524288, -1610612732, 0, 524289, -1610612732, 0, 524290, -1610612732, 0, 524291, -1610612732, 0, 524292, -1610612732, 0, 524293, -1610612732, 0, 524294, -1610612732, 0, 524295, -1610612732, 0, 524296, -1610612732, 0, 524297, -1610612732, 0, 524298, -1610612732, 0, 524299, -1610612732, 0, 524300, 1610612739, 0, 524301, 2, 0 )

[node name="ClimbableGroup" type="Node2D" parent="tilemap"]

[node name="ClimbableBlock" parent="tilemap/ClimbableGroup" instance=ExtResource( 2 )]
position = Vector2( 304, -112 )
physics_material_override = SubResource( 1 )

[node name="PotGroup" type="Node2D" parent="tilemap"]

[node name="Pot" parent="tilemap/PotGroup" instance=ExtResource( 3 )]
position = Vector2( 352, -176 )

[node name="Pot1" parent="tilemap/PotGroup" instance=ExtResource( 3 )]
position = Vector2( 192, 80 )

[node name="EnemiesGroup" type="Node2D" parent="tilemap"]

[node name="Skeleton" parent="tilemap/EnemiesGroup" instance=ExtResource( 4 )]
position = Vector2( -16, 80 )
level = 2

[node name="Skeleton1" parent="tilemap/EnemiesGroup" instance=ExtResource( 4 )]
position = Vector2( -256, 80 )
level = 2

[node name="TeleportGroup" type="Node2D" parent="tilemap"]

[node name="Teleport" parent="tilemap/TeleportGroup" instance=ExtResource( 5 )]
position = Vector2( 464, 48 )
target_level = "res://levels/winterislandcastle/0-0.tscn"
teleport_to = Vector2( -428, -624 )

[node name="teleport" parent="tilemap/TeleportGroup/Teleport" index="0"]
scale = Vector2( 1, 5 )

[node name="Teleport1" parent="tilemap/TeleportGroup" instance=ExtResource( 5 )]
position = Vector2( -528, 48 )
target_level = "res://levels/winterislandcastle/1-1.tscn"
teleport_to = Vector2( 300, 848 )

[node name="teleport" parent="tilemap/TeleportGroup/Teleport1" index="0"]
scale = Vector2( 1, 5 )

[node name="boundaries" type="Node2D" parent="tilemap"]

[node name="NW" type="Position2D" parent="tilemap/boundaries"]
position = Vector2( -518, -358 )

[node name="SE" type="Position2D" parent="tilemap/boundaries"]
position = Vector2( 458, 298 )

[editable path="tilemap/TeleportGroup/Teleport"]

[editable path="tilemap/TeleportGroup/Teleport1"]
