[gd_scene load_steps=5 format=2]

[ext_resource path="res://scenes/winterislandcastle/tileset.tres" type="TileSet" id=1]
[ext_resource path="res://scenes/dungeon/ladder/ladder.tscn" type="PackedScene" id=2]
[ext_resource path="res://scenes/common/damagables/statues/statue1.tscn" type="PackedScene" id=3]
[ext_resource path="res://scenes/common/teleport.tscn" type="PackedScene" id=4]

[node name="LVL_NOTITLE" type="Node2D"]
__meta__ = {
"__editor_plugin_screen__": "2D"
}

[node name="tilemap" type="TileMap" parent="."]
tile_set = ExtResource( 1 )
cell_size = Vector2( 32, 32 )
compatibility_mode = true
collision_layer = 524288
format = 1
tile_data = PoolIntArray( -131119, 1610612737, 0, -131118, 1073741824, 0, -131117, 1073741824, 0, -131116, 1073741824, 0, -131115, 1073741824, 0, -131114, 1073741825, 0, -131113, 7, 0, -131112, 7, 0, -131111, 7, 0, -131110, 1610612737, 0, -131109, 1073741824, 0, -131108, 1073741824, 0, -131107, 1073741824, 0, -131106, 1073741824, 0, -131105, 1073741824, 0, -131104, 1073741824, 0, -131103, 1073741824, 0, -131102, 1073741824, 0, -131101, 1073741824, 0, -131100, 1073741824, 0, -131099, 1073741824, 0, -131098, 1073741824, 0, -131097, 1073741824, 0, -131096, 1073741824, 0, -131095, 1073741824, 0, -131094, 1073741824, 0, -131093, 1073741824, 0, -131092, 1073741824, 0, -131091, 1073741824, 0, -131090, 1073741824, 0, -131089, 1073741824, 0, -131088, 1073741824, 0, -131087, 1073741824, 0, -131086, 1073741824, 0, -131085, 1073741824, 0, -131084, 1073741824, 0, -131083, 1073741824, 0, -131082, 1073741824, 0, -131081, 1073741824, 0, -131080, 1073741824, 0, -131079, 1073741824, 0, -131078, 1073741824, 0, -131077, 1073741824, 0, -131076, 1073741824, 0, -131075, 1073741824, 0, -131074, 1073741824, 0, -131073, 1073741824, 0, -196608, 1073741824, 0, -196607, 1073741824, 0, -196606, 1073741824, 0, -196605, 1073741824, 0, -196604, 1073741824, 0, -196603, 1073741824, 0, -196602, 1073741824, 0, -196601, 1073741824, 0, -196600, 1073741824, 0, -196599, 1073741824, 0, -196598, 1073741824, 0, -196597, 1073741824, 0, -196596, 1073741824, 0, -196595, 1073741824, 0, -196594, 1073741824, 0, -196593, 1073741824, 0, -196592, 1073741824, 0, -196591, 1073741824, 0, -196590, 1073741824, 0, -196589, 1073741824, 0, -196588, 1073741824, 0, -196587, 1073741824, 0, -196586, 1073741824, 0, -196585, 1073741824, 0, -196584, 1073741824, 0, -196583, 1073741824, 0, -196582, 1073741825, 0, -65583, 2, 0, -65582, 6, 0, -65578, 12, 0, -65574, 6, 0, -65570, 12, 0, -65566, 6, 0, -65562, 12, 0, -65558, 6, 0, -65554, 12, 0, -65550, 6, 0, -65546, 12, 0, -65542, 6, 0, -65538, 12, 0, -131070, 6, 0, -131066, 12, 0, -131062, 6, 0, -131058, 12, 0, -131054, 6, 0, -131050, 12, 0, -131046, 2, 0, -47, 2, 0, -65510, 2, 0, 65489, 2, 0, 26, 2, 0, 131025, 2, 0, 65562, 2, 0, 196561, 2, 0, 131098, 2, 0, 262097, 2, 0, 196634, 2, 0, 327633, 2, 0, 262170, 2, 0, 393169, 2, 0, 327706, 2, 0, 458705, 2, 0, 458706, 13, 0, 458710, 6, 0, 458714, 536870934, 0, 458718, 536870934, 0, 458722, 536870935, 0, 458726, 536870935, 0, 458730, 536870935, 0, 458734, 536870934, 0, 458738, 536870934, 0, 458742, 536870935, 0, 458746, 536870935, 0, 458750, 536870934, 0, 393218, 536870934, 0, 393222, 536870935, 0, 393226, 536870934, 0, 393230, 6, 0, 393234, 13, 0, 393238, 6, 0, 393242, 2, 0, 524241, 2, 0, 458778, 2, 0, 589777, 2, 0, 524314, 1610612737, 0, 655313, 2, 0, 589850, 7, 0, 720849, 2, 0, 655386, 7, 0, 786385, 2, 0, 720922, 7, 0, 851921, 2, 0, 786458, 7, 0, 917457, 2, 0, 851994, 7, 0, 982993, 536870913, 0, 982994, 0, 0, 982995, 0, 0, 982996, 0, 0, 982997, 0, 0, 982998, 0, 0, 982999, 0, 0, 983000, 0, 0, 983001, 0, 0, 983002, 0, 0, 983003, 0, 0, 983004, 0, 0, 983005, 0, 0, 983006, 0, 0, 983007, 0, 0, 983008, 0, 0, 983009, 0, 0, 983010, 0, 0, 983011, 0, 0, 983012, 0, 0, 983013, 0, 0, 983014, 0, 0, 983015, 0, 0, 983016, 0, 0, 983017, 0, 0, 983018, 0, 0, 983019, 0, 0, 983020, 0, 0, 983021, 0, 0, 983022, 0, 0, 983023, 0, 0, 983024, 0, 0, 983025, 0, 0, 983026, 0, 0, 983027, 0, 0, 983028, 0, 0, 983029, 0, 0, 983030, 0, 0, 983031, 0, 0, 983032, 0, 0, 983033, 0, 0, 983034, 0, 0, 983035, 0, 0, 983036, 0, 0, 983037, 0, 0, 983038, 0, 0, 983039, 0, 0, 917504, 0, 0, 917505, 0, 0, 917506, 0, 0, 917507, 0, 0, 917508, 0, 0, 917509, 0, 0, 917510, 0, 0, 917511, 0, 0, 917512, 0, 0, 917513, 0, 0, 917514, 0, 0, 917515, 0, 0, 917516, 0, 0, 917517, 0, 0, 917518, 0, 0, 917519, 0, 0, 917520, 0, 0, 917521, 0, 0, 917522, 0, 0, 917523, 0, 0, 917524, 0, 0, 917525, 0, 0, 917526, 0, 0, 917527, 0, 0, 917528, 0, 0, 917529, 0, 0, 917530, 1, 0, 1048529, 2, 0, 1048530, 3, 0, 1048531, -1610612732, 0, 1048532, -1610612732, 0, 1048533, -1610612732, 0, 1048534, -1610612732, 0, 1048535, -1610612732, 0, 1048536, -1610612732, 0, 1048537, -1610612732, 0, 1048538, -1610612732, 0, 1048539, -1610612732, 0, 1048540, -1610612732, 0, 1048541, -1610612732, 0, 1048542, -1610612732, 0, 1048543, -1610612732, 0, 1048544, -1610612732, 0, 1048545, -1610612732, 0, 1048546, -1610612732, 0, 1048547, -1610612732, 0, 1048548, -1610612732, 0, 1048549, -1610612732, 0, 1048550, -1610612732, 0, 1048551, -1610612732, 0, 1048552, -1610612732, 0, 1048553, -1610612732, 0, 1048554, -1610612732, 0, 1048555, -1610612732, 0, 1048556, -1610612732, 0, 1048557, -1610612732, 0, 1048558, -1610612732, 0, 1048559, -1610612732, 0, 1048560, -1610612732, 0, 1048561, -1610612732, 0, 1048562, -1610612732, 0, 1048563, -1610612732, 0, 1048564, -1610612732, 0, 1048565, -1610612732, 0, 1048566, -1610612732, 0, 1048567, -1610612732, 0, 1048568, -1610612732, 0, 1048569, -1610612732, 0, 1048570, -1610612732, 0, 1048571, -1610612732, 0, 1048572, -1610612732, 0, 1048573, -1610612732, 0, 1048574, -1610612732, 0, 1048575, -1610612732, 0, 983040, -1610612732, 0, 983041, -1610612732, 0, 983042, -1610612732, 0, 983043, -1610612732, 0, 983044, -1610612732, 0, 983045, -1610612732, 0, 983046, -1610612732, 0, 983047, -1610612732, 0, 983048, -1610612732, 0, 983049, -1610612732, 0, 983050, -1610612732, 0, 983051, -1610612732, 0, 983052, -1610612732, 0, 983053, -1610612732, 0, 983054, -1610612732, 0, 983055, -1610612732, 0, 983056, -1610612732, 0, 983057, -1610612732, 0, 983058, -1610612732, 0, 983059, -1610612732, 0, 983060, -1610612732, 0, 983061, -1610612732, 0, 983062, -1610612732, 0, 983063, -1610612732, 0, 983064, -1610612732, 0, 983065, 536870915, 0, 983066, 2, 0, 1114065, 2, 0, 1114066, 4, 0, 1114067, 5, 0, 1114068, 5, 0, 1114069, 5, 0, 1114070, 5, 0, 1114071, 5, 0, 1114072, 5, 0, 1114073, 5, 0, 1114074, 5, 0, 1114075, 5, 0, 1114076, 5, 0, 1114077, 5, 0, 1114078, 5, 0, 1114079, 5, 0, 1114080, 5, 0, 1114081, 5, 0, 1114082, 5, 0, 1114083, 5, 0, 1114084, 5, 0, 1114085, 5, 0, 1114086, 5, 0, 1114087, 5, 0, 1114088, 5, 0, 1114089, 5, 0, 1114090, 5, 0, 1114091, 5, 0, 1114092, 5, 0, 1114093, 5, 0, 1114094, 5, 0, 1114095, 5, 0, 1114096, 5, 0, 1114097, 5, 0, 1114098, 5, 0, 1114099, 5, 0, 1114100, 5, 0, 1114101, 5, 0, 1114102, 5, 0, 1114103, 5, 0, 1114104, 5, 0, 1114105, 5, 0, 1114106, 5, 0, 1114107, 5, 0, 1114108, 5, 0, 1114109, 5, 0, 1114110, 5, 0, 1114111, 5, 0, 1048576, 5, 0, 1048577, 5, 0, 1048578, 5, 0, 1048579, 5, 0, 1048580, 5, 0, 1048581, 5, 0, 1048582, 5, 0, 1048583, 5, 0, 1048584, 5, 0, 1048585, 5, 0, 1048586, 5, 0, 1048587, 5, 0, 1048588, 5, 0, 1048589, 5, 0, 1048590, 5, 0, 1048591, 5, 0, 1048592, 5, 0, 1048593, 5, 0, 1048594, 5, 0, 1048595, 5, 0, 1048596, 5, 0, 1048597, 5, 0, 1048598, 5, 0, 1048599, 5, 0, 1048600, 5, 0, 1048601, 4, 0, 1048602, 2, 0, 1179601, 2, 0, 1179602, 4, 0, 1179603, 5, 0, 1179604, 5, 0, 1179605, 5, 0, 1179606, 5, 0, 1179607, 5, 0, 1179608, 5, 0, 1179609, 5, 0, 1179610, 5, 0, 1179611, 5, 0, 1179612, 5, 0, 1179613, 5, 0, 1179614, 5, 0, 1179615, 5, 0, 1179616, 5, 0, 1179617, 5, 0, 1179618, 5, 0, 1179619, 5, 0, 1179620, 5, 0, 1179621, 5, 0, 1179622, 5, 0, 1179623, 5, 0, 1179624, 5, 0, 1179625, 5, 0, 1179626, 5, 0, 1179627, 5, 0, 1179628, 5, 0, 1179629, 5, 0, 1179630, 5, 0, 1179631, 5, 0, 1179632, 5, 0, 1179633, 5, 0, 1179634, 5, 0, 1179635, 5, 0, 1179636, 5, 0, 1179637, 5, 0, 1179638, 5, 0, 1179639, 5, 0, 1179640, 5, 0, 1179641, 5, 0, 1179642, 5, 0, 1179643, 5, 0, 1179644, 5, 0, 1179645, 5, 0, 1179646, 5, 0, 1179647, 5, 0, 1114112, 5, 0, 1114113, 5, 0, 1114114, 5, 0, 1114115, 5, 0, 1114116, 5, 0, 1114117, 5, 0, 1114118, 5, 0, 1114119, 5, 0, 1114120, 5, 0, 1114121, 5, 0, 1114122, 5, 0, 1114123, 5, 0, 1114124, 5, 0, 1114125, 5, 0, 1114126, 5, 0, 1114127, 5, 0, 1114128, 5, 0, 1114129, 5, 0, 1114130, 5, 0, 1114131, 5, 0, 1114132, 5, 0, 1114133, 5, 0, 1114134, 5, 0, 1114135, 5, 0, 1114136, 5, 0, 1114137, 4, 0, 1114138, 2, 0, 1245137, 2, 0, 1245138, 1073741827, 0, 1245139, -1610612732, 0, 1245140, -1610612732, 0, 1245141, -1610612732, 0, 1245142, -1610612732, 0, 1245143, -1610612732, 0, 1245144, -1610612732, 0, 1245145, -1610612732, 0, 1245146, -1610612732, 0, 1245147, -1610612732, 0, 1245148, -1610612732, 0, 1245149, -1610612732, 0, 1245150, -1610612732, 0, 1245151, -1610612732, 0, 1245152, -1610612732, 0, 1245153, -1610612732, 0, 1245154, -1610612732, 0, 1245155, -1610612732, 0, 1245156, -1610612732, 0, 1245157, -1610612732, 0, 1245158, -1610612732, 0, 1245159, -1610612732, 0, 1245160, -1610612732, 0, 1245161, -1610612732, 0, 1245162, -1610612732, 0, 1245163, -1610612732, 0, 1245164, -1610612732, 0, 1245165, -1610612732, 0, 1245166, -1610612732, 0, 1245167, -1610612732, 0, 1245168, -1610612732, 0, 1245169, -1610612732, 0, 1245170, -1610612732, 0, 1245171, -1610612732, 0, 1245172, -1610612732, 0, 1245173, -1610612732, 0, 1245174, -1610612732, 0, 1245175, -1610612732, 0, 1245176, -1610612732, 0, 1245177, -1610612732, 0, 1245178, -1610612732, 0, 1245179, -1610612732, 0, 1245180, -1610612732, 0, 1245181, -1610612732, 0, 1245182, -1610612732, 0, 1245183, -1610612732, 0, 1179648, -1610612732, 0, 1179649, -1610612732, 0, 1179650, -1610612732, 0, 1179651, -1610612732, 0, 1179652, -1610612732, 0, 1179653, -1610612732, 0, 1179654, -1610612732, 0, 1179655, -1610612732, 0, 1179656, -1610612732, 0, 1179657, -1610612732, 0, 1179658, -1610612732, 0, 1179659, -1610612732, 0, 1179660, -1610612732, 0, 1179661, -1610612732, 0, 1179662, -1610612732, 0, 1179663, -1610612732, 0, 1179664, -1610612732, 0, 1179665, -1610612732, 0, 1179666, -1610612732, 0, 1179667, -1610612732, 0, 1179668, -1610612732, 0, 1179669, -1610612732, 0, 1179670, -1610612732, 0, 1179671, -1610612732, 0, 1179672, -1610612732, 0, 1179673, 1610612739, 0, 1179674, 2, 0 )

[node name="LadderGroup" type="Node2D" parent="tilemap"]

[node name="TestLadder" parent="tilemap/LadderGroup" instance=ExtResource( 2 )]
position = Vector2( -1264, 96 )

[node name="Sprite" parent="tilemap/LadderGroup/TestLadder/KinematicBody2D" index="0"]
region_rect = Rect2( 0, 0, 32, 384 )

[node name="ladder" parent="tilemap/LadderGroup/TestLadder/KinematicBody2D" index="1"]
scale = Vector2( 1, 12 )

[node name="EnemiesGroup" type="Node2D" parent="tilemap"]

[node name="Statue1" parent="tilemap/EnemiesGroup" instance=ExtResource( 3 )]
position = Vector2( 368, 352 )

[node name="Statue2" parent="tilemap/EnemiesGroup" instance=ExtResource( 3 )]
position = Vector2( -80, 352 )

[node name="Statue3" parent="tilemap/EnemiesGroup" instance=ExtResource( 3 )]
position = Vector2( -544, 352 )

[node name="Statue4" parent="tilemap/EnemiesGroup" instance=ExtResource( 3 )]
position = Vector2( -1008, 352 )

[node name="TeleportGroup" type="Node2D" parent="tilemap"]

[node name="Teleport" parent="tilemap/TeleportGroup" instance=ExtResource( 4 )]
position = Vector2( 880, 368 )
target_level = "res://levels/winterislandcastle/6-4.tscn"
teleport_to = Vector2( -140, 592 )

[node name="teleport" parent="tilemap/TeleportGroup/Teleport" index="0"]
scale = Vector2( 1, 5 )

[node name="Teleport1" parent="tilemap/TeleportGroup" instance=ExtResource( 4 )]
position = Vector2( -1264, -112 )
is_horizontal = false
target_level = "res://levels/winterislandcastle/4-0.tscn"
teleport_to = Vector2( -144, 384 )

[node name="teleport" parent="tilemap/TeleportGroup/Teleport1" index="0"]
scale = Vector2( 3, 1 )

[node name="boundaries" type="Node2D" parent="tilemap"]

[node name="NW" type="Position2D" parent="tilemap/boundaries"]
position = Vector2( -1510, -102 )

[node name="SE" type="Position2D" parent="tilemap/boundaries"]
position = Vector2( 874, 618 )

[editable path="tilemap/LadderGroup/TestLadder"]

[editable path="tilemap/TeleportGroup/Teleport"]

[editable path="tilemap/TeleportGroup/Teleport1"]
