[gd_scene load_steps=7 format=2]

[ext_resource path="res://scenes/waterway/tileset.tres" type="TileSet" id=1]
[ext_resource path="res://scenes/dungeon/deco.tres" type="TileSet" id=2]
[ext_resource path="res://scenes/common/damagables/minotaur/minotaur.tscn" type="PackedScene" id=3]
[ext_resource path="res://scenes/items/potion/manapotion.tscn" type="PackedScene" id=4]
[ext_resource path="res://scenes/common/sunbeam.tscn" type="PackedScene" id=5]
[ext_resource path="res://scenes/common/teleport.tscn" type="PackedScene" id=6]

[node name="LVL_NOTITLE" type="Node2D"]
__meta__ = {
"__editor_plugin_screen__": "2D"
}

[node name="tilemap" type="TileMap" parent="."]
tile_set = ExtResource( 1 )
cell_size = Vector2( 32, 32 )
cell_custom_transform = Transform2D( 1, 0, 0, 1, 0, 0 )
compatibility_mode = true
collision_layer = 524288
format = 1
tile_data = PoolIntArray( -917522, 1610612749, 0, -917521, 1073741862, 0, -917520, 1073741862, 0, -917519, 1073741862, 0, -917518, 1073741862, 0, -917517, 1073741862, 0, -917516, 1073741862, 0, -917515, 1073741862, 0, -917514, 1073741862, 0, -917513, 1073741862, 0, -917512, 1073741862, 0, -917511, 1073741862, 0, -917510, 1073741862, 0, -917509, 1073741862, 0, -917508, 1073741862, 0, -917507, 1073741862, 0, -917506, 1073741862, 0, -917505, 1073741862, 0, -983040, 1073741862, 0, -983039, 1073741862, 0, -983038, 1073741862, 0, -983037, 1073741862, 0, -983036, 1073741862, 0, -983035, 1073741862, 0, -983034, 1073741862, 0, -983033, 1073741862, 0, -983032, 1073741862, 0, -983031, 1073741862, 0, -983030, 1073741862, 0, -983029, 1073741862, 0, -983028, 1073741862, 0, -983027, 1073741862, 0, -983026, 1073741862, 0, -983025, 1073741862, 0, -983024, 1073741862, 0, -983023, 1073741862, 0, -983022, 1073741862, 0, -983021, 1073741862, 0, -983020, 1073741862, 0, -983019, 1073741862, 0, -983018, 1073741862, 0, -983017, 1073741862, 0, -983016, 1073741862, 0, -983015, 1073741862, 0, -983014, 1073741862, 0, -983013, 1073741862, 0, -983012, 1073741862, 0, -983011, 1073741862, 0, -983010, 1073741862, 0, -983009, 1073741862, 0, -983008, 1073741862, 0, -983007, 1073741862, 0, -983006, 1073741862, 0, -983005, 1073741862, 0, -983004, 1073741862, 0, -983003, 1073741862, 0, -983002, 1073741862, 0, -983001, 1073741862, 0, -983000, 1073741862, 0, -982999, 1073741862, 0, -982998, 1073741862, 0, -982997, 1073741862, 0, -982996, 1073741862, 0, -982995, 1073741862, 0, -982994, 1073741862, 0, -982993, 1073741862, 0, -982992, 1073741862, 0, -982991, 1073741862, 0, -982990, 1073741862, 0, -982989, 1073741862, 0, -982988, 1073741862, 0, -982987, 1073741862, 0, -982986, 1073741862, 0, -982985, 1073741862, 0, -982984, 1073741837, 0, -851986, 1073741838, 0, -851985, 27, 0, -851984, 27, 0, -851983, 27, 0, -851982, 27, 0, -851981, 27, 0, -851980, 27, 0, -851979, 27, 0, -851978, 27, 0, -851977, 27, 0, -851976, 27, 0, -851975, 27, 0, -851974, 27, 0, -851973, 27, 0, -851972, 27, 0, -851971, 27, 0, -851970, 27, 0, -851969, 27, 0, -917504, 27, 0, -917503, 27, 0, -917502, 27, 0, -917501, 27, 0, -917500, 27, 0, -917499, 27, 0, -917498, 27, 0, -917497, 27, 0, -917496, 27, 0, -917495, 27, 0, -917494, 27, 0, -917493, 27, 0, -917492, 27, 0, -917491, 27, 0, -917490, 27, 0, -917489, 27, 0, -917488, 27, 0, -917487, 27, 0, -917486, 27, 0, -917485, 27, 0, -917484, 27, 0, -917483, 27, 0, -917482, 27, 0, -917481, 27, 0, -917480, 27, 0, -917479, 27, 0, -917478, 27, 0, -917477, 27, 0, -917476, 27, 0, -917475, 27, 0, -917474, 27, 0, -917473, 27, 0, -917472, 27, 0, -917471, 27, 0, -917470, 27, 0, -917469, 27, 0, -917468, 27, 0, -917467, 27, 0, -917466, 27, 0, -917465, 27, 0, -917464, 27, 0, -917463, 27, 0, -917462, 27, 0, -917461, 27, 0, -917460, 27, 0, -917459, 27, 0, -917458, 27, 0, -917457, 27, 0, -917456, 27, 0, -917455, 27, 0, -917454, 27, 0, -917453, 27, 0, -917452, 27, 0, -917451, 27, 0, -917450, 27, 0, -917449, 27, 0, -917448, 14, 0, -786450, 1073741838, 0, -786449, 27, 0, -786448, 27, 0, -786447, 27, 0, -786446, 27, 0, -786445, 27, 0, -786444, 27, 0, -786443, 27, 0, -786442, 27, 0, -786441, 27, 0, -786440, 27, 0, -786439, 27, 0, -786438, 27, 0, -786437, 27, 0, -786436, 27, 0, -786435, 27, 0, -786434, 27, 0, -786433, 27, 0, -851968, 27, 0, -851967, 27, 0, -851966, 27, 0, -851965, 27, 0, -851964, 27, 0, -851963, 27, 0, -851962, 27, 0, -851961, 27, 0, -851960, 27, 0, -851959, 27, 0, -851958, 27, 0, -851957, 27, 0, -851956, 27, 0, -851955, 27, 0, -851954, 27, 0, -851953, 27, 0, -851952, 27, 0, -851951, 27, 0, -851950, 27, 0, -851949, 27, 0, -851948, 27, 0, -851947, 27, 0, -851946, 27, 0, -851945, 27, 0, -851944, 27, 0, -851943, 27, 0, -851942, 27, 0, -851941, 27, 0, -851940, 27, 0, -851939, 27, 0, -851938, 27, 0, -851937, 27, 0, -851936, 27, 0, -851935, 27, 0, -851934, 27, 0, -851933, 27, 0, -851932, 27, 0, -851931, 27, 0, -851930, 27, 0, -851929, 27, 0, -851928, 27, 0, -851927, 27, 0, -851926, 27, 0, -851925, 27, 0, -851924, 27, 0, -851923, 27, 0, -851922, 27, 0, -851921, 27, 0, -851920, 27, 0, -851919, 27, 0, -851918, 27, 0, -851917, 27, 0, -851916, 27, 0, -851915, 27, 0, -851914, 27, 0, -851913, 27, 0, -851912, 14, 0, -720914, 1073741838, 0, -720913, 27, 0, -720912, 27, 0, -720911, 27, 0, -720910, 27, 0, -720909, 27, 0, -720908, 27, 0, -720907, 27, 0, -720906, 27, 0, -720905, 27, 0, -720904, 27, 0, -720903, 27, 0, -720902, 27, 0, -720901, 27, 0, -720900, 27, 0, -720899, 27, 0, -720898, 27, 0, -720897, 27, 0, -786432, 27, 0, -786431, 27, 0, -786430, 27, 0, -786429, 27, 0, -786428, 27, 0, -786427, 27, 0, -786426, 27, 0, -786425, 27, 0, -786424, 27, 0, -786423, 27, 0, -786422, 27, 0, -786421, 27, 0, -786420, 27, 0, -786419, 27, 0, -786418, 27, 0, -786417, 27, 0, -786416, 27, 0, -786415, 27, 0, -786414, 27, 0, -786413, 27, 0, -786412, 27, 0, -786411, 27, 0, -786410, 27, 0, -786409, 27, 0, -786408, 27, 0, -786407, 27, 0, -786406, 27, 0, -786405, 27, 0, -786404, 27, 0, -786403, 27, 0, -786402, 27, 0, -786401, 27, 0, -786400, 27, 0, -786399, 27, 0, -786398, 27, 0, -786397, 27, 0, -786396, 27, 0, -786395, 27, 0, -786394, 27, 0, -786393, 27, 0, -786392, 27, 0, -786391, 27, 0, -786390, 27, 0, -786389, 27, 0, -786388, 27, 0, -786387, 27, 0, -786386, 27, 0, -786385, 27, 0, -786384, 27, 0, -786383, 27, 0, -786382, 27, 0, -786381, 27, 0, -786380, 27, 0, -786379, 27, 0, -786378, 27, 0, -786377, 27, 0, -786376, 14, 0, -655378, 1073741838, 0, -655377, 27, 0, -655376, 27, 0, -655375, 27, 0, -655374, 27, 0, -655373, 27, 0, -655372, 27, 0, -655371, 27, 0, -655370, 27, 0, -655369, 27, 0, -655368, 27, 0, -655367, 27, 0, -655366, 27, 0, -655365, 27, 0, -655364, 27, 0, -655363, 27, 0, -655362, 27, 0, -655361, 27, 0, -720896, 27, 0, -720895, 27, 0, -720894, 27, 0, -720893, 27, 0, -720892, 27, 0, -720891, 27, 0, -720890, 27, 0, -720889, 27, 0, -720888, 27, 0, -720887, 27, 0, -720886, 27, 0, -720885, 27, 0, -720884, 27, 0, -720883, 27, 0, -720882, 27, 0, -720881, 27, 0, -720880, 27, 0, -720879, 27, 0, -720878, 27, 0, -720877, 27, 0, -720876, 27, 0, -720875, 27, 0, -720874, 27, 0, -720873, 27, 0, -720872, 27, 0, -720871, 27, 0, -720870, 27, 0, -720869, 27, 0, -720868, 27, 0, -720867, 27, 0, -720866, 27, 0, -720865, 27, 0, -720864, 27, 0, -720863, 27, 0, -720862, 27, 0, -720861, 27, 0, -720860, 27, 0, -720859, 27, 0, -720858, 27, 0, -720857, 27, 0, -720856, 27, 0, -720855, 27, 0, -720854, 27, 0, -720853, 27, 0, -720852, 27, 0, -720851, 27, 0, -720850, 27, 0, -720849, 27, 0, -720848, 27, 0, -720847, 27, 0, -720846, 27, 0, -720845, 27, 0, -720844, 27, 0, -720843, 27, 0, -720842, 27, 0, -720841, 27, 0, -720840, 14, 0, -589842, 1073741838, 0, -589841, 27, 0, -589840, 27, 0, -589839, 27, 0, -589838, 27, 0, -589837, 27, 0, -589836, 27, 0, -589835, 27, 0, -589834, 27, 0, -589833, 27, 0, -589832, 27, 0, -589831, 27, 0, -589830, 27, 0, -589829, 27, 0, -589828, 27, 0, -589827, 27, 0, -589826, 27, 0, -589825, 27, 0, -655360, 27, 0, -655359, 27, 0, -655358, 27, 0, -655357, 27, 0, -655356, 27, 0, -655355, 27, 0, -655354, 27, 0, -655353, 27, 0, -655352, 27, 0, -655351, 27, 0, -655350, 27, 0, -655349, 27, 0, -655348, 27, 0, -655347, 27, 0, -655346, 27, 0, -655345, 27, 0, -655344, 27, 0, -655343, 27, 0, -655342, 27, 0, -655341, 27, 0, -655340, 27, 0, -655339, 27, 0, -655338, 27, 0, -655337, 27, 0, -655336, 27, 0, -655335, 27, 0, -655334, 27, 0, -655333, 27, 0, -655332, 27, 0, -655331, 27, 0, -655330, 27, 0, -655329, 27, 0, -655328, 27, 0, -655327, 27, 0, -655326, 27, 0, -655325, 27, 0, -655324, 27, 0, -655323, 27, 0, -655322, 27, 0, -655321, 27, 0, -655320, 27, 0, -655319, 27, 0, -655318, 27, 0, -655317, 27, 0, -655316, 27, 0, -655315, 27, 0, -655314, 27, 0, -655313, 27, 0, -655312, 27, 0, -655311, 27, 0, -655310, 27, 0, -655309, 27, 0, -655308, 27, 0, -655307, 27, 0, -655306, 27, 0, -655305, 27, 0, -655304, 14, 0, -524306, 1073741838, 0, -524305, 27, 0, -524304, 27, 0, -524303, 27, 0, -524302, 27, 0, -524301, 27, 0, -524300, 27, 0, -524299, 27, 0, -524298, 27, 0, -524297, 27, 0, -524296, 27, 0, -524295, 27, 0, -524294, 27, 0, -524293, 27, 0, -524292, 27, 0, -524291, 27, 0, -524290, 27, 0, -524289, 27, 0, -589824, 27, 0, -589823, 27, 0, -589822, 27, 0, -589821, 27, 0, -589820, 27, 0, -589819, 27, 0, -589818, 27, 0, -589817, 27, 0, -589816, 27, 0, -589815, 27, 0, -589814, 27, 0, -589813, 27, 0, -589812, 27, 0, -589811, 27, 0, -589810, 27, 0, -589809, 27, 0, -589808, 27, 0, -589807, 27, 0, -589806, 27, 0, -589805, 27, 0, -589804, 27, 0, -589803, 27, 0, -589802, 27, 0, -589801, 27, 0, -589800, 27, 0, -589799, 27, 0, -589798, 27, 0, -589797, 27, 0, -589796, 27, 0, -589795, 27, 0, -589794, 27, 0, -589793, 27, 0, -589792, 27, 0, -589791, 27, 0, -589790, 27, 0, -589789, 27, 0, -589788, 27, 0, -589787, 27, 0, -589786, 27, 0, -589785, 27, 0, -589784, 27, 0, -589783, 27, 0, -589782, 27, 0, -589781, 27, 0, -589780, 27, 0, -589779, 27, 0, -589778, 27, 0, -589777, 27, 0, -589776, 27, 0, -589775, 27, 0, -589774, 27, 0, -589773, 27, 0, -589772, 27, 0, -589771, 27, 0, -589770, 27, 0, -589769, 27, 0, -589768, 14, 0, -458770, 1073741838, 0, -458769, 27, 0, -458768, 27, 0, -458767, 27, 0, -458766, 27, 0, -458765, 27, 0, -458764, 27, 0, -458763, 27, 0, -458762, 27, 0, -458761, 27, 0, -458760, 27, 0, -458759, 27, 0, -458758, 27, 0, -458757, 27, 0, -458756, 27, 0, -458755, 27, 0, -458754, 27, 0, -458753, 27, 0, -524288, 27, 0, -524287, 27, 0, -524286, 27, 0, -524285, 27, 0, -524284, 27, 0, -524283, 27, 0, -524282, 27, 0, -524281, 27, 0, -524280, 27, 0, -524279, 27, 0, -524278, 27, 0, -524277, 27, 0, -524276, 27, 0, -524275, 27, 0, -524274, 27, 0, -524273, 27, 0, -524272, 27, 0, -524271, 27, 0, -524270, 27, 0, -524269, 27, 0, -524268, 27, 0, -524267, 27, 0, -524266, 27, 0, -524265, 27, 0, -524264, 27, 0, -524263, 27, 0, -524262, 27, 0, -524261, 27, 0, -524260, 27, 0, -524259, 27, 0, -524258, 27, 0, -524257, 27, 0, -524256, 27, 0, -524255, 27, 0, -524254, 27, 0, -524253, 27, 0, -524252, 27, 0, -524251, 27, 0, -524250, 27, 0, -524249, 27, 0, -524248, 27, 0, -524247, 27, 0, -524246, 27, 0, -524245, 27, 0, -524244, 27, 0, -524243, 27, 0, -524242, 27, 0, -524241, 27, 0, -524240, 27, 0, -524239, 27, 0, -524238, 27, 0, -524237, 27, 0, -524236, 27, 0, -524235, 27, 0, -524234, 27, 0, -524233, 27, 0, -524232, 14, 0, -393234, 1073741838, 0, -393233, 27, 0, -393232, 27, 0, -393231, 27, 0, -393230, 27, 0, -393229, 27, 0, -393228, 27, 0, -393227, 27, 0, -393226, 27, 0, -393225, 27, 0, -393224, 27, 0, -393223, 27, 0, -393222, 27, 0, -393221, 27, 0, -393220, 27, 0, -393219, 27, 0, -393218, 27, 0, -393217, 27, 0, -458752, 27, 0, -458751, 27, 0, -458750, 27, 0, -458749, 27, 0, -458748, 27, 0, -458747, 27, 0, -458746, 27, 0, -458745, 27, 0, -458744, 27, 0, -458743, 27, 0, -458742, 27, 0, -458741, 27, 0, -458740, 27, 0, -458739, 27, 0, -458738, 27, 0, -458737, 27, 0, -458736, 27, 0, -458735, 27, 0, -458734, 27, 0, -458733, 27, 0, -458732, 27, 0, -458731, 27, 0, -458730, 27, 0, -458729, 27, 0, -458728, 27, 0, -458727, 27, 0, -458726, 27, 0, -458725, 27, 0, -458724, 27, 0, -458723, 27, 0, -458722, 27, 0, -458721, 27, 0, -458720, 27, 0, -458719, 27, 0, -458718, 27, 0, -458717, 27, 0, -458716, 27, 0, -458715, 27, 0, -458714, 27, 0, -458713, 27, 0, -458712, 27, 0, -458711, 27, 0, -458710, 27, 0, -458709, 27, 0, -458708, 27, 0, -458707, 27, 0, -458706, 27, 0, -458705, 27, 0, -458704, 27, 0, -458703, 27, 0, -458702, 27, 0, -458701, 27, 0, -458700, 27, 0, -458699, 27, 0, -458698, 27, 0, -458697, 27, 0, -458696, 14, 0, -327698, 1073741838, 0, -327697, 27, 0, -327696, 27, 0, -327695, 27, 0, -327694, 27, 0, -327693, 27, 0, -327692, 27, 0, -327691, 27, 0, -327690, 27, 0, -327689, 27, 0, -327688, 27, 0, -327687, 27, 0, -327686, 27, 0, -327685, 27, 0, -327684, 27, 0, -327683, 27, 0, -327682, 27, 0, -327681, 27, 0, -393216, 27, 0, -393215, 27, 0, -393214, 27, 0, -393213, 27, 0, -393212, 27, 0, -393211, 27, 0, -393210, 27, 0, -393209, 27, 0, -393208, 27, 0, -393207, 27, 0, -393206, 27, 0, -393205, 27, 0, -393204, 27, 0, -393203, 27, 0, -393202, 27, 0, -393201, 27, 0, -393200, 27, 0, -393199, 27, 0, -393198, 27, 0, -393197, 27, 0, -393196, 27, 0, -393195, 27, 0, -393194, 27, 0, -393193, 27, 0, -393192, 27, 0, -393191, 27, 0, -393190, 27, 0, -393189, 27, 0, -393188, 27, 0, -393187, 27, 0, -393186, 27, 0, -393185, 27, 0, -393184, 27, 0, -393183, 27, 0, -393182, 27, 0, -393181, 27, 0, -393180, 27, 0, -393179, 27, 0, -393178, 27, 0, -393177, 27, 0, -393176, 27, 0, -393175, 27, 0, -393174, 27, 0, -393173, 27, 0, -393172, 27, 0, -393171, 27, 0, -393170, 27, 0, -393169, 27, 0, -393168, 27, 0, -393167, 27, 0, -393166, 27, 0, -393165, 27, 0, -393164, 27, 0, -393163, 27, 0, -393162, 27, 0, -393161, 27, 0, -393160, 14, 0, -262162, 1073741837, 0, -262161, 27, 0, -262160, 27, 0, -262159, 27, 0, -262158, 27, 0, -262157, 27, 0, -262156, 27, 0, -262155, 27, 0, -262154, 27, 0, -262153, 27, 0, -262152, 27, 0, -262151, 27, 0, -262150, 27, 0, -262149, 27, 0, -262148, 27, 0, -262147, 27, 0, -262146, 27, 0, -262145, 27, 0, -327680, 27, 0, -327679, 27, 0, -327678, 27, 0, -327677, 27, 0, -327676, 27, 0, -327675, 27, 0, -327674, 27, 0, -327673, 27, 0, -327672, 27, 0, -327671, 27, 0, -327670, 27, 0, -327669, 27, 0, -327668, 27, 0, -327667, 27, 0, -327666, 27, 0, -327665, 27, 0, -327664, 27, 0, -327663, 27, 0, -327662, 27, 0, -327661, 27, 0, -327660, 27, 0, -327659, 27, 0, -327658, 27, 0, -327657, 27, 0, -327656, 27, 0, -327655, 27, 0, -327654, 27, 0, -327653, 27, 0, -327652, 27, 0, -327651, 27, 0, -327650, 27, 0, -327649, 27, 0, -327648, 27, 0, -327647, 27, 0, -327646, 27, 0, -327645, 27, 0, -327644, 27, 0, -327643, 27, 0, -327642, 27, 0, -327641, 27, 0, -327640, 27, 0, -327639, 27, 0, -327638, 27, 0, -327637, 27, 0, -327636, 27, 0, -327635, 27, 0, -327634, 27, 0, -327633, 27, 0, -327632, 27, 0, -327631, 27, 0, -327630, 27, 0, -327629, 27, 0, -327628, 27, 0, -327627, 27, 0, -327626, 27, 0, -327625, 27, 0, -327624, 14, 0, -196626, 27, 0, -196625, 27, 0, -196624, 27, 0, -196623, 27, 0, -196622, 27, 0, -196621, 27, 0, -196620, 27, 0, -196619, 27, 0, -196618, 27, 0, -196617, 27, 0, -196616, 27, 0, -196615, 27, 0, -196614, 27, 0, -196613, 27, 0, -196612, 27, 0, -196611, 27, 0, -196610, 27, 0, -196609, 27, 0, -262144, 27, 0, -262143, 27, 0, -262142, 27, 0, -262141, 27, 0, -262140, 27, 0, -262139, 27, 0, -262138, 27, 0, -262137, 27, 0, -262136, 27, 0, -262135, 27, 0, -262134, 27, 0, -262133, 27, 0, -262132, 27, 0, -262131, 27, 0, -262130, 27, 0, -262129, 27, 0, -262128, 27, 0, -262127, 27, 0, -262126, 27, 0, -262125, 27, 0, -262124, 27, 0, -262123, 27, 0, -262122, 27, 0, -262121, 27, 0, -262120, 27, 0, -262119, 27, 0, -262118, 27, 0, -262117, 27, 0, -262116, 27, 0, -262115, 27, 0, -262114, 27, 0, -262113, 27, 0, -262112, 27, 0, -262111, 27, 0, -262110, 27, 0, -262109, 27, 0, -262108, 27, 0, -262107, 27, 0, -262106, 27, 0, -262105, 27, 0, -262104, 27, 0, -262103, 27, 0, -262102, 27, 0, -262101, 27, 0, -262100, 27, 0, -262099, 27, 0, -262098, 27, 0, -262097, 27, 0, -262096, 27, 0, -262095, 27, 0, -262094, 27, 0, -262093, 27, 0, -262092, 27, 0, -262091, 27, 0, -262090, 27, 0, -262089, 27, 0, -262088, 14, 0, -131090, 27, 0, -131089, 27, 0, -131088, 27, 0, -131087, 27, 0, -131086, 27, 0, -131085, 27, 0, -131084, 27, 0, -131083, 27, 0, -131082, 27, 0, -131081, 27, 0, -131080, 27, 0, -131079, 27, 0, -131078, 27, 0, -131077, 27, 0, -131076, 27, 0, -131075, 27, 0, -131074, 27, 0, -131073, 27, 0, -196608, 27, 0, -196607, 27, 0, -196606, 27, 0, -196605, 27, 0, -196604, 27, 0, -196603, 27, 0, -196602, 27, 0, -196601, 27, 0, -196600, 27, 0, -196599, 27, 0, -196598, 27, 0, -196597, 27, 0, -196596, 27, 0, -196595, 27, 0, -196594, 27, 0, -196593, 27, 0, -196592, 27, 0, -196591, 27, 0, -196590, 27, 0, -196589, 27, 0, -196588, 27, 0, -196587, 27, 0, -196586, 27, 0, -196585, 27, 0, -196584, 27, 0, -196583, 27, 0, -196582, 27, 0, -196581, 27, 0, -196580, 27, 0, -196579, 27, 0, -196578, 27, 0, -196577, 27, 0, -196576, 27, 0, -196575, 27, 0, -196574, 27, 0, -196573, 27, 0, -196572, 27, 0, -196571, 27, 0, -196570, 27, 0, -196569, 27, 0, -196568, 27, 0, -196567, 27, 0, -196566, 27, 0, -196565, 27, 0, -196564, 27, 0, -196563, 27, 0, -196562, 27, 0, -196561, 27, 0, -196560, 27, 0, -196559, 27, 0, -196558, 27, 0, -196557, 27, 0, -196556, 27, 0, -196555, 27, 0, -196554, 27, 0, -196553, 27, 0, -196552, 14, 0, -65554, 27, 0, -65553, 27, 0, -65552, 27, 0, -65551, 27, 0, -65550, 27, 0, -65549, 27, 0, -65548, 27, 0, -65547, 27, 0, -65546, 27, 0, -65545, 27, 0, -65544, 27, 0, -65543, 27, 0, -65542, 27, 0, -65541, 27, 0, -65540, 27, 0, -65539, 27, 0, -65538, 27, 0, -65537, 27, 0, -131072, 27, 0, -131071, 27, 0, -131070, 27, 0, -131069, 27, 0, -131068, 27, 0, -131067, 27, 0, -131066, 27, 0, -131065, 27, 0, -131064, 27, 0, -131063, 27, 0, -131062, 27, 0, -131061, 27, 0, -131060, 27, 0, -131059, 27, 0, -131058, 27, 0, -131057, 27, 0, -131056, 27, 0, -131055, 27, 0, -131054, 27, 0, -131053, 27, 0, -131052, 27, 0, -131051, 27, 0, -131050, 27, 0, -131049, 27, 0, -131048, 27, 0, -131047, 27, 0, -131046, 27, 0, -131045, 27, 0, -131044, 27, 0, -131043, 27, 0, -131042, 27, 0, -131041, 27, 0, -131040, 27, 0, -131039, 27, 0, -131038, 27, 0, -131037, 27, 0, -131036, 27, 0, -131035, 27, 0, -131034, 27, 0, -131033, 27, 0, -131032, 27, 0, -131031, 27, 0, -131030, 27, 0, -131029, 27, 0, -131028, 27, 0, -131027, 27, 0, -131026, 27, 0, -131025, 27, 0, -131024, 27, 0, -131023, 27, 0, -131022, 27, 0, -131021, 27, 0, -131020, 27, 0, -131019, 27, 0, -131018, 27, 0, -131017, 27, 0, -131016, 14, 0, -18, 27, 0, -17, 27, 0, -16, 27, 0, -15, 27, 0, -14, 27, 0, -13, 27, 0, -12, 27, 0, -11, 27, 0, -10, 27, 0, -9, 27, 0, -8, 27, 0, -7, 27, 0, -6, 27, 0, -5, 27, 0, -4, 27, 0, -3, 27, 0, -2, 27, 0, -1, 27, 0, -65536, 27, 0, -65535, 27, 0, -65534, 27, 0, -65533, 27, 0, -65532, 27, 0, -65531, 27, 0, -65530, 27, 0, -65529, 27, 0, -65528, 27, 0, -65527, 27, 0, -65526, 27, 0, -65525, 27, 0, -65524, 27, 0, -65523, 27, 0, -65522, 27, 0, -65521, 27, 0, -65520, 27, 0, -65519, 27, 0, -65518, 27, 0, -65517, 27, 0, -65516, 27, 0, -65515, 27, 0, -65514, 27, 0, -65513, 27, 0, -65512, 27, 0, -65511, 27, 0, -65510, 27, 0, -65509, 27, 0, -65508, 27, 0, -65507, 27, 0, -65506, 27, 0, -65505, 27, 0, -65504, 27, 0, -65503, 27, 0, -65502, 27, 0, -65501, 27, 0, -65500, 27, 0, -65499, 27, 0, -65498, 27, 0, -65497, 27, 0, -65496, 27, 0, -65495, 27, 0, -65494, 27, 0, -65493, 27, 0, -65492, 27, 0, -65491, 27, 0, -65490, 27, 0, -65489, 27, 0, -65488, 27, 0, -65487, 27, 0, -65486, 27, 0, -65485, 27, 0, -65484, 27, 0, -65483, 27, 0, -65482, 27, 0, -65481, 27, 0, -65480, 14, 0, 65518, 27, 0, 65519, 27, 0, 65520, 27, 0, 65521, 27, 0, 65522, 27, 0, 65523, 27, 0, 65524, 27, 0, 65525, 27, 0, 65526, 27, 0, 65527, 27, 0, 65528, 27, 0, 65529, 27, 0, 65530, 27, 0, 65531, 27, 0, 65532, 27, 0, 65533, 27, 0, 65534, 27, 0, 65535, 27, 0, 0, 27, 0, 1, 27, 0, 2, 27, 0, 3, 27, 0, 4, 27, 0, 5, 27, 0, 6, 27, 0, 7, 27, 0, 8, 27, 0, 9, 27, 0, 10, 27, 0, 11, 27, 0, 12, 27, 0, 13, 27, 0, 14, 27, 0, 15, 27, 0, 16, 27, 0, 17, 27, 0, 18, 27, 0, 19, 27, 0, 20, 27, 0, 21, 27, 0, 22, 27, 0, 23, 27, 0, 24, 27, 0, 25, 27, 0, 26, 27, 0, 27, 27, 0, 28, 27, 0, 29, 27, 0, 30, 27, 0, 31, 27, 0, 32, 27, 0, 33, 27, 0, 34, 27, 0, 35, 27, 0, 36, 27, 0, 37, 27, 0, 38, 27, 0, 39, 27, 0, 40, 27, 0, 41, 27, 0, 42, 27, 0, 43, 27, 0, 44, 27, 0, 45, 27, 0, 46, 27, 0, 47, 27, 0, 48, 27, 0, 49, 27, 0, 50, 27, 0, 51, 27, 0, 52, 27, 0, 53, 27, 0, 54, 27, 0, 55, 27, 0, 56, 14, 0, 131054, 536870925, 0, 131055, 38, 0, 131056, 38, 0, 131057, 38, 0, 131058, 38, 0, 131059, 38, 0, 131060, 38, 0, 131061, 38, 0, 131062, 38, 0, 131063, 38, 0, 131064, 38, 0, 131065, 38, 0, 131066, 38, 0, 131067, 38, 0, 131068, 38, 0, 131069, 38, 0, 131070, 38, 0, 131071, 38, 0, 65536, 38, 0, 65537, 38, 0, 65538, 38, 0, 65539, 38, 0, 65540, 38, 0, 65541, 38, 0, 65542, 38, 0, 65543, 38, 0, 65544, 38, 0, 65545, 38, 0, 65546, 38, 0, 65547, 38, 0, 65548, 38, 0, 65549, 38, 0, 65550, 38, 0, 65551, 38, 0, 65552, 38, 0, 65553, 38, 0, 65554, 38, 0, 65555, 38, 0, 65556, 38, 0, 65557, 38, 0, 65558, 38, 0, 65559, 38, 0, 65560, 38, 0, 65561, 38, 0, 65562, 38, 0, 65563, 38, 0, 65564, 38, 0, 65565, 38, 0, 65566, 38, 0, 65567, 38, 0, 65568, 38, 0, 65569, 38, 0, 65570, 38, 0, 65571, 38, 0, 65572, 38, 0, 65573, 38, 0, 65574, 38, 0, 65575, 38, 0, 65576, 38, 0, 65577, 38, 0, 65578, 38, 0, 65579, 38, 0, 65580, 38, 0, 65581, 38, 0, 65582, 38, 0, 65583, 38, 0, 65584, 38, 0, 65585, 38, 0, 65586, 38, 0, 65587, 38, 0, 65588, 38, 0, 65589, 38, 0, 65590, 38, 0, 65591, 38, 0, 65592, 13, 0, 196590, 14, 0, 196591, 35, 0, 196592, 35, 0, 196593, 35, 0, 196594, 35, 0, 196595, 35, 0, 196596, 35, 0, 196597, 35, 0, 196598, 35, 0, 196599, 35, 0, 196600, 35, 0, 196601, 35, 0, 196602, 35, 0, 196603, 35, 0, 196604, 35, 0, 196605, 35, 0, 196606, 35, 0, 196607, 35, 0, 131072, 35, 0, 131073, 35, 0, 131074, 35, 0, 131075, 35, 0, 131076, 35, 0, 131077, 35, 0, 131078, 35, 0, 131079, 35, 0, 131080, 35, 0, 131081, 35, 0, 131082, 35, 0, 131083, 35, 0, 131084, 35, 0, 131085, 35, 0, 131086, 35, 0, 131087, 35, 0, 131088, 35, 0, 131089, 35, 0, 131090, 35, 0, 131091, 35, 0, 131092, 35, 0, 131093, 35, 0, 131094, 35, 0, 131095, 35, 0, 131096, 35, 0, 131097, 35, 0, 131098, 35, 0, 131099, 35, 0, 131100, 35, 0, 131101, 35, 0, 131102, 35, 0, 131103, 35, 0, 131104, 35, 0, 131105, 35, 0, 131106, 35, 0, 131107, 35, 0, 131108, 35, 0, 131109, 35, 0, 131110, 35, 0, 131111, 35, 0, 131112, 35, 0, 131113, 35, 0, 131114, 35, 0, 131115, 35, 0, 131116, 35, 0, 131117, 35, 0, 131118, 35, 0, 131119, 35, 0, 131120, 35, 0, 131121, 35, 0, 131122, 35, 0, 131123, 35, 0, 131124, 35, 0, 131125, 35, 0, 131126, 35, 0, 131127, 35, 0, 131128, 14, 0, 262126, 14, 0, 262127, 35, 0, 262128, 35, 0, 262129, 35, 0, 262130, 35, 0, 262131, 35, 0, 262132, 35, 0, 262133, 35, 0, 262134, 35, 0, 262135, 35, 0, 262136, 35, 0, 262137, 35, 0, 262138, 35, 0, 262139, 35, 0, 262140, 35, 0, 262141, 35, 0, 262142, 35, 0, 262143, 35, 0, 196608, 35, 0, 196609, 35, 0, 196610, 35, 0, 196611, 35, 0, 196612, 35, 0, 196613, 35, 0, 196614, 35, 0, 196615, 35, 0, 196616, 35, 0, 196617, 35, 0, 196618, 35, 0, 196619, 35, 0, 196620, 35, 0, 196621, 35, 0, 196622, 35, 0, 196623, 35, 0, 196624, 35, 0, 196625, 35, 0, 196626, 35, 0, 196627, 35, 0, 196628, 35, 0, 196629, 35, 0, 196630, 35, 0, 196631, 35, 0, 196632, 35, 0, 196633, 35, 0, 196634, 35, 0, 196635, 35, 0, 196636, 35, 0, 196637, 35, 0, 196638, 35, 0, 196639, 35, 0, 196640, 35, 0, 196641, 35, 0, 196642, 35, 0, 196643, 35, 0, 196644, 35, 0, 196645, 35, 0, 196646, 35, 0, 196647, 35, 0, 196648, 35, 0, 196649, 35, 0, 196650, 35, 0, 196651, 35, 0, 196652, 35, 0, 196653, 35, 0, 196654, 35, 0, 196655, 35, 0, 196656, 35, 0, 196657, 35, 0, 196658, 35, 0, 196659, 35, 0, 196660, 35, 0, 196661, 35, 0, 196662, 35, 0, 196663, 35, 0, 196664, 14, 0, 327662, 14, 0, 327663, 35, 0, 327664, 35, 0, 327665, 35, 0, 327666, 35, 0, 327667, 35, 0, 327668, 35, 0, 327669, 35, 0, 327670, 35, 0, 327671, 35, 0, 327672, 35, 0, 327673, 35, 0, 327674, 35, 0, 327675, 35, 0, 327676, 35, 0, 327677, 35, 0, 327678, 35, 0, 327679, 35, 0, 262144, 35, 0, 262145, 35, 0, 262146, 35, 0, 262147, 35, 0, 262148, 35, 0, 262149, 35, 0, 262150, 35, 0, 262151, 35, 0, 262152, 35, 0, 262153, 35, 0, 262154, 35, 0, 262155, 35, 0, 262156, 35, 0, 262157, 35, 0, 262158, 35, 0, 262159, 35, 0, 262160, 35, 0, 262161, 35, 0, 262162, 35, 0, 262163, 35, 0, 262164, 35, 0, 262165, 35, 0, 262166, 35, 0, 262167, 35, 0, 262168, 35, 0, 262169, 35, 0, 262170, 35, 0, 262171, 35, 0, 262172, 35, 0, 262173, 35, 0, 262174, 35, 0, 262175, 35, 0, 262176, 35, 0, 262177, 35, 0, 262178, 35, 0, 262179, 35, 0, 262180, 35, 0, 262181, 35, 0, 262182, 35, 0, 262183, 35, 0, 262184, 35, 0, 262185, 35, 0, 262186, 35, 0, 262187, 35, 0, 262188, 35, 0, 262189, 35, 0, 262190, 35, 0, 262191, 35, 0, 262192, 35, 0, 262193, 35, 0, 262194, 35, 0, 262195, 35, 0, 262196, 35, 0, 262197, 35, 0, 262198, 35, 0, 262199, 35, 0, 262200, 14, 0 )

[node name="DecoGroup" type="Node2D" parent="tilemap"]

[node name="TileMap" type="TileMap" parent="tilemap/DecoGroup"]
tile_set = ExtResource( 2 )
cell_size = Vector2( 32, 32 )
cell_custom_transform = Transform2D( 1, 0, 0, 1, 0, 0 )
compatibility_mode = true
format = 1
tile_data = PoolIntArray( -524284, 0, 0, -524271, 0, 0, -524259, 0, 0, -524256, 0, 0, -524247, 0, 0, -524237, 0, 0, -393231, 0, 0, -393226, 0, 0, -458748, 1, 0, -458735, 1, 0, -458723, 1, 0, -458720, 1, 0, -458711, 1, 0, -458701, 1, 0, -327695, 1, 0, -327690, 1, 0, -393212, 2, 0, -393199, 1, 0, -393187, 1, 0, -393184, 1, 0, -393175, 1, 0, -393165, 1, 0, -262159, 2, 0, -262154, 1, 0, -327663, 2, 0, -327651, 1, 0, -327648, 1, 0, -327639, 1, 0, -327629, 1, 0, -196622, 3, 0, -196621, 4, 0, -196620, 4, 0, -196619, 536870915, 0, -196618, 2, 0, -196612, 3, 0, -196611, 4, 0, -196610, 4, 0, -196609, 4, 0, -262144, 4, 0, -262143, 4, 0, -262142, 536870915, 0, -262133, 3, 0, -262132, 4, 0, -262131, 4, 0, -262130, 536870915, 0, -262123, 3, 0, -262122, 4, 0, -262121, 4, 0, -262120, 4, 0, -262119, 4, 0, -262118, 4, 0, -262117, 536870915, 0, -262115, 1, 0, -262112, 2, 0, -262110, 3, 0, -262109, 4, 0, -262108, 4, 0, -262107, 536870915, 0, -262103, 2, 0, -262100, 3, 0, -262099, 4, 0, -262098, 4, 0, -262097, 4, 0, -262096, 536870915, 0, -262093, 1, 0, -131086, 5, 0, -131085, 6, 0, -131084, 6, 0, -131083, 536870917, 0, -131076, 5, 0, -131075, 6, 0, -131074, 6, 0, -131073, 6, 0, -196608, 6, 0, -196607, 6, 0, -196606, 536870917, 0, -196597, 5, 0, -196596, 6, 0, -196595, 6, 0, -196594, 536870917, 0, -196587, 5, 0, -196586, 6, 0, -196585, 6, 0, -196584, 6, 0, -196583, 6, 0, -196582, 6, 0, -196581, 536870917, 0, -196579, 2, 0, -196574, 5, 0, -196573, 6, 0, -196572, 6, 0, -196571, 536870917, 0, -196564, 5, 0, -196563, 6, 0, -196562, 6, 0, -196561, 6, 0, -196560, 536870917, 0, -196557, 1, 0, -65550, 5, 0, -65549, 6, 0, -65548, 6, 0, -65547, 536870917, 0, -65540, 5, 0, -65539, 6, 0, -65538, 6, 0, -65537, 6, 0, -131072, 6, 0, -131071, 6, 0, -131070, 536870917, 0, -131061, 5, 0, -131060, 6, 0, -131059, 6, 0, -131058, 536870917, 0, -131051, 5, 0, -131050, 6, 0, -131049, 6, 0, -131048, 6, 0, -131047, 6, 0, -131046, 6, 0, -131045, 536870917, 0, -131038, 5, 0, -131037, 6, 0, -131036, 6, 0, -131035, 536870917, 0, -131028, 5, 0, -131027, 6, 0, -131026, 6, 0, -131025, 6, 0, -131024, 536870917, 0, -131021, 2, 0, -14, 5, 0, -13, 6, 0, -12, 6, 0, -11, 536870917, 0, -4, 5, 0, -3, 6, 0, -2, 6, 0, -1, 6, 0, -65536, 6, 0, -65535, 6, 0, -65534, 536870917, 0, -65525, 5, 0, -65524, 6, 0, -65523, 6, 0, -65522, 536870917, 0, -65515, 5, 0, -65514, 6, 0, -65513, 6, 0, -65512, 6, 0, -65511, 6, 0, -65510, 6, 0, -65509, 536870917, 0, -65502, 5, 0, -65501, 6, 0, -65500, 6, 0, -65499, 536870917, 0, -65492, 5, 0, -65491, 6, 0, -65490, 6, 0, -65489, 6, 0, -65488, 536870917, 0, 65520, 8, 0, 65522, 5, 0, 65523, 6, 0, 65524, 6, 0, 65525, 536870917, 0, 65532, 5, 0, 65533, 6, 0, 65534, 6, 0, 65535, 6, 0, 0, 6, 0, 1, 6, 0, 2, 536870917, 0, 6, 8, 0, 11, 5, 0, 12, 6, 0, 13, 6, 0, 14, 536870917, 0, 16, 8, 0, 21, 5, 0, 22, 6, 0, 23, 6, 0, 24, 6, 0, 25, 6, 0, 26, 6, 0, 27, 536870917, 0, 31, 8, 0, 34, 5, 0, 35, 6, 0, 36, 6, 0, 37, 536870917, 0, 41, 8, 0, 43, 8, 0, 44, 5, 0, 45, 6, 0, 46, 6, 0, 47, 6, 0, 48, 536870917, 0, 54, 8, 0 )

[node name="EnemiesGroup" type="Node2D" parent="tilemap"]

[node name="Minotaur" parent="tilemap/EnemiesGroup" instance=ExtResource( 3 )]
position = Vector2( -48, -48 )

[node name="Minotaur1" parent="tilemap/EnemiesGroup" instance=ExtResource( 3 )]
position = Vector2( 752, -48 )

[node name="Minotaur2" parent="tilemap/EnemiesGroup" instance=ExtResource( 3 )]
position = Vector2( 1552, -48 )

[node name="ItemGroup" type="Node2D" parent="tilemap"]

[node name="ManaPotion" parent="tilemap/ItemGroup" instance=ExtResource( 4 )]
position = Vector2( 1744, 0 )

[node name="SunbeamGroup" type="Node2D" parent="tilemap"]

[node name="Sunbeam" parent="tilemap/SunbeamGroup" instance=ExtResource( 5 )]
position = Vector2( 16, -224 )

[node name="block" parent="tilemap/SunbeamGroup/Sunbeam" index="0"]
scale = Vector2( 16, 16 )

[node name="sunbeam" parent="tilemap/SunbeamGroup/Sunbeam" index="1"]
scale = Vector2( 16, 16 )

[node name="Sunbeam1" parent="tilemap/SunbeamGroup" instance=ExtResource( 5 )]
position = Vector2( 688, -224 )

[node name="block" parent="tilemap/SunbeamGroup/Sunbeam1" index="0"]
scale = Vector2( 16, 16 )

[node name="sunbeam" parent="tilemap/SunbeamGroup/Sunbeam1" index="1"]
scale = Vector2( 16, 16 )

[node name="Sunbeam2" parent="tilemap/SunbeamGroup" instance=ExtResource( 5 )]
position = Vector2( 1360, -224 )

[node name="block" parent="tilemap/SunbeamGroup/Sunbeam2" index="0"]
scale = Vector2( 16, 16 )

[node name="sunbeam" parent="tilemap/SunbeamGroup/Sunbeam2" index="1"]
scale = Vector2( 16, 16 )

[node name="TeleportGroup" type="Node2D" parent="tilemap"]

[node name="Teleport" parent="tilemap/TeleportGroup" instance=ExtResource( 6 )]
position = Vector2( -592, -48 )
target_level = "res://levels/waterway/3-1.tscn"
teleport_to = Vector2( 908, -656 )

[node name="teleport" parent="tilemap/TeleportGroup/Teleport" index="0"]
scale = Vector2( 1, 5 )

[node name="boundaries" type="Node2D" parent="tilemap"]

[node name="NW" type="Position2D" parent="tilemap/boundaries"]
position = Vector2( -592, -496 )

[node name="SE" type="Position2D" parent="tilemap/boundaries"]
position = Vector2( 1840, 176 )

[editable path="tilemap/SunbeamGroup/Sunbeam"]

[editable path="tilemap/SunbeamGroup/Sunbeam1"]

[editable path="tilemap/SunbeamGroup/Sunbeam2"]

[editable path="tilemap/TeleportGroup/Teleport"]
