[gd_scene load_steps=11 format=2]

[ext_resource path="res://scenes/waterway/tileset.tres" type="TileSet" id=1]
[ext_resource path="res://scenes/dungeon/deco.tres" type="TileSet" id=2]
[ext_resource path="res://scenes/waterway/onewayplatform.tscn" type="PackedScene" id=3]
[ext_resource path="res://scenes/waterway/BGs/flooredge2.png" type="Texture" id=4]
[ext_resource path="res://scenes/common/breakables/pot.tscn" type="PackedScene" id=5]
[ext_resource path="res://scenes/npcs/npc.tscn" type="PackedScene" id=6]
[ext_resource path="res://scenes/common/damagables/spiketile.tscn" type="PackedScene" id=7]
[ext_resource path="res://scenes/items/gold/gold.tscn" type="PackedScene" id=8]
[ext_resource path="res://scenes/common/sunbeam.tscn" type="PackedScene" id=9]
[ext_resource path="res://scenes/common/teleport.tscn" type="PackedScene" id=10]

[node name="LVL_NOTITLE" type="Node2D"]
__meta__ = {
"__editor_plugin_screen__": "2D"
}

[node name="tilemap" type="TileMap" parent="."]
tile_set = ExtResource( 1 )
cell_size = Vector2( 32, 32 )
cell_custom_transform = Transform2D( 1, 0, 0, 1, 0, 0 )
compatibility_mode = true
collision_layer = 524288
format = 1
tile_data = PoolIntArray( -917522, 1610612749, 0, -917521, 1073741862, 0, -917520, 1073741862, 0, -917519, 1073741862, 0, -917518, 1073741862, 0, -917517, 1073741862, 0, -917516, 1073741862, 0, -917515, 1073741862, 0, -917514, 1073741862, 0, -917513, 1073741862, 0, -917512, 1073741862, 0, -917511, 1073741862, 0, -917510, 1073741862, 0, -917509, 1073741862, 0, -917508, 1073741862, 0, -917507, 1073741862, 0, -917506, 1073741862, 0, -917505, 1073741862, 0, -983040, 1073741862, 0, -983039, 1073741862, 0, -983038, 1073741862, 0, -983037, 1073741862, 0, -983036, 1073741862, 0, -983035, 1073741862, 0, -983034, 1073741862, 0, -983033, 1073741862, 0, -983032, 1073741837, 0, -851986, 1073741838, 0, -851985, 27, 0, -851984, 27, 0, -851983, 27, 0, -851982, 27, 0, -851981, 27, 0, -851980, 27, 0, -851979, 27, 0, -851978, 27, 0, -851977, 27, 0, -851976, 27, 0, -851975, 27, 0, -851974, 27, 0, -851973, 27, 0, -851972, 27, 0, -851971, 27, 0, -851970, 27, 0, -851969, 27, 0, -917504, 27, 0, -917503, 27, 0, -917502, 27, 0, -917501, 27, 0, -917500, 27, 0, -917499, 27, 0, -917498, 27, 0, -917497, 27, 0, -917496, 14, 0, -786450, 1073741838, 0, -786449, 27, 0, -786448, 27, 0, -786447, 27, 0, -786446, 27, 0, -786445, 27, 0, -786444, 27, 0, -786443, 27, 0, -786442, 27, 0, -786441, 27, 0, -786440, 27, 0, -786439, 27, 0, -786438, 27, 0, -786437, 27, 0, -786436, 27, 0, -786435, 27, 0, -786434, 27, 0, -786433, 27, 0, -851968, 27, 0, -851967, 27, 0, -851966, 27, 0, -851965, 27, 0, -851964, 27, 0, -851963, 27, 0, -851962, 27, 0, -851961, 27, 0, -851960, 14, 0, -720914, 1073741838, 0, -720913, 27, 0, -720912, 27, 0, -720911, 27, 0, -720910, 27, 0, -720909, 27, 0, -720908, 27, 0, -720907, 27, 0, -720906, 27, 0, -720905, 27, 0, -720904, 27, 0, -720903, 27, 0, -720902, 27, 0, -720901, 27, 0, -720900, 27, 0, -720899, 27, 0, -720898, 27, 0, -720897, 27, 0, -786432, 27, 0, -786431, 27, 0, -786430, 27, 0, -786429, 27, 0, -786428, 27, 0, -786427, 27, 0, -786426, 27, 0, -786425, 27, 0, -786424, 14, 0, -655378, 1073741838, 0, -655377, 27, 0, -655376, 27, 0, -655375, 27, 0, -655374, 27, 0, -655373, 27, 0, -655372, 27, 0, -655371, 27, 0, -655370, 27, 0, -655369, 27, 0, -655368, 27, 0, -655367, 27, 0, -655366, 27, 0, -655365, 27, 0, -655364, 27, 0, -655363, 27, 0, -655362, 27, 0, -655361, 27, 0, -720896, 27, 0, -720895, 27, 0, -720894, 27, 0, -720893, 27, 0, -720892, 27, 0, -720891, 27, 0, -720890, 27, 0, -720889, 27, 0, -720888, 14, 0, -589842, 1073741838, 0, -589841, 27, 0, -589840, 27, 0, -589839, 27, 0, -589838, 27, 0, -589837, 27, 0, -589836, 27, 0, -589835, 27, 0, -589834, 27, 0, -589833, 27, 0, -589832, 27, 0, -589831, 27, 0, -589830, 27, 0, -589829, 27, 0, -589828, 27, 0, -589827, 27, 0, -589826, 27, 0, -589825, 27, 0, -655360, 27, 0, -655359, 27, 0, -655358, 27, 0, -655357, 27, 0, -655356, 27, 0, -655355, 27, 0, -655354, 27, 0, -655353, 27, 0, -655352, 14, 0, -524306, 1073741838, 0, -524305, 27, 0, -524304, 27, 0, -524303, 27, 0, -524302, 27, 0, -524301, 27, 0, -524300, 27, 0, -524299, 27, 0, -524298, 27, 0, -524297, 27, 0, -524296, 27, 0, -524295, 27, 0, -524294, 27, 0, -524293, 27, 0, -524292, 27, 0, -524291, 27, 0, -524290, 27, 0, -524289, 27, 0, -589824, 27, 0, -589823, 27, 0, -589822, 27, 0, -589821, 27, 0, -589820, 27, 0, -589819, 27, 0, -589818, 27, 0, -589817, 27, 0, -589816, 14, 0, -458770, 1073741838, 0, -458769, 27, 0, -458768, 27, 0, -458767, 27, 0, -458766, 27, 0, -458765, 27, 0, -458764, 27, 0, -458763, 27, 0, -458762, 27, 0, -458761, 27, 0, -458760, 27, 0, -458759, 27, 0, -458758, 27, 0, -458757, 27, 0, -458756, 27, 0, -458755, 27, 0, -458754, 27, 0, -458753, 27, 0, -524288, 27, 0, -524287, 27, 0, -524286, 27, 0, -524285, 27, 0, -524284, 27, 0, -524283, 27, 0, -524282, 27, 0, -524281, 27, 0, -524280, 14, 0, -393234, 1073741838, 0, -393233, 27, 0, -393232, 27, 0, -393231, 27, 0, -393230, 27, 0, -393229, 27, 0, -393228, 27, 0, -393227, 27, 0, -393226, 27, 0, -393225, 27, 0, -393224, 27, 0, -393223, 27, 0, -393222, 27, 0, -393221, 27, 0, -393220, 27, 0, -393219, 27, 0, -393218, 27, 0, -393217, 27, 0, -458752, 27, 0, -458751, 27, 0, -458750, 27, 0, -458749, 27, 0, -458748, 27, 0, -458747, 27, 0, -458746, 27, 0, -458745, 27, 0, -458744, 14, 0, -327698, 1073741838, 0, -327697, 27, 0, -327696, 27, 0, -327695, 27, 0, -327694, 27, 0, -327693, 27, 0, -327692, 27, 0, -327691, 27, 0, -327690, 27, 0, -327689, 27, 0, -327688, 27, 0, -327687, 27, 0, -327686, 27, 0, -327685, 27, 0, -327684, 27, 0, -327683, 27, 0, -327682, 27, 0, -327681, 27, 0, -393216, 27, 0, -393215, 27, 0, -393214, 27, 0, -393213, 27, 0, -393212, 27, 0, -393211, 27, 0, -393210, 27, 0, -393209, 27, 0, -393208, 14, 0, -262162, 1073741837, 0, -262161, 27, 0, -262160, 27, 0, -262159, 27, 0, -262158, 27, 0, -262157, 27, 0, -262156, 27, 0, -262155, 27, 0, -262154, 27, 0, -262153, 27, 0, -262152, 27, 0, -262151, 27, 0, -262150, 27, 0, -262149, 27, 0, -262148, 27, 0, -262147, 27, 0, -262146, 27, 0, -262145, 27, 0, -327680, 27, 0, -327679, 27, 0, -327678, 27, 0, -327677, 27, 0, -327676, 27, 0, -327675, 27, 0, -327674, 27, 0, -327673, 27, 0, -327672, 14, 0, -196626, 27, 0, -196625, 27, 0, -196624, 27, 0, -196623, 27, 0, -196622, 27, 0, -196621, 27, 0, -196620, 27, 0, -196619, 27, 0, -196618, 27, 0, -196617, 27, 0, -196616, 27, 0, -196615, 27, 0, -196614, 27, 0, -196613, 27, 0, -196612, 27, 0, -196611, 27, 0, -196610, 27, 0, -196609, 27, 0, -262144, 27, 0, -262143, 27, 0, -262142, 27, 0, -262141, 27, 0, -262140, 27, 0, -262139, 27, 0, -262138, 27, 0, -262137, 27, 0, -262136, 13, 0, -131090, 27, 0, -131089, 27, 0, -131088, 27, 0, -131087, 27, 0, -131086, 27, 0, -131085, 27, 0, -131084, 27, 0, -131083, 27, 0, -131082, 27, 0, -131081, 27, 0, -131080, 27, 0, -131079, 27, 0, -131078, 27, 0, -131077, 27, 0, -131076, 27, 0, -131075, 27, 0, -131074, 27, 0, -131073, 27, 0, -196608, 27, 0, -196607, 27, 0, -196606, 27, 0, -196605, 27, 0, -196604, 27, 0, -196603, 27, 0, -196602, 27, 0, -196601, 27, 0, -196600, 14, 0, -65554, 27, 0, -65553, 27, 0, -65552, 27, 0, -65551, 27, 0, -65550, 27, 0, -65549, 27, 0, -65548, 27, 0, -65547, 27, 0, -65546, 27, 0, -65545, 27, 0, -65544, 27, 0, -65543, 27, 0, -65542, 27, 0, -65541, 27, 0, -65540, 27, 0, -65539, 27, 0, -65538, 27, 0, -65537, 27, 0, -131072, 27, 0, -131071, 27, 0, -131070, 27, 0, -131069, 27, 0, -131068, 27, 0, -131067, 27, 0, -131066, 27, 0, -131065, 27, 0, -131064, 14, 0, -18, 27, 0, -17, 27, 0, -16, 27, 0, -15, 27, 0, -14, 27, 0, -13, 27, 0, -12, 27, 0, -11, 27, 0, -10, 27, 0, -9, 27, 0, -8, 27, 0, -7, 27, 0, -6, 27, 0, -5, 27, 0, -4, 27, 0, -3, 27, 0, -2, 27, 0, -1, 27, 0, -65536, 27, 0, -65535, 27, 0, -65534, 27, 0, -65533, 27, 0, -65532, 27, 0, -65531, 27, 0, -65530, 27, 0, -65529, 27, 0, -65528, 14, 0, 65518, 27, 0, 65519, 27, 0, 65520, 27, 0, 65521, 27, 0, 65522, 27, 0, 65523, 27, 0, 65524, 27, 0, 65525, 27, 0, 65526, 27, 0, 65527, 27, 0, 65528, 27, 0, 65529, 27, 0, 65530, 27, 0, 65531, 27, 0, 65532, 27, 0, 65533, 27, 0, 65534, 27, 0, 65535, 27, 0, 0, 27, 0, 1, 27, 0, 2, 27, 0, 3, 27, 0, 4, 27, 0, 5, 27, 0, 6, 27, 0, 7, 27, 0, 8, 14, 0, 131054, 536870925, 0, 131055, 38, 0, 131056, 38, 0, 131057, 38, 0, 131058, 38, 0, 131059, 38, 0, 131060, 38, 0, 131061, 38, 0, 131062, 38, 0, 131063, 38, 0, 131064, 38, 0, 131065, 38, 0, 131066, 38, 0, 131067, 38, 0, 131068, 38, 0, 131069, 38, 0, 131070, 38, 0, 131071, 38, 0, 65536, 38, 0, 65537, 38, 0, 65538, 38, 0, 65539, 38, 0, 65540, 38, 0, 65541, 38, 0, 65542, 38, 0, 65543, 38, 0, 65544, 13, 0, 196590, 14, 0, 196591, 35, 0, 196592, 35, 0, 196593, 35, 0, 196594, 35, 0, 196595, 35, 0, 196596, 35, 0, 196597, 35, 0, 196598, 35, 0, 196599, 35, 0, 196600, 35, 0, 196601, 35, 0, 196602, 35, 0, 196603, 35, 0, 196604, 35, 0, 196605, 35, 0, 196606, 35, 0, 196607, 35, 0, 131072, 35, 0, 131073, 35, 0, 131074, 35, 0, 131075, 35, 0, 131076, 35, 0, 131077, 35, 0, 131078, 35, 0, 131079, 35, 0, 131080, 14, 0, 262126, 14, 0, 262127, 35, 0, 262128, 35, 0, 262129, 35, 0, 262130, 35, 0, 262131, 35, 0, 262132, 35, 0, 262133, 35, 0, 262134, 35, 0, 262135, 35, 0, 262136, 35, 0, 262137, 35, 0, 262138, 35, 0, 262139, 35, 0, 262140, 35, 0, 262141, 35, 0, 262142, 35, 0, 262143, 35, 0, 196608, 35, 0, 196609, 35, 0, 196610, 35, 0, 196611, 35, 0, 196612, 35, 0, 196613, 35, 0, 196614, 35, 0, 196615, 35, 0, 196616, 14, 0, 327662, 14, 0, 327663, 35, 0, 327664, 35, 0, 327665, 35, 0, 327666, 35, 0, 327667, 35, 0, 327668, 35, 0, 327669, 35, 0, 327670, 35, 0, 327671, 35, 0, 327672, 35, 0, 327673, 35, 0, 327674, 35, 0, 327675, 35, 0, 327676, 35, 0, 327677, 35, 0, 327678, 35, 0, 327679, 35, 0, 262144, 35, 0, 262145, 35, 0, 262146, 35, 0, 262147, 35, 0, 262148, 35, 0, 262149, 35, 0, 262150, 35, 0, 262151, 35, 0, 262152, 14, 0 )

[node name="DecoGroup" type="Node2D" parent="tilemap"]

[node name="TileMap" type="TileMap" parent="tilemap/DecoGroup"]
tile_set = ExtResource( 2 )
cell_size = Vector2( 32, 32 )
cell_custom_transform = Transform2D( 1, 0, 0, 1, 0, 0 )
compatibility_mode = true
format = 1
tile_data = PoolIntArray( -589823, 0, 0, -524287, 1, 0, -393231, 0, 0, -393221, 0, 0, -458751, 2, 0, -327695, 1, 0, -327685, 1, 0, -262159, 1, 0, -262149, 1, 0, -196623, 1, 0, -196620, 3, 0, -196619, 4, 0, -196618, 4, 0, -196617, 4, 0, -196616, 536870915, 0, -196613, 1, 0, -131087, 1, 0, -131084, 5, 0, -131083, 6, 0, -131082, 6, 0, -131081, 6, 0, -131080, 536870917, 0, -131077, 2, 0, -65551, 2, 0, -65548, 5, 0, -65547, 6, 0, -65546, 6, 0, -65545, 6, 0, -65544, 536870917, 0, -12, 5, 0, -11, 6, 0, -10, 6, 0, -9, 6, 0, -8, 536870917, 0, 65523, 8, 0, 65524, 5, 0, 65525, 6, 0, 65526, 6, 0, 65527, 6, 0, 65528, 536870917, 0, 65531, 8, 0, 1, 8, 0, 6, 8, 0 )

[node name="One-WayPlatformGroup" type="Node2D" parent="tilemap"]

[node name="One-WayPlatform" parent="tilemap/One-WayPlatformGroup" instance=ExtResource( 3 )]
position = Vector2( 144, -112 )

[node name="Sprite" parent="tilemap/One-WayPlatformGroup/One-WayPlatform/KinematicBody2D" index="0"]
region_enabled = true
region_rect = Rect2( 0, 0, 224, 32 )

[node name="oneway" parent="tilemap/One-WayPlatformGroup/One-WayPlatform/KinematicBody2D" index="1"]
scale = Vector2( 7, 1 )

[node name="One-WayPlatform1" parent="tilemap/One-WayPlatformGroup" instance=ExtResource( 3 )]
position = Vector2( 16, -112 )

[node name="Sprite" parent="tilemap/One-WayPlatformGroup/One-WayPlatform1/KinematicBody2D" index="0"]
texture = ExtResource( 4 )
offset = Vector2( -2, 0 )
flip_h = true

[node name="PotGroup" type="Node2D" parent="tilemap"]

[node name="Pot" parent="tilemap/PotGroup" instance=ExtResource( 5 )]
position = Vector2( 112, -176 )

[node name="NPCGroup" type="Node2D" parent="tilemap"]

[node name="NPC" parent="tilemap/NPCGroup" instance=ExtResource( 6 )]
position = Vector2( 208, -192 )
dialogues = [ [ -1, "CHARACTER_POTIONSMASTER", "DIAG_WATERWAY0", null, [ [ "KEY_YES", "shop", "SHOP_POTIONSMASTER1", true ], [ "KEY_NO", "end" ] ] ] ]

[node name="Sprite" parent="tilemap/NPCGroup/NPC" index="1"]
scale = Vector2( -1, 1 )

[node name="SpikeGroup" type="Node2D" parent="tilemap"]

[node name="SpikeTile" parent="tilemap/SpikeGroup" instance=ExtResource( 7 )]
position = Vector2( 240, -432 )

[node name="Sprite" parent="tilemap/SpikeGroup/SpikeTile" index="0"]
flip_v = true

[node name="SpikeTile1" parent="tilemap/SpikeGroup" instance=ExtResource( 7 )]
position = Vector2( 208, -432 )

[node name="Sprite" parent="tilemap/SpikeGroup/SpikeTile1" index="0"]
flip_v = true

[node name="SpikeTile2" parent="tilemap/SpikeGroup" instance=ExtResource( 7 )]
position = Vector2( 176, -432 )

[node name="Sprite" parent="tilemap/SpikeGroup/SpikeTile2" index="0"]
flip_v = true

[node name="SpikeTile3" parent="tilemap/SpikeGroup" instance=ExtResource( 7 )]
position = Vector2( 144, -432 )

[node name="Sprite" parent="tilemap/SpikeGroup/SpikeTile3" index="0"]
flip_v = true

[node name="SpikeTile4" parent="tilemap/SpikeGroup" instance=ExtResource( 7 )]
position = Vector2( 112, -432 )

[node name="Sprite" parent="tilemap/SpikeGroup/SpikeTile4" index="0"]
flip_v = true

[node name="SpikeTile5" parent="tilemap/SpikeGroup" instance=ExtResource( 7 )]
position = Vector2( 80, -432 )

[node name="Sprite" parent="tilemap/SpikeGroup/SpikeTile5" index="0"]
flip_v = true

[node name="SpikeTile6" parent="tilemap/SpikeGroup" instance=ExtResource( 7 )]
position = Vector2( 48, -432 )

[node name="Sprite" parent="tilemap/SpikeGroup/SpikeTile6" index="0"]
flip_v = true

[node name="SpikeTile7" parent="tilemap/SpikeGroup" instance=ExtResource( 7 )]
position = Vector2( 16, -432 )

[node name="Sprite" parent="tilemap/SpikeGroup/SpikeTile7" index="0"]
flip_v = true

[node name="SpikeTile8" parent="tilemap/SpikeGroup" instance=ExtResource( 7 )]
position = Vector2( -16, -432 )

[node name="Sprite" parent="tilemap/SpikeGroup/SpikeTile8" index="0"]
flip_v = true

[node name="SpikeTile9" parent="tilemap/SpikeGroup" instance=ExtResource( 7 )]
position = Vector2( -48, -432 )

[node name="Sprite" parent="tilemap/SpikeGroup/SpikeTile9" index="0"]
flip_v = true

[node name="SpikeTile10" parent="tilemap/SpikeGroup" instance=ExtResource( 7 )]
position = Vector2( -80, -432 )

[node name="Sprite" parent="tilemap/SpikeGroup/SpikeTile10" index="0"]
flip_v = true

[node name="ItemGroup" type="Node2D" parent="tilemap"]

[node name="Gold" parent="tilemap/ItemGroup" instance=ExtResource( 8 )]
position = Vector2( 208, -32 )
value = 50

[node name="SunbeamGroup" type="Node2D" parent="tilemap"]
position = Vector2( 0, -1 )

[node name="Sunbeam" parent="tilemap/SunbeamGroup" instance=ExtResource( 9 )]
position = Vector2( -272, -223 )

[node name="block" parent="tilemap/SunbeamGroup/Sunbeam" index="0"]
scale = Vector2( 10, 16 )

[node name="sunbeam" parent="tilemap/SunbeamGroup/Sunbeam" index="1"]
scale = Vector2( 10, 16 )

[node name="TeleportGroup" type="Node2D" parent="tilemap"]

[node name="Teleport" parent="tilemap/TeleportGroup" instance=ExtResource( 10 )]
position = Vector2( -592, -48 )
target_level = "res://levels/waterway/3-1.tscn"
teleport_to = Vector2( 908, 112 )

[node name="teleport" parent="tilemap/TeleportGroup/Teleport" index="0"]
scale = Vector2( 1, 5 )

[node name="boundaries" type="Node2D" parent="tilemap"]

[node name="NW" type="Position2D" parent="tilemap/boundaries"]
position = Vector2( -592, -496 )

[node name="SE" type="Position2D" parent="tilemap/boundaries"]
position = Vector2( 304, 176 )

[editable path="tilemap/One-WayPlatformGroup/One-WayPlatform"]

[editable path="tilemap/One-WayPlatformGroup/One-WayPlatform1"]

[editable path="tilemap/NPCGroup/NPC"]

[editable path="tilemap/SpikeGroup/SpikeTile"]

[editable path="tilemap/SpikeGroup/SpikeTile1"]

[editable path="tilemap/SpikeGroup/SpikeTile2"]

[editable path="tilemap/SpikeGroup/SpikeTile3"]

[editable path="tilemap/SpikeGroup/SpikeTile4"]

[editable path="tilemap/SpikeGroup/SpikeTile5"]

[editable path="tilemap/SpikeGroup/SpikeTile6"]

[editable path="tilemap/SpikeGroup/SpikeTile7"]

[editable path="tilemap/SpikeGroup/SpikeTile8"]

[editable path="tilemap/SpikeGroup/SpikeTile9"]

[editable path="tilemap/SpikeGroup/SpikeTile10"]

[editable path="tilemap/SunbeamGroup/Sunbeam"]

[editable path="tilemap/TeleportGroup/Teleport"]
