[gd_scene load_steps=7 format=2]

[ext_resource path="res://scenes/cave/tileset.tres" type="TileSet" id=1]
[ext_resource path="res://scenes/dungeon/ladder/ladder.tscn" type="PackedScene" id=2]
[ext_resource path="res://scenes/dungeon/ladder/laddertop.tscn" type="PackedScene" id=3]
[ext_resource path="res://scenes/common/breakables/torch.tscn" type="PackedScene" id=4]
[ext_resource path="res://scenes/common/damagables/lizardman/lizardman.tscn" type="PackedScene" id=5]
[ext_resource path="res://scenes/common/teleport.tscn" type="PackedScene" id=6]

[node name="LVL_CAVE" type="Node2D"]
__meta__ = {
"__editor_plugin_screen__": "2D"
}

[node name="tilemap" type="TileMap" parent="."]
tile_set = ExtResource( 1 )
cell_size = Vector2( 32, 32 )
compatibility_mode = true
collision_layer = 524288
format = 1
tile_data = PoolIntArray( -1572877, 536870915, 0, -1572876, 12, 0, -1572875, 12, 0, -1572874, 12, 0, -1572873, 12, 0, -1572872, 12, 0, -1572871, 12, 0, -1572870, 12, 0, -1572869, 12, 0, -1572868, 12, 0, -1572867, 12, 0, -1572866, 12, 0, -1572865, 12, 0, -1638400, 12, 0, -1638399, 12, 0, -1638398, 12, 0, -1638397, 12, 0, -1638396, 12, 0, -1638395, 12, 0, -1638394, 12, 0, -1638393, 12, 0, -1638392, 12, 0, -1638391, 12, 0, -1638390, 12, 0, -1638389, 12, 0, -1638388, 12, 0, -1638387, 3, 0, -1507341, 536870915, 0, -1507340, 12, 0, -1507339, 12, 0, -1507338, 12, 0, -1507337, 12, 0, -1507336, 12, 0, -1507335, 12, 0, -1507334, 12, 0, -1507333, 12, 0, -1507332, 12, 0, -1507331, 12, 0, -1507330, 12, 0, -1507329, 12, 0, -1572864, 12, 0, -1572863, 12, 0, -1572862, 12, 0, -1572861, 12, 0, -1572860, 12, 0, -1572859, 12, 0, -1572858, 12, 0, -1572857, 12, 0, -1572856, 12, 0, -1572855, 12, 0, -1572854, 12, 0, -1572853, 12, 0, -1572852, 12, 0, -1572851, 3, 0, -1441805, 536870915, 0, -1441804, 12, 0, -1441803, 12, 0, -1441802, 12, 0, -1441801, 12, 0, -1441800, 12, 0, -1441799, 12, 0, -1441798, 12, 0, -1441797, 12, 0, -1441796, 12, 0, -1441795, 12, 0, -1441794, 12, 0, -1441793, 12, 0, -1507328, 12, 0, -1507327, 12, 0, -1507326, 12, 0, -1507325, 12, 0, -1507324, 12, 0, -1507323, 12, 0, -1507322, 12, 0, -1507321, 12, 0, -1507320, 12, 0, -1507319, 12, 0, -1507318, 12, 0, -1507317, 12, 0, -1507316, 12, 0, -1507315, 3, 0, -1376269, 536870915, 0, -1376268, 12, 0, -1376267, 12, 0, -1376266, 12, 0, -1376265, 12, 0, -1376264, 12, 0, -1376263, 12, 0, -1376262, 12, 0, -1376261, 12, 0, -1376260, 12, 0, -1376259, 12, 0, -1376258, 12, 0, -1376257, 12, 0, -1441792, 12, 0, -1441791, 12, 0, -1441790, 12, 0, -1441789, 12, 0, -1441788, 12, 0, -1441787, 12, 0, -1441786, 12, 0, -1441785, 12, 0, -1441784, 12, 0, -1441783, 12, 0, -1441782, 12, 0, -1441781, 12, 0, -1441780, 12, 0, -1441779, 3, 0, -1310733, 1073741825, 0, -1310732, 1073741824, 0, -1310731, 1073741824, 0, -1310730, 1073741824, 0, -1310729, 1073741824, 0, -1310728, 1073741824, 0, -1310727, 1073741824, 0, -1310726, 1073741824, 0, -1310725, 1073741824, 0, -1310724, 1073741824, 0, -1310723, 1073741824, 0, -1310722, 1073741824, 0, -1310721, 1073741824, 0, -1376256, 1073741824, 0, -1376255, 1073741824, 0, -1376254, 1073741824, 0, -1376253, 1073741824, 0, -1376252, 1073741824, 0, -1376251, 1073741824, 0, -1376250, 1073741824, 0, -1376249, 1073741824, 0, -1376248, 1073741824, 0, -1376247, 1073741824, 0, -1376246, 1073741824, 0, -1376245, 1073741824, 0, -1376244, 1073741824, 0, -1376243, 1073741826, 0, -1245197, 3, 0, -1245196, 11, 0, -1245195, 11, 0, -1245194, 11, 0, -1245193, 11, 0, -1245192, 11, 0, -1245191, 11, 0, -1245190, 11, 0, -1245189, 11, 0, -1245188, 11, 0, -1245187, 11, 0, -1245186, 11, 0, -1245185, 11, 0, -1310720, 11, 0, -1310719, 11, 0, -1310718, 11, 0, -1310717, 11, 0, -1310716, 11, 0, -1310715, 11, 0, -1310714, 11, 0, -1310713, 11, 0, -1310712, 11, 0, -1310711, 11, 0, -1310710, 11, 0, -1310709, 11, 0, -1310708, 11, 0, -1310707, 536870915, 0, -1179661, 3, 0, -1179660, 11, 0, -1179659, 11, 0, -1179658, 11, 0, -1179657, 11, 0, -1179656, 11, 0, -1179655, 11, 0, -1179654, 11, 0, -1179653, 11, 0, -1179652, 11, 0, -1179651, 11, 0, -1179650, 11, 0, -1179649, 11, 0, -1245184, 11, 0, -1245183, 11, 0, -1245182, 11, 0, -1245181, 11, 0, -1245180, 11, 0, -1245179, 11, 0, -1245178, 11, 0, -1245177, 11, 0, -1245176, 11, 0, -1245175, 11, 0, -1245174, 11, 0, -1245173, 11, 0, -1245172, 11, 0, -1245171, 536870915, 0, -1114125, 3, 0, -1114124, 11, 0, -1114123, 11, 0, -1114122, 11, 0, -1114121, 11, 0, -1114120, 11, 0, -1114119, 11, 0, -1114118, 11, 0, -1114117, 11, 0, -1114116, 11, 0, -1114115, 11, 0, -1114114, 11, 0, -1114113, 11, 0, -1179648, 11, 0, -1179647, 11, 0, -1179646, 11, 0, -1179645, 11, 0, -1179644, 11, 0, -1179643, 11, 0, -1179642, 11, 0, -1179641, 11, 0, -1179640, 11, 0, -1179639, 11, 0, -1179638, 11, 0, -1179637, 11, 0, -1179636, 11, 0, -1179635, 536870915, 0, -1048589, 3, 0, -1048588, 11, 0, -1048587, 11, 0, -1048586, 11, 0, -1048585, 11, 0, -1048584, 11, 0, -1048583, 11, 0, -1048582, 11, 0, -1048581, 11, 0, -1048580, 11, 0, -1048579, 11, 0, -1048578, 11, 0, -1048577, 11, 0, -1114112, 11, 0, -1114111, 11, 0, -1114110, 11, 0, -1114109, 11, 0, -1114108, 11, 0, -1114107, 11, 0, -1114106, 11, 0, -1114105, 11, 0, -1114104, 11, 0, -1114103, 11, 0, -1114102, 11, 0, -1114101, 11, 0, -1114100, 11, 0, -1114099, 536870915, 0, -983053, 3, 0, -983052, 11, 0, -983051, 11, 0, -983050, 11, 0, -983049, 11, 0, -983048, 11, 0, -983047, 11, 0, -983046, 11, 0, -983045, 11, 0, -983044, 11, 0, -983043, 11, 0, -983042, 11, 0, -983041, 11, 0, -1048576, 11, 0, -1048575, 11, 0, -1048574, 11, 0, -1048573, 11, 0, -1048572, 11, 0, -1048571, 11, 0, -1048570, 11, 0, -1048569, 11, 0, -1048568, 11, 0, -1048567, 11, 0, -1048566, 11, 0, -1048565, 11, 0, -1048564, 11, 0, -1048563, 536870915, 0, -917517, 3, 0, -917516, 11, 0, -917515, 11, 0, -917514, 11, 0, -917513, 11, 0, -917512, 11, 0, -917511, 11, 0, -917510, 11, 0, -917509, 11, 0, -917508, 11, 0, -917507, 11, 0, -917506, 11, 0, -917505, 11, 0, -983040, 11, 0, -983039, 11, 0, -983038, 11, 0, -983037, 11, 0, -983036, 11, 0, -983035, 11, 0, -983034, 11, 0, -983033, 11, 0, -983032, 11, 0, -983031, 11, 0, -983030, 11, 0, -983029, 11, 0, -983028, 11, 0, -983027, 536870915, 0, -851981, 3, 0, -851980, 11, 0, -851979, 11, 0, -851978, 11, 0, -851977, 11, 0, -851976, 11, 0, -851975, 11, 0, -851974, 11, 0, -851973, 11, 0, -851972, 11, 0, -851971, 11, 0, -851970, 11, 0, -851969, 11, 0, -917504, 11, 0, -917503, 11, 0, -917502, 11, 0, -917501, 11, 0, -917500, 11, 0, -917499, 11, 0, -917498, 11, 0, -917497, 11, 0, -917496, 11, 0, -917495, 11, 0, -917494, 11, 0, -917493, 11, 0, -917492, 11, 0, -917491, 536870915, 0, -786445, 3, 0, -786444, 11, 0, -786443, 11, 0, -786442, 11, 0, -786441, 11, 0, -786440, 11, 0, -786439, 11, 0, -786438, 11, 0, -786437, 11, 0, -786436, 11, 0, -786435, 11, 0, -786434, 11, 0, -786433, 11, 0, -851968, 11, 0, -851967, 11, 0, -851966, 11, 0, -851965, 11, 0, -851964, 11, 0, -851963, 11, 0, -851962, 11, 0, -851961, 11, 0, -851960, 11, 0, -851959, 11, 0, -851958, 11, 0, -851957, 11, 0, -851956, 11, 0, -851955, 536870915, 0, -720909, 3, 0, -720908, 11, 0, -720907, 11, 0, -720906, 11, 0, -720905, 11, 0, -720904, 11, 0, -720903, 11, 0, -720902, 11, 0, -720901, 11, 0, -720900, 11, 0, -720899, 11, 0, -720898, 11, 0, -720897, 11, 0, -786432, 11, 0, -786431, 11, 0, -786430, 11, 0, -786429, 11, 0, -786428, 11, 0, -786427, 11, 0, -786426, 11, 0, -786425, 11, 0, -786424, 11, 0, -786423, 11, 0, -786422, 11, 0, -786421, 11, 0, -786420, 11, 0, -786419, 536870915, 0, -655373, 3, 0, -655372, 11, 0, -655371, 11, 0, -655370, 11, 0, -655369, 11, 0, -655368, 11, 0, -655367, 11, 0, -655366, 11, 0, -655365, 11, 0, -655364, 11, 0, -655363, 11, 0, -655362, 11, 0, -655361, 11, 0, -720896, 11, 0, -720895, 11, 0, -720894, 11, 0, -720893, 11, 0, -720892, 11, 0, -720891, 11, 0, -720890, 11, 0, -720889, 11, 0, -720888, 11, 0, -720887, 11, 0, -720886, 11, 0, -720885, 11, 0, -720884, 11, 0, -720883, 536870915, 0, -589837, 1073741826, 0, -589836, 11, 0, -589835, 11, 0, -589834, 11, 0, -589833, 11, 0, -589832, 11, 0, -589831, 11, 0, -589830, 11, 0, -589829, 11, 0, -589828, 11, 0, -589827, 11, 0, -589826, 11, 0, -589825, 11, 0, -655360, 11, 0, -655359, 11, 0, -655358, 11, 0, -655357, 11, 0, -655356, 11, 0, -655355, 11, 0, -655354, 11, 0, -655353, 11, 0, -655352, 11, 0, -655351, 11, 0, -655350, 11, 0, -655349, 11, 0, -655348, 11, 0, -655347, 1073741825, 0, -524301, 11, 0, -524300, 11, 0, -524299, 11, 0, -524298, 11, 0, -524297, 11, 0, -524296, 11, 0, -524295, 11, 0, -524294, 11, 0, -524293, 11, 0, -524292, 11, 0, -524291, 11, 0, -524290, 11, 0, -524289, 11, 0, -589824, 11, 0, -589823, 11, 0, -589822, 11, 0, -589821, 11, 0, -589820, 11, 0, -589819, 11, 0, -589818, 11, 0, -589817, 11, 0, -589816, 11, 0, -589815, 11, 0, -589814, 11, 0, -589813, 11, 0, -589812, 11, 0, -589811, 11, 0, -458765, 11, 0, -458764, 11, 0, -458763, 11, 0, -458762, 11, 0, -458761, 11, 0, -458760, 11, 0, -458759, 11, 0, -458758, 11, 0, -458757, 11, 0, -458756, 11, 0, -458755, 11, 0, -458754, 11, 0, -458753, 11, 0, -524288, 11, 0, -524287, 11, 0, -524286, 11, 0, -524285, 11, 0, -524284, 11, 0, -524283, 11, 0, -524282, 11, 0, -524281, 11, 0, -524280, 11, 0, -524279, 11, 0, -524278, 11, 0, -524277, 11, 0, -524276, 11, 0, -524275, 11, 0, -393229, 11, 0, -393228, 11, 0, -393227, 11, 0, -393226, 11, 0, -393225, 11, 0, -393224, 11, 0, -393223, 11, 0, -393222, 11, 0, -393221, 11, 0, -393220, 11, 0, -393219, 11, 0, -393218, 11, 0, -393217, 11, 0, -458752, 11, 0, -458751, 11, 0, -458750, 11, 0, -458749, 11, 0, -458748, 11, 0, -458747, 11, 0, -458746, 11, 0, -458745, 11, 0, -458744, 11, 0, -458743, 11, 0, -458742, 11, 0, -458741, 11, 0, -458740, 11, 0, -458739, 11, 0, -327693, 11, 0, -327692, 11, 0, -327691, 11, 0, -327690, 11, 0, -327689, 11, 0, -327688, 11, 0, -327687, 11, 0, -327686, 11, 0, -327685, 11, 0, -327684, 11, 0, -327683, 11, 0, -327682, 11, 0, -327681, 11, 0, -393216, 11, 0, -393215, 11, 0, -393214, 11, 0, -393213, 11, 0, -393212, 11, 0, -393211, 11, 0, -393210, 11, 0, -393209, 11, 0, -393208, 11, 0, -393207, 11, 0, -393206, 11, 0, -393205, 11, 0, -393204, 11, 0, -393203, 11, 0, -262157, 11, 0, -262156, 11, 0, -262155, 11, 0, -262154, 11, 0, -262153, 11, 0, -262152, 11, 0, -262151, 11, 0, -262150, 11, 0, -262149, 11, 0, -262148, 11, 0, -262147, 11, 0, -262146, 11, 0, -262145, 11, 0, -327680, 11, 0, -327679, 11, 0, -327678, 11, 0, -327677, 11, 0, -327676, 11, 0, -327675, 11, 0, -327674, 11, 0, -327673, 11, 0, -327672, 11, 0, -327671, 11, 0, -327670, 11, 0, -327669, 11, 0, -327668, 11, 0, -327667, 11, 0, -196621, 1, 0, -196620, 0, 0, -196619, 0, 0, -196618, 0, 0, -196617, 0, 0, -196616, 0, 0, -196615, 0, 0, -196614, 0, 0, -196613, 0, 0, -196612, 0, 0, -196611, 0, 0, -196610, 2, 0, -196609, 11, 0, -262144, 11, 0, -262143, 11, 0, -262142, 1, 0, -262141, 0, 0, -262140, 0, 0, -262139, 0, 0, -262138, 0, 0, -262137, 0, 0, -262136, 0, 0, -262135, 0, 0, -262134, 0, 0, -262133, 0, 0, -262132, 0, 0, -262131, 2, 0, -131085, 536870915, 0, -131084, 12, 0, -131083, 12, 0, -131082, 12, 0, -131081, 12, 0, -131080, 12, 0, -131079, 12, 0, -131078, 12, 0, -131077, 12, 0, -131076, 12, 0, -131075, 12, 0, -131074, 3, 0, -131073, 11, 0, -196608, 11, 0, -196607, 11, 0, -196606, 536870915, 0, -196605, 12, 0, -196604, 12, 0, -196603, 12, 0, -196602, 12, 0, -196601, 12, 0, -196600, 12, 0, -196599, 12, 0, -196598, 12, 0, -196597, 12, 0, -196596, 12, 0, -196595, 3, 0, -65549, 536870915, 0, -65548, 12, 0, -65547, 12, 0, -65546, 12, 0, -65545, 12, 0, -65544, 12, 0, -65543, 12, 0, -65542, 12, 0, -65541, 12, 0, -65540, 12, 0, -65539, 12, 0, -65538, 3, 0, -65537, 11, 0, -131072, 11, 0, -131071, 11, 0, -131070, 536870915, 0, -131069, 12, 0, -131068, 12, 0, -131067, 12, 0, -131066, 12, 0, -131065, 12, 0, -131064, 12, 0, -131063, 12, 0, -131062, 12, 0, -131061, 12, 0, -131060, 12, 0, -131059, 3, 0, -13, 536870915, 0, -12, 12, 0, -11, 12, 0, -10, 12, 0, -9, 12, 0, -8, 12, 0, -7, 12, 0, -6, 12, 0, -5, 12, 0, -4, 12, 0, -3, 12, 0, -2, 3, 0, -1, 11, 0, -65536, 11, 0, -65535, 11, 0, -65534, 536870915, 0, -65533, 12, 0, -65532, 12, 0, -65531, 12, 0, -65530, 12, 0, -65529, 12, 0, -65528, 12, 0, -65527, 12, 0, -65526, 12, 0, -65525, 12, 0, -65524, 12, 0, -65523, 3, 0, 65523, 536870915, 0, 65524, 12, 0, 65525, 12, 0, 65526, 12, 0, 65527, 12, 0, 65528, 12, 0, 65529, 12, 0, 65530, 12, 0, 65531, 12, 0, 65532, 12, 0, 65533, 12, 0, 65534, 3, 0, 65535, 11, 0, 0, 11, 0, 1, 11, 0, 2, 536870915, 0, 3, 12, 0, 4, 12, 0, 5, 12, 0, 6, 12, 0, 7, 12, 0, 8, 12, 0, 9, 12, 0, 10, 12, 0, 11, 12, 0, 12, 12, 0, 13, 3, 0, 131059, 536870915, 0, 131060, 12, 0, 131061, 12, 0, 131062, 12, 0, 131063, 12, 0, 131064, 12, 0, 131065, 12, 0, 131066, 12, 0, 131067, 12, 0, 131068, 12, 0, 131069, 12, 0, 131070, 3, 0, 131071, 11, 0, 65536, 11, 0, 65537, 11, 0, 65538, 536870915, 0, 65539, 12, 0, 65540, 12, 0, 65541, 12, 0, 65542, 12, 0, 65543, 12, 0, 65544, 12, 0, 65545, 12, 0, 65546, 12, 0, 65547, 12, 0, 65548, 12, 0, 65549, 3, 0, 196595, 536870915, 0, 196596, 12, 0, 196597, 12, 0, 196598, 12, 0, 196599, 12, 0, 196600, 12, 0, 196601, 12, 0, 196602, 12, 0, 196603, 12, 0, 196604, 12, 0, 196605, 12, 0, 196606, 3, 0, 196607, 11, 0, 131072, 11, 0, 131073, 11, 0, 131074, 536870915, 0, 131075, 12, 0, 131076, 12, 0, 131077, 12, 0, 131078, 12, 0, 131079, 12, 0, 131080, 12, 0, 131081, 12, 0, 131082, 12, 0, 131083, 12, 0, 131084, 12, 0, 131085, 3, 0, 262131, 536870915, 0, 262132, 12, 0, 262133, 12, 0, 262134, 12, 0, 262135, 12, 0, 262136, 12, 0, 262137, 12, 0, 262138, 12, 0, 262139, 12, 0, 262140, 12, 0, 262141, 12, 0, 262142, 3, 0, 262143, 11, 0, 196608, 11, 0, 196609, 11, 0, 196610, 536870915, 0, 196611, 12, 0, 196612, 12, 0, 196613, 12, 0, 196614, 12, 0, 196615, 12, 0, 196616, 12, 0, 196617, 12, 0, 196618, 12, 0, 196619, 12, 0, 196620, 12, 0, 196621, 3, 0 )

[node name="DecoGroup" type="Node2D" parent="tilemap"]

[node name="TileMap" type="TileMap" parent="tilemap/DecoGroup"]
tile_set = ExtResource( 1 )
cell_size = Vector2( 32, 32 )
compatibility_mode = true
format = 1
tile_data = PoolIntArray( -1310725, 16, 0, -1376252, 16, 0, -1376246, 17, 0, -262150, 14, 0, 0, -327677, 0 )

[node name="LadderGroup" type="Node2D" parent="tilemap"]

[node name="TestLadder" parent="tilemap/LadderGroup" instance=ExtResource( 2 )]
position = Vector2( 16, 0 )

[node name="Sprite" parent="tilemap/LadderGroup/TestLadder/KinematicBody2D" index="0"]
region_rect = Rect2( 0, 0, 32, 256 )

[node name="ladder" parent="tilemap/LadderGroup/TestLadder/KinematicBody2D" index="1"]
scale = Vector2( 1, 8 )

[node name="TestLadder 2" parent="tilemap/LadderGroup" instance=ExtResource( 3 )]
position = Vector2( 16, -144 )

[node name="TorchGroup" type="Node2D" parent="tilemap"]

[node name="torch" parent="tilemap/TorchGroup" instance=ExtResource( 4 )]
position = Vector2( 160, -256 )

[node name="torch2" parent="tilemap/TorchGroup" instance=ExtResource( 4 )]
position = Vector2( -128, -256 )

[node name="EnemiesGroup" type="Node2D" parent="tilemap"]

[node name="Lizardman" parent="tilemap/EnemiesGroup" instance=ExtResource( 5 )]
position = Vector2( 240, -192 )

[node name="TeleportGroup" type="Node2D" parent="tilemap"]

[node name="Teleport" parent="tilemap/TeleportGroup" instance=ExtResource( 6 )]
position = Vector2( 16, 144 )
is_horizontal = false
target_level = "res://levels/common/catacombs.tscn"
teleport_to = Vector2( -16, -272 )

[node name="teleport" parent="tilemap/TeleportGroup/Teleport" index="0"]
scale = Vector2( 3, 1 )

[node name="Teleport1" parent="tilemap/TeleportGroup" instance=ExtResource( 6 )]
position = Vector2( 464, -208 )
target_level = "res://levels/cave/0-1.tscn"
teleport_to = Vector2( -460, 112 )

[node name="teleport" parent="tilemap/TeleportGroup/Teleport1" index="0"]
scale = Vector2( 1, 5 )

[node name="Teleport2" parent="tilemap/TeleportGroup" instance=ExtResource( 6 )]
position = Vector2( -432, -208 )
target_level = "res://levels/cave/1-0.tscn"
teleport_to = Vector2( 236, 48 )

[node name="teleport" parent="tilemap/TeleportGroup/Teleport2" index="0"]
scale = Vector2( 1, 5 )

[node name="boundaries" type="Node2D" parent="tilemap"]

[node name="NW" type="Position2D" parent="tilemap/boundaries"]
position = Vector2( -432, -816 )

[node name="SE" type="Position2D" parent="tilemap/boundaries"]
position = Vector2( 458, 138 )

[editable path="tilemap/LadderGroup/TestLadder"]

[editable path="tilemap/TeleportGroup/Teleport"]

[editable path="tilemap/TeleportGroup/Teleport1"]

[editable path="tilemap/TeleportGroup/Teleport2"]
