[gd_scene load_steps=14 format=2]

[ext_resource path="res://scenes/cave/tileset.tres" type="TileSet" id=1]
[ext_resource path="res://scenes/cave/slopes/slope0-15.tscn" type="PackedScene" id=2]
[ext_resource path="res://scenes/cave/slopes/slope0-31.tscn" type="PackedScene" id=3]
[ext_resource path="res://scenes/cave/slopes/slope0-7.tscn" type="PackedScene" id=4]
[ext_resource path="res://scenes/cave/slopes/slope16-23.tscn" type="PackedScene" id=5]
[ext_resource path="res://scenes/cave/slopes/slope16-31.tscn" type="PackedScene" id=6]
[ext_resource path="res://scenes/cave/slopes/slope24-31.tscn" type="PackedScene" id=7]
[ext_resource path="res://scenes/cave/slopes/slope8-15.tscn" type="PackedScene" id=8]
[ext_resource path="res://scenes/dungeon/slopes/slopea-b.tscn" type="PackedScene" id=9]
[ext_resource path="res://scenes/dungeon/ladder/ladder.tscn" type="PackedScene" id=10]
[ext_resource path="res://scenes/common/damagables/sorcerer/sorcerer.tscn" type="PackedScene" id=11]
[ext_resource path="res://scenes/common/teleport.tscn" type="PackedScene" id=12]
[ext_resource path="res://scenes/cave/parallax2.tscn" type="PackedScene" id=13]

[node name="LVL_NOTITLE" type="Node2D"]
__meta__ = {
"__editor_plugin_screen__": "2D"
}

[node name="TileMap" type="TileMap" parent="."]
tile_set = ExtResource( 1 )
cell_size = Vector2( 32, 32 )
compatibility_mode = true
format = 1
tile_data = PoolIntArray( -2097218, 21, 0, -2097217, 21, 0, -2097216, 21, 0, -2097215, 21, 0, -2097214, 21, 0, -2097213, 21, 0, -2097212, 21, 0, -2097211, 21, 0, -2097210, 21, 0, -2097209, 21, 0, -2097208, 21, 0, -2097207, 21, 0, -2097206, 21, 0, -2097205, 21, 0, -2097204, 21, 0, -2097203, 21, 0, -2097202, 21, 0, -2097201, 21, 0, -2097200, 21, 0, -2097199, 21, 0, -2097198, 21, 0, -2097197, 21, 0, -2097196, 21, 0, -2097195, 21, 0, -2097194, 21, 0, -2097193, 21, 0, -2097192, 21, 0, -2097191, 21, 0, -2097190, 21, 0, -2097189, 21, 0, -2097188, 21, 0, -2097187, 21, 0, -2097186, 21, 0, -2097185, 21, 0, -2097184, 21, 0, -2097183, 21, 0, -2097182, 21, 0, -2097181, 21, 0, -2097180, 21, 0, -2097179, 21, 0, -2097178, 21, 0, -2097177, 21, 0, -2097176, 21, 0, -2097175, 21, 0, -2097174, 21, 0, -2097173, 21, 0, -2097172, 21, 0, -2097171, 21, 0, -2097170, 21, 0, -2097169, 21, 0, -2097168, 21, 0, -2097167, 21, 0, -2097166, 21, 0, -2097165, 21, 0, -2097164, 21, 0, -2097163, 21, 0, -2097162, 21, 0, -2097161, 21, 0, -2097160, 21, 0, -2097159, 21, 0, -2097158, 21, 0, -2097157, 21, 0, -2097156, 21, 0, -2097155, 21, 0, -2097154, 21, 0, -2097153, 21, 0, -2162688, 21, 0, -2162687, 21, 0, -2162686, 21, 0, -2162685, 21, 0, -2162684, 21, 0, -2162683, 21, 0, -2162682, 21, 0, -2162681, 21, 0, -2162680, 21, 0, -2162679, 21, 0, -2162678, 21, 0, -2162677, 21, 0, -2162676, 21, 0, -2162675, 21, 0, -2031682, 21, 0, -2031681, 21, 0, -2031680, 21, 0, -2031679, 21, 0, -2031678, 21, 0, -2031677, 21, 0, -2031676, 21, 0, -2031675, 21, 0, -2031674, 21, 0, -2031673, 21, 0, -2031672, 21, 0, -2031671, 21, 0, -2031670, 21, 0, -2031669, 21, 0, -2031668, 21, 0, -2031667, 21, 0, -2031666, 21, 0, -2031665, 21, 0, -2031664, 21, 0, -2031663, 21, 0, -2031662, 21, 0, -2031661, 21, 0, -2031660, 21, 0, -2031659, 21, 0, -2031658, 21, 0, -2031657, 21, 0, -2031656, 21, 0, -2031655, 21, 0, -2031654, 21, 0, -2031653, 21, 0, -2031652, 21, 0, -2031651, 21, 0, -2031650, 21, 0, -2031649, 21, 0, -2031648, 21, 0, -2031647, 21, 0, -2031646, 21, 0, -2031645, 21, 0, -2031644, 21, 0, -2031643, 21, 0, -2031642, 21, 0, -2031641, 21, 0, -2031640, 21, 0, -2031639, 21, 0, -2031638, 21, 0, -2031637, 21, 0, -2031636, 21, 0, -2031635, 21, 0, -2031634, 21, 0, -2031633, 21, 0, -2031632, 21, 0, -2031631, 21, 0, -2031630, 21, 0, -2031629, 21, 0, -2031628, 21, 0, -2031627, 21, 0, -2031626, 21, 0, -2031625, 21, 0, -2031624, 21, 0, -2031623, 21, 0, -2031622, 21, 0, -2031621, 21, 0, -2031620, 21, 0, -2031619, 21, 0, -2031618, 21, 0, -2031617, 21, 0, -2097152, 21, 0, -2097151, 21, 0, -2097150, 21, 0, -2097149, 21, 0, -2097148, 21, 0, -2097147, 21, 0, -2097146, 21, 0, -2097145, 21, 0, -2097144, 21, 0, -2097143, 21, 0, -2097142, 21, 0, -2097141, 21, 0, -2097140, 21, 0, -2097139, 21, 0, -1966146, 21, 0, -1966145, 21, 0, -1966144, 21, 0, -1966143, 21, 0, -1966142, 21, 0, -1966141, 21, 0, -1966140, 21, 0, -1966139, 21, 0, -1966138, 21, 0, -1966137, 21, 0, -1966136, 21, 0, -1966135, 21, 0, -1966134, 21, 0, -1966133, 21, 0, -1966132, 21, 0, -1966131, 21, 0, -1966130, 21, 0, -1966129, 21, 0, -1966128, 21, 0, -1966127, 21, 0, -1966126, 21, 0, -1966125, 21, 0, -1966124, 21, 0, -1966123, 21, 0, -1966122, 21, 0, -1966121, 21, 0, -1966120, 21, 0, -1966119, 21, 0, -1966118, 21, 0, -1966117, 21, 0, -1966116, 21, 0, -1966115, 21, 0, -1966114, 21, 0, -1966113, 21, 0, -1966112, 21, 0, -1966111, 21, 0, -1966110, 21, 0, -1966109, 21, 0, -1966108, 21, 0, -1966107, 21, 0, -1966106, 21, 0, -1966105, 21, 0, -1966104, 21, 0, -1966103, 21, 0, -1966102, 21, 0, -1966101, 21, 0, -1966100, 21, 0, -1966099, 21, 0, -1966098, 21, 0, -1966097, 21, 0, -1966096, 21, 0, -1966095, 21, 0, -1966094, 21, 0, -1966093, 21, 0, -1966092, 21, 0, -1966091, 21, 0, -1966090, 21, 0, -1966089, 21, 0, -1966088, 21, 0, -1966087, 21, 0, -1966086, 21, 0, -1966085, 21, 0, -1966084, 21, 0, -1966083, 21, 0, -1966082, 21, 0, -1966081, 21, 0, -2031616, 21, 0, -2031615, 21, 0, -2031614, 21, 0, -2031613, 21, 0, -2031612, 21, 0, -2031611, 21, 0, -2031610, 21, 0, -2031609, 21, 0, -2031608, 21, 0, -2031607, 21, 0, -2031606, 21, 0, -2031605, 21, 0, -2031604, 21, 0, -2031603, 21, 0, -1900610, 21, 0, -1900609, 21, 0, -1900608, 21, 0, -1900607, 21, 0, -1900606, 21, 0, -1900605, 21, 0, -1900604, 21, 0, -1900603, 21, 0, -1900602, 21, 0, -1900601, 21, 0, -1900600, 21, 0, -1900599, 21, 0, -1900598, 21, 0, -1900597, 21, 0, -1900596, 21, 0, -1900595, 21, 0, -1900594, 21, 0, -1900593, 21, 0, -1900592, 21, 0, -1900591, 21, 0, -1900590, 21, 0, -1900589, 21, 0, -1900588, 21, 0, -1900587, 21, 0, -1900586, 21, 0, -1900585, 21, 0, -1900584, 21, 0, -1900583, 21, 0, -1900582, 21, 0, -1900581, 21, 0, -1900580, 21, 0, -1900579, 21, 0, -1900578, 21, 0, -1900577, 21, 0, -1900576, 21, 0, -1900575, 21, 0, -1900574, 21, 0, -1900573, 21, 0, -1900572, 21, 0, -1900571, 21, 0, -1900570, 21, 0, -1900569, 21, 0, -1900568, 21, 0, -1900567, 21, 0, -1900566, 21, 0, -1900565, 21, 0, -1900564, 21, 0, -1900563, 21, 0, -1900562, 21, 0, -1900561, 21, 0, -1900560, 21, 0, -1900559, 21, 0, -1900558, 21, 0, -1900557, 21, 0, -1900556, 21, 0, -1900555, 21, 0, -1900554, 21, 0, -1900553, 21, 0, -1900552, 21, 0, -1900551, 21, 0, -1900550, 21, 0, -1900549, 21, 0, -1900548, 21, 0, -1900547, 21, 0, -1900546, 21, 0, -1900545, 21, 0, -1966080, 21, 0, -1966079, 21, 0, -1966078, 21, 0, -1966077, 21, 0, -1966076, 21, 0, -1966075, 21, 0, -1966074, 21, 0, -1966073, 21, 0, -1966072, 21, 0, -1966071, 21, 0, -1966070, 21, 0, -1966069, 21, 0, -1966068, 21, 0, -1966067, 21, 0, -1835074, 21, 0, -1835073, 21, 0, -1835072, 21, 0, -1835071, 21, 0, -1835070, 21, 0, -1835069, 21, 0, -1835068, 21, 0, -1835067, 21, 0, -1835066, 21, 0, -1835065, 21, 0, -1835064, 21, 0, -1835063, 21, 0, -1835062, 21, 0, -1835061, 21, 0, -1835060, 21, 0, -1835059, 21, 0, -1835058, 21, 0, -1835057, 21, 0, -1835056, 21, 0, -1835055, 21, 0, -1835054, 21, 0, -1835053, 21, 0, -1835052, 21, 0, -1835051, 21, 0, -1835050, 21, 0, -1835049, 21, 0, -1835048, 21, 0, -1835047, 21, 0, -1835046, 21, 0, -1835045, 21, 0, -1835044, 21, 0, -1835043, 21, 0, -1835042, 21, 0, -1835041, 21, 0, -1835040, 21, 0, -1835039, 21, 0, -1835038, 21, 0, -1835037, 21, 0, -1835036, 21, 0, -1835035, 21, 0, -1835034, 21, 0, -1835033, 21, 0, -1835032, 21, 0, -1835031, 21, 0, -1835030, 21, 0, -1835029, 21, 0, -1835028, 21, 0, -1835027, 21, 0, -1835026, 21, 0, -1835025, 21, 0, -1835024, 21, 0, -1835023, 21, 0, -1835022, 21, 0, -1835021, 21, 0, -1835020, 21, 0, -1835019, 21, 0, -1835018, 21, 0, -1835017, 21, 0, -1835016, 21, 0, -1835015, 21, 0, -1835014, 21, 0, -1835013, 21, 0, -1835012, 21, 0, -1835011, 21, 0, -1835010, 21, 0, -1835009, 21, 0, -1900544, 21, 0, -1900543, 21, 0, -1900542, 21, 0, -1900541, 21, 0, -1900540, 21, 0, -1900539, 21, 0, -1900538, 21, 0, -1900537, 21, 0, -1900536, 21, 0, -1900535, 21, 0, -1900534, 21, 0, -1900533, 21, 0, -1900532, 21, 0, -1900531, 21, 0, -1769538, 21, 0, -1769537, 21, 0, -1769536, 21, 0, -1769535, 21, 0, -1769534, 21, 0, -1769533, 21, 0, -1769532, 21, 0, -1835000, 21, 0, -1834999, 21, 0, -1834998, 21, 0, -1834997, 21, 0, -1834996, 21, 0, -1834995, 21, 0, -1704002, 21, 0, -1704001, 21, 0, -1704000, 21, 0, -1703999, 21, 0, -1703998, 21, 0, -1703997, 21, 0, -1703996, 21, 0, -1769464, 21, 0, -1769463, 21, 0, -1769462, 21, 0, -1769461, 21, 0, -1769460, 21, 0, -1769459, 21, 0, -1638466, 21, 0, -1638465, 21, 0, -1638464, 21, 0, -1638463, 21, 0, -1638462, 21, 0, -1638461, 21, 0, -1638460, 21, 0, -1703928, 21, 0, -1703927, 21, 0, -1703926, 21, 0, -1703925, 21, 0, -1703924, 21, 0, -1703923, 21, 0, -1572930, 21, 0, -1572929, 21, 0, -1572928, 21, 0, -1572927, 21, 0, -1572926, 21, 0, -1572925, 21, 0, -1572924, 21, 0, -1638392, 21, 0, -1638391, 21, 0, -1638390, 21, 0, -1638389, 21, 0, -1638388, 21, 0, -1638387, 21, 0, -1507394, 21, 0, -1507393, 21, 0, -1507392, 21, 0, -1507391, 21, 0, -1507390, 21, 0, -1507389, 21, 0, -1507388, 21, 0, -1572856, 21, 0, -1572855, 21, 0, -1572854, 21, 0, -1572853, 21, 0, -1572852, 21, 0, -1572851, 21, 0, -1441858, 21, 0, -1441857, 21, 0, -1441856, 21, 0, -1441855, 21, 0, -1441854, 21, 0, -1441853, 21, 0, -1441852, 21, 0, -1507320, 21, 0, -1507319, 21, 0, -1507318, 21, 0, -1507317, 21, 0, -1507316, 21, 0, -1507315, 21, 0, -1376322, 21, 0, -1376321, 21, 0, -1376320, 21, 0, -1376319, 21, 0, -1376318, 21, 0, -1376317, 21, 0, -1376316, 21, 0, -1441784, 21, 0, -1441783, 21, 0, -1441782, 21, 0, -1441781, 21, 0, -1441780, 21, 0, -1441779, 21, 0, -1310786, 21, 0, -1310785, 21, 0, -1310784, 21, 0, -1310783, 21, 0, -1310782, 21, 0, -1310781, 21, 0, -1310780, 21, 0, -1376248, 21, 0, -1376247, 21, 0, -1376246, 21, 0, -1376245, 21, 0, -1376244, 21, 0, -1376243, 21, 0, -1245250, 21, 0, -1245249, 21, 0, -1245248, 21, 0, -1245247, 21, 0, -1245246, 21, 0, -1245245, 21, 0, -1245244, 21, 0, -1310712, 21, 0, -1310711, 21, 0, -1310710, 21, 0, -1310709, 21, 0, -1310708, 21, 0, -1310707, 21, 0, -1179714, 21, 0, -1179713, 21, 0, -1179712, 21, 0, -1179711, 21, 0, -1179710, 21, 0, -1179709, 21, 0, -1179708, 21, 0, -1245176, 21, 0, -1245175, 21, 0, -1245174, 21, 0, -1245173, 21, 0, -1245172, 21, 0, -1245171, 21, 0, -1114178, 21, 0, -1114177, 21, 0, -1114176, 21, 0, -1114175, 21, 0, -1114174, 21, 0, -1114173, 21, 0, -1114172, 21, 0, -1179640, 21, 0, -1179639, 21, 0, -1179638, 21, 0, -1179637, 21, 0, -1179636, 21, 0, -1179635, 21, 0, -1048642, 21, 0, -1048641, 21, 0, -1048640, 21, 0, -1048639, 21, 0, -1048638, 21, 0, -1048637, 21, 0, -1048636, 21, 0, -1114104, 21, 0, -1114103, 21, 0, -1114102, 21, 0, -1114101, 21, 0, -1114100, 21, 0, -1114099, 21, 0, -983106, 21, 0, -983105, 21, 0, -983104, 21, 0, -983103, 21, 0, -983102, 21, 0, -983101, 21, 0, -983100, 21, 0, -1048568, 21, 0, -1048567, 21, 0, -1048566, 21, 0, -1048565, 21, 0, -1048564, 21, 0, -1048563, 21, 0, -917570, 21, 0, -917569, 21, 0, -917568, 21, 0, -917567, 21, 0, -917566, 21, 0, -917565, 21, 0, -917564, 21, 0, -983032, 21, 0, -983031, 21, 0, -983030, 21, 0, -983029, 21, 0, -983028, 21, 0, -983027, 21, 0, -852034, 21, 0, -852033, 21, 0, -852032, 21, 0, -852031, 21, 0, -852030, 21, 0, -852029, 21, 0, -852028, 21, 0, -917496, 21, 0, -917495, 21, 0, -917494, 21, 0, -917493, 21, 0, -917492, 21, 0, -917491, 21, 0, -786498, 21, 0, -786497, 21, 0, -786496, 21, 0, -786495, 21, 0, -786494, 21, 0, -786493, 21, 0, -786492, 21, 0, -851960, 21, 0, -851959, 21, 0, -851958, 21, 0, -851957, 21, 0, -851956, 21, 0, -851955, 21, 0, -720962, 21, 0, -720961, 21, 0, -720960, 21, 0, -720959, 21, 0, -720958, 21, 0, -720957, 21, 0, -720956, 21, 0, -786424, 21, 0, -786423, 21, 0, -786422, 21, 0, -786421, 21, 0, -786420, 21, 0, -786419, 21, 0, -655426, 21, 0, -655425, 21, 0, -655424, 21, 0, -655423, 21, 0, -655422, 21, 0, -655421, 21, 0, -655420, 21, 0, -720888, 21, 0, -720887, 21, 0, -720886, 21, 0, -720885, 21, 0, -720884, 21, 0, -720883, 21, 0, -589890, 21, 0, -589889, 21, 0, -589888, 21, 0, -589887, 21, 0, -589886, 21, 0, -589885, 21, 0, -589884, 21, 0, -655352, 21, 0, -655351, 21, 0, -655350, 21, 0, -655349, 21, 0, -655348, 21, 0, -655347, 21, 0, -524354, 21, 0, -524353, 21, 0, -524352, 21, 0, -524351, 21, 0, -524350, 21, 0, -524349, 21, 0, -524348, 21, 0, -589816, 21, 0, -589815, 21, 0, -589814, 21, 0, -589813, 21, 0, -589812, 21, 0, -589811, 21, 0, -458818, 21, 0, -458817, 21, 0, -458816, 21, 0, -458815, 21, 0, -458814, 21, 0, -458813, 21, 0, -458812, 21, 0, -524280, 21, 0, -524279, 21, 0, -524278, 21, 0, -524277, 21, 0, -524276, 21, 0, -524275, 21, 0, -393282, 21, 0, -393281, 21, 0, -393280, 21, 0, -393279, 21, 0, -393278, 21, 0, -393277, 21, 0, -393276, 21, 0, -393271, 21, 0, -458744, 21, 0, -458743, 21, 0, -458742, 21, 0, -458741, 21, 0, -458740, 21, 0, -458739, 21, 0, -327746, 21, 0, -327745, 21, 0, -327744, 21, 0, -327743, 21, 0, -327742, 21, 0, -327741, 21, 0, -327740, 21, 0, -327734, 21, 0, -393208, 21, 0, -393207, 21, 0, -393206, 21, 0, -393205, 21, 0, -393204, 21, 0, -393203, 21, 0, -262210, 21, 0, -262209, 21, 0, -262208, 21, 0, -262207, 21, 0, -262206, 21, 0, -262205, 21, 0, -262204, 21, 0, -262197, 21, 0, -327672, 21, 0, -327671, 21, 0, -327670, 21, 0, -327669, 21, 0, -327668, 21, 0, -327667, 21, 0, -196674, 21, 0, -196673, 21, 0, -196672, 21, 0, -196671, 21, 0, -196670, 21, 0, -196669, 21, 0, -196668, 21, 0, -196660, 21, 0, -262136, 21, 0, -262135, 21, 0, -262134, 21, 0, -262133, 21, 0, -262132, 21, 0, -262131, 21, 0, -131138, 21, 0, -131137, 21, 0, -131136, 21, 0, -131135, 21, 0, -131134, 21, 0, -131133, 21, 0, -131132, 21, 0, -131123, 21, 0, -131122, 21, 0, -196600, 21, 0, -196599, 21, 0, -196598, 21, 0, -196597, 21, 0, -196596, 21, 0, -196595, 21, 0, -65602, 21, 0, -65601, 21, 0, -65600, 21, 0, -65599, 21, 0, -65598, 21, 0, -65597, 21, 0, -65596, 21, 0, -65585, 21, 0, -65584, 21, 0, -131064, 21, 0, -131063, 21, 0, -131062, 21, 0, -131061, 21, 0, -131060, 21, 0, -131059, 21, 0, -66, 21, 0, -65, 21, 0, -64, 21, 0, -63, 21, 0, -62, 21, 0, -61, 21, 0, -60, 21, 0, -47, 21, 0, -46, 21, 0, -65528, 21, 0, -65527, 21, 0, -65526, 21, 0, -65525, 21, 0, -65524, 21, 0, -65523, 21, 0, 65470, 21, 0, 65471, 21, 0, 65472, 21, 0, 65473, 21, 0, 65474, 21, 0, 65475, 21, 0, 65476, 21, 0, 65491, 21, 0, 65492, 21, 0, 65493, 21, 0, 65494, 21, 0, 8, 21, 0, 9, 21, 0, 10, 21, 0, 11, 21, 0, 12, 21, 0, 13, 21, 0, 131006, 21, 0, 131007, 21, 0, 131008, 21, 0, 131009, 21, 0, 131010, 21, 0, 131011, 21, 0, 131012, 21, 0, 131031, 21, 0, 131032, 21, 0, 131033, 21, 0, 131034, 21, 0, 65544, 21, 0, 65545, 21, 0, 65546, 21, 0, 65547, 21, 0, 65548, 21, 0, 65549, 21, 0, 196542, 21, 0, 196543, 21, 0, 196544, 21, 0, 196545, 21, 0, 196546, 21, 0, 196547, 21, 0, 196548, 21, 0, 196571, 21, 0, 196572, 21, 0, 196573, 21, 0, 196574, 21, 0, 131080, 21, 0, 131081, 21, 0, 131082, 21, 0, 131083, 21, 0, 131084, 21, 0, 131085, 21, 0, 262078, 21, 0, 262079, 21, 0, 262080, 21, 0, 262081, 21, 0, 262082, 21, 0, 262083, 21, 0, 262084, 21, 0, 262110, 21, 0, 262114, 21, 0, 262115, 21, 0, 262116, 21, 0, 262117, 21, 0, 196616, 21, 0, 196617, 21, 0, 196618, 21, 0, 196619, 21, 0, 196620, 21, 0, 196621, 21, 0, 327614, 21, 0, 327615, 21, 0, 327616, 21, 0, 327617, 21, 0, 327618, 21, 0, 327619, 21, 0, 327620, 21, 0, 327658, 21, 0, 327659, 21, 0, 327660, 21, 0, 327661, 21, 0, 262152, 21, 0, 262153, 21, 0, 262154, 21, 0, 262155, 21, 0, 262156, 21, 0, 262157, 21, 0, 393150, 21, 0, 393151, 21, 0, 393152, 21, 0, 393153, 21, 0, 393154, 21, 0, 393155, 21, 0, 393156, 21, 0, 327688, 21, 0, 327689, 21, 0, 327690, 21, 0, 327691, 21, 0, 327692, 21, 0, 327693, 21, 0, 458686, 21, 0, 458687, 21, 0, 458688, 21, 0, 458689, 21, 0, 458690, 21, 0, 458691, 21, 0, 458692, 21, 0, 393224, 21, 0, 393225, 21, 0, 393226, 21, 0, 393227, 21, 0, 393228, 21, 0, 393229, 21, 0, 524222, 21, 0, 524223, 21, 0, 524224, 21, 0, 524225, 21, 0, 524226, 21, 0, 524227, 21, 0, 524228, 21, 0, 458760, 21, 0, 458761, 21, 0, 458762, 21, 0, 458763, 21, 0, 458764, 21, 0, 458765, 21, 0, 589758, 21, 0, 589759, 21, 0, 589760, 21, 0, 589761, 21, 0, 589762, 21, 0, 589763, 21, 0, 589764, 21, 0, 524296, 21, 0, 524297, 21, 0, 524298, 21, 0, 524299, 21, 0, 524300, 21, 0, 524301, 21, 0, 655294, 21, 0, 655295, 21, 0, 655296, 21, 0, 655297, 21, 0, 655298, 21, 0, 655299, 21, 0, 655300, 21, 0, 655301, 21, 0, 655302, 21, 0, 655303, 21, 0, 655304, 21, 0, 655305, 21, 0, 655306, 21, 0, 655307, 21, 0, 655308, 21, 0, 655309, 21, 0, 655310, 21, 0, 655311, 21, 0, 655312, 21, 0, 655313, 21, 0, 655314, 21, 0, 655315, 21, 0, 655316, 21, 0, 655317, 21, 0, 655318, 21, 0, 655319, 21, 0, 655320, 21, 0, 655321, 21, 0, 655322, 21, 0, 655323, 21, 0, 655324, 21, 0, 655325, 21, 0, 655326, 21, 0, 655327, 21, 0, 655328, 21, 0, 655329, 21, 0, 655330, 21, 0, 655331, 21, 0, 655332, 21, 0, 655333, 21, 0, 655334, 21, 0, 655335, 21, 0, 655336, 21, 0, 655337, 21, 0, 655338, 21, 0, 655339, 21, 0, 655340, 21, 0, 655341, 21, 0, 655342, 21, 0, 655343, 21, 0, 655344, 21, 0, 655345, 21, 0, 655346, 21, 0, 655347, 21, 0, 655348, 21, 0, 655349, 21, 0, 655350, 21, 0, 655351, 21, 0, 655352, 21, 0, 655353, 21, 0, 655354, 21, 0, 655355, 21, 0, 655356, 21, 0, 655357, 21, 0, 655358, 21, 0, 655359, 21, 0, 589824, 21, 0, 589825, 21, 0, 589826, 21, 0, 589827, 21, 0, 589828, 21, 0, 589829, 21, 0, 589830, 21, 0, 589831, 21, 0, 589832, 21, 0, 589833, 21, 0, 589834, 21, 0, 589835, 21, 0, 589836, 21, 0, 589837, 21, 0, 720830, 21, 0, 720831, 21, 0, 720832, 21, 0, 720833, 21, 0, 720834, 21, 0, 720835, 21, 0, 720836, 21, 0, 720837, 21, 0, 720838, 21, 0, 720839, 21, 0, 720840, 21, 0, 720841, 21, 0, 720842, 21, 0, 720843, 21, 0, 720844, 21, 0, 720845, 21, 0, 720846, 21, 0, 720847, 21, 0, 720848, 21, 0, 720849, 21, 0, 720850, 21, 0, 720851, 21, 0, 720852, 21, 0, 720853, 21, 0, 720854, 21, 0, 720855, 21, 0, 720856, 21, 0, 720857, 21, 0, 720858, 21, 0, 720859, 21, 0, 720860, 21, 0, 720861, 21, 0, 720862, 21, 0, 720863, 21, 0, 720864, 21, 0, 720865, 21, 0, 720866, 21, 0, 720867, 21, 0, 720868, 21, 0, 720869, 21, 0, 720870, 21, 0, 720871, 21, 0, 720872, 21, 0, 720873, 21, 0, 720874, 21, 0, 720875, 21, 0, 720876, 21, 0, 720877, 21, 0, 720878, 21, 0, 720879, 21, 0, 720880, 21, 0, 720881, 21, 0, 720882, 21, 0, 720883, 21, 0, 720884, 21, 0, 720885, 21, 0, 720886, 21, 0, 720887, 21, 0, 720888, 21, 0, 720889, 21, 0, 720890, 21, 0, 720891, 21, 0, 720892, 21, 0, 720893, 21, 0, 720894, 21, 0, 720895, 21, 0, 655360, 21, 0, 655361, 21, 0, 655362, 21, 0, 655363, 21, 0, 655364, 21, 0, 655365, 21, 0, 655366, 21, 0, 655367, 21, 0, 655368, 21, 0, 655369, 21, 0, 655370, 21, 0, 655371, 21, 0, 655372, 21, 0, 655373, 21, 0, 786366, 21, 0, 786367, 21, 0, 786368, 21, 0, 786369, 21, 0, 786370, 21, 0, 786371, 21, 0, 786372, 21, 0, 786373, 21, 0, 786374, 21, 0, 786375, 21, 0, 786376, 21, 0, 786377, 21, 0, 786378, 21, 0, 786379, 21, 0, 786380, 21, 0, 786381, 21, 0, 786382, 21, 0, 786383, 21, 0, 786384, 21, 0, 786385, 21, 0, 786386, 21, 0, 786387, 21, 0, 786388, 21, 0, 786389, 21, 0, 786390, 21, 0, 786391, 21, 0, 786392, 21, 0, 786393, 21, 0, 786394, 21, 0, 786395, 21, 0, 786396, 21, 0, 786397, 21, 0, 786398, 21, 0, 786399, 21, 0, 786400, 21, 0, 786401, 21, 0, 786402, 21, 0, 786403, 21, 0, 786404, 21, 0, 786405, 21, 0, 786406, 21, 0, 786407, 21, 0, 786408, 21, 0, 786409, 21, 0, 786410, 21, 0, 786411, 21, 0, 786412, 21, 0, 786413, 21, 0, 786414, 21, 0, 786415, 21, 0, 786416, 21, 0, 786417, 21, 0, 786418, 21, 0, 786419, 21, 0, 786420, 21, 0, 786421, 21, 0, 786422, 21, 0, 786423, 21, 0, 786424, 21, 0, 786425, 21, 0, 786426, 21, 0, 786427, 21, 0, 786428, 21, 0, 786429, 21, 0, 786430, 21, 0, 786431, 21, 0, 720896, 21, 0, 720897, 21, 0, 720898, 21, 0, 720899, 21, 0, 720900, 21, 0, 720901, 21, 0, 720902, 21, 0, 720903, 21, 0, 720904, 21, 0, 720905, 21, 0, 720906, 21, 0, 720907, 21, 0, 720908, 21, 0, 720909, 21, 0, 851902, 21, 0, 851903, 21, 0, 851904, 21, 0, 851905, 21, 0, 851906, 21, 0, 851907, 21, 0, 851908, 21, 0, 851909, 21, 0, 851910, 21, 0, 851911, 21, 0, 851912, 21, 0, 851913, 21, 0, 851914, 21, 0, 851915, 21, 0, 851916, 21, 0, 851917, 21, 0, 851918, 21, 0, 851919, 21, 0, 851920, 21, 0, 851921, 21, 0, 851922, 21, 0, 851923, 21, 0, 851924, 21, 0, 851925, 21, 0, 851926, 21, 0, 851927, 21, 0, 851928, 21, 0, 851929, 21, 0, 851930, 21, 0, 851931, 21, 0, 851932, 21, 0, 851933, 21, 0, 851934, 21, 0, 851935, 21, 0, 851936, 21, 0, 851937, 21, 0, 851938, 21, 0, 851939, 21, 0, 851940, 21, 0, 851941, 21, 0, 851942, 21, 0, 851943, 21, 0, 851944, 21, 0, 851945, 21, 0, 851946, 21, 0, 851947, 21, 0, 851948, 21, 0, 851949, 21, 0, 851950, 21, 0, 851951, 21, 0, 851952, 21, 0, 851953, 21, 0, 851954, 21, 0, 851955, 21, 0, 851956, 21, 0, 851957, 21, 0, 851958, 21, 0, 851959, 21, 0, 851960, 21, 0, 851961, 21, 0, 851962, 21, 0, 851963, 21, 0, 851964, 21, 0, 851965, 21, 0, 851966, 21, 0, 851967, 21, 0, 786432, 21, 0, 786433, 21, 0, 786434, 21, 0, 786435, 21, 0, 786436, 21, 0, 786437, 21, 0, 786438, 21, 0, 786439, 21, 0, 786440, 21, 0, 786441, 21, 0, 786442, 21, 0, 786443, 21, 0, 786444, 21, 0, 786445, 21, 0, 917438, 21, 0, 917439, 21, 0, 917440, 21, 0, 917441, 21, 0, 917442, 21, 0, 917443, 21, 0, 917444, 21, 0, 917445, 21, 0, 917446, 21, 0, 917447, 21, 0, 917448, 21, 0, 917449, 21, 0, 917450, 21, 0, 917451, 21, 0, 917452, 21, 0, 917453, 21, 0, 917454, 21, 0, 917455, 21, 0, 917456, 21, 0, 917457, 21, 0, 917458, 21, 0, 917459, 21, 0, 917460, 21, 0, 917461, 21, 0, 917462, 21, 0, 917463, 21, 0, 917464, 21, 0, 917465, 21, 0, 917466, 21, 0, 917467, 21, 0, 917468, 21, 0, 917469, 21, 0, 917470, 21, 0, 917471, 21, 0, 917472, 21, 0, 917473, 21, 0, 917474, 21, 0, 917475, 21, 0, 917476, 21, 0, 917477, 21, 0, 917478, 21, 0, 917479, 21, 0, 917480, 21, 0, 917481, 21, 0, 917482, 21, 0, 917483, 21, 0, 917484, 21, 0, 917485, 21, 0, 917486, 21, 0, 917487, 21, 0, 917488, 21, 0, 917489, 21, 0, 917490, 21, 0, 917491, 21, 0, 917492, 21, 0, 917493, 21, 0, 917494, 21, 0, 917495, 21, 0, 917496, 21, 0, 917497, 21, 0, 917498, 21, 0, 917499, 21, 0, 917500, 21, 0, 917501, 21, 0, 917502, 21, 0, 917503, 21, 0, 851968, 21, 0, 851969, 21, 0, 851970, 21, 0, 851971, 21, 0, 851972, 21, 0, 851973, 21, 0, 851974, 21, 0, 851975, 21, 0, 851976, 21, 0, 851977, 21, 0, 851978, 21, 0, 851979, 21, 0, 851980, 21, 0, 851981, 21, 0, 982974, 21, 0, 982975, 21, 0, 982976, 21, 0, 982977, 21, 0, 982978, 21, 0, 982979, 21, 0, 982980, 21, 0, 982981, 21, 0, 982982, 21, 0, 982983, 21, 0, 982984, 21, 0, 982985, 21, 0, 982986, 21, 0, 982987, 21, 0, 982988, 21, 0, 982989, 21, 0, 982990, 21, 0, 982991, 21, 0, 982992, 21, 0, 982993, 21, 0, 982994, 21, 0, 982995, 21, 0, 982996, 21, 0, 982997, 21, 0, 982998, 21, 0, 982999, 21, 0, 983000, 21, 0, 983001, 21, 0, 983002, 21, 0, 983003, 21, 0, 983004, 21, 0, 983005, 21, 0, 983006, 21, 0, 983007, 21, 0, 983008, 21, 0, 983009, 21, 0, 983010, 21, 0, 983011, 21, 0, 983012, 21, 0, 983013, 21, 0, 983014, 21, 0, 983015, 21, 0, 983016, 21, 0, 983017, 21, 0, 983018, 21, 0, 983019, 21, 0, 983020, 21, 0, 983021, 21, 0, 983022, 21, 0, 983023, 21, 0, 983024, 21, 0, 983025, 21, 0, 983026, 21, 0, 983027, 21, 0, 983028, 21, 0, 983029, 21, 0, 983030, 21, 0, 983031, 21, 0, 983032, 21, 0, 983033, 21, 0, 983034, 21, 0, 983035, 21, 0, 983036, 21, 0, 983037, 21, 0, 983038, 21, 0, 983039, 21, 0, 917504, 21, 0, 917505, 21, 0, 917506, 21, 0, 917507, 21, 0, 917508, 21, 0, 917509, 21, 0, 917510, 21, 0, 917511, 21, 0, 917512, 21, 0, 917513, 21, 0, 917514, 21, 0, 917515, 21, 0, 917516, 21, 0, 917517, 21, 0 )

[node name="tilemap" type="TileMap" parent="."]
tile_set = ExtResource( 1 )
cell_size = Vector2( 32, 32 )
compatibility_mode = true
collision_layer = 524288
format = 1
tile_data = PoolIntArray( -1769531, 536870915, 0, -1769530, 12, 0, -1769529, 12, 0, -1769528, 12, 0, -1769527, 3, 0, -1769523, 536870915, 0, -1769522, 12, 0, -1769521, 12, 0, -1769520, 12, 0, -1769519, 12, 0, -1769518, 12, 0, -1769517, 12, 0, -1769516, 12, 0, -1769515, 12, 0, -1769514, 12, 0, -1769513, 12, 0, -1769512, 12, 0, -1769511, 12, 0, -1769510, 12, 0, -1769509, 12, 0, -1769508, 12, 0, -1769507, 12, 0, -1769506, 12, 0, -1769505, 12, 0, -1769504, 12, 0, -1769503, 12, 0, -1769502, 12, 0, -1769501, 12, 0, -1769500, 12, 0, -1769499, 12, 0, -1769498, 12, 0, -1769497, 12, 0, -1769496, 12, 0, -1769495, 12, 0, -1769494, 12, 0, -1769493, 12, 0, -1769492, 12, 0, -1769491, 12, 0, -1769490, 12, 0, -1769489, 12, 0, -1769488, 12, 0, -1769487, 12, 0, -1769486, 12, 0, -1769485, 12, 0, -1769484, 12, 0, -1769483, 12, 0, -1769482, 12, 0, -1769481, 12, 0, -1769480, 12, 0, -1769479, 12, 0, -1769478, 12, 0, -1769477, 12, 0, -1769476, 12, 0, -1769475, 12, 0, -1769474, 12, 0, -1769473, 12, 0, -1835008, 12, 0, -1835007, 12, 0, -1835006, 12, 0, -1835005, 12, 0, -1835004, 12, 0, -1835003, 12, 0, -1835002, 12, 0, -1835001, 3, 0, -1703995, 536870915, 0, -1703994, 12, 0, -1703993, 12, 0, -1703992, 12, 0, -1703991, 3, 0, -1703987, 536870915, 0, -1703986, 12, 0, -1703985, 12, 0, -1703984, 12, 0, -1703983, 12, 0, -1703982, 12, 0, -1703981, 12, 0, -1703980, 12, 0, -1703979, 12, 0, -1703978, 12, 0, -1703977, 12, 0, -1703976, 12, 0, -1703975, 12, 0, -1703974, 12, 0, -1703973, 12, 0, -1703972, 12, 0, -1703971, 12, 0, -1703970, 12, 0, -1703969, 12, 0, -1703968, 12, 0, -1703967, 12, 0, -1703966, 12, 0, -1703965, 12, 0, -1703964, 12, 0, -1703963, 12, 0, -1703962, 12, 0, -1703961, 12, 0, -1703960, 12, 0, -1703959, 12, 0, -1703958, 12, 0, -1703957, 12, 0, -1703956, 12, 0, -1703955, 12, 0, -1703954, 12, 0, -1703953, 12, 0, -1703952, 12, 0, -1703951, 12, 0, -1703950, 12, 0, -1703949, 12, 0, -1703948, 12, 0, -1703947, 12, 0, -1703946, 12, 0, -1703945, 12, 0, -1703944, 12, 0, -1703943, 12, 0, -1703942, 12, 0, -1703941, 12, 0, -1703940, 12, 0, -1703939, 12, 0, -1703938, 12, 0, -1703937, 12, 0, -1769472, 12, 0, -1769471, 12, 0, -1769470, 12, 0, -1769469, 12, 0, -1769468, 12, 0, -1769467, 12, 0, -1769466, 12, 0, -1769465, 3, 0, -1638459, 536870915, 0, -1638458, 12, 0, -1638457, 12, 0, -1638456, 12, 0, -1638455, 3, 0, -1638451, 536870915, 0, -1638450, 12, 0, -1638449, 12, 0, -1638448, 12, 0, -1638447, 12, 0, -1638446, 12, 0, -1638445, 12, 0, -1638444, 12, 0, -1638443, 12, 0, -1638442, 12, 0, -1638441, 12, 0, -1638440, 12, 0, -1638439, 12, 0, -1638438, 12, 0, -1638437, 12, 0, -1638436, 12, 0, -1638435, 12, 0, -1638434, 12, 0, -1638433, 12, 0, -1638432, 12, 0, -1638431, 12, 0, -1638430, 12, 0, -1638429, 12, 0, -1638428, 12, 0, -1638427, 12, 0, -1638426, 12, 0, -1638425, 12, 0, -1638424, 12, 0, -1638423, 12, 0, -1638422, 12, 0, -1638421, 12, 0, -1638420, 12, 0, -1638419, 12, 0, -1638418, 12, 0, -1638417, 12, 0, -1638416, 12, 0, -1638415, 12, 0, -1638414, 12, 0, -1638413, 12, 0, -1638412, 12, 0, -1638411, 12, 0, -1638410, 12, 0, -1638409, 12, 0, -1638408, 12, 0, -1638407, 12, 0, -1638406, 12, 0, -1638405, 12, 0, -1638404, 12, 0, -1638403, 12, 0, -1638402, 12, 0, -1638401, 12, 0, -1703936, 12, 0, -1703935, 12, 0, -1703934, 12, 0, -1703933, 12, 0, -1703932, 12, 0, -1703931, 12, 0, -1703930, 12, 0, -1703929, 3, 0, -1572923, 1073741825, 0, -1572922, 1073741824, 0, -1572921, 1073741824, 0, -1572920, 1073741824, 0, -1572919, 1073741826, 0, -1572915, 1073741825, 0, -1572914, 1073741824, 0, -1572913, 1073741824, 0, -1572912, 1073741824, 0, -1572911, 1073741824, 0, -1572910, 1073741824, 0, -1572909, 1073741824, 0, -1572908, 1073741824, 0, -1572907, 1073741824, 0, -1572906, 1073741824, 0, -1572905, 1073741824, 0, -1572904, 1073741824, 0, -1572903, 1073741824, 0, -1572902, 1073741824, 0, -1572901, 1073741824, 0, -1572900, 1073741824, 0, -1572899, 1073741824, 0, -1572898, 1073741824, 0, -1572897, 1073741824, 0, -1572896, 1073741824, 0, -1572895, 1073741824, 0, -1572894, 1073741824, 0, -1572893, 1073741824, 0, -1572892, 1073741824, 0, -1572891, 1073741824, 0, -1572890, 1073741824, 0, -1572889, 1073741824, 0, -1572888, 1073741824, 0, -1572887, 1073741824, 0, -1572886, 1073741824, 0, -1572885, 1073741824, 0, -1572884, 1073741824, 0, -1572883, 1073741824, 0, -1572882, 1073741824, 0, -1572881, 1073741824, 0, -1572880, 1073741824, 0, -1572879, 1073741824, 0, -1572878, 1073741824, 0, -1572877, 1073741824, 0, -1572876, 1073741824, 0, -1572875, 1073741824, 0, -1572874, 1073741824, 0, -1572873, 1073741824, 0, -1572872, 1073741824, 0, -1572871, 1073741824, 0, -1572870, 1073741824, 0, -1572869, 1073741824, 0, -1572868, 1073741824, 0, -1572867, 1073741824, 0, -1572866, 1073741824, 0, -1572865, 1073741824, 0, -1638400, 1073741824, 0, -1638399, 1073741824, 0, -1638398, 1073741824, 0, -1638397, 1073741824, 0, -1638396, 1073741824, 0, -1638395, 1073741824, 0, -1638394, 1073741824, 0, -1638393, 1073741826, 0, -1507387, 3, 0, -1572857, 536870915, 0, -1441851, 3, 0, -1507321, 536870915, 0, -1376315, 3, 0, -1441785, 536870915, 0, -1310779, 3, 0, -1376249, 536870915, 0, -1245243, 3, 0, -1310713, 536870915, 0, -1179707, 3, 0, -1245177, 536870915, 0, -1114171, 3, 0, -1179641, 536870915, 0, -1048635, 3, 0, -1114105, 536870915, 0, -983099, 3, 0, -1048569, 536870915, 0, -917563, 3, 0, -983033, 536870915, 0, -852027, 1073741826, 0, -917497, 536870915, 0, -851961, 536870915, 0, -786425, 536870915, 0, -720889, 536870915, 0, -655353, 536870915, 0, -589817, 536870915, 0, -458811, 1, 0, -458810, 0, 0, -458809, 0, 0, -458808, 10, 0, -524281, 536870915, 0, -393275, 536870915, 0, -393274, 12, 0, -393273, 12, 0, -393272, 12, 0, -393271, 6, 0, -458745, 536870915, 0, -327739, 536870915, 0, -327738, 12, 0, -327737, 12, 0, -327736, 12, 0, -327735, 12, 0, -327734, 6, 0, -393209, 536870915, 0, -262203, 536870915, 0, -262202, 12, 0, -262201, 12, 0, -262200, 12, 0, -262199, 12, 0, -262198, 12, 0, -262197, 6, 0, -327673, 536870915, 0, -196667, 536870915, 0, -196666, 12, 0, -196665, 12, 0, -196664, 12, 0, -196663, 12, 0, -196662, 12, 0, -196661, 12, 0, -196660, 6, 0, -262137, 536870915, 0, -131131, 536870915, 0, -131130, 12, 0, -131129, 12, 0, -131128, 12, 0, -131127, 12, 0, -131126, 12, 0, -131125, 12, 0, -131124, 12, 0, -131123, 4, 0, -131122, 5, 0, -196601, 536870915, 0, -65595, 536870915, 0, -65594, 12, 0, -65593, 12, 0, -65592, 12, 0, -65591, 12, 0, -65590, 12, 0, -65589, 12, 0, -65588, 12, 0, -65587, 12, 0, -65586, 12, 0, -65585, 4, 0, -65584, 5, 0, -131065, 1073741825, 0, -59, 536870915, 0, -58, 12, 0, -57, 12, 0, -56, 12, 0, -55, 12, 0, -54, 12, 0, -53, 12, 0, -52, 12, 0, -51, 12, 0, -50, 12, 0, -49, 12, 0, -48, 12, 0, -47, 4, 0, -46, 5, 0, 65477, 536870915, 0, 65478, 12, 0, 65479, 12, 0, 65480, 12, 0, 65481, 12, 0, 65482, 12, 0, 65483, 12, 0, 65484, 12, 0, 65485, 12, 0, 65486, 12, 0, 65487, 12, 0, 65488, 12, 0, 65489, 12, 0, 65490, 12, 0, 65491, 12, 0, 65492, 7, 0, 65493, 8, 0, 65494, 9, 0, 131013, 536870915, 0, 131014, 12, 0, 131015, 12, 0, 131016, 12, 0, 131017, 12, 0, 131018, 12, 0, 131019, 12, 0, 131020, 12, 0, 131021, 12, 0, 131022, 12, 0, 131023, 12, 0, 131024, 12, 0, 131025, 12, 0, 131026, 12, 0, 131027, 12, 0, 131028, 12, 0, 131029, 12, 0, 131030, 12, 0, 131031, 12, 0, 131032, 7, 0, 131033, 8, 0, 131034, 9, 0, 196549, 536870915, 0, 196550, 12, 0, 196551, 12, 0, 196552, 12, 0, 196553, 12, 0, 196554, 12, 0, 196555, 12, 0, 196556, 12, 0, 196557, 12, 0, 196558, 12, 0, 196559, 12, 0, 196560, 12, 0, 196561, 12, 0, 196562, 12, 0, 196563, 12, 0, 196564, 12, 0, 196565, 12, 0, 196566, 12, 0, 196567, 12, 0, 196568, 12, 0, 196569, 12, 0, 196570, 12, 0, 196571, 12, 0, 196572, 7, 0, 196573, 8, 0, 196574, 9, 0, 196575, 10, 0, 196576, 0, 0, 196577, 10, 0, 262085, 536870915, 0, 262086, 12, 0, 262087, 12, 0, 262088, 12, 0, 262089, 12, 0, 262090, 12, 0, 262091, 12, 0, 262092, 12, 0, 262093, 12, 0, 262094, 12, 0, 262095, 12, 0, 262096, 12, 0, 262097, 12, 0, 262098, 12, 0, 262099, 12, 0, 262100, 12, 0, 262101, 12, 0, 262102, 12, 0, 262103, 12, 0, 262104, 12, 0, 262105, 12, 0, 262106, 12, 0, 262107, 12, 0, 262108, 12, 0, 262109, 12, 0, 262110, 12, 0, 262111, 12, 0, 262112, 12, 0, 262113, 12, 0, 262114, 12, 0, 262115, 7, 0, 262116, 8, 0, 262117, 9, 0, 262118, 10, 0, 262119, 0, 0, 262120, 0, 0, 262121, 10, 0, 327621, 536870915, 0, 327622, 12, 0, 327623, 12, 0, 327624, 12, 0, 327625, 12, 0, 327626, 12, 0, 327627, 12, 0, 327628, 12, 0, 327629, 12, 0, 327630, 12, 0, 327631, 12, 0, 327632, 12, 0, 327633, 12, 0, 327634, 12, 0, 327635, 12, 0, 327636, 12, 0, 327637, 12, 0, 327638, 12, 0, 327639, 12, 0, 327640, 12, 0, 327641, 12, 0, 327642, 12, 0, 327643, 12, 0, 327644, 12, 0, 327645, 12, 0, 327646, 12, 0, 327647, 12, 0, 327648, 12, 0, 327649, 12, 0, 327650, 12, 0, 327651, 12, 0, 327652, 12, 0, 327653, 12, 0, 327654, 12, 0, 327655, 12, 0, 327656, 12, 0, 327657, 12, 0, 327658, 12, 0, 327659, 7, 0, 327660, 8, 0, 327661, 9, 0, 327662, 10, 0, 327663, 0, 0, 327664, 0, 0, 327665, 0, 0, 327666, 0, 0, 327667, 0, 0, 327668, 0, 0, 327669, 0, 0, 327670, 0, 0, 327671, 0, 0, 327672, 0, 0, 327673, 0, 0, 327674, 0, 0, 327675, 0, 0, 327676, 0, 0, 327677, 0, 0, 327678, 0, 0, 327679, 0, 0, 262144, 0, 0, 262145, 0, 0, 262146, 0, 0, 262147, 0, 0, 262148, 0, 0, 262149, 0, 0, 262150, 0, 0, 262151, 2, 0, 393157, 536870915, 0, 393158, 12, 0, 393159, 12, 0, 393160, 12, 0, 393161, 12, 0, 393162, 12, 0, 393163, 12, 0, 393164, 12, 0, 393165, 12, 0, 393166, 12, 0, 393167, 12, 0, 393168, 12, 0, 393169, 12, 0, 393170, 12, 0, 393171, 12, 0, 393172, 12, 0, 393173, 12, 0, 393174, 12, 0, 393175, 12, 0, 393176, 12, 0, 393177, 12, 0, 393178, 12, 0, 393179, 12, 0, 393180, 12, 0, 393181, 12, 0, 393182, 12, 0, 393183, 12, 0, 393184, 12, 0, 393185, 12, 0, 393186, 12, 0, 393187, 12, 0, 393188, 12, 0, 393189, 12, 0, 393190, 12, 0, 393191, 12, 0, 393192, 12, 0, 393193, 12, 0, 393194, 12, 0, 393195, 12, 0, 393196, 12, 0, 393197, 12, 0, 393198, 12, 0, 393199, 12, 0, 393200, 12, 0, 393201, 12, 0, 393202, 12, 0, 393203, 12, 0, 393204, 12, 0, 393205, 12, 0, 393206, 12, 0, 393207, 12, 0, 393208, 12, 0, 393209, 12, 0, 393210, 12, 0, 393211, 12, 0, 393212, 12, 0, 393213, 12, 0, 393214, 12, 0, 393215, 12, 0, 327680, 12, 0, 327681, 12, 0, 327682, 12, 0, 327683, 12, 0, 327684, 12, 0, 327685, 12, 0, 327686, 12, 0, 327687, 3, 0, 458693, 536870915, 0, 458694, 12, 0, 458695, 12, 0, 458696, 12, 0, 458697, 12, 0, 458698, 12, 0, 458699, 12, 0, 458700, 12, 0, 458701, 12, 0, 458702, 12, 0, 458703, 12, 0, 458704, 12, 0, 458705, 12, 0, 458706, 12, 0, 458707, 12, 0, 458708, 12, 0, 458709, 12, 0, 458710, 12, 0, 458711, 12, 0, 458712, 12, 0, 458713, 12, 0, 458714, 12, 0, 458715, 12, 0, 458716, 12, 0, 458717, 12, 0, 458718, 12, 0, 458719, 12, 0, 458720, 12, 0, 458721, 12, 0, 458722, 12, 0, 458723, 12, 0, 458724, 12, 0, 458725, 12, 0, 458726, 12, 0, 458727, 12, 0, 458728, 12, 0, 458729, 12, 0, 458730, 12, 0, 458731, 12, 0, 458732, 12, 0, 458733, 12, 0, 458734, 12, 0, 458735, 12, 0, 458736, 12, 0, 458737, 12, 0, 458738, 12, 0, 458739, 12, 0, 458740, 12, 0, 458741, 12, 0, 458742, 12, 0, 458743, 12, 0, 458744, 12, 0, 458745, 12, 0, 458746, 12, 0, 458747, 12, 0, 458748, 12, 0, 458749, 12, 0, 458750, 12, 0, 458751, 12, 0, 393216, 12, 0, 393217, 12, 0, 393218, 12, 0, 393219, 12, 0, 393220, 12, 0, 393221, 12, 0, 393222, 12, 0, 393223, 3, 0, 524229, 536870915, 0, 524230, 12, 0, 524231, 12, 0, 524232, 12, 0, 524233, 12, 0, 524234, 12, 0, 524235, 12, 0, 524236, 12, 0, 524237, 12, 0, 524238, 12, 0, 524239, 12, 0, 524240, 12, 0, 524241, 12, 0, 524242, 12, 0, 524243, 12, 0, 524244, 12, 0, 524245, 12, 0, 524246, 12, 0, 524247, 12, 0, 524248, 12, 0, 524249, 12, 0, 524250, 12, 0, 524251, 12, 0, 524252, 12, 0, 524253, 12, 0, 524254, 12, 0, 524255, 12, 0, 524256, 12, 0, 524257, 12, 0, 524258, 12, 0, 524259, 12, 0, 524260, 12, 0, 524261, 12, 0, 524262, 12, 0, 524263, 12, 0, 524264, 12, 0, 524265, 12, 0, 524266, 12, 0, 524267, 12, 0, 524268, 12, 0, 524269, 12, 0, 524270, 12, 0, 524271, 12, 0, 524272, 12, 0, 524273, 12, 0, 524274, 12, 0, 524275, 12, 0, 524276, 12, 0, 524277, 12, 0, 524278, 12, 0, 524279, 12, 0, 524280, 12, 0, 524281, 12, 0, 524282, 12, 0, 524283, 12, 0, 524284, 12, 0, 524285, 12, 0, 524286, 12, 0, 524287, 12, 0, 458752, 12, 0, 458753, 12, 0, 458754, 12, 0, 458755, 12, 0, 458756, 12, 0, 458757, 12, 0, 458758, 12, 0, 458759, 3, 0, 589765, 536870915, 0, 589766, 12, 0, 589767, 12, 0, 589768, 12, 0, 589769, 12, 0, 589770, 12, 0, 589771, 12, 0, 589772, 12, 0, 589773, 12, 0, 589774, 12, 0, 589775, 12, 0, 589776, 12, 0, 589777, 12, 0, 589778, 12, 0, 589779, 12, 0, 589780, 12, 0, 589781, 12, 0, 589782, 12, 0, 589783, 12, 0, 589784, 12, 0, 589785, 12, 0, 589786, 12, 0, 589787, 12, 0, 589788, 12, 0, 589789, 12, 0, 589790, 12, 0, 589791, 12, 0, 589792, 12, 0, 589793, 12, 0, 589794, 12, 0, 589795, 12, 0, 589796, 12, 0, 589797, 12, 0, 589798, 12, 0, 589799, 12, 0, 589800, 12, 0, 589801, 12, 0, 589802, 12, 0, 589803, 12, 0, 589804, 12, 0, 589805, 12, 0, 589806, 12, 0, 589807, 12, 0, 589808, 12, 0, 589809, 12, 0, 589810, 12, 0, 589811, 12, 0, 589812, 12, 0, 589813, 12, 0, 589814, 12, 0, 589815, 12, 0, 589816, 12, 0, 589817, 12, 0, 589818, 12, 0, 589819, 12, 0, 589820, 12, 0, 589821, 12, 0, 589822, 12, 0, 589823, 12, 0, 524288, 12, 0, 524289, 12, 0, 524290, 12, 0, 524291, 12, 0, 524292, 12, 0, 524293, 12, 0, 524294, 12, 0, 524295, 3, 0 )

[node name="DecoGroup" type="Node2D" parent="tilemap"]

[node name="TileMap" type="TileMap" parent="tilemap/DecoGroup"]
tile_set = ExtResource( 1 )
cell_size = Vector2( 32, 32 )
compatibility_mode = true
format = 1
tile_data = PoolIntArray( -1572920, 16, 0, -1572910, 17, 0, -1572896, 16, 0, -1572880, 17, 0, -1572866, 16, 0, -1638399, 17, 0, -1638396, 16, 0, 262130, 13, 0, 196610, 13, 0 )

[node name="SlopeGroup" type="Node2D" parent="tilemap"]

[node name="Slope0-15" parent="tilemap/SlopeGroup" instance=ExtResource( 2 )]
position = Vector2( -1488, -48 )

[node name="Slope0-16" parent="tilemap/SlopeGroup" instance=ExtResource( 2 )]
position = Vector2( -1552, -80 )

[node name="Slope0-17" parent="tilemap/SlopeGroup" instance=ExtResource( 2 )]
position = Vector2( -1616, -112 )

[node name="Slope0-31" parent="tilemap/SlopeGroup" instance=ExtResource( 3 )]
position = Vector2( -1648, -144 )

[node name="Slope0-32" parent="tilemap/SlopeGroup" instance=ExtResource( 3 )]
position = Vector2( -1680, -176 )

[node name="Slope0-33" parent="tilemap/SlopeGroup" instance=ExtResource( 3 )]
position = Vector2( -1712, -208 )

[node name="Slope0-34" parent="tilemap/SlopeGroup" instance=ExtResource( 3 )]
position = Vector2( -1744, -240 )

[node name="Slope0-7" parent="tilemap/SlopeGroup" instance=ExtResource( 4 )]
position = Vector2( -1424, -16 )

[node name="Slope0-8" parent="tilemap/SlopeGroup" instance=ExtResource( 4 )]
position = Vector2( -1296, 16 )

[node name="Slope0-9" parent="tilemap/SlopeGroup" instance=ExtResource( 4 )]
position = Vector2( -1168, 48 )

[node name="Slope0-10" parent="tilemap/SlopeGroup" instance=ExtResource( 4 )]
position = Vector2( -944, 80 )

[node name="Slope0-11" parent="tilemap/SlopeGroup" instance=ExtResource( 4 )]
position = Vector2( -688, 112 )

[node name="Slope16-23" parent="tilemap/SlopeGroup" instance=ExtResource( 5 )]
position = Vector2( -1232, 16 )

[node name="Slope16-27" parent="tilemap/SlopeGroup" instance=ExtResource( 5 )]
position = Vector2( -1360, -16 )

[node name="Slope16-24" parent="tilemap/SlopeGroup" instance=ExtResource( 5 )]
position = Vector2( -1104, 48 )

[node name="Slope16-25" parent="tilemap/SlopeGroup" instance=ExtResource( 5 )]
position = Vector2( -880, 80 )

[node name="Slope16-26" parent="tilemap/SlopeGroup" instance=ExtResource( 5 )]
position = Vector2( -624, 112 )

[node name="Slope16-31" parent="tilemap/SlopeGroup" instance=ExtResource( 6 )]
position = Vector2( -1456, -48 )

[node name="Slope16-32" parent="tilemap/SlopeGroup" instance=ExtResource( 6 )]
position = Vector2( -1520, -80 )

[node name="Slope16-33" parent="tilemap/SlopeGroup" instance=ExtResource( 6 )]
position = Vector2( -1584, -112 )

[node name="Slope24-31" parent="tilemap/SlopeGroup" instance=ExtResource( 7 )]
position = Vector2( -1200, 16 )

[node name="Slope24-35" parent="tilemap/SlopeGroup" instance=ExtResource( 7 )]
position = Vector2( -1328, -16 )

[node name="Slope24-32" parent="tilemap/SlopeGroup" instance=ExtResource( 7 )]
position = Vector2( -1072, 48 )

[node name="Slope24-33" parent="tilemap/SlopeGroup" instance=ExtResource( 7 )]
position = Vector2( -848, 80 )

[node name="Slope24-34" parent="tilemap/SlopeGroup" instance=ExtResource( 7 )]
position = Vector2( -592, 112 )

[node name="Slope8-15" parent="tilemap/SlopeGroup" instance=ExtResource( 8 )]
position = Vector2( -1392, -16 )

[node name="Slope8-16" parent="tilemap/SlopeGroup" instance=ExtResource( 8 )]
position = Vector2( -1264, 16 )

[node name="Slope8-17" parent="tilemap/SlopeGroup" instance=ExtResource( 8 )]
position = Vector2( -1136, 48 )

[node name="Slope8-18" parent="tilemap/SlopeGroup" instance=ExtResource( 8 )]
position = Vector2( -912, 80 )

[node name="Slope8-19" parent="tilemap/SlopeGroup" instance=ExtResource( 8 )]
position = Vector2( -656, 112 )

[node name="TestSlopea-b" parent="tilemap/SlopeGroup" instance=ExtResource( 9 )]
position = Vector2( -592, 144 )

[node name="TestSlopea-b1" parent="tilemap/SlopeGroup" instance=ExtResource( 9 )]
position = Vector2( -560, 144 )

[node name="TestSlopea-b17" parent="tilemap/SlopeGroup" instance=ExtResource( 9 )]
position = Vector2( -720, 112 )

[node name="TestSlopea-b2" parent="tilemap/SlopeGroup" instance=ExtResource( 9 )]
position = Vector2( -848, 112 )

[node name="TestSlopea-b3" parent="tilemap/SlopeGroup" instance=ExtResource( 9 )]
position = Vector2( -816, 112 )

[node name="TestSlopea-b4" parent="tilemap/SlopeGroup" instance=ExtResource( 9 )]
position = Vector2( -976, 80 )

[node name="TestSlopea-b5" parent="tilemap/SlopeGroup" instance=ExtResource( 9 )]
position = Vector2( -1072, 80 )

[node name="TestSlopea-b6" parent="tilemap/SlopeGroup" instance=ExtResource( 9 )]
position = Vector2( -1040, 80 )

[node name="TestSlopea-b7" parent="tilemap/SlopeGroup" instance=ExtResource( 9 )]
position = Vector2( -1200, 48 )

[node name="TestSlopea-b8" parent="tilemap/SlopeGroup" instance=ExtResource( 9 )]
position = Vector2( -1328, 16 )

[node name="TestSlopea-b9" parent="tilemap/SlopeGroup" instance=ExtResource( 9 )]
position = Vector2( -1456, -16 )

[node name="TestSlopea-b10" parent="tilemap/SlopeGroup" instance=ExtResource( 9 )]
position = Vector2( -1520, -48 )

[node name="TestSlopea-b11" parent="tilemap/SlopeGroup" instance=ExtResource( 9 )]
position = Vector2( -1584, -80 )

[node name="TestSlopea-b12" parent="tilemap/SlopeGroup" instance=ExtResource( 9 )]
position = Vector2( -1648, -112 )

[node name="TestSlopea-b13" parent="tilemap/SlopeGroup" instance=ExtResource( 9 )]
position = Vector2( -1680, -144 )

[node name="TestSlopea-b14" parent="tilemap/SlopeGroup" instance=ExtResource( 9 )]
position = Vector2( -1712, -176 )

[node name="TestSlopea-b15" parent="tilemap/SlopeGroup" instance=ExtResource( 9 )]
position = Vector2( -1744, -208 )

[node name="TestSlopea-b16" parent="tilemap/SlopeGroup" instance=ExtResource( 9 )]
position = Vector2( -1776, -240 )

[node name="LadderGroup" type="Node2D" parent="tilemap"]

[node name="TestLadder" parent="tilemap/LadderGroup" instance=ExtResource( 10 )]
position = Vector2( -1680, -640 )

[node name="Sprite" parent="tilemap/LadderGroup/TestLadder/KinematicBody2D" index="0"]
region_rect = Rect2( 0, 0, 32, 512 )

[node name="ladder" parent="tilemap/LadderGroup/TestLadder/KinematicBody2D" index="1"]
scale = Vector2( 1, 16 )

[node name="EnemiesGroup" type="Node2D" parent="tilemap"]

[node name="Sorcerer" parent="tilemap/EnemiesGroup" instance=ExtResource( 11 )]
position = Vector2( -752, 32 )

[node name="Sorcerer1" parent="tilemap/EnemiesGroup" instance=ExtResource( 11 )]
position = Vector2( -1376, -96 )

[node name="TeleportGroup" type="Node2D" parent="tilemap"]

[node name="Teleport" parent="tilemap/TeleportGroup" instance=ExtResource( 12 )]
position = Vector2( 272, 48 )
target_level = "res://levels/cave/0-0.tscn"
teleport_to = Vector2( -396, -208 )

[node name="teleport" parent="tilemap/TeleportGroup/Teleport" index="0"]
scale = Vector2( 1, 5 )

[node name="Teleport1" parent="tilemap/TeleportGroup" instance=ExtResource( 12 )]
position = Vector2( -1904, -336 )
target_level = "res://levels/cave/3-0.tscn"
teleport_to = Vector2( 524, 16 )

[node name="teleport" parent="tilemap/TeleportGroup/Teleport1" index="0"]
scale = Vector2( 1, 5 )

[node name="Teleport2" parent="tilemap/TeleportGroup" instance=ExtResource( 12 )]
position = Vector2( -1680, -912 )
is_horizontal = false
target_level = "res://levels/cave/1-1.tscn"
teleport_to = Vector2( -208, 480 )

[node name="teleport" parent="tilemap/TeleportGroup/Teleport2" index="0"]
scale = Vector2( 3, 1 )

[node name="boundaries" type="Node2D" parent="tilemap"]

[node name="NW" type="Position2D" parent="tilemap/boundaries"]
position = Vector2( -1904, -912 )

[node name="SE" type="Position2D" parent="tilemap/boundaries"]
position = Vector2( 272, 304 )

[node name="Parallax" parent="." instance=ExtResource( 13 )]

[editable path="tilemap/LadderGroup/TestLadder"]

[editable path="tilemap/TeleportGroup/Teleport"]

[editable path="tilemap/TeleportGroup/Teleport1"]

[editable path="tilemap/TeleportGroup/Teleport2"]
