[gd_scene load_steps=28 format=2]

[ext_resource path="res://scenes/catacombs/tileset.tres" type="TileSet" id=1]
[ext_resource path="res://scenes/catacombs/solids/coffin-closed.png" type="Texture" id=2]
[ext_resource path="res://scenes/catacombs/solids/skulls.png" type="Texture" id=3]
[ext_resource path="res://scenes/catacombs/solids/hill.png" type="Texture" id=4]
[ext_resource path="res://scenes/catacombs/solids/web.png" type="Texture" id=5]
[ext_resource path="res://scenes/catacombs/solids/web2.png" type="Texture" id=6]
[ext_resource path="res://scenes/catacombs/solids/web3.png" type="Texture" id=7]
[ext_resource path="res://scenes/catacombs/solids/table.png" type="Texture" id=8]
[ext_resource path="res://scenes/catacombs/solids/candle-glow.png" type="Texture" id=9]
[ext_resource path="res://scenes/common/breakables/torch.tscn" type="PackedScene" id=10]
[ext_resource path="res://scenes/dungeon/ladder/ladder.tscn" type="PackedScene" id=11]
[ext_resource path="res://scenes/common/target.tscn" type="PackedScene" id=12]
[ext_resource path="res://scenes/npcs/npc.tscn" type="PackedScene" id=13]
[ext_resource path="res://scenes/npcs/kaleva/Kaleva.gd" type="Script" id=14]
[ext_resource path="res://scenes/npcs/kaleva/idle.png" type="Texture" id=15]
[ext_resource path="res://scenes/catacombs/solids/coffin.png" type="Texture" id=16]
[ext_resource path="res://scenes/savepoint/savepoint.tscn" type="PackedScene" id=17]
[ext_resource path="res://scenes/common/teleport.tscn" type="PackedScene" id=18]

[sub_resource type="Animation" id=1]
resource_name = "idle"
length = 2.0
loop = true
tracks/0/type = "value"
tracks/0/path = NodePath("Light2D:energy")
tracks/0/interp = 1
tracks/0/loop_wrap = true
tracks/0/imported = false
tracks/0/enabled = true
tracks/0/keys = {
"times": PoolRealArray( 0.3, 0.4, 0.5 ),
"transitions": PoolRealArray( 1, 1, 1 ),
"update": 1,
"values": [ 1.0, 0.8, 1.0 ]
}
tracks/1/type = "value"
tracks/1/path = NodePath("Light2D:texture_scale")
tracks/1/interp = 1
tracks/1/loop_wrap = true
tracks/1/imported = false
tracks/1/enabled = true
tracks/1/keys = {
"times": PoolRealArray( 0, 0.5, 1, 1.5, 2 ),
"transitions": PoolRealArray( 1, 1, 1, 1, 1 ),
"update": 0,
"values": [ 1.0, 0.9, 1.0, 0.9, 1.0 ]
}

[sub_resource type="RectangleShape2D" id=2]
extents = Vector2( 32, 80 )

[sub_resource type="Shader" id=3]
code = "shader_type canvas_item;

uniform vec4 start:hint_color;
uniform vec4 stop:hint_color;

void fragment() {
COLOR = mix(start, stop, UV.x);
}"

[sub_resource type="ShaderMaterial" id=4]
shader = SubResource( 3 )
shader_param/start = Color( 0, 0, 0, 0 )
shader_param/stop = null

[sub_resource type="ImageTexture" id=5]
flags = 2
flags = 2
size = Vector2( 32, 32 )

[sub_resource type="ShaderMaterial" id=6]
shader = SubResource( 3 )
shader_param/start = Color( 0, 0, 0, 0 )
shader_param/stop = null

[sub_resource type="ShaderMaterial" id=7]
shader = SubResource( 3 )
shader_param/start = null
shader_param/stop = Color( 0, 0, 0, 0 )

[sub_resource type="Shader" id=8]
code = "shader_type canvas_item;

uniform vec4 start:hint_color;
uniform vec4 stop:hint_color;

void fragment() {
COLOR = mix(start, stop, UV.y);
}"

[sub_resource type="ShaderMaterial" id=9]
shader = SubResource( 8 )
shader_param/start = null
shader_param/stop = Color( 0, 0, 0, 0 )

[node name="LVL_CATACOMB" type="Node2D"]
__meta__ = {
"__editor_plugin_screen__": "Script"
}

[node name="tilemap" type="TileMap" parent="."]
tile_set = ExtResource( 1 )
cell_size = Vector2( 32, 32 )
compatibility_mode = true
collision_layer = 524288
format = 1
tile_data = PoolIntArray( -655380, -1610612727, 0, -655379, 0, 0, -655378, 0, 0, -655377, 0, 0, -655376, 0, 0, -655375, 0, 0, -655374, 0, 0, -655373, 0, 0, -655372, 0, 0, -655371, 0, 0, -655370, 0, 0, -655369, 0, 0, -655368, 0, 0, -655367, 0, 0, -655366, 0, 0, -655365, 0, 0, -655364, 0, 0, -655363, 2, 0, -655362, 8, 0, -655361, 8, 0, -720896, 8, 0, -720895, 1, 0, -720894, 0, 0, -720893, 0, 0, -720892, 0, 0, -720891, 0, 0, -720890, 0, 0, -720889, 0, 0, -720888, 0, 0, -720887, 0, 0, -720886, 0, 0, -720885, 0, 0, -720884, 0, 0, -720883, 0, 0, -720882, 0, 0, -720881, 0, 0, -720880, 0, 0, -720879, 0, 0, -720878, 0, 0, -720877, 0, 0, -720876, 0, 0, -720875, 15, 0, -589844, -1610612727, 0, -589843, 0, 0, -589842, 0, 0, -589841, 0, 0, -589840, 0, 0, -589839, 0, 0, -589838, 0, 0, -589837, 0, 0, -589836, 0, 0, -589835, 0, 0, -589834, 0, 0, -589833, 0, 0, -589832, 0, 0, -589831, 0, 0, -589830, 0, 0, -589829, 0, 0, -589828, 0, 0, -589827, 2, 0, -589826, 8, 0, -589825, 8, 0, -655360, 8, 0, -655359, 1, 0, -655358, 0, 0, -655357, 0, 0, -655356, 0, 0, -655355, 0, 0, -655354, 0, 0, -655353, 0, 0, -655352, 0, 0, -655351, 0, 0, -655350, 0, 0, -655349, 0, 0, -655348, 0, 0, -655347, 0, 0, -655346, 0, 0, -655345, 0, 0, -655344, 0, 0, -655343, 0, 0, -655342, 0, 0, -655341, 0, 0, -655340, 0, 0, -655339, 15, 0, -524308, -1610612727, 0, -524307, 0, 0, -524306, 0, 0, -524305, 0, 0, -524304, 0, 0, -524303, 0, 0, -524302, 0, 0, -524301, 0, 0, -524300, 0, 0, -524299, 0, 0, -524298, 0, 0, -524297, 0, 0, -524296, 0, 0, -524295, 0, 0, -524294, 0, 0, -524293, 0, 0, -524292, 0, 0, -524291, 2, 0, -524290, 8, 0, -524289, 8, 0, -589824, 8, 0, -589823, 1, 0, -589822, 0, 0, -589821, 0, 0, -589820, 0, 0, -589819, 0, 0, -589818, 0, 0, -589817, 0, 0, -589816, 0, 0, -589815, 0, 0, -589814, 0, 0, -589813, 0, 0, -589812, 0, 0, -589811, 0, 0, -589810, 0, 0, -589809, 0, 0, -589808, 0, 0, -589807, 0, 0, -589806, 0, 0, -589805, 0, 0, -589804, 0, 0, -589803, 15, 0, -458772, -1610612727, 0, -458771, 0, 0, -458770, 0, 0, -458769, 0, 0, -458768, 0, 0, -458767, 0, 0, -458766, 0, 0, -458765, 0, 0, -458764, 0, 0, -458763, 0, 0, -458762, 0, 0, -458761, 0, 0, -458760, 0, 0, -458759, 0, 0, -458758, 0, 0, -458757, 0, 0, -458756, 0, 0, -458755, 2, 0, -458754, 8, 0, -458753, 8, 0, -524288, 8, 0, -524287, 1, 0, -524286, 0, 0, -524285, 0, 0, -524284, 0, 0, -524283, 0, 0, -524282, 0, 0, -524281, 0, 0, -524280, 0, 0, -524279, 0, 0, -524278, 0, 0, -524277, 0, 0, -524276, 0, 0, -524275, 0, 0, -524274, 0, 0, -524273, 0, 0, -524272, 0, 0, -524271, 0, 0, -524270, 0, 0, -524269, 0, 0, -524268, 0, 0, -524267, 15, 0, -393236, -1610612727, 0, -393235, 0, 0, -393234, 0, 0, -393233, 0, 0, -393232, 0, 0, -393231, 0, 0, -393230, 0, 0, -393229, 0, 0, -393228, 0, 0, -393227, 0, 0, -393226, 0, 0, -393225, 0, 0, -393224, 0, 0, -393223, 0, 0, -393222, 0, 0, -393221, 0, 0, -393220, 0, 0, -393219, 2, 0, -393218, 8, 0, -393217, 8, 0, -458752, 8, 0, -458751, 1, 0, -458750, 0, 0, -458749, 0, 0, -458748, 0, 0, -458747, 0, 0, -458746, 0, 0, -458745, 0, 0, -458744, 0, 0, -458743, 0, 0, -458742, 0, 0, -458741, 0, 0, -458740, 0, 0, -458739, 0, 0, -458738, 0, 0, -458737, 0, 0, -458736, 0, 0, -458735, 0, 0, -458734, 0, 0, -458733, 0, 0, -458732, 0, 0, -458731, 15, 0, -327700, -1610612727, 0, -327699, 0, 0, -327698, 0, 0, -327697, 0, 0, -327696, 0, 0, -327695, 0, 0, -327694, 0, 0, -327693, 0, 0, -327692, 0, 0, -327691, 0, 0, -327690, 0, 0, -327689, 0, 0, -327688, 0, 0, -327687, 0, 0, -327686, 0, 0, -327685, 0, 0, -327684, 0, 0, -327683, 2, 0, -327682, 8, 0, -327681, 8, 0, -393216, 8, 0, -393215, 1, 0, -393214, 0, 0, -393213, 0, 0, -393212, 0, 0, -393211, 0, 0, -393210, 0, 0, -393209, 0, 0, -393208, 0, 0, -393207, 0, 0, -393206, 0, 0, -393205, 0, 0, -393204, 0, 0, -393203, 0, 0, -393202, 0, 0, -393201, 0, 0, -393200, 0, 0, -393199, 0, 0, -393198, 0, 0, -393197, 0, 0, -393196, 0, 0, -393195, 15, 0, -262164, -1610612727, 0, -262163, 0, 0, -262162, 0, 0, -262161, 0, 0, -262160, 0, 0, -262159, 0, 0, -262158, 0, 0, -262157, 0, 0, -262156, 0, 0, -262155, 0, 0, -262154, 0, 0, -262153, 0, 0, -262152, 0, 0, -262151, 0, 0, -262150, 0, 0, -262149, 0, 0, -262148, 0, 0, -262147, 2, 0, -262146, 8, 0, -262145, 8, 0, -327680, 8, 0, -327679, 1, 0, -327678, 0, 0, -327677, 0, 0, -327676, 0, 0, -327675, 0, 0, -327674, 0, 0, -327673, 0, 0, -327672, 0, 0, -327671, 0, 0, -327670, 0, 0, -327669, 0, 0, -327668, 0, 0, -327667, 0, 0, -327666, 0, 0, -327665, 0, 0, -327664, 0, 0, -327663, 0, 0, -327662, 0, 0, -327661, 0, 0, -327660, 0, 0, -327659, 15, 0, -196628, -1610612727, 0, -196627, 0, 0, -196626, 0, 0, -196625, 0, 0, -196624, 0, 0, -196623, 0, 0, -196622, 0, 0, -196621, 0, 0, -196620, 0, 0, -196619, 0, 0, -196618, 0, 0, -196617, 0, 0, -196616, 0, 0, -196615, 0, 0, -196614, 0, 0, -196613, 0, 0, -196612, 0, 0, -196611, 2, 0, -196610, 8, 0, -196609, 8, 0, -262144, 8, 0, -262143, 1, 0, -262142, 0, 0, -262141, 0, 0, -262140, 0, 0, -262139, 0, 0, -262138, 0, 0, -262137, 0, 0, -262136, 0, 0, -262135, 0, 0, -262134, 0, 0, -262133, 0, 0, -262132, 0, 0, -262131, 0, 0, -262130, 0, 0, -262129, 0, 0, -262128, 0, 0, -262127, 0, 0, -262126, 0, 0, -262125, 0, 0, -262124, 0, 0, -262123, 15, 0, -131092, -1610612727, 0, -131091, 0, 0, -131090, 0, 0, -131089, 0, 0, -131088, 0, 0, -131087, 0, 0, -131086, 0, 0, -131085, 0, 0, -131084, 0, 0, -131083, 0, 0, -131082, 0, 0, -131081, 0, 0, -131080, 0, 0, -131079, 0, 0, -131078, 0, 0, -131077, 0, 0, -131076, 0, 0, -131075, 2, 0, -131074, 8, 0, -131073, 8, 0, -196608, 8, 0, -196607, 1, 0, -196606, 0, 0, -196605, 0, 0, -196604, 0, 0, -196603, 0, 0, -196602, 0, 0, -196601, 0, 0, -196600, 0, 0, -196599, 0, 0, -196598, 0, 0, -196597, 0, 0, -196596, 0, 0, -196595, 0, 0, -196594, 0, 0, -196593, 0, 0, -196592, 0, 0, -196591, 0, 0, -196590, 0, 0, -196589, 0, 0, -196588, 0, 0, -196587, 15, 0, -65556, -1610612727, 0, -65555, 0, 0, -65554, 0, 0, -65553, 0, 0, -65552, 0, 0, -65551, 0, 0, -65550, 0, 0, -65549, 0, 0, -65548, 0, 0, -65547, 0, 0, -65546, 0, 0, -65545, 0, 0, -65544, 0, 0, -65543, 0, 0, -65542, 0, 0, -65541, 0, 0, -65540, 0, 0, -65539, 2, 0, -65538, 8, 0, -65537, 8, 0, -131072, 8, 0, -131071, 1, 0, -131070, 0, 0, -131069, 0, 0, -131068, 0, 0, -131067, 0, 0, -131066, 0, 0, -131065, 0, 0, -131064, 0, 0, -131063, 0, 0, -131062, 0, 0, -131061, 0, 0, -131060, 0, 0, -131059, 0, 0, -131058, 0, 0, -131057, 0, 0, -131056, 0, 0, -131055, 0, 0, -131054, 0, 0, -131053, 0, 0, -131052, 0, 0, -131051, 15, 0, -20, -1610612727, 0, -19, 0, 0, -18, 2, 0, -17, 11, 0, -16, 11, 0, -15, 11, 0, -14, 11, 0, -13, 11, 0, -12, 11, 0, -11, 11, 0, -10, 11, 0, -9, 11, 0, -8, 11, 0, -7, 11, 0, -6, 11, 0, -5, 11, 0, -4, 11, 0, -3, 11, 0, -2, 8, 0, -1, 8, 0, -65536, 8, 0, -65535, 11, 0, -65534, 11, 0, -65533, 11, 0, -65532, 11, 0, -65531, 11, 0, -65530, 11, 0, -65529, 11, 0, -65528, 11, 0, -65527, 11, 0, -65526, 11, 0, -65525, 11, 0, -65524, 11, 0, -65523, 11, 0, -65522, 11, 0, -65521, 11, 0, -65520, 11, 0, -65519, 3, 0, -65518, 11, 0, -65517, 11, 0, -65516, 11, 0, 65516, -1610612727, 0, 65517, 0, 0, 65518, 2, 0, 65519, 8, 0, 65520, 8, 0, 65521, 8, 0, 65522, 8, 0, 65523, 8, 0, 65524, 8, 0, 65525, 8, 0, 65526, 8, 0, 65527, 8, 0, 65528, 8, 0, 65529, 8, 0, 65530, 8, 0, 65531, 8, 0, 65532, 8, 0, 65533, 8, 0, 65534, 8, 0, 65535, 8, 0, 0, 8, 0, 1, 8, 0, 2, 8, 0, 3, 8, 0, 4, 8, 0, 5, 8, 0, 6, 8, 0, 7, 8, 0, 8, 8, 0, 9, 8, 0, 10, 8, 0, 11, 8, 0, 12, 8, 0, 13, 8, 0, 14, 8, 0, 15, 8, 0, 16, 8, 0, 17, 3, 0, 18, 8, 0, 19, 8, 0, 20, 8, 0, 131052, -1610612727, 0, 131053, 0, 0, 131054, 2, 0, 131055, 8, 0, 131056, 8, 0, 131057, 8, 0, 131058, 8, 0, 131059, 8, 0, 131060, 8, 0, 131061, 8, 0, 131062, 8, 0, 131063, 8, 0, 131064, 8, 0, 131065, 8, 0, 131066, 8, 0, 131067, 8, 0, 131068, 8, 0, 131069, 8, 0, 131070, 8, 0, 131071, 8, 0, 65536, 8, 0, 65537, 8, 0, 65538, 8, 0, 65539, 8, 0, 65540, 8, 0, 65541, 8, 0, 65542, 14, 0, 65546, 8, 0, 65547, 8, 0, 65548, 8, 0, 65549, 8, 0, 65550, 8, 0, 65551, 8, 0, 65552, 8, 0, 65553, 3, 0, 65554, 8, 0, 65555, 8, 0, 65556, 8, 0, 196588, -1610612727, 0, 196589, 0, 0, 196590, 2, 0, 196591, 8, 0, 196592, 8, 0, 196593, 8, 0, 196594, 8, 0, 196595, 8, 0, 196596, 8, 0, 196597, 8, 0, 196598, 8, 0, 196599, 14, 0, 196603, 8, 0, 196604, 8, 0, 196605, 8, 0, 196606, 8, 0, 196607, 8, 0, 131072, 8, 0, 131073, 8, 0, 131074, 8, 0, 131075, 8, 0, 131076, 8, 0, 131077, 8, 0, 131082, 8, 0, 131083, 8, 0, 131084, 8, 0, 131085, 8, 0, 131086, 8, 0, 131087, 8, 0, 131088, 8, 0, 131089, 3, 0, 131090, 8, 0, 131091, 8, 0, 131092, 8, 0, 262124, -1610612727, 0, 262125, 0, 0, 262126, 2, 0, 262127, 8, 0, 262128, 8, 0, 262129, 8, 0, 262130, 8, 0, 262131, 8, 0, 262132, 8, 0, 262133, 8, 0, 262134, 8, 0, 262139, 8, 0, 262140, 8, 0, 262141, 8, 0, 262142, 8, 0, 262143, 8, 0, 196608, 8, 0, 196609, 8, 0, 196610, 8, 0, 196611, 8, 0, 196612, 8, 0, 196613, 8, 0, 196614, 8, 0, 196615, 8, 0, 196616, 8, 0, 196617, 8, 0, 196618, 8, 0, 196619, 8, 0, 196620, 8, 0, 196621, 8, 0, 196622, 8, 0, 196623, 8, 0, 196624, 8, 0, 196625, 3, 0, 196626, 8, 0, 196627, 8, 0, 196628, 12, 0, 327660, -1610612727, 0, 327661, 0, 0, 327662, 2, 0, 327663, 8, 0, 327664, 8, 0, 327665, 8, 0, 327666, 8, 0, 327667, 8, 0, 327668, 8, 0, 327669, 8, 0, 327670, 8, 0, 327671, 8, 0, 327672, 8, 0, 327673, 8, 0, 327674, 8, 0, 327675, 8, 0, 327676, 8, 0, 327677, 8, 0, 327678, 8, 0, 327679, 8, 0, 262144, 8, 0, 262145, 8, 0, 262146, 8, 0, 262147, 8, 0, 262148, 8, 0, 262149, 8, 0, 262150, 8, 0, 262151, 8, 0, 262152, 8, 0, 262153, 8, 0, 262154, 8, 0, 262155, 8, 0, 262156, 8, 0, 262157, 8, 0, 262158, 8, 0, 262159, 8, 0, 262160, 8, 0, 262161, 3, 0, 262162, 12, 0, 262163, 12, 0, 262164, 12, 0, 393196, -1610612727, 0, 393197, 0, 0, 393198, 2, 0, 393199, 8, 0, 393200, 8, 0, 393201, 14, 0, 393205, 8, 0, 393206, 8, 0, 393207, 8, 0, 393208, 8, 0, 393209, 14, 0, 393213, 8, 0, 393214, 8, 0, 393215, 8, 0, 327680, 8, 0, 327681, 8, 0, 327682, 8, 0, 327683, 14, 0, 327687, 8, 0, 327688, 8, 0, 327689, 8, 0, 327690, 8, 0, 327691, 14, 0, 327695, 8, 0, 327696, 8, 0, 327697, 3, 0, 327698, 12, 0, 327699, 12, 0, 327700, 12, 0, 458732, -1610612727, 0, 458733, 0, 0, 458734, 2, 0, 458735, 8, 0, 458736, 8, 0, 458741, 8, 0, 458742, 8, 0, 458743, 8, 0, 458744, 8, 0, 458749, 8, 0, 458750, 8, 0, 458751, 8, 0, 393216, 8, 0, 393217, 8, 0, 393218, 8, 0, 393223, 8, 0, 393224, 8, 0, 393225, 8, 0, 393226, 8, 0, 393231, 8, 0, 393232, 8, 0, 393233, 3, 0, 393234, 12, 0, 393235, 12, 0, 393236, 12, 0, 524268, -1610612727, 0, 524269, 0, 0, 524270, 2, 0, 524271, 8, 0, 524272, 8, 0, 524273, 8, 0, 524274, 8, 0, 524275, 8, 0, 524276, 8, 0, 524277, 8, 0, 524278, 8, 0, 524279, 8, 0, 524280, 8, 0, 524281, 8, 0, 524282, 8, 0, 524283, 8, 0, 524284, 8, 0, 524285, 8, 0, 524286, 8, 0, 524287, 8, 0, 458752, 8, 0, 458753, 8, 0, 458754, 8, 0, 458755, 8, 0, 458756, 8, 0, 458757, 8, 0, 458758, 8, 0, 458759, 8, 0, 458760, 8, 0, 458761, 8, 0, 458762, 8, 0, 458763, 8, 0, 458764, 8, 0, 458765, 8, 0, 458766, 8, 0, 458767, 8, 0, 458768, 8, 0, 458769, 3, 0, 458770, 12, 0, 458771, 12, 0, 458772, 12, 0, 589804, -1610612727, 0, 589805, 0, 0, 589806, 2, 0, 589807, 8, 0, 589808, 8, 0, 589809, 8, 0, 589810, 8, 0, 589811, 8, 0, 589812, 8, 0, 589813, 8, 0, 589814, 8, 0, 589815, 8, 0, 589816, 8, 0, 589817, 8, 0, 589818, 8, 0, 589819, 8, 0, 589820, 8, 0, 589821, 8, 0, 589822, 8, 0, 589823, 8, 0, 524288, 8, 0, 524289, 8, 0, 524290, 8, 0, 524291, 8, 0, 524292, 8, 0, 524293, 8, 0, 524294, 8, 0, 524295, 8, 0, 524296, 8, 0, 524297, 8, 0, 524298, 8, 0, 524299, 8, 0, 524300, 8, 0, 524301, 8, 0, 524302, 8, 0, 524303, 8, 0, 524304, 8, 0, 524305, 3, 0, 524306, 12, 0, 524307, 12, 0, 524308, 12, 0, 655340, -1610612727, 0, 655341, 0, 0, 655342, 2, 0, 655343, 8, 0, 655344, 8, 0, 655345, 8, 0, 655346, 8, 0, 655347, 8, 0, 655348, 8, 0, 655349, 8, 0, 655350, 8, 0, 655351, 8, 0, 655352, 8, 0, 655353, 8, 0, 655354, 8, 0, 655355, 8, 0, 655356, 8, 0, 655357, 8, 0, 655358, 8, 0, 655359, 8, 0, 589824, 8, 0, 589825, 8, 0, 589826, 8, 0, 589827, 8, 0, 589828, 8, 0, 589829, 8, 0, 589830, 8, 0, 589831, 8, 0, 589832, 8, 0, 589833, 8, 0, 589834, 8, 0, 589835, 8, 0, 589836, 8, 0, 589837, 8, 0, 589838, 8, 0, 589839, 8, 0, 589840, 8, 0, 589841, 3, 0, 589842, 12, 0, 589843, 12, 0, 589844, 12, 0, 720876, -1610612727, 0, 720877, 0, 0, 720878, 2, 0, 720879, 8, 0, 720880, 8, 0, 720881, 8, 0, 720882, 8, 0, 720883, 8, 0, 720884, 8, 0, 720885, 8, 0, 720886, 8, 0, 720887, 8, 0, 720888, 8, 0, 720889, 8, 0, 720890, 8, 0, 720891, 8, 0, 720892, 8, 0, 720893, 8, 0, 720894, 8, 0, 720895, 8, 0, 655360, 8, 0, 655361, 8, 0, 655362, 8, 0, 655363, 8, 0, 655364, 8, 0, 655365, 8, 0, 655366, 8, 0, 655367, 8, 0, 655368, 8, 0, 655369, 8, 0, 655370, 8, 0, 655371, 8, 0, 655372, 8, 0, 655373, 8, 0, 655374, 8, 0, 655375, 8, 0, 655376, 8, 0, 655377, 3, 0, 655378, 12, 0, 655379, 12, 0, 655380, 12, 0, 786412, -1610612727, 0, 786413, 0, 0, 786414, 2, 0, 786415, 8, 0, 786416, 8, 0, 786417, 8, 0, 786418, 8, 0, 786419, 8, 0, 786420, 8, 0, 786421, 8, 0, 786422, 8, 0, 786423, 8, 0, 786424, 8, 0, 786425, 8, 0, 786426, 8, 0, 786427, 8, 0, 786428, 8, 0, 786429, 8, 0, 786430, 8, 0, 786431, 8, 0, 720896, 8, 0, 720897, 8, 0, 720898, 8, 0, 720899, 8, 0, 720900, 8, 0, 720901, 8, 0, 720902, 8, 0, 720903, 8, 0, 720904, 8, 0, 720905, 8, 0, 720906, 8, 0, 720907, 8, 0, 720908, 8, 0, 720909, 8, 0, 720910, 8, 0, 720911, 8, 0, 720912, 8, 0, 720913, 3, 0, 720914, 12, 0, 720915, 12, 0, 720916, 12, 0, 720917, 10, 0, 851947, 7, 0, 851949, 6, 0, 851950, 38, 0, 851951, 4, 0, 851952, 38, 0, 851953, 5, 0, 851954, 38, 0, 851955, 4, 0, 851956, 38, 0, 851957, 4, 0, 851958, 38, 0, 851959, 6, 0, 851960, 38, 0, 851961, 4, 0, 851962, 38, 0, 851963, 4, 0, 851964, 38, 0, 851965, 6, 0, 851966, 38, 0, 851967, 6, 0, 786432, 38, 0, 786433, 5, 0, 786434, 38, 0, 786435, 4, 0, 786436, 38, 0, 786437, 4, 0, 786438, 38, 0, 786439, 6, 0, 786440, 38, 0, 786441, 4, 0, 786442, 38, 0, 786443, 5, 0, 786444, 38, 0, 786445, 4, 0, 786446, 38, 0, 786447, 6, 0, 786449, 4, 0, 786451, 5, 0, 917483, 7, 0, 917485, 5, 0, 917487, 4, 0, 917489, 4, 0, 917491, 4, 0, 917493, 6, 0, 917495, 4, 0, 917497, 5, 0, 917499, 4, 0, 917501, 4, 0, 917503, 4, 0, 851969, 4, 0, 851971, 4, 0, 851973, 4, 0, 851975, 5, 0, 851977, 4, 0, 851979, 4, 0, 851981, 6, 0, 851983, 4, 0, 851985, 6, 0, 851987, 6, 0, 983019, 7, 0, 983021, 4, 0, 983023, 5, 0, 983025, 4, 0, 983027, 6, 0, 983029, 4, 0, 983031, 4, 0, 983033, 4, 0, 983035, 6, 0, 983037, 4, 0, 983039, 6, 0, 917505, 4, 0, 917507, 6, 0, 917509, 4, 0, 917511, 4, 0, 917513, 4, 0, 917515, 6, 0, 917517, 4, 0, 917519, 4, 0, 917521, 5, 0, 917523, 5, 0, 1048556, 9, 0, 1048557, 9, 0, 1048558, 9, 0, 1048559, 9, 0, 1048560, 9, 0, 1048561, 9, 0, 1048562, 9, 0, 1048563, 9, 0, 1048564, 9, 0, 1048565, 9, 0, 1048566, 9, 0, 1048567, 9, 0, 1048568, 9, 0, 1048569, 9, 0, 1048570, 9, 0, 1048571, 9, 0, 1048572, 9, 0, 1048573, 9, 0, 1048574, 9, 0, 1048575, 9, 0, 983040, 9, 0, 983041, 9, 0, 983042, 9, 0, 983043, 9, 0, 983044, 9, 0, 983045, 9, 0, 983046, 9, 0, 983047, 9, 0, 983048, 9, 0, 983049, 9, 0, 983050, 9, 0, 983051, 9, 0, 983052, 9, 0, 983053, 9, 0, 983054, 9, 0, 983055, 9, 0, 983056, 9, 0, 983057, 9, 0, 983058, 9, 0, 983059, 9, 0, 983060, 9, 0, 983061, 9, 0 )

[node name="DecoGroup" type="Node2D" parent="tilemap"]

[node name="Sprite1" type="Sprite" parent="tilemap/DecoGroup"]
self_modulate = Color( 0.603922, 0.541176, 0.658824, 1 )
position = Vector2( -288, 304 )
texture = ExtResource( 2 )

[node name="Sprite2" type="Sprite" parent="tilemap/DecoGroup"]
self_modulate = Color( 0.603922, 0.541176, 0.658824, 1 )
position = Vector2( -192, 304 )
texture = ExtResource( 2 )

[node name="Sprite3" type="Sprite" parent="tilemap/DecoGroup"]
self_modulate = Color( 0.603922, 0.541176, 0.658824, 1 )
position = Vector2( -96, 304 )
texture = ExtResource( 2 )

[node name="Sprite4" type="Sprite" parent="tilemap/DecoGroup"]
self_modulate = Color( 0.603922, 0.541176, 0.658824, 1 )
position = Vector2( 464, 304 )
texture = ExtResource( 2 )

[node name="Sprite5" type="Sprite" parent="tilemap/DecoGroup"]
self_modulate = Color( 0.603922, 0.541176, 0.658824, 1 )
position = Vector2( 352, 304 )
texture = ExtResource( 2 )

[node name="Sprite 2" type="Sprite" parent="tilemap/DecoGroup"]
position = Vector2( -480, 368 )
texture = ExtResource( 3 )

[node name="Sprite6" type="Sprite" parent="tilemap/DecoGroup"]
self_modulate = Color( 0.603922, 0.537255, 0.658824, 1 )
position = Vector2( -304, 368 )
texture = ExtResource( 3 )

[node name="Sprite7" type="Sprite" parent="tilemap/DecoGroup"]
self_modulate = Color( 0.603922, 0.537255, 0.658824, 1 )
position = Vector2( -128, 368 )
texture = ExtResource( 3 )
flip_h = true

[node name="Sprite8" type="Sprite" parent="tilemap/DecoGroup"]
self_modulate = Color( 0.603922, 0.537255, 0.658824, 1 )
position = Vector2( 80, 368 )
texture = ExtResource( 3 )

[node name="Sprite9" type="Sprite" parent="tilemap/DecoGroup"]
self_modulate = Color( 0.603922, 0.537255, 0.658824, 1 )
position = Vector2( 272, 368 )
texture = ExtResource( 3 )
flip_h = true

[node name="Sprite10" type="Sprite" parent="tilemap/DecoGroup"]
self_modulate = Color( 0.603922, 0.537255, 0.658824, 1 )
position = Vector2( 464, 368 )
texture = ExtResource( 3 )
flip_h = true

[node name="Sprite11" type="Sprite" parent="tilemap/DecoGroup"]
position = Vector2( 608, 112 )
texture = ExtResource( 4 )

[node name="Sprite12" type="Sprite" parent="tilemap/DecoGroup"]
self_modulate = Color( 1, 1, 1, 0.509804 )
position = Vector2( -512, -16 )
texture = ExtResource( 5 )

[node name="Sprite13" type="Sprite" parent="tilemap/DecoGroup"]
self_modulate = Color( 1, 1, 1, 0.509804 )
position = Vector2( -416, -16 )
texture = ExtResource( 6 )

[node name="Sprite14" type="Sprite" parent="tilemap/DecoGroup"]
self_modulate = Color( 1, 1, 1, 0.509804 )
position = Vector2( -352, -16 )
texture = ExtResource( 7 )

[node name="Sprite15" type="Sprite" parent="tilemap/DecoGroup"]
self_modulate = Color( 1, 1, 1, 0.509804 )
position = Vector2( -208, -16 )
texture = ExtResource( 6 )

[node name="Sprite16" type="Sprite" parent="tilemap/DecoGroup"]
self_modulate = Color( 1, 1, 1, 0.509804 )
position = Vector2( -128, -16 )
texture = ExtResource( 7 )

[node name="Sprite17" type="Sprite" parent="tilemap/DecoGroup"]
self_modulate = Color( 1, 1, 1, 0.509804 )
position = Vector2( 512, -16 )
texture = ExtResource( 5 )
flip_h = true

[node name="Sprite18" type="Sprite" parent="tilemap/DecoGroup"]
self_modulate = Color( 1, 1, 1, 0.509804 )
position = Vector2( 400, -16 )
texture = ExtResource( 6 )

[node name="Sprite19" type="Sprite" parent="tilemap/DecoGroup"]
self_modulate = Color( 1, 1, 1, 0.509804 )
position = Vector2( 192, -16 )
texture = ExtResource( 6 )

[node name="Sprite20" type="Sprite" parent="tilemap/DecoGroup"]
self_modulate = Color( 1, 1, 1, 0.509804 )
position = Vector2( 272, -16 )
texture = ExtResource( 7 )

[node name="Sprite" type="Sprite" parent="tilemap/DecoGroup"]
position = Vector2( 112, 344 )
texture = ExtResource( 8 )

[node name="Light2D" type="Light2D" parent="tilemap/DecoGroup/Sprite"]
position = Vector2( -10, -36 )
texture = ExtResource( 9 )
texture_scale = 0.932625
color = Color( 1, 0.673462, 0.164062, 1 )
shadow_gradient_length = 4.0
shadow_filter = 3
shadow_filter_smooth = 11.0

[node name="AnimationPlayer" type="AnimationPlayer" parent="tilemap/DecoGroup/Sprite"]
autoplay = "idle"
anims/idle = SubResource( 1 )

[node name="TorchGroup" type="Node2D" parent="tilemap"]

[node name="torch" parent="tilemap/TorchGroup" instance=ExtResource( 10 )]
position = Vector2( 288, 192 )
type = "ITEM"
reward = "res://scenes/items/gold/gold.tscn"
value = 20

[node name="torch1" parent="tilemap/TorchGroup" instance=ExtResource( 10 )]
position = Vector2( -288, 192 )
type = "ITEM"
reward = "res://scenes/items/gold/gold.tscn"
value = 20

[node name="LadderGroup" type="Node2D" parent="tilemap"]

[node name="TestLadder" parent="tilemap/LadderGroup" instance=ExtResource( 11 )]
position = Vector2( -16, -32 )

[node name="Sprite" parent="tilemap/LadderGroup/TestLadder/KinematicBody2D" index="0"]
region_rect = Rect2( 0, 0, 32, 640 )

[node name="ladder" parent="tilemap/LadderGroup/TestLadder/KinematicBody2D" index="1"]
scale = Vector2( 1, 20 )

[node name="TargetGroup" type="Node2D" parent="tilemap"]

[node name="target" parent="tilemap/TargetGroup" instance=ExtResource( 12 )]
position = Vector2( 368, 320 )

[node name="NPCGroup" type="Node2D" parent="tilemap"]

[node name="Kaleva" parent="tilemap/NPCGroup" instance=ExtResource( 13 )]
position = Vector2( 176, 304 )
script = ExtResource( 14 )

[node name="enabler" parent="tilemap/NPCGroup/Kaleva" index="0"]
position = Vector2( 0, -9.53674e-06 )
scale = Vector2( 8, 16 )

[node name="Sprite" parent="tilemap/NPCGroup/Kaleva" index="1"]
scale = Vector2( -1, 1 )
texture = ExtResource( 15 )

[node name="CollisionShape2D" parent="tilemap/NPCGroup/Kaleva/npc" index="0"]
shape = SubResource( 2 )

[node name="Coffin" parent="tilemap/NPCGroup" instance=ExtResource( 13 )]
position = Vector2( -416, 304 )
dialogues = [ [ 0, null, "DIAG_RESTORE", null, [ [ "KEY_YES", "restore", null, true ], [ "KEY_NO", "end" ] ] ] ]
static_direction = true

[node name="Sprite" parent="tilemap/NPCGroup/Coffin" index="1"]
texture = ExtResource( 16 )
offset = Vector2( 0, 0 )
hframes = 1

[node name="npc" parent="tilemap/NPCGroup/Coffin" index="2"]
visible = false

[node name="AnimationPlayer" parent="tilemap/NPCGroup/Coffin" index="3"]
autoplay = ""

[node name="SaveGroup" type="Node2D" parent="tilemap"]

[node name="savepoint" parent="tilemap/SaveGroup" instance=ExtResource( 17 )]
position = Vector2( -192, 352 )
savelocation = "LVL_CATACOMB"

[node name="TeleportGroup" type="Node2D" parent="tilemap"]

[node name="Teleport" parent="tilemap/TeleportGroup" instance=ExtResource( 18 )]
position = Vector2( -16, -368 )
is_horizontal = false
target_level = "res://levels/sandbox/sandbox.tscn"
teleport_to = Vector2( -112, 480 )

[node name="teleport" parent="tilemap/TeleportGroup/Teleport" index="0"]
scale = Vector2( 3, 1 )

[node name="boundaries" type="Node2D" parent="tilemap"]

[node name="NW" type="Position2D" parent="tilemap/boundaries"]
position = Vector2( -614, -358 )

[node name="SE" type="Position2D" parent="tilemap/boundaries"]
position = Vector2( 586, 554 )

[node name="fg_deco" type="Node2D" parent="."]

[node name="Sprite2" type="Sprite" parent="fg_deco"]
material = SubResource( 4 )
position = Vector2( 544, -32 )
scale = Vector2( 4, 13 )
texture = SubResource( 5 )
centered = false

[node name="Sprite3" type="Sprite" parent="fg_deco"]
material = SubResource( 6 )
position = Vector2( 576, 480 )
scale = Vector2( 4, 2 )
texture = SubResource( 5 )
centered = false

[node name="Sprite5" type="Sprite" parent="fg_deco"]
material = SubResource( 7 )
position = Vector2( -640, 480 )
scale = Vector2( 2, 2 )
texture = SubResource( 5 )
centered = false

[node name="Sprite6" type="Sprite" parent="fg_deco"]
material = SubResource( 9 )
position = Vector2( -672, -352 )
scale = Vector2( 43, 2 )
texture = SubResource( 5 )
centered = false

[editable path="tilemap/LadderGroup/TestLadder"]

[editable path="tilemap/NPCGroup/Kaleva"]

[editable path="tilemap/NPCGroup/Coffin"]

[editable path="tilemap/TeleportGroup/Teleport"]
