[gd_scene load_steps=8 format=2]

[ext_resource path="res://gui/fonts/S-12-dialog.font" type="BitmapFont" id=1]
[ext_resource path="res://gui/menu/inputkey.gd" type="Script" id=2]
[ext_resource path="res://gui/menu/cursor.tscn" type="PackedScene" id=3]
[ext_resource path="res://gui/fonts/L-24-Keyboard-outline.font" type="BitmapFont" id=4]

[sub_resource type="StyleBoxEmpty" id=1]
content_margin_left = 6.0

[sub_resource type="StyleBoxEmpty" id=2]
content_margin_left = 6.0

[sub_resource type="StyleBoxEmpty" id=3]
content_margin_left = 6.0

[node name="key" type="ToolButton"]
margin_left = 50.0
margin_right = 704.0
margin_bottom = 31.0
focus_neighbour_left = NodePath(".")
focus_neighbour_right = NodePath(".")
size_flags_horizontal = 2
size_flags_vertical = 2
custom_styles/hover = SubResource( 1 )
custom_styles/pressed = SubResource( 2 )
custom_styles/focus = SubResource( 3 )
custom_fonts/font = ExtResource( 1 )
text = "KEY_UP"
align = 0
script = ExtResource( 2 )

[node name="icon" parent="." instance=ExtResource( 3 )]
margin_left = -50.0
margin_top = 4.0
margin_right = -38.0
margin_bottom = 25.0

[node name="key" type="Label" parent="."]
margin_left = 256.0
margin_right = 416.0
margin_bottom = 31.0
size_flags_horizontal = 2
size_flags_vertical = 0
custom_fonts/font = ExtResource( 4 )
text = "KEY"
align = 1

[node name="input" type="Label" parent="."]
margin_left = 444.0
margin_top = 7.0
margin_right = 650.0
margin_bottom = 28.0
size_flags_horizontal = 2
size_flags_vertical = 0
custom_fonts/font = ExtResource( 1 )
text = "KEY_INPUT"
align = 1

[connection signal="focus_entered" from="." to="." method="_on_choice_focus_enter"]
[connection signal="focus_entered" from="." to="." method="_on_key_focus_enter"]
[connection signal="focus_exited" from="." to="." method="_on_key_focus_exit"]
[connection signal="focus_exited" from="." to="." method="_on_choice_focus_exit"]
