[gd_scene load_steps=3 format=2]

[ext_resource path="res://scenes/colosseum/BGs/gate.png" type="Texture" id=1]

[sub_resource type="RectangleShape2D" id=1]

custom_solver_bias = 0.0
extents = Vector2( 16, 124.8 )

[node name="Gate" type="Node2D"]

[node name="Sprite" type="Sprite" parent="." index="0"]

texture = ExtResource( 1 )
region_rect = Rect2( 0, 0, 32, 160 )
_sections_unfolded = [ "Region" ]

[node name="gate" type="StaticBody2D" parent="." index="1"]

scale = Vector2( 1, 5 )
input_pickable = false
collision_layer = 524288
collision_mask = 1
constant_linear_velocity = Vector2( 0, 0 )
constant_angular_velocity = 0.0
friction = 1.0
bounce = 0.0
_sections_unfolded = [ "Collision" ]

[node name="CollisionShape2D" type="CollisionShape2D" parent="gate" index="0"]

shape = SubResource( 1 )


