[gd_scene load_steps=12 format=2]

[ext_resource path="res://scenes/holyruins/tileset.tres" type="TileSet" id=1]
[ext_resource path="res://scenes/holyruins/climbableblock.tscn" type="PackedScene" id=2]
[ext_resource path="res://scenes/common/breakables/torch.tscn" type="PackedScene" id=3]
[ext_resource path="res://scenes/dungeon/ladder/ladder.tscn" type="PackedScene" id=4]
[ext_resource path="res://scenes/dungeon/ladder/laddertop.tscn" type="PackedScene" id=5]
[ext_resource path="res://scenes/common/swingable.tscn" type="PackedScene" id=6]
[ext_resource path="res://scenes/dungeon/movingplatform/movingswingplatform.tscn" type="PackedScene" id=7]
[ext_resource path="res://scenes/common/damagables/plant/plant.tscn" type="PackedScene" id=8]
[ext_resource path="res://scenes/common/teleport.tscn" type="PackedScene" id=9]

[sub_resource type="PhysicsMaterial" id=1]
friction = 0.0

[sub_resource type="PhysicsMaterial" id=2]
friction = 0.0

[node name="LVL_HOLYRUINS" type="Node2D"]
__meta__ = {
"__editor_plugin_screen__": "2D"
}

[node name="tilemap" type="TileMap" parent="."]
tile_set = ExtResource( 1 )
cell_size = Vector2( 32, 32 )
compatibility_mode = true
collision_layer = 524288
format = 1
tile_data = PoolIntArray( -2686988, 4, 0, -2686987, 11, 0, -2686986, 11, 0, -2686985, 11, 0, -2686984, 11, 0, -2686983, 11, 0, -2686982, 11, 0, -2686981, 11, 0, -2686980, 11, 0, -2686979, 11, 0, -2686978, 11, 0, -2686977, 11, 0, -2752512, 11, 0, -2752511, 11, 0, -2752510, 11, 0, -2752509, 11, 0, -2752508, 11, 0, -2752507, 11, 0, -2752506, 11, 0, -2752505, 11, 0, -2752504, 11, 0, -2752503, 11, 0, -2752502, 4, 0, -2621452, 1610612737, 0, -2621451, 1073741824, 0, -2621450, 1073741824, 0, -2621449, 1073741824, 0, -2621448, 1073741824, 0, -2621447, 1073741824, 0, -2621446, 1073741824, 0, -2621445, 1073741824, 0, -2621444, 1073741824, 0, -2621443, 1073741824, 0, -2621442, 1073741824, 0, -2621441, 1073741824, 0, -2686976, 1073741824, 0, -2686975, 1073741824, 0, -2686974, 1073741824, 0, -2686973, 1073741824, 0, -2686972, 1073741824, 0, -2686971, 1073741824, 0, -2686970, 1073741824, 0, -2686969, 1073741824, 0, -2686968, 1073741824, 0, -2686967, 1073741824, 0, -2686966, 1073741825, 0, -2555916, 4, 0, -2555915, 5, 0, -2555914, 5, 0, -2555913, 5, 0, -2555912, 5, 0, -2555911, 5, 0, -2555910, 5, 0, -2555909, 5, 0, -2555908, 5, 0, -2555907, 5, 0, -2555906, 5, 0, -2555905, 5, 0, -2621440, 5, 0, -2621439, 5, 0, -2621438, 5, 0, -2621437, 5, 0, -2621436, 5, 0, -2621435, 5, 0, -2621434, 5, 0, -2621433, 5, 0, -2621432, 5, 0, -2621431, 5, 0, -2621430, 4, 0, -2490380, 4, 0, -2490379, 5, 0, -2490378, 5, 0, -2490377, 5, 0, -2490376, 5, 0, -2490375, 5, 0, -2490374, 5, 0, -2490373, 5, 0, -2490372, 5, 0, -2490371, 5, 0, -2490370, 5, 0, -2490369, 5, 0, -2555904, 5, 0, -2555903, 5, 0, -2555902, 5, 0, -2555901, 5, 0, -2555900, 5, 0, -2555899, 5, 0, -2555898, 5, 0, -2555897, 5, 0, -2555896, 5, 0, -2555895, 5, 0, -2555894, 4, 0, -2424844, 4, 0, -2424843, 5, 0, -2424842, 5, 0, -2424841, 5, 0, -2424840, 5, 0, -2424839, 5, 0, -2424838, 5, 0, -2424837, 5, 0, -2424836, 5, 0, -2424835, 5, 0, -2424834, 5, 0, -2424833, 5, 0, -2490368, 5, 0, -2490367, 5, 0, -2490366, 5, 0, -2490365, 5, 0, -2490364, 5, 0, -2490363, 5, 0, -2490362, 5, 0, -2490361, 5, 0, -2490360, 5, 0, -2490359, 5, 0, -2490358, 4, 0, -2359308, 4, 0, -2359307, 5, 0, -2359306, 5, 0, -2359305, 5, 0, -2359304, 5, 0, -2359303, 5, 0, -2359302, 5, 0, -2359301, 5, 0, -2359300, 5, 0, -2359299, 5, 0, -2359298, 5, 0, -2359297, 5, 0, -2424832, 5, 0, -2424831, 5, 0, -2424830, 5, 0, -2424829, 5, 0, -2424828, 5, 0, -2424827, 5, 0, -2424826, 5, 0, -2424825, 5, 0, -2424824, 5, 0, -2424823, 5, 0, -2424822, 4, 0, -2293772, 1073741825, 0, -2293771, 5, 0, -2293770, 5, 0, -2293769, 5, 0, -2293768, 5, 0, -2293767, 5, 0, -2293766, 5, 0, -2293765, 5, 0, -2293764, 5, 0, -2293763, 5, 0, -2293762, 5, 0, -2293761, 5, 0, -2359296, 5, 0, -2359295, 5, 0, -2359294, 5, 0, -2359293, 5, 0, -2359292, 5, 0, -2359291, 5, 0, -2359290, 5, 0, -2359289, 5, 0, -2359288, 5, 0, -2359287, 5, 0, -2359286, 1610612737, 0, -2228236, 5, 0, -2228235, 5, 0, -2228234, 5, 0, -2228233, 5, 0, -2228232, 5, 0, -2228231, 5, 0, -2228230, 5, 0, -2228229, 5, 0, -2228228, 5, 0, -2228227, 5, 0, -2228226, 5, 0, -2228225, 5, 0, -2293760, 5, 0, -2293759, 5, 0, -2293758, 5, 0, -2293757, 5, 0, -2293756, 5, 0, -2293755, 5, 0, -2293754, 5, 0, -2293753, 5, 0, -2293752, 5, 0, -2293751, 5, 0, -2293750, 5, 0, -2162700, 5, 0, -2162699, 5, 0, -2162698, 5, 0, -2162697, 5, 0, -2162696, 5, 0, -2162695, 5, 0, -2162694, 5, 0, -2162693, 5, 0, -2162692, 5, 0, -2162691, 5, 0, -2162690, 5, 0, -2162689, 5, 0, -2228224, 5, 0, -2228223, 5, 0, -2228222, 5, 0, -2228221, 5, 0, -2228220, 5, 0, -2228219, 5, 0, -2228218, 5, 0, -2228217, 5, 0, -2228216, 5, 0, -2228215, 5, 0, -2228214, 5, 0, -2097164, 5, 0, -2097163, 5, 0, -2097162, 5, 0, -2097161, 5, 0, -2097160, 5, 0, -2097159, 5, 0, -2097158, 5, 0, -2097157, 5, 0, -2097156, 5, 0, -2097155, 5, 0, -2097154, 5, 0, -2097153, 5, 0, -2162688, 5, 0, -2162687, 5, 0, -2162686, 5, 0, -2162685, 5, 0, -2162684, 5, 0, -2162683, 5, 0, -2162682, 5, 0, -2162681, 5, 0, -2162680, 5, 0, -2162679, 5, 0, -2162678, 5, 0, -2031628, 5, 0, -2031627, 5, 0, -2031626, 5, 0, -2031625, 5, 0, -2031624, 5, 0, -2031623, 5, 0, -2031622, 5, 0, -2031621, 5, 0, -2031620, 5, 0, -2031619, 5, 0, -2031618, 5, 0, -2031617, 5, 0, -2097152, 5, 0, -2097151, 5, 0, -2097150, 5, 0, -2097149, 5, 0, -2097148, 5, 0, -2097147, 5, 0, -2097146, 5, 0, -2097145, 5, 0, -2097144, 5, 0, -2097143, 5, 0, -2097142, 5, 0, -1966092, 5, 0, -1966091, 5, 0, -1966090, 5, 0, -1966089, 5, 0, -1966088, 5, 0, -1966087, 5, 0, -1966086, 5, 0, -1966085, 5, 0, -1966084, 5, 0, -1966083, 5, 0, -1966082, 5, 0, -1966081, 5, 0, -2031616, 5, 0, -2031615, 5, 0, -2031614, 5, 0, -2031613, 5, 0, -2031612, 5, 0, -2031611, 5, 0, -2031610, 5, 0, -2031609, 5, 0, -2031608, 5, 0, -2031607, 5, 0, -2031606, 5, 0, -1900556, 536870915, 0, -1900555, 2, 0, -1900554, 5, 0, -1900553, 5, 0, -1900552, 5, 0, -1900551, 5, 0, -1900550, 5, 0, -1900549, 5, 0, -1900548, 5, 0, -1900547, 5, 0, -1900546, 5, 0, -1900545, 5, 0, -1966080, 5, 0, -1966079, 5, 0, -1966078, 5, 0, -1966077, 5, 0, -1966076, 5, 0, -1966075, 5, 0, -1966074, 5, 0, -1966073, 5, 0, -1966072, 5, 0, -1966071, 2, 0, -1966070, 3, 0, -1835020, 4, 0, -1835019, 5, 0, -1835018, 5, 0, -1835017, 5, 0, -1835016, 5, 0, -1835015, 5, 0, -1835014, 5, 0, -1835013, 5, 0, -1835012, 5, 0, -1835011, 5, 0, -1835010, 21, 0, -1900542, 5, 0, -1900541, 5, 0, -1900540, 5, 0, -1900539, 5, 0, -1900538, 5, 0, -1900537, 5, 0, -1900536, 5, 0, -1900535, 5, 0, -1900534, 4, 0, -1769484, 4, 0, -1769483, 5, 0, -1769482, 5, 0, -1769481, 5, 0, -1769480, 5, 0, -1769479, 5, 0, -1769478, 5, 0, -1769477, 5, 0, -1769476, 5, 0, -1769475, 5, 0, -1835006, 5, 0, -1835005, 5, 0, -1835004, 5, 0, -1835003, 5, 0, -1835002, 5, 0, -1835001, 5, 0, -1835000, 5, 0, -1834999, 5, 0, -1834998, 4, 0, -1703948, 4, 0, -1703947, 5, 0, -1703946, 5, 0, -1703945, 5, 0, -1703944, 5, 0, -1703943, 5, 0, -1703942, 5, 0, -1703941, 5, 0, -1703940, 5, 0, -1703939, 5, 0, -1769470, 5, 0, -1769469, 5, 0, -1769468, 5, 0, -1769467, 5, 0, -1769466, 5, 0, -1769465, 5, 0, -1769464, 5, 0, -1769463, 5, 0, -1769462, 4, 0, -1638412, 4, 0, -1638411, 5, 0, -1638410, 5, 0, -1638409, 5, 0, -1638408, 5, 0, -1638407, 5, 0, -1638406, 5, 0, -1638405, 5, 0, -1638404, 5, 0, -1638403, 5, 0, -1703934, 5, 0, -1703933, 5, 0, -1703932, 5, 0, -1703931, 5, 0, -1703930, 5, 0, -1703929, 5, 0, -1703928, 5, 0, -1703927, 5, 0, -1703926, 4, 0, -1572876, 4, 0, -1572875, 5, 0, -1572874, 5, 0, -1572873, 5, 0, -1572872, 5, 0, -1572871, 5, 0, -1572870, 5, 0, -1572869, 5, 0, -1572868, 5, 0, -1572867, 5, 0, -1638398, 5, 0, -1638397, 5, 0, -1638396, 5, 0, -1638395, 5, 0, -1638394, 5, 0, -1638393, 5, 0, -1638392, 5, 0, -1638391, 5, 0, -1638390, 4, 0, -1507340, 4, 0, -1507339, 5, 0, -1507338, 5, 0, -1507337, 5, 0, -1507336, 5, 0, -1507335, 5, 0, -1507334, 5, 0, -1507333, 5, 0, -1507332, 5, 0, -1507331, 5, 0, -1572862, 5, 0, -1572861, 5, 0, -1572860, 5, 0, -1572859, 5, 0, -1572858, 5, 0, -1572857, 5, 0, -1572856, 5, 0, -1572855, 5, 0, -1572854, 4, 0, -1441804, 4, 0, -1441803, 5, 0, -1441802, 5, 0, -1441801, 5, 0, -1441800, 5, 0, -1441799, 5, 0, -1441798, 5, 0, -1441797, 5, 0, -1441796, 5, 0, -1441795, 5, 0, -1507326, 5, 0, -1507325, 5, 0, -1507324, 5, 0, -1507323, 5, 0, -1507322, 5, 0, -1507321, 5, 0, -1507320, 5, 0, -1507319, 5, 0, -1507318, 4, 0, -1376268, 4, 0, -1376267, 5, 0, -1376266, 5, 0, -1376265, 5, 0, -1376264, 5, 0, -1376263, 5, 0, -1376262, 5, 0, -1376261, 5, 0, -1376260, 5, 0, -1376259, 5, 0, -1441790, 5, 0, -1441789, 5, 0, -1441788, 5, 0, -1441787, 5, 0, -1441786, 5, 0, -1441785, 5, 0, -1441784, 5, 0, -1441783, 5, 0, -1441782, 4, 0, -1310732, 4, 0, -1310731, 5, 0, -1310730, 5, 0, -1310729, 5, 0, -1310728, 5, 0, -1310727, 5, 0, -1310726, 5, 0, -1310725, 5, 0, -1310724, 5, 0, -1310723, 5, 0, -1310722, 5, 0, -1310721, 5, 0, -1376256, 5, 0, -1376255, 5, 0, -1376254, 5, 0, -1376253, 5, 0, -1376252, 5, 0, -1376251, 5, 0, -1376250, 5, 0, -1376249, 5, 0, -1376248, 5, 0, -1376247, 5, 0, -1376246, 4, 0, -1245196, 4, 0, -1245195, 5, 0, -1245194, 5, 0, -1245193, 5, 0, -1245192, 5, 0, -1245191, 5, 0, -1245190, 5, 0, -1245189, 5, 0, -1245188, 5, 0, -1245187, 5, 0, -1245186, 5, 0, -1245185, 5, 0, -1310720, 5, 0, -1310719, 5, 0, -1310718, 5, 0, -1310717, 5, 0, -1310716, 5, 0, -1310715, 5, 0, -1310714, 5, 0, -1310713, 5, 0, -1310712, 5, 0, -1310711, 5, 0, -1310710, 4, 0, -1179660, 4, 0, -1179659, 5, 0, -1179658, 5, 0, -1179657, 5, 0, -1179656, 5, 0, -1179655, 5, 0, -1179654, 5, 0, -1179653, 5, 0, -1179652, 5, 0, -1179651, 5, 0, -1179650, 5, 0, -1179649, 5, 0, -1245184, 5, 0, -1245183, 5, 0, -1245182, 5, 0, -1245181, 5, 0, -1245180, 5, 0, -1245179, 5, 0, -1245178, 5, 0, -1245177, 5, 0, -1245176, 5, 0, -1245175, 5, 0, -1245174, 4, 0, -1114124, 4, 0, -1114123, 5, 0, -1114122, 5, 0, -1114121, 5, 0, -1114120, 5, 0, -1114119, 5, 0, -1114118, 5, 0, -1114117, 5, 0, -1114116, 5, 0, -1114115, 5, 0, -1114114, 5, 0, -1114113, 5, 0, -1179648, 5, 0, -1179647, 5, 0, -1179646, 5, 0, -1179645, 5, 0, -1179644, 5, 0, -1179643, 5, 0, -1179642, 5, 0, -1179641, 5, 0, -1179640, 5, 0, -1179639, 5, 0, -1179638, 4, 0, -1048588, 4, 0, -1048587, 5, 0, -1048586, 5, 0, -1048585, 5, 0, -1048584, 5, 0, -1048583, 5, 0, -1048582, 5, 0, -1048581, 5, 0, -1048580, 5, 0, -1048579, 5, 0, -1048578, 5, 0, -1048577, 5, 0, -1114112, 5, 0, -1114111, 5, 0, -1114110, 5, 0, -1114109, 5, 0, -1114108, 5, 0, -1114107, 5, 0, -1114106, 5, 0, -1114105, 5, 0, -1114104, 5, 0, -1114103, 5, 0, -1114102, 4, 0, -983052, 4, 0, -983051, 5, 0, -983050, 5, 0, -983049, 5, 0, -983048, 5, 0, -983047, 5, 0, -983046, 5, 0, -983045, 5, 0, -983044, 5, 0, -983043, 5, 0, -983042, 22, 0, -1048574, 5, 0, -1048573, 5, 0, -1048572, 5, 0, -1048571, 5, 0, -1048570, 5, 0, -1048569, 5, 0, -1048568, 5, 0, -1048567, 5, 0, -1048566, 4, 0, -917516, 4, 0, -917515, 5, 0, -917514, 5, 0, -917513, 5, 0, -917512, 5, 0, -917511, 5, 0, -917510, 5, 0, -917509, 5, 0, -917508, 5, 0, -917507, 5, 0, -983038, 5, 0, -983037, 5, 0, -983036, 5, 0, -983035, 5, 0, -983034, 5, 0, -983033, 5, 0, -983032, 5, 0, -983031, 5, 0, -983030, 4, 0, -851980, 4, 0, -851979, 5, 0, -851978, 5, 0, -851977, 5, 0, -851976, 5, 0, -851975, 5, 0, -851974, 5, 0, -851973, 5, 0, -851972, 5, 0, -851971, 5, 0, -917502, 5, 0, -917501, 5, 0, -917500, 5, 0, -917499, 5, 0, -917498, 5, 0, -917497, 5, 0, -917496, 5, 0, -917495, 5, 0, -917494, 4, 0, -786444, 4, 0, -786443, 5, 0, -786442, 5, 0, -786441, 5, 0, -786440, 5, 0, -786439, 5, 0, -786438, 5, 0, -786437, 5, 0, -786436, 5, 0, -786435, 5, 0, -851966, 5, 0, -851965, 5, 0, -851964, 5, 0, -851963, 5, 0, -851962, 5, 0, -851961, 5, 0, -851960, 5, 0, -851959, 5, 0, -851958, 4, 0, -720908, 4, 0, -720907, 5, 0, -720906, 5, 0, -720905, 5, 0, -720904, 5, 0, -720903, 5, 0, -720902, 5, 0, -720901, 5, 0, -720900, 5, 0, -720899, 5, 0, -786430, 5, 0, -786429, 5, 0, -786428, 5, 0, -786427, 5, 0, -786426, 5, 0, -786425, 5, 0, -786424, 5, 0, -786423, 5, 0, -786422, 4, 0, -655372, 4, 0, -655371, 5, 0, -655370, 5, 0, -655369, 5, 0, -655368, 5, 0, -655367, 5, 0, -655366, 5, 0, -655365, 5, 0, -655364, 5, 0, -655363, 5, 0, -720894, 5, 0, -720893, 5, 0, -720892, 5, 0, -720891, 5, 0, -720890, 5, 0, -720889, 5, 0, -720888, 5, 0, -720887, 5, 0, -720886, 4, 0, -589836, 4, 0, -589835, 5, 0, -589834, 5, 0, -589833, 5, 0, -589832, 5, 0, -589831, 5, 0, -589830, 5, 0, -589829, 5, 0, -589828, 5, 0, -589827, 5, 0, -655358, 5, 0, -655357, 5, 0, -655356, 5, 0, -655355, 5, 0, -655354, 5, 0, -655353, 5, 0, -655352, 5, 0, -655351, 5, 0, -655350, 4, 0, -524300, 4, 0, -524299, 5, 0, -524298, 5, 0, -524297, 5, 0, -524296, 5, 0, -524295, 5, 0, -524294, 5, 0, -524293, 5, 0, -524292, 5, 0, -524291, 5, 0, -589822, 5, 0, -589821, 5, 0, -589820, 5, 0, -589819, 5, 0, -589818, 5, 0, -589817, 5, 0, -589816, 5, 0, -589815, 5, 0, -589814, 4, 0, -458764, 4, 0, -458763, 5, 0, -458762, 5, 0, -458761, 5, 0, -458760, 5, 0, -458759, 5, 0, -458758, 5, 0, -458757, 5, 0, -458756, 5, 0, -458755, 5, 0, -458754, 5, 0, -458753, 5, 0, -524288, 5, 0, -524287, 5, 0, -524286, 5, 0, -524285, 5, 0, -524284, 5, 0, -524283, 5, 0, -524282, 5, 0, -524281, 5, 0, -524280, 5, 0, -524279, 5, 0, -524278, 4, 0, -393228, 4, 0, -393227, 5, 0, -393226, 5, 0, -393225, 5, 0, -393224, 5, 0, -393223, 5, 0, -393222, 5, 0, -393221, 5, 0, -393220, 5, 0, -393219, 5, 0, -393218, 5, 0, -393217, 5, 0, -458752, 5, 0, -458751, 5, 0, -458750, 5, 0, -458749, 5, 0, -458748, 5, 0, -458747, 5, 0, -458746, 5, 0, -458745, 5, 0, -458744, 5, 0, -458743, 5, 0, -458742, 4, 0, -327692, 4, 0, -327691, 5, 0, -327690, 5, 0, -327689, 5, 0, -327688, 5, 0, -327687, 5, 0, -327686, 5, 0, -327685, 5, 0, -327684, 5, 0, -327683, 5, 0, -327682, 5, 0, -327681, 5, 0, -393216, 5, 0, -393215, 5, 0, -393214, 5, 0, -393213, 5, 0, -393212, 5, 0, -393211, 5, 0, -393210, 5, 0, -393209, 5, 0, -393208, 5, 0, -393207, 5, 0, -393206, 4, 0, -262156, 4, 0, -262155, 5, 0, -262154, 5, 0, -262153, 5, 0, -262152, 5, 0, -262151, 5, 0, -262150, 5, 0, -262149, 5, 0, -262148, 5, 0, -262147, 5, 0, -262146, 5, 0, -262145, 5, 0, -327680, 5, 0, -327679, 5, 0, -327678, 5, 0, -327677, 5, 0, -327676, 5, 0, -327675, 5, 0, -327674, 5, 0, -327673, 5, 0, -327672, 5, 0, -327671, 5, 0, -327670, 4, 0, -196620, 4, 0, -196619, 5, 0, -196618, 5, 0, -196617, 5, 0, -196616, 5, 0, -196615, 5, 0, -196614, 5, 0, -196613, 5, 0, -196612, 5, 0, -196611, 5, 0, -196610, 5, 0, -196609, 5, 0, -262144, 5, 0, -262143, 5, 0, -262142, 5, 0, -262141, 5, 0, -262140, 5, 0, -262139, 5, 0, -262138, 5, 0, -262137, 5, 0, -262136, 5, 0, -262135, 5, 0, -262134, 4, 0, -131084, 4, 0, -131083, 5, 0, -131082, 5, 0, -131081, 5, 0, -131080, 5, 0, -131079, 1073741829, 0, -131078, 5, 0, -131077, 5, 0, -131076, 5, 0, -131075, 5, 0, -131074, 5, 0, -131073, 5, 0, -196608, 5, 0, -196607, 5, 0, -196606, 5, 0, -196605, 5, 0, -196604, 5, 0, -196603, 5, 0, -196602, 5, 0, -196601, 5, 0, -196600, 5, 0, -196599, 5, 0, -196598, 4, 0, -65548, 4, 0, -65547, 5, 0, -65546, 5, 0, -65545, 5, 0, -65544, 5, 0, -65543, 5, 0, -65542, 5, 0, -65541, 5, 0, -65540, 5, 0, -65539, 5, 0, -65538, 5, 0, -65537, 5, 0, -131072, 5, 0, -131071, 5, 0, -131070, 5, 0, -131069, 5, 0, -131068, 5, 0, -131067, 5, 0, -131066, 5, 0, -131065, 5, 0, -131064, 5, 0, -131063, 5, 0, -131062, 4, 0, -12, 4, 0, -11, 5, 0, -10, 5, 0, -9, 5, 0, -8, 5, 0, -7, 5, 0, -6, 5, 0, -5, 5, 0, -4, 5, 0, -3, 5, 0, -2, 5, 0, -1, 5, 0, -65536, 5, 0, -65535, 5, 0, -65534, 5, 0, -65533, 5, 0, -65532, 5, 0, -65531, 5, 0, -65530, 5, 0, -65529, 5, 0, -65528, 5, 0, -65527, 5, 0, -65526, 4, 0, 65524, 4, 0, 65525, 5, 0, 65526, 5, 0, 65527, 5, 0, 65528, 5, 0, 65529, 5, 0, 65530, 5, 0, 65531, 5, 0, 65532, 5, 0, 65533, 5, 0, 65534, 5, 0, 65535, 5, 0, 0, 5, 0, 1, 5, 0, 2, 5, 0, 3, 5, 0, 4, 5, 0, 5, 5, 0, 6, 5, 0, 7, 5, 0, 8, 5, 0, 9, 5, 0, 10, 4, 0, 131060, 4, 0, 131061, 5, 0, 131062, 5, 0, 131063, 5, 0, 131064, 5, 0, 131065, 5, 0, 131066, 5, 0, 131067, 5, 0, 131068, 5, 0, 131069, 5, 0, 131070, 5, 0, 131071, 5, 0, 65536, 5, 0, 65537, 5, 0, 65538, 5, 0, 65539, 5, 0, 65540, 5, 0, 65541, 5, 0, 65542, 5, 0, 65543, 5, 0, 65544, 5, 0, 65545, 5, 0, 65546, 4, 0, 196596, 4, 0, 196597, 5, 0, 196598, 5, 0, 196599, 5, 0, 196600, 5, 0, 196601, 5, 0, 196602, 5, 0, 196603, 5, 0, 196604, 5, 0, 196605, 5, 0, 196606, 5, 0, 196607, 5, 0, 131072, 5, 0, 131073, 5, 0, 131074, 5, 0, 131075, 5, 0, 131076, 5, 0, 131077, 5, 0, 131078, 5, 0, 131079, 5, 0, 131080, 5, 0, 131081, 5, 0, 131082, 4, 0, 262132, 536870913, 0, 262133, 0, 0, 262134, 0, 0, 262135, 0, 0, 262136, 0, 0, 262137, 0, 0, 262138, 0, 0, 262139, 0, 0, 262140, 0, 0, 262141, 1, 0, 262142, 5, 0, 262143, 5, 0, 196608, 5, 0, 196609, 536870913, 0, 196610, 0, 0, 196611, 0, 0, 196612, 0, 0, 196613, 0, 0, 196614, 0, 0, 196615, 0, 0, 196616, 0, 0, 196617, 0, 0, 196618, 1, 0, 327668, 4, 0, 327669, 11, 0, 327670, 11, 0, 327671, 11, 0, 327672, 11, 0, 327673, 11, 0, 327674, 11, 0, 327675, 11, 0, 327676, 11, 0, 327677, 4, 0, 327678, 5, 0, 327679, 5, 0, 262144, 5, 0, 262145, 4, 0, 262146, 11, 0, 262147, 11, 0, 262148, 11, 0, 262149, 11, 0, 262150, 11, 0, 262151, 11, 0, 262152, 11, 0, 262153, 11, 0, 262154, 4, 0, 262155, 35, 0, 262157, 35, 0, 262158, 35, 0, 262160, 35, 0, 262161, 35, 0, 262162, 35, 0, 262163, 35, 0, 262164, 35, 0, 262165, 35, 0, 262166, 35, 0, 262167, 35, 0, 262168, 35, 0, 262169, 35, 0, 262170, 35, 0, 262171, 35, 0, 262172, 35, 0, 262173, 35, 0, 262174, 35, 0, 262175, 35, 0, 262184, 35, 0, 262185, 35, 0, 262186, 35, 0, 262187, 35, 0, 262188, 35, 0, 262189, 35, 0, 393204, 4, 0, 393205, 11, 0, 393206, 11, 0, 393207, 11, 0, 393208, 11, 0, 393209, 11, 0, 393210, 11, 0, 393211, 11, 0, 393212, 11, 0, 393213, 4, 0, 393214, 5, 0, 393215, 5, 0, 327680, 5, 0, 327681, 4, 0, 327682, 11, 0, 327683, 11, 0, 327684, 11, 0, 327685, 11, 0, 327686, 11, 0, 327687, 11, 0, 327688, 11, 0, 327689, 11, 0, 327690, 4, 0, 327691, 35, 0, 327692, 35, 0, 327693, 35, 0, 327694, 35, 0, 327695, 35, 0, 327696, 35, 0, 327697, 35, 0, 327698, 35, 0, 327699, 35, 0, 327700, 35, 0, 327701, 35, 0, 327702, 35, 0, 327703, 35, 0, 327704, 35, 0, 327705, 35, 0, 327706, 35, 0, 327707, 35, 0, 327708, 35, 0, 327709, 35, 0, 327710, 35, 0, 327718, 35, 0, 327719, 35, 0, 327720, 35, 0, 327721, 35, 0, 327722, 35, 0, 327723, 35, 0, 327724, 35, 0, 327725, 35, 0, 458740, 4, 0, 458741, 11, 0, 458742, 11, 0, 458743, 11, 0, 458744, 11, 0, 458745, 11, 0, 458746, 11, 0, 458747, 11, 0, 458748, 11, 0, 458749, 4, 0, 458750, 5, 0, 458751, 5, 0, 393216, 5, 0, 393217, 4, 0, 393218, 11, 0, 393219, 11, 0, 393220, 11, 0, 393221, 11, 0, 393222, 11, 0, 393223, 11, 0, 393224, 11, 0, 393225, 11, 0, 393226, 4, 0, 393227, 35, 0, 393228, 35, 0, 393229, 35, 0, 393230, 35, 0, 393231, 35, 0, 393232, 35, 0, 393233, 35, 0, 393234, 35, 0, 393235, 35, 0, 393236, 35, 0, 393237, 35, 0, 393238, 35, 0, 393239, 35, 0, 393240, 35, 0, 393241, 35, 0, 393242, 35, 0, 393243, 35, 0, 393244, 35, 0, 393254, 35, 0, 393255, 35, 0, 393256, 35, 0, 393257, 35, 0, 393258, 35, 0, 393259, 35, 0, 393260, 35, 0, 393261, 35, 0 )

[node name="ClimbableGroup" type="Node2D" parent="tilemap"]

[node name="ClimbableBlock" parent="tilemap/ClimbableGroup" instance=ExtResource( 2 )]
position = Vector2( 272, -944 )
physics_material_override = SubResource( 1 )

[node name="ClimbableBlock1" parent="tilemap/ClimbableGroup" instance=ExtResource( 2 )]
position = Vector2( -304, -944 )
physics_material_override = SubResource( 2 )

[node name="Sprite" parent="tilemap/ClimbableGroup/ClimbableBlock1" index="0"]
flip_h = false

[node name="TorchGroup" type="Node2D" parent="tilemap"]

[node name="torch" parent="tilemap/TorchGroup" instance=ExtResource( 3 )]
position = Vector2( 224, -192 )

[node name="torch2" parent="tilemap/TorchGroup" instance=ExtResource( 3 )]
position = Vector2( -256, -192 )

[node name="torch3" parent="tilemap/TorchGroup" instance=ExtResource( 3 )]
position = Vector2( -256, -576 )

[node name="torch4" parent="tilemap/TorchGroup" instance=ExtResource( 3 )]
position = Vector2( 224, -576 )

[node name="torch5" parent="tilemap/TorchGroup" instance=ExtResource( 3 )]
position = Vector2( 224, -1056 )

[node name="torch6" parent="tilemap/TorchGroup" instance=ExtResource( 3 )]
position = Vector2( -256, -1056 )

[node name="LadderGroup" type="Node2D" parent="tilemap"]

[node name="TestLadder" parent="tilemap/LadderGroup" instance=ExtResource( 4 )]
position = Vector2( -16, 160 )

[node name="Sprite" parent="tilemap/LadderGroup/TestLadder/KinematicBody2D" index="0"]
region_rect = Rect2( 0, 0, 32, 128 )

[node name="ladder" parent="tilemap/LadderGroup/TestLadder/KinematicBody2D" index="1"]
scale = Vector2( 1, 4 )

[node name="TestLadder 2" parent="tilemap/LadderGroup" instance=ExtResource( 5 )]
position = Vector2( -16, 80 )

[node name="SwingableGroup" type="Node2D" parent="tilemap"]

[node name="SwingBlock" parent="tilemap/SwingableGroup" instance=ExtResource( 6 )]
position = Vector2( -16, -1088 )

[node name="MovingSwingPlatform" parent="tilemap/SwingableGroup" instance=ExtResource( 7 )]
position = Vector2( -192, -640 )
motion = Vector2( 0, 320 )
cycle = 8.0

[node name="MovingSwingPlatform1" parent="tilemap/SwingableGroup" instance=ExtResource( 7 )]
position = Vector2( 160, -640 )
motion = Vector2( 0, 320 )
cycle = 8.0

[node name="EnemiesGroup" type="Node2D" parent="tilemap"]

[node name="Plant" parent="tilemap/EnemiesGroup" instance=ExtResource( 8 )]
position = Vector2( -256, 0 )
scale = Vector2( -1, 1 )

[node name="Plant1" parent="tilemap/EnemiesGroup" instance=ExtResource( 8 )]
position = Vector2( 224, 0 )

[node name="TeleportGroup" type="Node2D" parent="tilemap"]

[node name="Teleport" parent="tilemap/TeleportGroup" instance=ExtResource( 9 )]
position = Vector2( -16, 240 )
is_horizontal = false
target_level = "res://levels/common/catacombs.tscn"
teleport_to = Vector2( -16, -272 )

[node name="teleport" parent="tilemap/TeleportGroup/Teleport" index="0"]
scale = Vector2( 3, 1 )

[node name="Teleport1" parent="tilemap/TeleportGroup" instance=ExtResource( 9 )]
position = Vector2( 368, -1040 )
target_level = "res://levels/holyruins/1-0.tscn"
teleport_to = Vector2( -1356, 1584 )

[node name="teleport" parent="tilemap/TeleportGroup/Teleport1" index="0"]
scale = Vector2( 1, 5 )

[node name="Teleport2" parent="tilemap/TeleportGroup" instance=ExtResource( 9 )]
position = Vector2( -400, -1040 )
target_level = "res://levels/holyruins/0-1.tscn"
teleport_to = Vector2( 876, 80 )

[node name="teleport" parent="tilemap/TeleportGroup/Teleport2" index="0"]
scale = Vector2( 1, 5 )

[node name="boundaries" type="Node2D" parent="tilemap"]

[node name="NW" type="Position2D" parent="tilemap/boundaries"]
position = Vector2( -400, -1360 )

[node name="SE" type="Position2D" parent="tilemap/boundaries"]
position = Vector2( 368, 240 )

[editable path="tilemap/ClimbableGroup/ClimbableBlock1"]

[editable path="tilemap/LadderGroup/TestLadder"]

[editable path="tilemap/TeleportGroup/Teleport"]

[editable path="tilemap/TeleportGroup/Teleport1"]

[editable path="tilemap/TeleportGroup/Teleport2"]
