[gd_scene load_steps=14 format=2]

[ext_resource path="res://scenes/holyruins/tileset.tres" type="TileSet" id=1]
[ext_resource path="res://scenes/holyruins/climbableblock.tscn" type="PackedScene" id=2]
[ext_resource path="res://scenes/holyruins/BGs/corner.png" type="Texture" id=3]
[ext_resource path="res://scenes/dungeon/fallingplatform/fallingplatform.tscn" type="PackedScene" id=4]
[ext_resource path="res://scenes/common/breakables/torch.tscn" type="PackedScene" id=5]
[ext_resource path="res://scenes/dungeon/ladder/ladder.tscn" type="PackedScene" id=6]
[ext_resource path="res://scenes/dungeon/ladder/laddertop.tscn" type="PackedScene" id=7]
[ext_resource path="res://scenes/common/swingable.tscn" type="PackedScene" id=8]
[ext_resource path="res://scenes/common/damagables/spiketile.tscn" type="PackedScene" id=9]
[ext_resource path="res://scenes/common/teleport.tscn" type="PackedScene" id=10]

[sub_resource type="PhysicsMaterial" id=1]
friction = 0.0

[sub_resource type="PhysicsMaterial" id=2]
friction = 0.0

[sub_resource type="PhysicsMaterial" id=3]
friction = 0.0

[node name="LVL_NOTITLE" type="Node2D"]
__meta__ = {
"__editor_plugin_screen__": "2D"
}

[node name="tilemap" type="TileMap" parent="."]
tile_set = ExtResource( 1 )
cell_size = Vector2( 32, 32 )
compatibility_mode = true
collision_layer = 524288
format = 1
tile_data = PoolIntArray( -1703944, 1610612737, 0, -1703943, 1073741824, 0, -1703942, 1073741824, 0, -1703941, 1073741824, 0, -1703940, 1073741824, 0, -1703939, 1073741824, 0, -1703938, 1073741824, 0, -1703937, 1073741824, 0, -1769472, 1073741824, 0, -1769471, 1073741824, 0, -1769470, 1073741824, 0, -1769469, 1073741824, 0, -1769468, 1073741824, 0, -1769467, 1073741824, 0, -1769466, 1073741824, 0, -1769465, 1073741824, 0, -1769464, 1073741824, 0, -1769463, 1073741824, 0, -1769462, 1073741824, 0, -1769461, 1073741824, 0, -1769460, 1073741824, 0, -1769459, 1073741824, 0, -1769458, 1073741824, 0, -1769457, 1073741824, 0, -1769456, 1073741824, 0, -1769455, 1073741824, 0, -1769454, 1073741824, 0, -1769453, 1073741824, 0, -1769452, 1073741824, 0, -1769451, 1073741824, 0, -1769450, 1073741824, 0, -1769449, 1073741824, 0, -1769448, 1073741824, 0, -1769447, 1073741824, 0, -1769446, 1073741824, 0, -1769445, 1073741824, 0, -1769444, 1073741824, 0, -1769443, 1073741824, 0, -1769442, 1073741824, 0, -1769441, 1073741824, 0, -1769440, 1073741824, 0, -1769439, 1073741824, 0, -1769438, 1073741824, 0, -1769437, 1073741824, 0, -1769436, 1073741824, 0, -1769435, 1073741824, 0, -1769434, 1073741824, 0, -1769433, 1073741824, 0, -1769432, 1073741824, 0, -1769431, 1073741824, 0, -1769430, 1073741824, 0, -1769429, 1073741824, 0, -1769428, 1073741824, 0, -1769427, 1073741824, 0, -1769426, 1073741824, 0, -1769425, 1073741824, 0, -1769424, 1073741824, 0, -1769423, 1073741824, 0, -1769422, 1073741824, 0, -1769421, 1073741824, 0, -1769420, 1073741824, 0, -1769419, 1073741824, 0, -1769418, 1073741824, 0, -1769417, 1073741824, 0, -1769416, 1073741824, 0, -1769415, 1073741824, 0, -1769414, 1073741824, 0, -1769413, 1073741824, 0, -1769412, 1073741824, 0, -1769411, 1073741824, 0, -1769410, 1073741824, 0, -1769409, 1073741824, 0, -1769408, 1073741825, 0, -1638408, 4, 0, -1638407, 5, 0, -1638406, 5, 0, -1638405, 5, 0, -1638404, 5, 0, -1638403, 5, 0, -1638402, 5, 0, -1638401, 5, 0, -1703936, 5, 0, -1703935, 5, 0, -1703934, 5, 0, -1703933, 5, 0, -1703932, 5, 0, -1703931, 5, 0, -1703930, 5, 0, -1703929, 5, 0, -1703928, 5, 0, -1703927, 5, 0, -1703926, 5, 0, -1703925, 5, 0, -1703924, 5, 0, -1703923, 5, 0, -1703922, 5, 0, -1703921, 5, 0, -1703920, 5, 0, -1703919, 5, 0, -1703918, 5, 0, -1703917, 5, 0, -1703916, 5, 0, -1703915, 5, 0, -1703914, 5, 0, -1703913, 5, 0, -1703912, 5, 0, -1703911, 5, 0, -1703910, 5, 0, -1703909, 5, 0, -1703908, 5, 0, -1703907, 5, 0, -1703906, 5, 0, -1703905, 5, 0, -1703904, 5, 0, -1703903, 5, 0, -1703902, 5, 0, -1703901, 5, 0, -1703900, 5, 0, -1703899, 5, 0, -1703898, 5, 0, -1703897, 5, 0, -1703896, 5, 0, -1703895, 5, 0, -1703894, 5, 0, -1703893, 5, 0, -1703892, 5, 0, -1703891, 5, 0, -1703890, 5, 0, -1703889, 5, 0, -1703888, 5, 0, -1703887, 5, 0, -1703886, 5, 0, -1703885, 5, 0, -1703884, 5, 0, -1703883, 5, 0, -1703882, 5, 0, -1703881, 5, 0, -1703880, 5, 0, -1703879, 5, 0, -1703878, 5, 0, -1703877, 5, 0, -1703876, 5, 0, -1703875, 5, 0, -1703874, 5, 0, -1703873, 5, 0, -1703872, 4, 0, -1572872, 4, 0, -1572871, 5, 0, -1572870, 5, 0, -1572869, 5, 0, -1572868, 5, 0, -1572867, 5, 0, -1572866, 5, 0, -1572865, 5, 0, -1638400, 5, 0, -1638399, 5, 0, -1638398, 5, 0, -1638397, 5, 0, -1638396, 5, 0, -1638395, 5, 0, -1638394, 5, 0, -1638393, 5, 0, -1638392, 5, 0, -1638391, 5, 0, -1638390, 5, 0, -1638389, 5, 0, -1638388, 5, 0, -1638387, 5, 0, -1638386, 5, 0, -1638385, 5, 0, -1638384, 5, 0, -1638383, 5, 0, -1638382, 5, 0, -1638381, 5, 0, -1638380, 5, 0, -1638379, 5, 0, -1638378, 5, 0, -1638377, 5, 0, -1638376, 5, 0, -1638375, 5, 0, -1638374, 5, 0, -1638373, 5, 0, -1638372, 5, 0, -1638371, 5, 0, -1638370, 5, 0, -1638369, 5, 0, -1638368, 5, 0, -1638367, 5, 0, -1638366, 5, 0, -1638365, 5, 0, -1638364, 5, 0, -1638363, 5, 0, -1638362, 5, 0, -1638361, 5, 0, -1638360, 5, 0, -1638359, 5, 0, -1638358, 5, 0, -1638357, 5, 0, -1638356, 5, 0, -1638355, 5, 0, -1638354, 5, 0, -1638353, 5, 0, -1638352, 5, 0, -1638351, 5, 0, -1638350, 5, 0, -1638349, 5, 0, -1638348, 5, 0, -1638347, 5, 0, -1638346, 5, 0, -1638345, 5, 0, -1638344, 5, 0, -1638343, 5, 0, -1638342, 5, 0, -1638341, 5, 0, -1638340, 5, 0, -1638339, 5, 0, -1638338, 5, 0, -1638337, 5, 0, -1638336, 4, 0, -1507336, 4, 0, -1507335, 5, 0, -1507334, 5, 0, -1507333, 5, 0, -1507332, 5, 0, -1507331, 5, 0, -1507330, 5, 0, -1507329, 5, 0, -1572864, 5, 0, -1572863, 5, 0, -1572862, 5, 0, -1572861, 5, 0, -1572860, 5, 0, -1572859, 5, 0, -1572858, 5, 0, -1572857, 5, 0, -1572856, 5, 0, -1572855, 5, 0, -1572854, 5, 0, -1572853, 5, 0, -1572852, 5, 0, -1572851, 5, 0, -1572850, 5, 0, -1572849, 5, 0, -1572848, 5, 0, -1572847, 5, 0, -1572846, 5, 0, -1572845, 5, 0, -1572844, 5, 0, -1572843, 5, 0, -1572842, 5, 0, -1572841, 5, 0, -1572840, 5, 0, -1572839, 5, 0, -1572838, 5, 0, -1572837, 5, 0, -1572836, 5, 0, -1572835, 5, 0, -1572834, 5, 0, -1572833, 5, 0, -1572832, 5, 0, -1572831, 5, 0, -1572830, 5, 0, -1572829, 5, 0, -1572828, 5, 0, -1572827, 5, 0, -1572826, 5, 0, -1572825, 5, 0, -1572824, 5, 0, -1572823, 5, 0, -1572822, 5, 0, -1572821, 5, 0, -1572820, 5, 0, -1572819, 5, 0, -1572818, 5, 0, -1572817, 5, 0, -1572816, 5, 0, -1572815, 5, 0, -1572814, 5, 0, -1572813, 5, 0, -1572812, 5, 0, -1572811, 5, 0, -1572810, 5, 0, -1572809, 5, 0, -1572808, 5, 0, -1572807, 5, 0, -1572806, 5, 0, -1572805, 5, 0, -1572804, 5, 0, -1572803, 5, 0, -1572802, 5, 0, -1572801, 5, 0, -1572800, 4, 0, -1441800, 4, 0, -1441799, 5, 0, -1441798, 5, 0, -1441797, 5, 0, -1441796, 5, 0, -1441795, 5, 0, -1441794, 5, 0, -1441793, 5, 0, -1507328, 5, 0, -1507327, 5, 0, -1507326, 5, 0, -1507325, 5, 0, -1507324, 5, 0, -1507323, 5, 0, -1507322, 5, 0, -1507321, 5, 0, -1507320, 5, 0, -1507319, 5, 0, -1507318, 5, 0, -1507317, 5, 0, -1507316, 5, 0, -1507315, 5, 0, -1507314, 5, 0, -1507313, 5, 0, -1507312, 5, 0, -1507311, 5, 0, -1507310, 5, 0, -1507309, 5, 0, -1507308, 5, 0, -1507307, 5, 0, -1507306, 5, 0, -1507305, 5, 0, -1507304, 5, 0, -1507303, 5, 0, -1507302, 5, 0, -1507301, 5, 0, -1507300, 5, 0, -1507299, 5, 0, -1507298, 5, 0, -1507297, 5, 0, -1507296, 5, 0, -1507295, 5, 0, -1507294, 5, 0, -1507293, 5, 0, -1507292, 5, 0, -1507291, 5, 0, -1507290, 5, 0, -1507289, 5, 0, -1507288, 5, 0, -1507287, 5, 0, -1507286, 5, 0, -1507285, 5, 0, -1507284, 5, 0, -1507283, 5, 0, -1507282, 5, 0, -1507281, 5, 0, -1507280, 5, 0, -1507279, 5, 0, -1507278, 5, 0, -1507277, 5, 0, -1507276, 5, 0, -1507275, 5, 0, -1507274, 5, 0, -1507273, 5, 0, -1507272, 5, 0, -1507271, 5, 0, -1507270, 5, 0, -1507269, 22, 0, -1507265, 5, 0, -1507264, 4, 0, -1376264, 4, 0, -1376263, 5, 0, -1376262, 5, 0, -1376261, 5, 0, -1376260, 5, 0, -1376259, 5, 0, -1376258, 5, 0, -1376257, 5, 0, -1441792, 5, 0, -1441791, 5, 0, -1441790, 5, 0, -1441789, 5, 0, -1441788, 5, 0, -1441787, 5, 0, -1441786, 5, 0, -1441785, 5, 0, -1441784, 5, 0, -1441783, 5, 0, -1441782, 5, 0, -1441781, 5, 0, -1441780, 5, 0, -1441779, 5, 0, -1441778, 5, 0, -1441777, 5, 0, -1441776, 5, 0, -1441775, 5, 0, -1441774, 5, 0, -1441773, 5, 0, -1441772, 5, 0, -1441771, 5, 0, -1441770, 5, 0, -1441769, 5, 0, -1441768, 5, 0, -1441767, 5, 0, -1441766, 5, 0, -1441765, 5, 0, -1441764, 5, 0, -1441763, 5, 0, -1441762, 5, 0, -1441761, 5, 0, -1441760, 5, 0, -1441759, 5, 0, -1441758, 5, 0, -1441757, 5, 0, -1441756, 5, 0, -1441755, 5, 0, -1441754, 5, 0, -1441753, 5, 0, -1441752, 5, 0, -1441751, 5, 0, -1441750, 5, 0, -1441749, 5, 0, -1441748, 5, 0, -1441747, 5, 0, -1441746, 5, 0, -1441745, 5, 0, -1441744, 5, 0, -1441743, 5, 0, -1441742, 5, 0, -1441741, 5, 0, -1441740, 5, 0, -1441739, 5, 0, -1441738, 5, 0, -1441737, 5, 0, -1441736, 5, 0, -1441735, 5, 0, -1441734, 5, 0, -1441729, 5, 0, -1441728, 4, 0, -1310728, 4, 0, -1310727, 5, 0, -1310726, 5, 0, -1310725, 5, 0, -1310724, 5, 0, -1310723, 5, 0, -1310722, 5, 0, -1310721, 5, 0, -1376256, 5, 0, -1376255, 5, 0, -1376254, 5, 0, -1376253, 5, 0, -1376252, 5, 0, -1376251, 5, 0, -1376250, 5, 0, -1376249, 5, 0, -1376248, 5, 0, -1376247, 5, 0, -1376246, 5, 0, -1376245, 5, 0, -1376244, 5, 0, -1376243, 5, 0, -1376242, 5, 0, -1376241, 5, 0, -1376240, 5, 0, -1376239, 5, 0, -1376238, 5, 0, -1376237, 5, 0, -1376236, 5, 0, -1376235, 5, 0, -1376234, 5, 0, -1376233, 5, 0, -1376232, 5, 0, -1376231, 5, 0, -1376230, 5, 0, -1376229, 5, 0, -1376228, 5, 0, -1376227, 5, 0, -1376226, 5, 0, -1376225, 5, 0, -1376224, 5, 0, -1376223, 5, 0, -1376222, 5, 0, -1376221, 5, 0, -1376220, 5, 0, -1376219, 5, 0, -1376218, 5, 0, -1376217, 5, 0, -1376216, 5, 0, -1376215, 5, 0, -1376214, 5, 0, -1376213, 5, 0, -1376212, 5, 0, -1376211, 5, 0, -1376210, 5, 0, -1376209, 5, 0, -1376208, 5, 0, -1376207, 5, 0, -1376206, 5, 0, -1376205, 5, 0, -1376204, 5, 0, -1376203, 5, 0, -1376202, 5, 0, -1376201, 5, 0, -1376200, 5, 0, -1376199, 5, 0, -1376198, 5, 0, -1376193, 5, 0, -1376192, 1610612737, 0, -1245192, 4, 0, -1245191, 5, 0, -1245190, 5, 0, -1245189, 5, 0, -1245188, 5, 0, -1245187, 5, 0, -1245186, 5, 0, -1245185, 5, 0, -1310720, 5, 0, -1310719, 5, 0, -1310718, 5, 0, -1310717, 5, 0, -1310716, 5, 0, -1310715, 5, 0, -1310714, 5, 0, -1310713, 5, 0, -1310712, 5, 0, -1310711, 5, 0, -1310710, 5, 0, -1310709, 5, 0, -1310708, 5, 0, -1310707, 5, 0, -1310706, 5, 0, -1310705, 5, 0, -1310704, 5, 0, -1310703, 5, 0, -1310702, 5, 0, -1310701, 5, 0, -1310700, 5, 0, -1310699, 5, 0, -1310698, 5, 0, -1310697, 5, 0, -1310696, 5, 0, -1310695, 5, 0, -1310694, 5, 0, -1310693, 5, 0, -1310692, 5, 0, -1310691, 5, 0, -1310690, 5, 0, -1310689, 5, 0, -1310688, 5, 0, -1310687, 5, 0, -1310686, 5, 0, -1310685, 5, 0, -1310684, 5, 0, -1310683, 5, 0, -1310682, 5, 0, -1310681, 5, 0, -1310680, 5, 0, -1310679, 5, 0, -1310678, 5, 0, -1310677, 5, 0, -1310676, 5, 0, -1310675, 5, 0, -1310674, 5, 0, -1310673, 5, 0, -1310672, 5, 0, -1310671, 5, 0, -1310670, 5, 0, -1310669, 5, 0, -1310668, 5, 0, -1310667, 5, 0, -1310666, 5, 0, -1310665, 5, 0, -1310664, 5, 0, -1310663, 5, 0, -1310662, 5, 0, -1310657, 5, 0, -1310656, 5, 0, -1179656, 4, 0, -1179655, 5, 0, -1179654, 19, 0, -1179650, 5, 0, -1179649, 5, 0, -1245184, 5, 0, -1245183, 5, 0, -1245182, 17, 0, -1245178, 5, 0, -1245177, 5, 0, -1245176, 5, 0, -1245175, 16, 0, -1245171, 5, 0, -1245170, 5, 0, -1245169, 5, 0, -1245168, 5, 0, -1245167, 5, 0, -1245166, 5, 0, -1245165, 5, 0, -1245164, 5, 0, -1245163, 5, 0, -1245162, 5, 0, -1245161, 5, 0, -1245160, 5, 0, -1245159, 5, 0, -1245158, 17, 0, -1245154, 5, 0, -1245153, 5, 0, -1245152, 5, 0, -1245151, 5, 0, -1245150, 5, 0, -1245149, 5, 0, -1245148, 5, 0, -1245147, 18, 0, -1245143, 5, 0, -1245142, 5, 0, -1245141, 5, 0, -1245140, 5, 0, -1245139, 5, 0, -1245138, 5, 0, -1245137, 5, 0, -1245136, 5, 0, -1245135, 5, 0, -1245134, 5, 0, -1245133, 5, 0, -1245132, 5, 0, -1245131, 5, 0, -1245130, 5, 0, -1245129, 5, 0, -1245128, 5, 0, -1245127, 5, 0, -1245126, 5, 0, -1245121, 5, 0, -1245120, 5, 0, -1114120, 4, 0, -1114119, 5, 0, -1114114, 5, 0, -1114113, 5, 0, -1179648, 5, 0, -1179647, 5, 0, -1179642, 5, 0, -1179641, 5, 0, -1179640, 5, 0, -1179635, 5, 0, -1179634, 5, 0, -1179633, 5, 0, -1179632, 5, 0, -1179631, 5, 0, -1179630, 5, 0, -1179629, 5, 0, -1179628, 5, 0, -1179627, 5, 0, -1179626, 5, 0, -1179625, 5, 0, -1179624, 5, 0, -1179623, 5, 0, -1179618, 5, 0, -1179617, 5, 0, -1179616, 5, 0, -1179615, 5, 0, -1179614, 5, 0, -1179613, 5, 0, -1179612, 5, 0, -1179607, 5, 0, -1179606, 5, 0, -1179605, 5, 0, -1179604, 5, 0, -1179603, 5, 0, -1179602, 5, 0, -1179601, 5, 0, -1179600, 5, 0, -1179599, 5, 0, -1179598, 5, 0, -1179597, 5, 0, -1179596, 5, 0, -1179595, 5, 0, -1179594, 5, 0, -1179593, 5, 0, -1179592, 5, 0, -1179591, 5, 0, -1179590, 5, 0, -1179585, 5, 0, -1179584, 5, 0, -1048584, 4, 0, -1048583, 5, 0, -1048578, 5, 0, -1048577, 5, 0, -1114112, 5, 0, -1114111, 5, 0, -1114106, 5, 0, -1114105, 5, 0, -1114104, 5, 0, -1114099, 5, 0, -1114098, 5, 0, -1114097, 5, 0, -1114096, 5, 0, -1114095, 5, 0, -1114094, 5, 0, -1114093, 5, 0, -1114092, 5, 0, -1114091, 5, 0, -1114090, 5, 0, -1114089, 5, 0, -1114088, 5, 0, -1114087, 5, 0, -1114082, 5, 0, -1114081, 5, 0, -1114080, 5, 0, -1114079, 5, 0, -1114078, 5, 0, -1114077, 5, 0, -1114076, 5, 0, -1114071, 5, 0, -1114070, 5, 0, -1114069, 5, 0, -1114068, 5, 0, -1114067, 5, 0, -1114066, 5, 0, -1114065, 5, 0, -1114064, 5, 0, -1114063, 5, 0, -1114062, 5, 0, -1114061, 5, 0, -1114060, 5, 0, -1114059, 5, 0, -1114058, 5, 0, -1114057, 5, 0, -1114056, 5, 0, -1114055, 5, 0, -1114054, 5, 0, -1114049, 5, 0, -1114048, 5, 0, -983048, 4, 0, -983047, 5, 0, -983042, 5, 0, -983041, 5, 0, -1048576, 5, 0, -1048575, 5, 0, -1048570, 5, 0, -1048569, 5, 0, -1048568, 5, 0, -1048563, 5, 0, -1048562, 5, 0, -1048561, 5, 0, -1048560, 5, 0, -1048559, 5, 0, -1048558, 5, 0, -1048557, 5, 0, -1048556, 5, 0, -1048555, 5, 0, -1048554, 5, 0, -1048553, 5, 0, -1048552, 5, 0, -1048551, 5, 0, -1048546, 5, 0, -1048545, 5, 0, -1048544, 5, 0, -1048543, 5, 0, -1048542, 5, 0, -1048541, 5, 0, -1048540, 5, 0, -1048535, 5, 0, -1048534, 5, 0, -1048533, 5, 0, -1048532, 5, 0, -1048531, 5, 0, -1048530, 5, 0, -1048529, 5, 0, -1048528, 5, 0, -1048527, 5, 0, -1048526, 5, 0, -1048525, 5, 0, -1048524, 5, 0, -1048523, 5, 0, -1048522, 5, 0, -1048521, 5, 0, -1048520, 5, 0, -1048519, 5, 0, -1048518, 5, 0, -1048513, 5, 0, -1048512, 5, 0, -917512, 4, 0, -917511, 5, 0, -917506, 5, 0, -917505, 5, 0, -983040, 5, 0, -983039, 5, 0, -983034, 5, 0, -983033, 5, 0, -983032, 5, 0, -983027, 5, 0, -983026, 5, 0, -983025, 5, 0, -983024, 5, 0, -983023, 5, 0, -983022, 5, 0, -983021, 5, 0, -983020, 5, 0, -983019, 5, 0, -983018, 5, 0, -983017, 5, 0, -983016, 5, 0, -983015, 5, 0, -983010, 5, 0, -983009, 5, 0, -983008, 5, 0, -983007, 5, 0, -983006, 5, 0, -983005, 5, 0, -983004, 5, 0, -982999, 5, 0, -982998, 5, 0, -982997, 5, 0, -982996, 5, 0, -982995, 5, 0, -982994, 5, 0, -982993, 5, 0, -982992, 5, 0, -982991, 5, 0, -982990, 5, 0, -982989, 5, 0, -982988, 5, 0, -982987, 5, 0, -982986, 5, 0, -982985, 5, 0, -982984, 5, 0, -982983, 5, 0, -982982, 2, 0, -982981, 2, 0, -982980, 2, 0, -982979, 2, 0, -982978, 2, 0, -982977, 2, 0, -982976, 3, 0, -851976, 4, 0, -851975, 5, 0, -851970, 5, 0, -851969, 5, 0, -917504, 5, 0, -917503, 5, 0, -917498, 5, 0, -917497, 5, 0, -917496, 5, 0, -917491, 5, 0, -917490, 5, 0, -917489, 5, 0, -917488, 5, 0, -917487, 5, 0, -917486, 5, 0, -917485, 5, 0, -917484, 5, 0, -917483, 5, 0, -917482, 5, 0, -917481, 5, 0, -917480, 5, 0, -917479, 5, 0, -917474, 5, 0, -917473, 5, 0, -917472, 5, 0, -917471, 5, 0, -917470, 5, 0, -917469, 5, 0, -917468, 5, 0, -917463, 5, 0, -917462, 5, 0, -917461, 5, 0, -917460, 5, 0, -917459, 5, 0, -917458, 5, 0, -917457, 5, 0, -917456, 5, 0, -917455, 5, 0, -917454, 5, 0, -917453, 5, 0, -917452, 5, 0, -917451, 5, 0, -917450, 5, 0, -917449, 5, 0, -917448, 5, 0, -917447, 5, 0, -917446, 5, 0, -917445, 5, 0, -917444, 5, 0, -917443, 5, 0, -917442, 5, 0, -917441, 5, 0, -917440, 4, 0, -786440, 4, 0, -786439, 5, 0, -786434, 5, 0, -786433, 5, 0, -851968, 5, 0, -851967, 5, 0, -851962, 5, 0, -851961, 5, 0, -851960, 5, 0, -851955, 5, 0, -851954, 5, 0, -851953, 5, 0, -851952, 5, 0, -851951, 5, 0, -851950, 5, 0, -851949, 5, 0, -851948, 5, 0, -851947, 5, 0, -851946, 5, 0, -851945, 5, 0, -851944, 5, 0, -851943, 5, 0, -851938, 5, 0, -851937, 5, 0, -851936, 5, 0, -851935, 5, 0, -851934, 5, 0, -851933, 5, 0, -851932, 5, 0, -851927, 5, 0, -851926, 5, 0, -851925, 5, 0, -851924, 5, 0, -851923, 5, 0, -851922, 5, 0, -851921, 5, 0, -851920, 5, 0, -851919, 5, 0, -851918, 5, 0, -851917, 5, 0, -851916, 5, 0, -851915, 5, 0, -851914, 5, 0, -851913, 5, 0, -851912, 5, 0, -851911, 5, 0, -851910, 5, 0, -851909, 5, 0, -851908, 5, 0, -851907, 5, 0, -851906, 5, 0, -851905, 5, 0, -851904, 4, 0, -720904, 4, 0, -720903, 5, 0, -720898, 5, 0, -720897, 5, 0, -786432, 5, 0, -786431, 5, 0, -786426, 5, 0, -786425, 5, 0, -786424, 5, 0, -786419, 5, 0, -786418, 5, 0, -786417, 5, 0, -786416, 5, 0, -786415, 5, 0, -786414, 5, 0, -786413, 5, 0, -786412, 5, 0, -786411, 5, 0, -786410, 5, 0, -786409, 5, 0, -786408, 5, 0, -786407, 5, 0, -786402, 5, 0, -786401, 5, 0, -786400, 5, 0, -786399, 5, 0, -786398, 5, 0, -786397, 5, 0, -786396, 5, 0, -786391, 5, 0, -786390, 5, 0, -786389, 5, 0, -786388, 5, 0, -786387, 5, 0, -786386, 5, 0, -786385, 5, 0, -786384, 5, 0, -786383, 5, 0, -786382, 5, 0, -786381, 5, 0, -786380, 5, 0, -786379, 5, 0, -786378, 5, 0, -786377, 5, 0, -786376, 5, 0, -786375, 5, 0, -786374, 5, 0, -786373, 5, 0, -786372, 5, 0, -786371, 5, 0, -786370, 5, 0, -786369, 5, 0, -786368, 4, 0, -655368, 4, 0, -655367, 5, 0, -655366, 5, 0, -655365, 5, 0, -655364, 5, 0, -655363, 5, 0, -655362, 5, 0, -655361, 5, 0, -720896, 5, 0, -720895, 5, 0, -720894, 5, 0, -720893, 5, 0, -720892, 5, 0, -720891, 5, 0, -720890, 5, 0, -720889, 5, 0, -720888, 5, 0, -720887, 5, 0, -720886, 5, 0, -720885, 5, 0, -720884, 5, 0, -720883, 5, 0, -720882, 5, 0, -720881, 5, 0, -720880, 5, 0, -720879, 5, 0, -720878, 5, 0, -720877, 5, 0, -720876, 5, 0, -720875, 5, 0, -720874, 5, 0, -720873, 5, 0, -720872, 5, 0, -720871, 5, 0, -720870, 5, 0, -720869, 5, 0, -720868, 5, 0, -720867, 5, 0, -720866, 5, 0, -720865, 5, 0, -720864, 5, 0, -720863, 5, 0, -720862, 5, 0, -720861, 5, 0, -720860, 5, 0, -720859, 5, 0, -720858, 5, 0, -720857, 5, 0, -720856, 5, 0, -720855, 5, 0, -720854, 5, 0, -720853, 5, 0, -720852, 5, 0, -720851, 5, 0, -720850, 5, 0, -720849, 5, 0, -720848, 5, 0, -720847, 5, 0, -720846, 5, 0, -720845, 5, 0, -720844, 5, 0, -720843, 5, 0, -720842, 5, 0, -720841, 5, 0, -720840, 5, 0, -720839, 5, 0, -720838, 5, 0, -720837, 5, 0, -720836, 5, 0, -720835, 5, 0, -720834, 5, 0, -720833, 5, 0, -720832, 4, 0, -589832, 4, 0, -589831, 5, 0, -589830, 5, 0, -589829, 5, 0, -589828, 5, 0, -589827, 5, 0, -589826, 5, 0, -589825, 5, 0, -655360, 5, 0, -655359, 5, 0, -655358, 5, 0, -655357, 5, 0, -655356, 5, 0, -655355, 5, 0, -655354, 5, 0, -655353, 5, 0, -655352, 5, 0, -655351, 5, 0, -655350, 5, 0, -655349, 5, 0, -655348, 5, 0, -655347, 5, 0, -655346, 5, 0, -655345, 5, 0, -655344, 5, 0, -655343, 5, 0, -655342, 5, 0, -655341, 5, 0, -655340, 5, 0, -655339, 5, 0, -655338, 5, 0, -655337, 5, 0, -655336, 5, 0, -655335, 5, 0, -655334, 21, 0, -655330, 5, 0, -655329, 5, 0, -655328, 5, 0, -655327, 5, 0, -655326, 5, 0, -655325, 5, 0, -655324, 5, 0, -655323, 23, 0, -655319, 5, 0, -655318, 5, 0, -655317, 5, 0, -655316, 5, 0, -655315, 5, 0, -655314, 5, 0, -655313, 5, 0, -655312, 5, 0, -655311, 5, 0, -655310, 5, 0, -655309, 16, 0, -655305, 5, 0, -655304, 5, 0, -655303, 5, 0, -655302, 19, 0, -655298, 5, 0, -655297, 5, 0, -655296, 4, 0, -524296, 4, 0, -524295, 5, 0, -524294, 5, 0, -524293, 5, 0, -524292, 5, 0, -524291, 5, 0, -524290, 5, 0, -524289, 5, 0, -589824, 5, 0, -589823, 5, 0, -589822, 5, 0, -589821, 5, 0, -589820, 5, 0, -589819, 5, 0, -589818, 5, 0, -589817, 5, 0, -589816, 5, 0, -589815, 5, 0, -589814, 5, 0, -589813, 5, 0, -589812, 5, 0, -589811, 5, 0, -589810, 5, 0, -589809, 5, 0, -589808, 5, 0, -589807, 5, 0, -589806, 5, 0, -589805, 5, 0, -589804, 5, 0, -589803, 5, 0, -589802, 5, 0, -589801, 5, 0, -589800, 5, 0, -589799, 5, 0, -589794, 5, 0, -589793, 5, 0, -589792, 5, 0, -589791, 5, 0, -589790, 5, 0, -589789, 5, 0, -589788, 5, 0, -589783, 5, 0, -589782, 5, 0, -589781, 5, 0, -589780, 5, 0, -589779, 5, 0, -589778, 5, 0, -589777, 5, 0, -589776, 5, 0, -589775, 5, 0, -589774, 5, 0, -589769, 5, 0, -589768, 5, 0, -589767, 5, 0, -589762, 5, 0, -589761, 5, 0, -589760, 4, 0, -458760, 4, 0, -458759, 5, 0, -458758, 5, 0, -458757, 5, 0, -458756, 5, 0, -458755, 5, 0, -458754, 5, 0, -458753, 5, 0, -524288, 5, 0, -524287, 5, 0, -524286, 5, 0, -524285, 5, 0, -524284, 5, 0, -524283, 5, 0, -524282, 5, 0, -524281, 5, 0, -524280, 5, 0, -524279, 5, 0, -524278, 5, 0, -524277, 5, 0, -524276, 5, 0, -524275, 5, 0, -524274, 5, 0, -524273, 5, 0, -524272, 5, 0, -524271, 5, 0, -524270, 5, 0, -524269, 5, 0, -524268, 5, 0, -524267, 5, 0, -524266, 5, 0, -524265, 5, 0, -524264, 5, 0, -524263, 5, 0, -524258, 5, 0, -524257, 5, 0, -524256, 5, 0, -524255, 5, 0, -524254, 5, 0, -524253, 5, 0, -524252, 5, 0, -524247, 5, 0, -524246, 5, 0, -524245, 5, 0, -524244, 5, 0, -524243, 5, 0, -524242, 5, 0, -524241, 5, 0, -524240, 5, 0, -524239, 5, 0, -524238, 5, 0, -524233, 5, 0, -524232, 5, 0, -524231, 5, 0, -524226, 5, 0, -524225, 5, 0, -524224, 4, 0, -393224, 4, 0, -393223, 5, 0, -393222, 5, 0, -393221, 5, 0, -393220, 5, 0, -393219, 5, 0, -393218, 5, 0, -393217, 5, 0, -458752, 5, 0, -458751, 5, 0, -458750, 5, 0, -458749, 5, 0, -458748, 5, 0, -458747, 5, 0, -458746, 5, 0, -458745, 5, 0, -458744, 5, 0, -458743, 5, 0, -458742, 5, 0, -458741, 5, 0, -458740, 5, 0, -458739, 5, 0, -458738, 5, 0, -458737, 5, 0, -458736, 5, 0, -458735, 5, 0, -458734, 5, 0, -458733, 5, 0, -458732, 5, 0, -458731, 5, 0, -458730, 5, 0, -458729, 5, 0, -458728, 5, 0, -458727, 5, 0, -458722, 5, 0, -458721, 5, 0, -458720, 5, 0, -458719, 5, 0, -458718, 5, 0, -458717, 5, 0, -458716, 5, 0, -458711, 5, 0, -458710, 5, 0, -458709, 5, 0, -458708, 5, 0, -458707, 5, 0, -458706, 5, 0, -458705, 5, 0, -458704, 5, 0, -458703, 5, 0, -458702, 5, 0, -458697, 5, 0, -458696, 5, 0, -458695, 5, 0, -458690, 5, 0, -458689, 5, 0, -458688, 4, 0, -327688, 4, 0, -327687, 5, 0, -327686, 22, 0, -327682, 5, 0, -327681, 5, 0, -393216, 5, 0, -393215, 5, 0, -393214, 5, 0, -393213, 5, 0, -393212, 5, 0, -393211, 5, 0, -393210, 5, 0, -393209, 5, 0, -393208, 5, 0, -393207, 17, 0, -393203, 5, 0, -393202, 5, 0, -393201, 5, 0, -393200, 5, 0, -393199, 5, 0, -393198, 5, 0, -393197, 5, 0, -393196, 5, 0, -393195, 5, 0, -393194, 5, 0, -393193, 5, 0, -393192, 5, 0, -393191, 5, 0, -393186, 5, 0, -393185, 5, 0, -393184, 5, 0, -393183, 5, 0, -393182, 5, 0, -393181, 5, 0, -393180, 5, 0, -393175, 5, 0, -393174, 5, 0, -393173, 5, 0, -393172, 5, 0, -393171, 5, 0, -393170, 5, 0, -393169, 5, 0, -393168, 5, 0, -393167, 5, 0, -393166, 5, 0, -393161, 5, 0, -393160, 5, 0, -393159, 5, 0, -393154, 5, 0, -393153, 5, 0, -393152, 4, 0, -262152, 4, 0, -262151, 5, 0, -262146, 5, 0, -262145, 5, 0, -327680, 5, 0, -327679, 5, 0, -327678, 5, 0, -327677, 5, 0, -327676, 5, 0, -327675, 5, 0, -327674, 5, 0, -327673, 5, 0, -327672, 5, 0, -327667, 5, 0, -327666, 5, 0, -327665, 5, 0, -327664, 5, 0, -327663, 5, 0, -327662, 5, 0, -327661, 5, 0, -327660, 5, 0, -327659, 5, 0, -327658, 5, 0, -327657, 5, 0, -327656, 5, 0, -327655, 5, 0, -327650, 5, 0, -327649, 5, 0, -327648, 5, 0, -327647, 5, 0, -327646, 5, 0, -327645, 5, 0, -327644, 5, 0, -327639, 5, 0, -327638, 5, 0, -327637, 5, 0, -327636, 5, 0, -327635, 5, 0, -327634, 5, 0, -327633, 5, 0, -327632, 5, 0, -327631, 5, 0, -327630, 5, 0, -327625, 5, 0, -327624, 5, 0, -327623, 5, 0, -327618, 5, 0, -327617, 5, 0, -327616, 4, 0, -196616, 4, 0, -196615, 5, 0, -196610, 5, 0, -196609, 5, 0, -262144, 5, 0, -262143, 5, 0, -262142, 5, 0, -262141, 5, 0, -262140, 5, 0, -262139, 5, 0, -262138, 5, 0, -262137, 5, 0, -262136, 5, 0, -262131, 5, 0, -262130, 5, 0, -262129, 5, 0, -262128, 5, 0, -262127, 5, 0, -262126, 5, 0, -262125, 5, 0, -262124, 5, 0, -262123, 5, 0, -262122, 5, 0, -262121, 5, 0, -262120, 5, 0, -262119, 5, 0, -262114, 5, 0, -262113, 5, 0, -262112, 5, 0, -262111, 5, 0, -262110, 5, 0, -262109, 5, 0, -262108, 5, 0, -262103, 5, 0, -262102, 5, 0, -262101, 5, 0, -262100, 5, 0, -262099, 5, 0, -262098, 5, 0, -262097, 5, 0, -262096, 5, 0, -262095, 5, 0, -262094, 5, 0, -262089, 5, 0, -262088, 5, 0, -262087, 5, 0, -262082, 5, 0, -262081, 5, 0, -262080, 4, 0, -131080, 4, 0, -131079, 5, 0, -131074, 5, 0, -131073, 5, 0, -196608, 5, 0, -196607, 5, 0, -196606, 5, 0, -196605, 5, 0, -196604, 5, 0, -196603, 5, 0, -196602, 5, 0, -196601, 5, 0, -196600, 5, 0, -196595, 5, 0, -196594, 5, 0, -196593, 5, 0, -196592, 5, 0, -196591, 5, 0, -196590, 5, 0, -196589, 5, 0, -196588, 5, 0, -196587, 5, 0, -196586, 5, 0, -196585, 5, 0, -196584, 5, 0, -196583, 5, 0, -196578, 5, 0, -196577, 5, 0, -196576, 5, 0, -196575, 5, 0, -196574, 5, 0, -196573, 5, 0, -196572, 5, 0, -196567, 5, 0, -196566, 5, 0, -196565, 5, 0, -196564, 5, 0, -196563, 5, 0, -196562, 5, 0, -196561, 5, 0, -196560, 5, 0, -196559, 5, 0, -196558, 5, 0, -196553, 5, 0, -196552, 5, 0, -196551, 5, 0, -196546, 5, 0, -196545, 5, 0, -196544, 4, 0, -65544, 4, 0, -65543, 5, 0, -65538, 5, 0, -65537, 5, 0, -131072, 5, 0, -131071, 5, 0, -131070, 5, 0, -131069, 5, 0, -131068, 5, 0, -131067, 5, 0, -131066, 5, 0, -131065, 5, 0, -131064, 5, 0, -131059, 5, 0, -131058, 5, 0, -131057, 5, 0, -131056, 5, 0, -131055, 5, 0, -131054, 5, 0, -131053, 5, 0, -131052, 5, 0, -131051, 5, 0, -131050, 5, 0, -131049, 5, 0, -131048, 5, 0, -131047, 5, 0, -131046, 5, 0, -131045, 5, 0, -131044, 5, 0, -131043, 5, 0, -131042, 5, 0, -131041, 5, 0, -131040, 5, 0, -131039, 5, 0, -131038, 5, 0, -131037, 5, 0, -131036, 5, 0, -131035, 5, 0, -131034, 5, 0, -131033, 5, 0, -131032, 5, 0, -131031, 5, 0, -131030, 5, 0, -131029, 5, 0, -131028, 5, 0, -131027, 5, 0, -131026, 5, 0, -131025, 5, 0, -131024, 5, 0, -131023, 5, 0, -131022, 5, 0, -131021, 5, 0, -131020, 5, 0, -131019, 5, 0, -131018, 5, 0, -131017, 5, 0, -131016, 5, 0, -131015, 5, 0, -131014, 5, 0, -131013, 5, 0, -131012, 5, 0, -131011, 5, 0, -131010, 5, 0, -131009, 5, 0, -131008, 4, 0, -8, 4, 0, -7, 5, 0, -2, 5, 0, -1, 5, 0, -65536, 5, 0, -65535, 5, 0, -65534, 5, 0, -65533, 5, 0, -65532, 5, 0, -65531, 5, 0, -65530, 5, 0, -65529, 5, 0, -65528, 5, 0, -65523, 5, 0, -65522, 5, 0, -65521, 5, 0, -65520, 5, 0, -65519, 5, 0, -65518, 5, 0, -65517, 5, 0, -65516, 5, 0, -65515, 5, 0, -65514, 5, 0, -65513, 5, 0, -65512, 5, 0, -65511, 5, 0, -65510, 5, 0, -65509, 5, 0, -65508, 5, 0, -65507, 5, 0, -65506, 5, 0, -65505, 5, 0, -65504, 5, 0, -65503, 5, 0, -65502, 5, 0, -65501, 5, 0, -65500, 5, 0, -65499, 5, 0, -65498, 5, 0, -65497, 5, 0, -65496, 5, 0, -65495, 5, 0, -65494, 5, 0, -65493, 5, 0, -65492, 5, 0, -65491, 5, 0, -65490, 5, 0, -65489, 5, 0, -65488, 5, 0, -65487, 5, 0, -65486, 5, 0, -65485, 5, 0, -65484, 5, 0, -65483, 5, 0, -65482, 5, 0, -65481, 5, 0, -65480, 5, 0, -65479, 5, 0, -65478, 5, 0, -65477, 5, 0, -65476, 5, 0, -65475, 5, 0, -65474, 5, 0, -65473, 5, 0, -65472, 4, 0, 65528, 4, 0, 65529, 5, 0, 65534, 5, 0, 65535, 5, 0, 0, 5, 0, 1, 5, 0, 2, 5, 0, 3, 5, 0, 4, 5, 0, 5, 5, 0, 6, 5, 0, 7, 5, 0, 8, 5, 0, 13, 5, 0, 14, 5, 0, 15, 5, 0, 16, 5, 0, 17, 5, 0, 18, 5, 0, 19, 5, 0, 20, 5, 0, 21, 5, 0, 22, 5, 0, 23, 5, 0, 24, 5, 0, 25, 5, 0, 26, 5, 0, 27, 5, 0, 28, 5, 0, 29, 5, 0, 30, 5, 0, 31, 5, 0, 32, 5, 0, 33, 5, 0, 34, 5, 0, 35, 5, 0, 36, 5, 0, 37, 5, 0, 38, 5, 0, 39, 5, 0, 40, 5, 0, 41, 5, 0, 42, 5, 0, 43, 5, 0, 44, 5, 0, 45, 5, 0, 46, 5, 0, 47, 5, 0, 48, 5, 0, 49, 5, 0, 50, 5, 0, 51, 5, 0, 52, 5, 0, 53, 5, 0, 54, 5, 0, 55, 5, 0, 56, 5, 0, 57, 5, 0, 58, 5, 0, 59, 5, 0, 60, 5, 0, 61, 5, 0, 62, 5, 0, 63, 5, 0, 64, 4, 0, 131064, 4, 0, 131065, 5, 0, 131070, 5, 0, 131071, 5, 0, 65536, 5, 0, 65537, 5, 0, 65538, 5, 0, 65539, 5, 0, 65540, 5, 0, 65541, 5, 0, 65542, 5, 0, 65543, 5, 0, 65544, 5, 0, 65549, 5, 0, 65550, 5, 0, 65551, 5, 0, 65552, 5, 0, 65553, 5, 0, 65554, 5, 0, 65555, 5, 0, 65556, 5, 0, 65557, 5, 0, 65558, 5, 0, 65559, 5, 0, 65560, 5, 0, 65561, 5, 0, 65562, 5, 0, 65563, 5, 0, 65564, 5, 0, 65565, 5, 0, 65566, 5, 0, 65567, 5, 0, 65568, 5, 0, 65569, 5, 0, 65570, 5, 0, 65571, 5, 0, 65572, 5, 0, 65573, 5, 0, 65574, 5, 0, 65575, 5, 0, 65576, 5, 0, 65577, 5, 0, 65578, 5, 0, 65579, 5, 0, 65580, 5, 0, 65581, 5, 0, 65582, 5, 0, 65583, 5, 0, 65584, 5, 0, 65585, 5, 0, 65586, 5, 0, 65587, 5, 0, 65588, 5, 0, 65589, 5, 0, 65590, 5, 0, 65591, 5, 0, 65592, 5, 0, 65593, 5, 0, 65594, 5, 0, 65595, 5, 0, 65596, 5, 0, 65597, 5, 0, 65598, 5, 0, 65599, 5, 0, 65600, 4, 0, 196600, 536870913, 0, 196601, 0, 0, 196602, 0, 0, 196603, 0, 0, 196604, 0, 0, 196605, 5, 0, 196606, 5, 0, 196607, 5, 0, 131072, 5, 0, 131073, 5, 0, 131074, 0, 0, 131075, 0, 0, 131076, 0, 0, 131077, 0, 0, 131078, 0, 0, 131079, 0, 0, 131080, 0, 0, 131081, 0, 0, 131082, 0, 0, 131083, 0, 0, 131084, 0, 0, 131085, 0, 0, 131086, 0, 0, 131087, 0, 0, 131088, 0, 0, 131089, 0, 0, 131090, 0, 0, 131091, 0, 0, 131092, 0, 0, 131093, 0, 0, 131094, 0, 0, 131095, 0, 0, 131096, 0, 0, 131097, 0, 0, 131098, 0, 0, 131099, 0, 0, 131100, 0, 0, 131101, 0, 0, 131102, 0, 0, 131103, 0, 0, 131104, 0, 0, 131105, 0, 0, 131106, 0, 0, 131107, 0, 0, 131108, 0, 0, 131109, 0, 0, 131110, 0, 0, 131111, 0, 0, 131112, 0, 0, 131113, 0, 0, 131114, 0, 0, 131115, 0, 0, 131116, 0, 0, 131117, 0, 0, 131118, 0, 0, 131119, 0, 0, 131120, 0, 0, 131121, 0, 0, 131122, 0, 0, 131123, 0, 0, 131124, 0, 0, 131125, 0, 0, 131126, 0, 0, 131127, 0, 0, 131128, 0, 0, 131129, 0, 0, 131130, 0, 0, 131131, 0, 0, 131132, 0, 0, 131133, 0, 0, 131134, 0, 0, 131135, 0, 0, 131136, 1, 0, 262136, 4, 0, 262137, 11, 0, 262138, 11, 0, 262139, 11, 0, 262140, 11, 0, 262141, 4, 0, 262142, 5, 0, 262143, 5, 0, 196608, 5, 0, 196609, 4, 0, 196610, 11, 0, 196611, 11, 0, 196612, 11, 0, 196613, 11, 0, 196614, 11, 0, 196615, 11, 0, 196616, 11, 0, 196617, 11, 0, 196618, 11, 0, 196619, 11, 0, 196620, 11, 0, 196621, 11, 0, 196622, 11, 0, 196623, 11, 0, 196624, 11, 0, 196625, 11, 0, 196626, 11, 0, 196627, 11, 0, 196628, 11, 0, 196629, 11, 0, 196630, 11, 0, 196631, 11, 0, 196632, 11, 0, 196633, 11, 0, 196634, 11, 0, 196635, 11, 0, 196636, 11, 0, 196637, 11, 0, 196638, 11, 0, 196639, 11, 0, 196640, 11, 0, 196641, 11, 0, 196642, 11, 0, 196643, 11, 0, 196644, 11, 0, 196645, 11, 0, 196646, 11, 0, 196647, 11, 0, 196648, 11, 0, 196649, 11, 0, 196650, 11, 0, 196651, 11, 0, 196652, 11, 0, 196653, 11, 0, 196654, 11, 0, 196655, 11, 0, 196656, 11, 0, 196657, 11, 0, 196658, 11, 0, 196659, 11, 0, 196660, 11, 0, 196661, 11, 0, 196662, 11, 0, 196663, 11, 0, 196664, 11, 0, 196665, 11, 0, 196666, 11, 0, 196667, 11, 0, 196668, 11, 0, 196669, 11, 0, 196670, 11, 0, 196671, 11, 0, 196672, 4, 0, 327672, 4, 0, 327673, 11, 0, 327674, 11, 0, 327675, 11, 0, 327676, 11, 0, 327677, 4, 0, 327678, 5, 0, 327679, 5, 0, 262144, 5, 0, 262145, 4, 0, 262146, 11, 0, 262147, 11, 0, 262148, 11, 0, 262149, 11, 0, 262150, 11, 0, 262151, 11, 0, 262152, 11, 0, 262153, 11, 0, 262154, 11, 0, 262155, 11, 0, 262156, 11, 0, 262157, 11, 0, 262158, 11, 0, 262159, 11, 0, 262160, 11, 0, 262161, 11, 0, 262162, 11, 0, 262163, 11, 0, 262164, 11, 0, 262165, 11, 0, 262166, 11, 0, 262167, 11, 0, 262168, 11, 0, 262169, 11, 0, 262170, 11, 0, 262171, 11, 0, 262172, 11, 0, 262173, 11, 0, 262174, 11, 0, 262175, 11, 0, 262176, 11, 0, 262177, 11, 0, 262178, 11, 0, 262179, 11, 0, 262180, 11, 0, 262181, 11, 0, 262182, 11, 0, 262183, 11, 0, 262184, 11, 0, 262185, 11, 0, 262186, 11, 0, 262187, 11, 0, 262188, 11, 0, 262189, 11, 0, 262190, 11, 0, 262191, 11, 0, 262192, 11, 0, 262193, 11, 0, 262194, 11, 0, 262195, 11, 0, 262196, 11, 0, 262197, 11, 0, 262198, 11, 0, 262199, 11, 0, 262200, 11, 0, 262201, 11, 0, 262202, 11, 0, 262203, 11, 0, 262204, 11, 0, 262205, 11, 0, 262206, 11, 0, 262207, 11, 0, 262208, 4, 0, 393208, 4, 0, 393209, 11, 0, 393210, 11, 0, 393211, 11, 0, 393212, 11, 0, 393213, 4, 0, 393214, 5, 0, 393215, 5, 0, 327680, 5, 0, 327681, 4, 0, 327682, 11, 0, 327683, 11, 0, 327684, 11, 0, 327685, 11, 0, 327686, 11, 0, 327687, 11, 0, 327688, 11, 0, 327689, 11, 0, 327690, 11, 0, 327691, 11, 0, 327692, 11, 0, 327693, 11, 0, 327694, 11, 0, 327695, 11, 0, 327696, 11, 0, 327697, 11, 0, 327698, 11, 0, 327699, 11, 0, 327700, 11, 0, 327701, 11, 0, 327702, 11, 0, 327703, 11, 0, 327704, 11, 0, 327705, 11, 0, 327706, 11, 0, 327707, 11, 0, 327708, 11, 0, 327709, 11, 0, 327710, 11, 0, 327711, 11, 0, 327712, 11, 0, 327713, 11, 0, 327714, 11, 0, 327715, 11, 0, 327716, 11, 0, 327717, 11, 0, 327718, 11, 0, 327719, 11, 0, 327720, 11, 0, 327721, 11, 0, 327722, 11, 0, 327723, 11, 0, 327724, 11, 0, 327725, 11, 0, 327726, 11, 0, 327727, 11, 0, 327728, 11, 0, 327729, 11, 0, 327730, 11, 0, 327731, 11, 0, 327732, 11, 0, 327733, 11, 0, 327734, 11, 0, 327735, 11, 0, 327736, 11, 0, 327737, 11, 0, 327738, 11, 0, 327739, 11, 0, 327740, 11, 0, 327741, 11, 0, 327742, 11, 0, 327743, 11, 0, 327744, 4, 0, 458744, 4, 0, 458745, 11, 0, 458746, 11, 0, 458747, 11, 0, 458748, 11, 0, 458749, 4, 0, 458750, 5, 0, 458751, 5, 0, 393216, 5, 0, 393217, 4, 0, 393218, 11, 0, 393219, 11, 0, 393220, 11, 0, 393221, 11, 0, 393222, 11, 0, 393223, 11, 0, 393224, 11, 0, 393225, 11, 0, 393226, 11, 0, 393227, 11, 0, 393228, 11, 0, 393229, 11, 0, 393230, 11, 0, 393231, 11, 0, 393232, 11, 0, 393233, 11, 0, 393234, 11, 0, 393235, 11, 0, 393236, 11, 0, 393237, 11, 0, 393238, 11, 0, 393239, 11, 0, 393240, 11, 0, 393241, 11, 0, 393242, 11, 0, 393243, 11, 0, 393244, 11, 0, 393245, 11, 0, 393246, 11, 0, 393247, 11, 0, 393248, 11, 0, 393249, 11, 0, 393250, 11, 0, 393251, 11, 0, 393252, 11, 0, 393253, 11, 0, 393254, 11, 0, 393255, 11, 0, 393256, 11, 0, 393257, 11, 0, 393258, 11, 0, 393259, 11, 0, 393260, 11, 0, 393261, 11, 0, 393262, 11, 0, 393263, 11, 0, 393264, 11, 0, 393265, 11, 0, 393266, 11, 0, 393267, 11, 0, 393268, 11, 0, 393269, 11, 0, 393270, 11, 0, 393271, 11, 0, 393272, 11, 0, 393273, 11, 0, 393274, 11, 0, 393275, 11, 0, 393276, 11, 0, 393277, 11, 0, 393278, 11, 0, 393279, 11, 0, 393280, 4, 0 )

[node name="DecoGroup" type="Node2D" parent="tilemap"]

[node name="TileMap" type="TileMap" parent="tilemap/DecoGroup"]
tile_set = ExtResource( 1 )
cell_size = Vector2( 32, 32 )
compatibility_mode = true
format = 1
tile_data = PoolIntArray( -196592, 14, 0, -196576, 15, 0, -196564, 15, 0, -131056, 26, 0, -65520, 26, 0, 16, 26, 0, 56, 14, 0, 65552, 26, 0 )

[node name="ClimbableGroup" type="Node2D" parent="tilemap"]

[node name="ClimbableBlock2" parent="tilemap/ClimbableGroup" instance=ExtResource( 2 )]
position = Vector2( 1840, -464 )
physics_material_override = SubResource( 1 )

[node name="ClimbableBlock4" parent="tilemap/ClimbableGroup" instance=ExtResource( 2 )]
position = Vector2( 48, 80 )
physics_material_override = SubResource( 2 )

[node name="Sprite" parent="tilemap/ClimbableGroup/ClimbableBlock4" index="0"]
texture = ExtResource( 3 )

[node name="ClimbableBlock3" parent="tilemap/ClimbableGroup" instance=ExtResource( 2 )]
position = Vector2( -80, 80 )
physics_material_override = SubResource( 3 )

[node name="Sprite" parent="tilemap/ClimbableGroup/ClimbableBlock3" index="0"]
texture = ExtResource( 3 )
flip_h = false

[node name="FallingPlatformGroup" type="Node2D" parent="tilemap"]

[node name="FallingPlatform" parent="tilemap/FallingPlatformGroup" instance=ExtResource( 4 )]
position = Vector2( 368, -256 )

[node name="TorchGroup" type="Node2D" parent="tilemap"]

[node name="torch" parent="tilemap/TorchGroup" instance=ExtResource( 5 )]
position = Vector2( 688, -192 )

[node name="torch3" parent="tilemap/TorchGroup" instance=ExtResource( 5 )]
position = Vector2( 1056, -192 )

[node name="torch4" parent="tilemap/TorchGroup" instance=ExtResource( 5 )]
position = Vector2( 1424, -192 )

[node name="torch5" parent="tilemap/TorchGroup" instance=ExtResource( 5 )]
position = Vector2( 1680, -576 )

[node name="torch2" parent="tilemap/TorchGroup" instance=ExtResource( 5 )]
position = Vector2( 144, -64 )

[node name="LadderGroup" type="Node2D" parent="tilemap"]

[node name="TestLadder" parent="tilemap/LadderGroup" instance=ExtResource( 6 )]
position = Vector2( -16, 144 )

[node name="Sprite" parent="tilemap/LadderGroup/TestLadder/KinematicBody2D" index="0"]
region_rect = Rect2( 0, 0, 32, 160 )

[node name="ladder" parent="tilemap/LadderGroup/TestLadder/KinematicBody2D" index="1"]
scale = Vector2( 1, 5 )

[node name="TestLadder 2" parent="tilemap/LadderGroup" instance=ExtResource( 7 )]
position = Vector2( -16, 48 )

[node name="SwingableGroup" type="Node2D" parent="tilemap"]

[node name="SwingBlock" parent="tilemap/SwingableGroup" instance=ExtResource( 8 )]
position = Vector2( 688, -448 )

[node name="SwingBlock1" parent="tilemap/SwingableGroup" instance=ExtResource( 8 )]
position = Vector2( 1056, -448 )

[node name="SwingBlock2" parent="tilemap/SwingableGroup" instance=ExtResource( 8 )]
position = Vector2( 1424, -448 )

[node name="SpikeGroup" type="Node2D" parent="tilemap"]

[node name="SpikeTile" parent="tilemap/SpikeGroup" instance=ExtResource( 9 )]
position = Vector2( 2032, 48 )

[node name="SpikeTile5" parent="tilemap/SpikeGroup" instance=ExtResource( 9 )]
position = Vector2( 1520, 48 )

[node name="SpikeTile6" parent="tilemap/SpikeGroup" instance=ExtResource( 9 )]
position = Vector2( 1008, 48 )

[node name="SpikeTile4" parent="tilemap/SpikeGroup" instance=ExtResource( 9 )]
position = Vector2( 1776, 48 )

[node name="SpikeTile5 5" parent="tilemap/SpikeGroup" instance=ExtResource( 9 )]
position = Vector2( 1264, 48 )

[node name="SpikeTile56" parent="tilemap/SpikeGroup" instance=ExtResource( 9 )]
position = Vector2( 752, 48 )

[node name="SpikeTile3" parent="tilemap/SpikeGroup" instance=ExtResource( 9 )]
position = Vector2( 1904, 48 )

[node name="SpikeTile5 3" parent="tilemap/SpikeGroup" instance=ExtResource( 9 )]
position = Vector2( 1392, 48 )

[node name="SpikeTile54" parent="tilemap/SpikeGroup" instance=ExtResource( 9 )]
position = Vector2( 880, 48 )

[node name="SpikeTile4 3" parent="tilemap/SpikeGroup" instance=ExtResource( 9 )]
position = Vector2( 1648, 48 )

[node name="SpikeTile44" parent="tilemap/SpikeGroup" instance=ExtResource( 9 )]
position = Vector2( 1136, 48 )

[node name="SpikeTile46" parent="tilemap/SpikeGroup" instance=ExtResource( 9 )]
position = Vector2( 624, 48 )

[node name="SpikeTile2" parent="tilemap/SpikeGroup" instance=ExtResource( 9 )]
position = Vector2( 1968, 48 )

[node name="SpikeTile5 2" parent="tilemap/SpikeGroup" instance=ExtResource( 9 )]
position = Vector2( 1456, 48 )

[node name="SpikeTile53" parent="tilemap/SpikeGroup" instance=ExtResource( 9 )]
position = Vector2( 944, 48 )

[node name="SpikeTile4 2" parent="tilemap/SpikeGroup" instance=ExtResource( 9 )]
position = Vector2( 1712, 48 )

[node name="SpikeTile43" parent="tilemap/SpikeGroup" instance=ExtResource( 9 )]
position = Vector2( 1200, 48 )

[node name="SpikeTile46 3" parent="tilemap/SpikeGroup" instance=ExtResource( 9 )]
position = Vector2( 688, 48 )

[node name="SpikeTile3 2" parent="tilemap/SpikeGroup" instance=ExtResource( 9 )]
position = Vector2( 1840, 48 )

[node name="SpikeTile35 3" parent="tilemap/SpikeGroup" instance=ExtResource( 9 )]
position = Vector2( 1328, 48 )

[node name="SpikeTile354" parent="tilemap/SpikeGroup" instance=ExtResource( 9 )]
position = Vector2( 816, 48 )

[node name="SpikeTile33" parent="tilemap/SpikeGroup" instance=ExtResource( 9 )]
position = Vector2( 1584, 48 )

[node name="SpikeTile35 2" parent="tilemap/SpikeGroup" instance=ExtResource( 9 )]
position = Vector2( 1072, 48 )

[node name="SpikeTile353" parent="tilemap/SpikeGroup" instance=ExtResource( 9 )]
position = Vector2( 560, 48 )

[node name="SpikeTile1" parent="tilemap/SpikeGroup" instance=ExtResource( 9 )]
position = Vector2( 2000, 48 )

[node name="SpikeTile5 4" parent="tilemap/SpikeGroup" instance=ExtResource( 9 )]
position = Vector2( 1488, 48 )

[node name="SpikeTile55" parent="tilemap/SpikeGroup" instance=ExtResource( 9 )]
position = Vector2( 976, 48 )

[node name="SpikeTile4 4" parent="tilemap/SpikeGroup" instance=ExtResource( 9 )]
position = Vector2( 1744, 48 )

[node name="SpikeTile45" parent="tilemap/SpikeGroup" instance=ExtResource( 9 )]
position = Vector2( 1232, 48 )

[node name="SpikeTile46 2" parent="tilemap/SpikeGroup" instance=ExtResource( 9 )]
position = Vector2( 720, 48 )

[node name="SpikeTile3 3" parent="tilemap/SpikeGroup" instance=ExtResource( 9 )]
position = Vector2( 1872, 48 )

[node name="SpikeTile35" parent="tilemap/SpikeGroup" instance=ExtResource( 9 )]
position = Vector2( 1360, 48 )

[node name="SpikeTile36" parent="tilemap/SpikeGroup" instance=ExtResource( 9 )]
position = Vector2( 848, 48 )

[node name="SpikeTile34" parent="tilemap/SpikeGroup" instance=ExtResource( 9 )]
position = Vector2( 1616, 48 )

[node name="SpikeTile35 4" parent="tilemap/SpikeGroup" instance=ExtResource( 9 )]
position = Vector2( 1104, 48 )

[node name="SpikeTile355" parent="tilemap/SpikeGroup" instance=ExtResource( 9 )]
position = Vector2( 592, 48 )

[node name="SpikeTile2 2" parent="tilemap/SpikeGroup" instance=ExtResource( 9 )]
position = Vector2( 1936, 48 )

[node name="SpikeTile25" parent="tilemap/SpikeGroup" instance=ExtResource( 9 )]
position = Vector2( 1424, 48 )

[node name="SpikeTile26" parent="tilemap/SpikeGroup" instance=ExtResource( 9 )]
position = Vector2( 912, 48 )

[node name="SpikeTile24" parent="tilemap/SpikeGroup" instance=ExtResource( 9 )]
position = Vector2( 1680, 48 )

[node name="SpikeTile25 3" parent="tilemap/SpikeGroup" instance=ExtResource( 9 )]
position = Vector2( 1168, 48 )

[node name="SpikeTile254" parent="tilemap/SpikeGroup" instance=ExtResource( 9 )]
position = Vector2( 656, 48 )

[node name="SpikeTile23" parent="tilemap/SpikeGroup" instance=ExtResource( 9 )]
position = Vector2( 1808, 48 )

[node name="SpikeTile25 2" parent="tilemap/SpikeGroup" instance=ExtResource( 9 )]
position = Vector2( 1296, 48 )

[node name="SpikeTile253" parent="tilemap/SpikeGroup" instance=ExtResource( 9 )]
position = Vector2( 784, 48 )

[node name="SpikeTile24 2" parent="tilemap/SpikeGroup" instance=ExtResource( 9 )]
position = Vector2( 1552, 48 )

[node name="SpikeTile243" parent="tilemap/SpikeGroup" instance=ExtResource( 9 )]
position = Vector2( 1040, 48 )

[node name="SpikeTile244" parent="tilemap/SpikeGroup" instance=ExtResource( 9 )]
position = Vector2( 528, 48 )

[node name="TeleportGroup" type="Node2D" parent="tilemap"]

[node name="Teleport" parent="tilemap/TeleportGroup" instance=ExtResource( 10 )]
position = Vector2( -16, 240 )
is_horizontal = false
target_level = "res://levels/holyruins/0-3.tscn"
teleport_to = Vector2( -272, -464 )

[node name="teleport" parent="tilemap/TeleportGroup/Teleport" index="0"]
scale = Vector2( 3, 1 )

[node name="Teleport1" parent="tilemap/TeleportGroup" instance=ExtResource( 10 )]
position = Vector2( 2096, -560 )
target_level = "res://levels/holyruins/0-5.tscn"
teleport_to = Vector2( -396, -400 )

[node name="teleport" parent="tilemap/TeleportGroup/Teleport1" index="0"]
scale = Vector2( 1, 5 )

[node name="boundaries" type="Node2D" parent="tilemap"]

[node name="NW" type="Position2D" parent="tilemap/boundaries"]
position = Vector2( -272, -880 )

[node name="SE" type="Position2D" parent="tilemap/boundaries"]
position = Vector2( 2096, 240 )

[editable path="tilemap/ClimbableGroup/ClimbableBlock4"]

[editable path="tilemap/ClimbableGroup/ClimbableBlock3"]

[editable path="tilemap/LadderGroup/TestLadder"]

[editable path="tilemap/TeleportGroup/Teleport"]

[editable path="tilemap/TeleportGroup/Teleport1"]
