[gd_scene load_steps=5 format=2]

[ext_resource path="res://scenes/aquaduct/tileset.tres" type="TileSet" id=1]
[ext_resource path="res://scenes/dungeon/deco.tres" type="TileSet" id=2]
[ext_resource path="res://scenes/common/breakables/torch.tscn" type="PackedScene" id=3]
[ext_resource path="res://scenes/common/teleport.tscn" type="PackedScene" id=4]

[node name="LVL_NOTITLE" type="Node2D"]
__meta__ = {
"__editor_plugin_screen__": "2D"
}

[node name="tilemap" type="TileMap" parent="."]
tile_set = ExtResource( 1 )
cell_size = Vector2( 32, 32 )
compatibility_mode = true
collision_layer = 524288
format = 1
tile_data = PoolIntArray( -196699, 1610612749, 0, -196698, 1073741862, 0, -196697, 1073741862, 0, -196696, 1073741862, 0, -196695, 1073741862, 0, -196694, 1073741862, 0, -196693, 1073741862, 0, -196692, 1073741862, 0, -196691, 1073741862, 0, -196690, 1073741862, 0, -196689, 1073741862, 0, -196688, 1073741862, 0, -196687, 1073741862, 0, -196686, 1073741862, 0, -196685, 1073741862, 0, -196684, 1073741862, 0, -196683, 1073741862, 0, -196682, 1073741862, 0, -196681, 1073741862, 0, -196680, 1073741862, 0, -196679, 1073741862, 0, -196678, 1073741862, 0, -196677, 1073741862, 0, -196676, 1073741862, 0, -196675, 1073741862, 0, -196674, 1073741862, 0, -196673, 1073741862, 0, -196672, 1073741862, 0, -196671, 1073741862, 0, -196670, 1073741862, 0, -196669, 1073741862, 0, -196668, 1073741862, 0, -196667, 1073741862, 0, -196666, 1073741862, 0, -196665, 1073741862, 0, -196664, 1073741862, 0, -196663, 1073741862, 0, -196662, 1073741862, 0, -196661, 1073741862, 0, -196660, 1073741862, 0, -196659, 1073741862, 0, -196658, 1073741862, 0, -196657, 1073741862, 0, -196656, 1073741862, 0, -196655, 1073741862, 0, -196654, 1073741862, 0, -196653, 1073741862, 0, -196652, 1073741862, 0, -196651, 1073741862, 0, -196650, 1073741862, 0, -196649, 1073741862, 0, -196648, 1073741862, 0, -196647, 1073741862, 0, -196646, 1073741862, 0, -196645, 1073741862, 0, -196644, 1073741862, 0, -196643, 1073741862, 0, -196642, 1073741862, 0, -196641, 1073741862, 0, -196640, 1073741862, 0, -196639, 1073741862, 0, -196638, 1073741862, 0, -196637, 1073741862, 0, -196636, 1073741862, 0, -196635, 1073741862, 0, -196634, 1073741862, 0, -196633, 1073741862, 0, -196632, 1073741862, 0, -196631, 1073741862, 0, -196630, 1073741862, 0, -196629, 1073741862, 0, -196628, 1073741862, 0, -196627, 1073741862, 0, -196626, 1073741862, 0, -196625, 1073741862, 0, -196624, 1073741862, 0, -196623, 1073741862, 0, -196622, 1073741862, 0, -196621, 1073741862, 0, -196620, 1073741862, 0, -196619, 1073741862, 0, -196618, 1073741862, 0, -196617, 1073741862, 0, -196616, 1073741862, 0, -196615, 1073741862, 0, -196614, 1073741862, 0, -196613, 1073741862, 0, -196612, 1073741862, 0, -196611, 1073741862, 0, -196610, 1073741862, 0, -196609, 1073741862, 0, -262144, 1073741862, 0, -262143, 1073741862, 0, -262142, 1073741862, 0, -262141, 1073741862, 0, -262140, 1073741862, 0, -262139, 1073741862, 0, -262138, 1073741862, 0, -262137, 1073741862, 0, -262136, 1073741862, 0, -262135, 1073741862, 0, -262134, 1073741862, 0, -262133, 1073741862, 0, -262132, 1073741862, 0, -262131, 1073741862, 0, -262130, 1073741862, 0, -262129, 1073741862, 0, -262128, 1073741862, 0, -262127, 1073741862, 0, -262126, 1073741862, 0, -262125, 1073741862, 0, -262124, 1073741837, 0, -131163, 1073741837, 0, -131162, 27, 0, -131161, 27, 0, -131160, 27, 0, -131159, 27, 0, -131158, 27, 0, -131157, 27, 0, -131156, 27, 0, -131155, 27, 0, -131154, 27, 0, -131153, 27, 0, -131152, 27, 0, -131151, 27, 0, -131150, 27, 0, -131149, 27, 0, -131148, 27, 0, -131147, 27, 0, -131146, 27, 0, -131145, 27, 0, -131144, 27, 0, -131143, 27, 0, -131142, 27, 0, -131141, 27, 0, -131140, 27, 0, -131139, 27, 0, -131138, 27, 0, -131137, 27, 0, -131136, 27, 0, -131135, 27, 0, -131134, 27, 0, -131133, 27, 0, -131132, 27, 0, -131131, 27, 0, -131130, 27, 0, -131129, 27, 0, -131128, 27, 0, -131127, 27, 0, -131126, 27, 0, -131125, 27, 0, -131124, 27, 0, -131123, 27, 0, -131122, 27, 0, -131121, 27, 0, -131120, 27, 0, -131119, 27, 0, -131118, 27, 0, -131117, 27, 0, -131116, 27, 0, -131115, 27, 0, -131114, 27, 0, -131113, 27, 0, -131112, 27, 0, -131111, 27, 0, -131110, 27, 0, -131109, 27, 0, -131108, 27, 0, -131107, 27, 0, -131106, 27, 0, -131105, 27, 0, -131104, 27, 0, -131103, 27, 0, -131102, 27, 0, -131101, 27, 0, -131100, 27, 0, -131099, 27, 0, -131098, 27, 0, -131097, 27, 0, -131096, 27, 0, -131095, 27, 0, -131094, 27, 0, -131093, 27, 0, -131092, 27, 0, -131091, 27, 0, -131090, 27, 0, -131089, 27, 0, -131088, 27, 0, -131087, 27, 0, -131086, 27, 0, -131085, 27, 0, -131084, 27, 0, -131083, 27, 0, -131082, 27, 0, -131081, 27, 0, -131080, 27, 0, -131079, 27, 0, -131078, 27, 0, -131077, 27, 0, -131076, 27, 0, -131075, 27, 0, -131074, 27, 0, -131073, 27, 0, -196608, 27, 0, -196607, 27, 0, -196606, 27, 0, -196605, 27, 0, -196604, 27, 0, -196603, 27, 0, -196602, 27, 0, -196601, 27, 0, -196600, 27, 0, -196599, 27, 0, -196598, 27, 0, -196597, 27, 0, -196596, 27, 0, -196595, 27, 0, -196594, 27, 0, -196593, 27, 0, -196592, 27, 0, -196591, 27, 0, -196590, 27, 0, -196589, 27, 0, -196588, 1610612749, 0, -65627, 27, 0, -65626, 27, 0, -65625, 27, 0, -65624, 27, 0, -65623, 27, 0, -65622, 27, 0, -65621, 27, 0, -65620, 27, 0, -65619, 27, 0, -65618, 27, 0, -65617, 27, 0, -65616, 27, 0, -65615, 27, 0, -65614, 27, 0, -65613, 27, 0, -65612, 27, 0, -65611, 27, 0, -65610, 27, 0, -65609, 27, 0, -65608, 27, 0, -65607, 27, 0, -65606, 27, 0, -65605, 27, 0, -65604, 27, 0, -65603, 27, 0, -65602, 27, 0, -65601, 27, 0, -65600, 27, 0, -65599, 27, 0, -65598, 27, 0, -65597, 27, 0, -65596, 27, 0, -65595, 27, 0, -65594, 27, 0, -65593, 27, 0, -65592, 27, 0, -65591, 27, 0, -65590, 27, 0, -65589, 27, 0, -65588, 27, 0, -65587, 27, 0, -65586, 27, 0, -65585, 27, 0, -65584, 27, 0, -65583, 27, 0, -65582, 27, 0, -65581, 27, 0, -65580, 27, 0, -65579, 27, 0, -65578, 27, 0, -65577, 27, 0, -65576, 27, 0, -65575, 27, 0, -65574, 27, 0, -65573, 27, 0, -65572, 27, 0, -65571, 27, 0, -65570, 27, 0, -65569, 27, 0, -65568, 27, 0, -65567, 27, 0, -65566, 27, 0, -65565, 27, 0, -65564, 27, 0, -65563, 27, 0, -65562, 27, 0, -65561, 27, 0, -65560, 27, 0, -65559, 27, 0, -65558, 27, 0, -65557, 27, 0, -65556, 27, 0, -65555, 27, 0, -65554, 27, 0, -65553, 27, 0, -65552, 27, 0, -65551, 27, 0, -65550, 27, 0, -65549, 27, 0, -65548, 27, 0, -65547, 27, 0, -65546, 27, 0, -65545, 27, 0, -65544, 27, 0, -65543, 27, 0, -65542, 27, 0, -65541, 27, 0, -65540, 27, 0, -65539, 27, 0, -65538, 27, 0, -65537, 27, 0, -131072, 27, 0, -131071, 27, 0, -131070, 27, 0, -131069, 27, 0, -131068, 27, 0, -131067, 27, 0, -131066, 27, 0, -131065, 27, 0, -131064, 27, 0, -131063, 27, 0, -131062, 27, 0, -131061, 27, 0, -131060, 27, 0, -131059, 27, 0, -131058, 27, 0, -131057, 27, 0, -131056, 27, 0, -131055, 27, 0, -131054, 27, 0, -131053, 27, 0, -131052, 27, 0, -91, 27, 0, -90, 27, 0, -89, 27, 0, -88, 27, 0, -87, 27, 0, -86, 27, 0, -85, 27, 0, -84, 27, 0, -83, 27, 0, -82, 27, 0, -81, 27, 0, -80, 27, 0, -79, 27, 0, -78, 27, 0, -77, 27, 0, -76, 27, 0, -75, 27, 0, -74, 27, 0, -73, 27, 0, -72, 27, 0, -71, 27, 0, -70, 27, 0, -69, 27, 0, -68, 27, 0, -67, 27, 0, -66, 27, 0, -65, 27, 0, -64, 27, 0, -63, 27, 0, -62, 27, 0, -61, 27, 0, -60, 27, 0, -59, 27, 0, -58, 27, 0, -57, 27, 0, -56, 27, 0, -55, 27, 0, -54, 27, 0, -53, 27, 0, -52, 27, 0, -51, 27, 0, -50, 27, 0, -49, 27, 0, -48, 27, 0, -47, 27, 0, -46, 27, 0, -45, 27, 0, -44, 27, 0, -43, 27, 0, -42, 27, 0, -41, 27, 0, -40, 27, 0, -39, 27, 0, -38, 27, 0, -37, 27, 0, -36, 27, 0, -35, 27, 0, -34, 27, 0, -33, 27, 0, -32, 27, 0, -31, 27, 0, -30, 27, 0, -29, 27, 0, -28, 27, 0, -27, 27, 0, -26, 27, 0, -25, 27, 0, -24, 27, 0, -23, 27, 0, -22, 27, 0, -21, 27, 0, -20, 27, 0, -19, 27, 0, -18, 27, 0, -17, 27, 0, -16, 27, 0, -15, 27, 0, -14, 27, 0, -13, 27, 0, -12, 27, 0, -11, 27, 0, -10, 27, 0, -9, 27, 0, -8, 27, 0, -7, 27, 0, -6, 27, 0, -5, 27, 0, -4, 27, 0, -3, 27, 0, -2, 27, 0, -1, 27, 0, -65536, 27, 0, -65535, 27, 0, -65534, 27, 0, -65533, 27, 0, -65532, 27, 0, -65531, 27, 0, -65530, 27, 0, -65529, 27, 0, -65528, 27, 0, -65527, 27, 0, -65526, 27, 0, -65525, 27, 0, -65524, 27, 0, -65523, 27, 0, -65522, 27, 0, -65521, 27, 0, -65520, 27, 0, -65519, 27, 0, -65518, 27, 0, -65517, 27, 0, -65516, 27, 0, 65445, 27, 0, 65446, 27, 0, 65447, 27, 0, 65448, 27, 0, 65449, 27, 0, 65450, 27, 0, 65451, 27, 0, 65452, 27, 0, 65453, 27, 0, 65454, 27, 0, 65455, 27, 0, 65456, 27, 0, 65457, 27, 0, 65458, 27, 0, 65459, 27, 0, 65460, 27, 0, 65461, 27, 0, 65462, 27, 0, 65463, 27, 0, 65464, 27, 0, 65465, 27, 0, 65466, 27, 0, 65467, 27, 0, 65468, 27, 0, 65469, 27, 0, 65470, 27, 0, 65471, 27, 0, 65472, 27, 0, 65473, 27, 0, 65474, 27, 0, 65475, 27, 0, 65476, 27, 0, 65477, 27, 0, 65478, 27, 0, 65479, 27, 0, 65480, 27, 0, 65481, 27, 0, 65482, 27, 0, 65483, 27, 0, 65484, 27, 0, 65485, 27, 0, 65486, 27, 0, 65487, 27, 0, 65488, 27, 0, 65489, 27, 0, 65490, 27, 0, 65491, 27, 0, 65492, 27, 0, 65493, 27, 0, 65494, 27, 0, 65495, 27, 0, 65496, 27, 0, 65497, 27, 0, 65498, 27, 0, 65499, 27, 0, 65500, 27, 0, 65501, 27, 0, 65502, 27, 0, 65503, 27, 0, 65504, 27, 0, 65505, 27, 0, 65506, 27, 0, 65507, 27, 0, 65508, 27, 0, 65509, 27, 0, 65510, 27, 0, 65511, 27, 0, 65512, 27, 0, 65513, 27, 0, 65514, 27, 0, 65515, 27, 0, 65516, 27, 0, 65517, 27, 0, 65518, 27, 0, 65519, 27, 0, 65520, 27, 0, 65521, 27, 0, 65522, 27, 0, 65523, 27, 0, 65524, 27, 0, 65525, 27, 0, 65526, 27, 0, 65527, 27, 0, 65528, 27, 0, 65529, 27, 0, 65530, 27, 0, 65531, 27, 0, 65532, 27, 0, 65533, 27, 0, 65534, 27, 0, 65535, 27, 0, 0, 27, 0, 1, 27, 0, 2, 27, 0, 3, 27, 0, 4, 27, 0, 5, 27, 0, 6, 27, 0, 7, 27, 0, 8, 27, 0, 9, 27, 0, 10, 27, 0, 11, 27, 0, 12, 27, 0, 13, 27, 0, 14, 27, 0, 15, 27, 0, 16, 27, 0, 17, 27, 0, 18, 27, 0, 19, 27, 0, 20, 27, 0, 130981, 27, 0, 130982, 27, 0, 130983, 27, 0, 130984, 27, 0, 130985, 27, 0, 130986, 27, 0, 130987, 27, 0, 130988, 27, 0, 130989, 27, 0, 130990, 27, 0, 130991, 27, 0, 130992, 27, 0, 130993, 27, 0, 130994, 27, 0, 130995, 27, 0, 130996, 27, 0, 130997, 27, 0, 130998, 27, 0, 130999, 27, 0, 131000, 27, 0, 131001, 27, 0, 131002, 27, 0, 131003, 27, 0, 131004, 27, 0, 131005, 27, 0, 131006, 27, 0, 131007, 27, 0, 131008, 27, 0, 131009, 27, 0, 131010, 27, 0, 131011, 27, 0, 131012, 27, 0, 131013, 27, 0, 131014, 27, 0, 131015, 27, 0, 131016, 27, 0, 131017, 27, 0, 131018, 27, 0, 131019, 27, 0, 131020, 27, 0, 131021, 27, 0, 131022, 27, 0, 131023, 27, 0, 131024, 27, 0, 131025, 27, 0, 131026, 27, 0, 131027, 27, 0, 131028, 27, 0, 131029, 27, 0, 131030, 27, 0, 131031, 27, 0, 131032, 27, 0, 131033, 27, 0, 131034, 27, 0, 131035, 27, 0, 131036, 27, 0, 131037, 27, 0, 131038, 27, 0, 131039, 27, 0, 131040, 27, 0, 131041, 27, 0, 131042, 27, 0, 131043, 27, 0, 131044, 27, 0, 131045, 27, 0, 131046, 27, 0, 131047, 27, 0, 131048, 27, 0, 131049, 27, 0, 131050, 27, 0, 131051, 27, 0, 131052, 27, 0, 131053, 27, 0, 131054, 27, 0, 131055, 27, 0, 131056, 27, 0, 131057, 27, 0, 131058, 27, 0, 131059, 27, 0, 131060, 27, 0, 131061, 27, 0, 131062, 27, 0, 131063, 27, 0, 131064, 27, 0, 131065, 27, 0, 131066, 27, 0, 131067, 27, 0, 131068, 27, 0, 131069, 27, 0, 131070, 27, 0, 131071, 27, 0, 65536, 27, 0, 65537, 27, 0, 65538, 27, 0, 65539, 27, 0, 65540, 27, 0, 65541, 27, 0, 65542, 27, 0, 65543, 27, 0, 65544, 27, 0, 65545, 27, 0, 65546, 27, 0, 65547, 27, 0, 65548, 27, 0, 65549, 27, 0, 65550, 27, 0, 65551, 27, 0, 65552, 27, 0, 65553, 27, 0, 65554, 27, 0, 65555, 27, 0, 65556, 27, 0, 196517, 27, 0, 196518, 27, 0, 196519, 27, 0, 196520, 27, 0, 196521, 27, 0, 196522, 27, 0, 196523, 27, 0, 196524, 27, 0, 196525, 27, 0, 196526, 27, 0, 196527, 27, 0, 196528, 27, 0, 196529, 27, 0, 196530, 27, 0, 196531, 27, 0, 196532, 27, 0, 196533, 27, 0, 196534, 27, 0, 196535, 27, 0, 196536, 27, 0, 196537, 27, 0, 196538, 27, 0, 196539, 27, 0, 196540, 27, 0, 196541, 27, 0, 196542, 27, 0, 196543, 27, 0, 196544, 27, 0, 196545, 27, 0, 196546, 27, 0, 196547, 27, 0, 196548, 27, 0, 196549, 27, 0, 196550, 27, 0, 196551, 27, 0, 196552, 27, 0, 196553, 27, 0, 196554, 27, 0, 196555, 27, 0, 196556, 27, 0, 196557, 27, 0, 196558, 27, 0, 196559, 27, 0, 196560, 27, 0, 196561, 27, 0, 196562, 27, 0, 196563, 27, 0, 196564, 27, 0, 196565, 27, 0, 196566, 27, 0, 196567, 27, 0, 196568, 27, 0, 196569, 27, 0, 196570, 27, 0, 196571, 27, 0, 196572, 27, 0, 196573, 27, 0, 196574, 27, 0, 196575, 27, 0, 196576, 27, 0, 196577, 27, 0, 196578, 27, 0, 196579, 27, 0, 196580, 27, 0, 196581, 27, 0, 196582, 27, 0, 196583, 27, 0, 196584, 27, 0, 196585, 27, 0, 196586, 27, 0, 196587, 27, 0, 196588, 27, 0, 196589, 27, 0, 196590, 27, 0, 196591, 27, 0, 196592, 27, 0, 196593, 27, 0, 196594, 27, 0, 196595, 27, 0, 196596, 27, 0, 196597, 27, 0, 196598, 27, 0, 196599, 27, 0, 196600, 27, 0, 196601, 27, 0, 196602, 27, 0, 196603, 27, 0, 196604, 27, 0, 196605, 27, 0, 196606, 27, 0, 196607, 27, 0, 131072, 27, 0, 131073, 27, 0, 131074, 27, 0, 131075, 27, 0, 131076, 27, 0, 131077, 27, 0, 131078, 27, 0, 131079, 27, 0, 131080, 27, 0, 131081, 27, 0, 131082, 27, 0, 131083, 27, 0, 131084, 27, 0, 131085, 27, 0, 131086, 27, 0, 131087, 27, 0, 131088, 27, 0, 131089, 27, 0, 131090, 27, 0, 131091, 27, 0, 131092, 27, 0, 262053, 536870925, 0, 262054, 38, 0, 262055, 38, 0, 262056, 38, 0, 262057, 38, 0, 262058, 38, 0, 262059, 38, 0, 262060, 38, 0, 262061, 38, 0, 262062, 38, 0, 262063, 38, 0, 262064, 38, 0, 262065, 38, 0, 262066, 38, 0, 262067, 38, 0, 262068, 38, 0, 262069, 38, 0, 262070, 38, 0, 262071, 38, 0, 262072, 38, 0, 262073, 38, 0, 262074, 38, 0, 262075, 38, 0, 262076, 38, 0, 262077, 38, 0, 262078, 38, 0, 262079, 38, 0, 262080, 38, 0, 262081, 38, 0, 262082, 38, 0, 262083, 38, 0, 262084, 38, 0, 262085, 38, 0, 262086, 38, 0, 262087, 38, 0, 262088, 38, 0, 262089, 38, 0, 262090, 38, 0, 262091, 38, 0, 262092, 38, 0, 262093, 38, 0, 262094, 38, 0, 262095, 38, 0, 262096, 38, 0, 262097, 38, 0, 262098, 38, 0, 262099, 38, 0, 262100, 38, 0, 262101, 38, 0, 262102, 38, 0, 262103, 38, 0, 262104, 38, 0, 262105, 38, 0, 262106, 38, 0, 262107, 38, 0, 262108, 38, 0, 262109, 38, 0, 262110, 38, 0, 262111, 38, 0, 262112, 38, 0, 262113, 38, 0, 262114, 38, 0, 262115, 38, 0, 262116, 38, 0, 262117, 38, 0, 262118, 38, 0, 262119, 38, 0, 262120, 38, 0, 262121, 38, 0, 262122, 38, 0, 262123, 38, 0, 262124, 38, 0, 262125, 38, 0, 262126, 38, 0, 262127, 38, 0, 262128, 38, 0, 262129, 38, 0, 262130, 38, 0, 262131, 38, 0, 262132, 38, 0, 262133, 38, 0, 262134, 38, 0, 262135, 38, 0, 262136, 38, 0, 262137, 38, 0, 262138, 38, 0, 262139, 38, 0, 262140, 38, 0, 262141, 38, 0, 262142, 38, 0, 262143, 38, 0, 196608, 38, 0, 196609, 38, 0, 196610, 38, 0, 196611, 38, 0, 196612, 38, 0, 196613, 38, 0, 196614, 38, 0, 196615, 38, 0, 196616, 38, 0, 196617, 38, 0, 196618, 38, 0, 196619, 38, 0, 196620, 38, 0, 196621, 38, 0, 196622, 38, 0, 196623, 38, 0, 196624, 38, 0, 196625, 38, 0, 196626, 38, 0, 196627, 38, 0, 196628, 13, 0 )

[node name="DecoGroup" type="Node2D" parent="tilemap"]

[node name="TileMap" type="TileMap" parent="tilemap/DecoGroup"]
tile_set = ExtResource( 2 )
cell_size = Vector2( 32, 32 )
compatibility_mode = true
format = 1
tile_data = PoolIntArray( -65598, 3, 0, -65597, 4, 0, -65596, 4, 0, -65595, 4, 0, -65594, 536870915, 0, -65566, 3, 0, -65565, 4, 0, -65564, 4, 0, -65563, 4, 0, -65562, 536870915, 0, -131069, 3, 0, -131068, 4, 0, -131067, 4, 0, -131066, 4, 0, -131065, 536870915, 0, -88, 0, 0, -79, 0, 0, -75, 7, 0, -62, 5, 0, -61, 6, 0, -60, 6, 0, -59, 6, 0, -58, 536870917, 0, -48, 0, 0, -44, 7, 0, -39, 0, 0, -30, 5, 0, -29, 6, 0, -28, 6, 0, -27, 6, 0, -26, 536870917, 0, -16, 0, 0, -12, 7, 0, -7, 0, 0, -65533, 5, 0, -65532, 6, 0, -65531, 6, 0, -65530, 6, 0, -65529, 536870917, 0, -65519, 0, 0, 65448, 1, 0, 65457, 1, 0, 65474, 5, 0, 65475, 6, 0, 65476, 6, 0, 65477, 6, 0, 65478, 536870917, 0, 65488, 1, 0, 65497, 1, 0, 65506, 5, 0, 65507, 6, 0, 65508, 6, 0, 65509, 6, 0, 65510, 536870917, 0, 65520, 1, 0, 65529, 1, 0, 3, 5, 0, 4, 6, 0, 5, 6, 0, 6, 6, 0, 7, 536870917, 0, 17, 1, 0, 130984, 2, 0, 130993, 1, 0, 131010, 5, 0, 131011, 6, 0, 131012, 6, 0, 131013, 6, 0, 131014, 536870917, 0, 131024, 2, 0, 131033, 2, 0, 131042, 5, 0, 131043, 6, 0, 131044, 6, 0, 131045, 6, 0, 131046, 536870917, 0, 131056, 1, 0, 131065, 2, 0, 65539, 5, 0, 65540, 6, 0, 65541, 6, 0, 65542, 6, 0, 65543, 536870917, 0, 65553, 2, 0, 196529, 2, 0, 196546, 5, 0, 196547, 6, 0, 196548, 6, 0, 196549, 6, 0, 196550, 536870917, 0, 196578, 5, 0, 196579, 6, 0, 196580, 6, 0, 196581, 6, 0, 196582, 536870917, 0, 196592, 2, 0, 131075, 5, 0, 131076, 6, 0, 131077, 6, 0, 131078, 6, 0, 131079, 536870917, 0 )

[node name="TorchGroup" type="Node2D" parent="tilemap"]

[node name="torch" parent="tilemap/TorchGroup" instance=ExtResource( 3 )]
position = Vector2( 416, 0 )

[node name="torch2" parent="tilemap/TorchGroup" instance=ExtResource( 3 )]
position = Vector2( -96, 0 )
type = "ITEM"
reward = "res://scenes/items/gold/gold.tscn"
value = 20

[node name="torch3" parent="tilemap/TorchGroup" instance=ExtResource( 3 )]
position = Vector2( -608, 0 )

[node name="torch4" parent="tilemap/TorchGroup" instance=ExtResource( 3 )]
position = Vector2( -1120, 0 )
type = "ITEM"
reward = "res://scenes/items/gold/gold.tscn"
value = 20

[node name="torch5" parent="tilemap/TorchGroup" instance=ExtResource( 3 )]
position = Vector2( -1632, 0 )

[node name="torch6" parent="tilemap/TorchGroup" instance=ExtResource( 3 )]
position = Vector2( -2144, 0 )
type = "ITEM"
reward = "res://scenes/items/gold/gold.tscn"
value = 20

[node name="torch7" parent="tilemap/TorchGroup" instance=ExtResource( 3 )]
position = Vector2( -2656, 0 )

[node name="TeleportGroup" type="Node2D" parent="tilemap"]

[node name="Teleport" parent="tilemap/TeleportGroup" instance=ExtResource( 4 )]
position = Vector2( -2928, 16 )
target_level = "res://levels/aquaduct/2-2.tscn"
teleport_to = Vector2( 364, 1616 )

[node name="teleport" parent="tilemap/TeleportGroup/Teleport" index="0"]
scale = Vector2( 1, 5 )

[node name="Teleport1" parent="tilemap/TeleportGroup" instance=ExtResource( 4 )]
position = Vector2( 688, 16 )
target_level = "res://levels/aquaduct/0-0.tscn"
teleport_to = Vector2( -620, 16 )

[node name="teleport" parent="tilemap/TeleportGroup/Teleport1" index="0"]
scale = Vector2( 1, 5 )

[node name="boundaries" type="Node2D" parent="tilemap"]

[node name="NW" type="Position2D" parent="tilemap/boundaries"]
position = Vector2( -2918, -134 )

[node name="SE" type="Position2D" parent="tilemap/boundaries"]
position = Vector2( 682, 138 )

[editable path="tilemap/TeleportGroup/Teleport"]

[editable path="tilemap/TeleportGroup/Teleport1"]
