[gd_scene load_steps=10 format=2]

[ext_resource path="res://scenes/icecave/tileset.tres" type="TileSet" id=1]
[ext_resource path="res://scenes/icecave/onewayplatform.tscn" type="PackedScene" id=2]
[ext_resource path="res://scenes/common/breakables/torch.tscn" type="PackedScene" id=3]
[ext_resource path="res://scenes/common/hangable.tscn" type="PackedScene" id=4]
[ext_resource path="res://scenes/common/hangblockend.png" type="Texture" id=5]
[ext_resource path="res://scenes/dungeon/ladder/ladder.tscn" type="PackedScene" id=6]
[ext_resource path="res://scenes/common/switches/floorswitch.tscn" type="PackedScene" id=7]
[ext_resource path="res://scenes/common/damagables/zombie/zombie.tscn" type="PackedScene" id=8]
[ext_resource path="res://scenes/common/teleport.tscn" type="PackedScene" id=9]

[node name="LVL_NOTITLE" type="Node2D"]
__meta__ = {
"__editor_plugin_screen__": "2D"
}

[node name="tilemap" type="TileMap" parent="."]
tile_set = ExtResource( 1 )
cell_size = Vector2( 32, 32 )
compatibility_mode = true
collision_layer = 524288
format = 1
tile_data = PoolIntArray( -1114145, 1610612739, 0, -1114144, 12, 0, -1114143, 12, 0, -1114142, 12, 0, -1114141, 12, 0, -1114140, 12, 0, -1114139, 12, 0, -1114138, 12, 0, -1114137, 12, 0, -1114136, 12, 0, -1114135, 12, 0, -1114134, 12, 0, -1114133, 12, 0, -1114132, 12, 0, -1114131, 12, 0, -1114130, 12, 0, -1114129, 12, 0, -1114128, 12, 0, -1114127, 12, 0, -1114126, 12, 0, -1114125, 12, 0, -1114124, 1073741827, 0, -1114123, 11, 0, -1114122, 11, 0, -1114121, 11, 0, -1114120, 1610612739, 0, -1114119, 12, 0, -1114118, 12, 0, -1114117, 12, 0, -1114116, 12, 0, -1114115, 12, 0, -1114114, 12, 0, -1114113, 12, 0, -1179648, 12, 0, -1179647, 12, 0, -1179646, 12, 0, -1179645, 12, 0, -1179644, 12, 0, -1179643, 12, 0, -1179642, 12, 0, -1179641, 12, 0, -1179640, 12, 0, -1179639, 12, 0, -1179638, 1073741827, 0, -1048609, 1610612739, 0, -1048608, 12, 0, -1048607, 12, 0, -1048606, 12, 0, -1048605, 12, 0, -1048604, 12, 0, -1048603, 12, 0, -1048602, 12, 0, -1048601, 12, 0, -1048600, 12, 0, -1048599, 12, 0, -1048598, 12, 0, -1048597, 12, 0, -1048596, 12, 0, -1048595, 12, 0, -1048594, 12, 0, -1048593, 12, 0, -1048592, 12, 0, -1048591, 12, 0, -1048590, 12, 0, -1048589, 12, 0, -1048588, 1073741827, 0, -1048587, 11, 0, -1048586, 11, 0, -1048585, 11, 0, -1048584, 1610612739, 0, -1048583, 12, 0, -1048582, 12, 0, -1048581, 12, 0, -1048580, 12, 0, -1048579, 12, 0, -1048578, 12, 0, -1048577, 12, 0, -1114112, 12, 0, -1114111, 12, 0, -1114110, 12, 0, -1114109, 12, 0, -1114108, 12, 0, -1114107, 12, 0, -1114106, 12, 0, -1114105, 12, 0, -1114104, 12, 0, -1114103, 12, 0, -1114102, 1073741827, 0, -983073, 1073741825, 0, -983072, 1073741824, 0, -983071, 1073741824, 0, -983070, 1073741824, 0, -983069, 1073741824, 0, -983068, 1073741824, 0, -983067, 1073741824, 0, -983066, 1073741824, 0, -983065, 1073741824, 0, -983064, 1073741824, 0, -983063, 1073741824, 0, -983062, 1073741824, 0, -983061, 1073741824, 0, -983060, 1073741824, 0, -983059, 1073741824, 0, -983058, 1073741824, 0, -983057, 1073741824, 0, -983056, 1073741824, 0, -983055, 1073741824, 0, -983054, 1073741824, 0, -983053, 1073741824, 0, -983052, 1073741826, 0, -983051, 11, 0, -983050, 11, 0, -983049, 11, 0, -983048, 1073741825, 0, -983047, 1073741824, 0, -983046, 1073741824, 0, -983045, 1073741824, 0, -983044, 1073741824, 0, -983043, 1073741824, 0, -983042, 1073741824, 0, -983041, 1073741824, 0, -1048576, 1073741824, 0, -1048575, 1073741824, 0, -1048574, 1073741824, 0, -1048573, 1073741824, 0, -1048572, 1073741824, 0, -1048571, 1073741824, 0, -1048570, 1073741824, 0, -1048569, 1073741824, 0, -1048568, 1073741824, 0, -1048567, 1073741824, 0, -1048566, 1073741826, 0, -917537, 3, 0, -917536, 11, 0, -917535, 11, 0, -917534, 11, 0, -917533, 11, 0, -917532, 11, 0, -917531, 11, 0, -917530, 11, 0, -917529, 11, 0, -917528, 11, 0, -917527, 11, 0, -917526, 11, 0, -917525, 11, 0, -917524, 11, 0, -917523, 11, 0, -917522, 11, 0, -917521, 11, 0, -917520, 11, 0, -917519, 11, 0, -917518, 11, 0, -917517, 11, 0, -917516, 11, 0, -917515, 11, 0, -917514, 11, 0, -917513, 11, 0, -917512, 11, 0, -917511, 11, 0, -917510, 11, 0, -917509, 11, 0, -917508, 11, 0, -917507, 11, 0, -917506, 11, 0, -917505, 11, 0, -983040, 11, 0, -983039, 11, 0, -983038, 11, 0, -983037, 11, 0, -983036, 11, 0, -983035, 11, 0, -983034, 11, 0, -983033, 11, 0, -983032, 11, 0, -983031, 11, 0, -983030, 536870915, 0, -852001, 3, 0, -852000, 11, 0, -851999, 11, 0, -851998, 11, 0, -851997, 11, 0, -851996, 11, 0, -851995, 11, 0, -851994, 11, 0, -851993, 11, 0, -851992, 11, 0, -851991, 11, 0, -851990, 11, 0, -851989, 11, 0, -851988, 11, 0, -851987, 11, 0, -851986, 11, 0, -851985, 11, 0, -851984, 11, 0, -851983, 11, 0, -851982, 11, 0, -851981, 11, 0, -851980, 11, 0, -851979, 11, 0, -851978, 11, 0, -851977, 11, 0, -851976, 11, 0, -851975, 11, 0, -851974, 11, 0, -851973, 11, 0, -851972, 11, 0, -851971, 11, 0, -851970, 11, 0, -851969, 11, 0, -917504, 11, 0, -917503, 11, 0, -917502, 11, 0, -917501, 11, 0, -917500, 11, 0, -917499, 11, 0, -917498, 11, 0, -917497, 11, 0, -917496, 11, 0, -917495, 11, 0, -917494, 536870915, 0, -786465, 3, 0, -786464, 11, 0, -786463, 11, 0, -786462, 11, 0, -786461, 11, 0, -786460, 11, 0, -786459, 11, 0, -786458, 11, 0, -786457, 11, 0, -786456, 11, 0, -786455, 11, 0, -786454, 11, 0, -786453, 11, 0, -786452, 11, 0, -786451, 11, 0, -786450, 11, 0, -786449, 11, 0, -786448, 11, 0, -786447, 11, 0, -786446, 11, 0, -786445, 11, 0, -786444, 11, 0, -786443, 11, 0, -786442, 11, 0, -786441, 11, 0, -786440, 11, 0, -786439, 11, 0, -786438, 11, 0, -786437, 11, 0, -786436, 11, 0, -786435, 11, 0, -786434, 11, 0, -786433, 11, 0, -851968, 11, 0, -851967, 11, 0, -851966, 11, 0, -851965, 11, 0, -851964, 11, 0, -851963, 11, 0, -851962, 11, 0, -851961, 11, 0, -851960, 11, 0, -851959, 11, 0, -851958, 536870915, 0, -720929, 3, 0, -720928, 11, 0, -720927, 11, 0, -720926, 11, 0, -720925, 11, 0, -720924, 11, 0, -720923, 11, 0, -720922, 11, 0, -720921, 11, 0, -720920, 11, 0, -720919, 11, 0, -720918, 11, 0, -720917, 11, 0, -720916, 11, 0, -720915, 11, 0, -720914, 11, 0, -720913, 11, 0, -720912, 11, 0, -720911, 11, 0, -720910, 11, 0, -720909, 11, 0, -720908, 11, 0, -720907, 11, 0, -720906, 11, 0, -720905, 11, 0, -720904, 11, 0, -720903, 11, 0, -720902, 11, 0, -720901, 11, 0, -720900, 11, 0, -720899, 11, 0, -720898, 11, 0, -720897, 11, 0, -786432, 11, 0, -786431, 11, 0, -786430, 11, 0, -786429, 11, 0, -786428, 11, 0, -786427, 11, 0, -786426, 11, 0, -786425, 11, 0, -786424, 11, 0, -786423, 11, 0, -786422, 536870915, 0, -655393, 3, 0, -655392, 11, 0, -655391, 11, 0, -655390, 11, 0, -655389, 11, 0, -655388, 11, 0, -655387, 11, 0, -655386, 11, 0, -655385, 11, 0, -655384, 11, 0, -655383, 11, 0, -655382, 11, 0, -655381, 11, 0, -655380, 11, 0, -655379, 11, 0, -655378, 11, 0, -655377, 11, 0, -655376, 11, 0, -655375, 11, 0, -655374, 11, 0, -655373, 11, 0, -655372, 11, 0, -655371, 11, 0, -655370, 11, 0, -655369, 11, 0, -655368, 11, 0, -655367, 11, 0, -655366, 11, 0, -655365, 11, 0, -655364, 11, 0, -655363, 11, 0, -655362, 11, 0, -655361, 11, 0, -720896, 11, 0, -720895, 11, 0, -720894, 11, 0, -720893, 11, 0, -720892, 11, 0, -720891, 11, 0, -720890, 11, 0, -720889, 11, 0, -720888, 11, 0, -720887, 11, 0, -720886, 1610612739, 0, -589857, 3, 0, -589856, 0, 0, -589855, 0, 0, -589854, 0, 0, -589853, 0, 0, -589852, 0, 0, -589851, 0, 0, -589850, 0, 0, -589849, 0, 0, -589848, 0, 0, -589847, 0, 0, -589846, 0, 0, -589845, 0, 0, -589844, 0, 0, -589843, 0, 0, -589842, 0, 0, -589841, 0, 0, -589840, 0, 0, -589839, 0, 0, -589838, 0, 0, -589837, 0, 0, -589836, 0, 0, -589835, 0, 0, -589834, 0, 0, -589833, 0, 0, -589832, 0, 0, -589831, 0, 0, -589830, 0, 0, -589829, 0, 0, -589828, 0, 0, -589827, 0, 0, -589826, 0, 0, -589825, 0, 0, -655360, 11, 0, -655359, 11, 0, -655358, 11, 0, -655357, 11, 0, -655356, 11, 0, -655355, 11, 0, -655354, 11, 0, -655353, 11, 0, -655352, 11, 0, -655351, 11, 0, -655350, 1610612739, 0, -524321, 3, 0, -524320, 11, 0, -524319, 11, 0, -524318, 11, 0, -524317, 11, 0, -524316, 11, 0, -524315, 11, 0, -524314, 11, 0, -524313, 11, 0, -524312, 11, 0, -524311, 11, 0, -524310, 11, 0, -524309, 11, 0, -524308, 11, 0, -524307, 11, 0, -524306, 11, 0, -524305, 11, 0, -524304, 11, 0, -524303, 11, 0, -524302, 11, 0, -524301, 11, 0, -524300, 11, 0, -524299, 11, 0, -524298, 11, 0, -524297, 11, 0, -524296, 11, 0, -524295, 11, 0, -524294, 11, 0, -524293, 11, 0, -524292, 11, 0, -524291, 11, 0, -524290, 11, 0, -524289, 11, 0, -589824, 11, 0, -589823, 11, 0, -589822, 11, 0, -589821, 11, 0, -589820, 11, 0, -589819, 11, 0, -589818, 11, 0, -589817, 11, 0, -589816, 11, 0, -589815, 11, 0, -589814, 1610612739, 0, -458785, 3, 0, -458784, 11, 0, -458783, 11, 0, -458782, 11, 0, -458781, 11, 0, -458780, 11, 0, -458779, 11, 0, -458778, 11, 0, -458777, 11, 0, -458776, 11, 0, -458775, 11, 0, -458774, 11, 0, -458773, 11, 0, -458772, 11, 0, -458771, 11, 0, -458770, 11, 0, -458769, 11, 0, -458768, 11, 0, -458767, 11, 0, -458766, 11, 0, -458765, 11, 0, -458764, 11, 0, -458763, 11, 0, -458762, 11, 0, -458761, 11, 0, -458760, 11, 0, -458759, 11, 0, -458758, 11, 0, -458757, 11, 0, -458756, 11, 0, -458755, 11, 0, -458754, 11, 0, -458753, 11, 0, -524288, 11, 0, -524287, 11, 0, -524286, 11, 0, -524285, 11, 0, -524284, 11, 0, -524283, 11, 0, -524282, 11, 0, -524281, 11, 0, -524280, 11, 0, -524279, 11, 0, -524278, 1610612739, 0, -393249, 3, 0, -393248, 11, 0, -393247, 11, 0, -393246, 11, 0, -393245, 11, 0, -393244, 11, 0, -393243, 11, 0, -393242, 11, 0, -393241, 11, 0, -393240, 11, 0, -393239, 11, 0, -393238, 11, 0, -393237, 11, 0, -393236, 11, 0, -393235, 11, 0, -393234, 11, 0, -393233, 11, 0, -393232, 11, 0, -393231, 11, 0, -393230, 11, 0, -393229, 11, 0, -393228, 11, 0, -393227, 11, 0, -393226, 11, 0, -393225, 11, 0, -393224, 11, 0, -393223, 11, 0, -393222, 11, 0, -393221, 11, 0, -393220, 11, 0, -393219, 11, 0, -393218, 11, 0, -393217, 11, 0, -458752, 11, 0, -458751, 11, 0, -458750, 11, 0, -458749, 11, 0, -458748, 11, 0, -458747, 11, 0, -458746, 11, 0, -458745, 11, 0, -458744, 11, 0, -458743, 11, 0, -458742, 1610612739, 0, -327713, 3, 0, -327712, 11, 0, -327711, 11, 0, -327710, 11, 0, -327709, 11, 0, -327708, 11, 0, -327707, 11, 0, -327706, 11, 0, -327705, 11, 0, -327704, 11, 0, -327703, 11, 0, -327702, 11, 0, -327701, 11, 0, -327700, 11, 0, -327699, 11, 0, -327698, 11, 0, -327697, 11, 0, -327696, 11, 0, -327695, 11, 0, -327694, 11, 0, -327693, 11, 0, -327692, 11, 0, -327691, 11, 0, -327690, 11, 0, -327689, 11, 0, -327688, 11, 0, -327687, 11, 0, -327686, 11, 0, -327685, 11, 0, -327684, 11, 0, -327683, 11, 0, -327682, 11, 0, -327681, 11, 0, -393216, 11, 0, -393215, 11, 0, -393214, 11, 0, -393213, 11, 0, -393212, 11, 0, -393211, 11, 0, -393210, 11, 0, -393209, 11, 0, -393208, 11, 0, -393207, 11, 0, -393206, 1610612739, 0, -262177, 3, 0, -262176, 11, 0, -262175, 11, 0, -262174, 11, 0, -262173, 11, 0, -262172, 11, 0, -262171, 11, 0, -262170, 11, 0, -262169, 11, 0, -262168, 11, 0, -262167, 11, 0, -262166, 11, 0, -262165, 11, 0, -262164, 11, 0, -262163, 11, 0, -262162, 11, 0, -262161, 11, 0, -262160, 11, 0, -262159, 11, 0, -262158, 11, 0, -262157, 11, 0, -262156, 11, 0, -262155, 11, 0, -262154, 11, 0, -262153, 11, 0, -262152, 11, 0, -262151, 11, 0, -262150, 11, 0, -262149, 11, 0, -262148, 11, 0, -262147, 11, 0, -262146, 11, 0, -262145, 11, 0, -327680, 11, 0, -327679, 11, 0, -327678, 11, 0, -327677, 11, 0, -327676, 11, 0, -327675, 11, 0, -327674, 11, 0, -327673, 11, 0, -327672, 11, 0, -327671, 11, 0, -327670, 1610612739, 0, -196641, 3, 0, -196640, 11, 0, -196639, 11, 0, -196638, 11, 0, -196637, 11, 0, -196636, 11, 0, -196635, 11, 0, -196634, 11, 0, -196633, 11, 0, -196632, 11, 0, -196631, 11, 0, -196630, 11, 0, -196629, 11, 0, -196628, 11, 0, -196627, 11, 0, -196626, 11, 0, -196625, 11, 0, -196624, 11, 0, -196623, 11, 0, -196622, 11, 0, -196621, 11, 0, -196620, 11, 0, -196619, 11, 0, -196618, 11, 0, -196617, 11, 0, -196616, 11, 0, -196615, 11, 0, -196614, 11, 0, -196613, 11, 0, -196612, 11, 0, -196611, 11, 0, -196610, 11, 0, -196609, 11, 0, -262144, 11, 0, -262143, 11, 0, -262142, 11, 0, -262141, 11, 0, -262140, 11, 0, -262139, 11, 0, -262138, 11, 0, -262137, 11, 0, -262136, 11, 0, -262135, 11, 0, -262134, 1610612738, 0, -131105, 3, 0, -131104, 11, 0, -131103, 11, 0, -131102, 11, 0, -131101, 11, 0, -131100, 11, 0, -131099, 11, 0, -131098, 11, 0, -131097, 11, 0, -131096, 11, 0, -131095, 11, 0, -131094, 11, 0, -131093, 11, 0, -131092, 11, 0, -131091, 11, 0, -131090, 11, 0, -131089, 11, 0, -131088, 11, 0, -131087, 11, 0, -131086, 11, 0, -131085, 11, 0, -131084, 11, 0, -131083, 11, 0, -131082, 11, 0, -131081, 11, 0, -131080, 11, 0, -131079, 11, 0, -131078, 11, 0, -131077, 11, 0, -131076, 11, 0, -131075, 11, 0, -131074, 11, 0, -131073, 11, 0, -196608, 11, 0, -196607, 11, 0, -196606, 11, 0, -196605, 11, 0, -196604, 11, 0, -196603, 11, 0, -196602, 11, 0, -196601, 11, 0, -196600, 11, 0, -196599, 11, 0, -196598, 11, 0, -65569, 3, 0, -65568, 11, 0, -65567, 11, 0, -65566, 11, 0, -65565, 11, 0, -65564, 11, 0, -65563, 11, 0, -65562, 11, 0, -65561, 11, 0, -65560, 11, 0, -65559, 11, 0, -65558, 11, 0, -65557, 11, 0, -65556, 11, 0, -65555, 11, 0, -65554, 11, 0, -65553, 11, 0, -65552, 11, 0, -65551, 11, 0, -65550, 11, 0, -65549, 11, 0, -65548, 11, 0, -65547, 11, 0, -65546, 11, 0, -65545, 11, 0, -65544, 11, 0, -65543, 11, 0, -65542, 11, 0, -65541, 11, 0, -65540, 11, 0, -65539, 11, 0, -65538, 11, 0, -65537, 11, 0, -131072, 11, 0, -131071, 11, 0, -131070, 11, 0, -131069, 11, 0, -131068, 11, 0, -131067, 11, 0, -131066, 11, 0, -131065, 11, 0, -131064, 11, 0, -131063, 11, 0, -131062, 11, 0, -33, 3, 0, -32, 11, 0, -31, 11, 0, -30, 11, 0, -29, 11, 0, -28, 11, 0, -27, 11, 0, -26, 11, 0, -25, 11, 0, -24, 11, 0, -23, 11, 0, -22, 11, 0, -21, 11, 0, -20, 11, 0, -19, 11, 0, -18, 11, 0, -17, 11, 0, -16, 11, 0, -15, 11, 0, -14, 11, 0, -13, 11, 0, -12, 11, 0, -11, 11, 0, -10, 11, 0, -9, 11, 0, -8, 11, 0, -7, 11, 0, -6, 11, 0, -5, 11, 0, -4, 11, 0, -3, 11, 0, -2, 11, 0, -1, 11, 0, -65536, 11, 0, -65535, 11, 0, -65534, 11, 0, -65533, 11, 0, -65532, 11, 0, -65531, 11, 0, -65530, 11, 0, -65529, 11, 0, -65528, 11, 0, -65527, 11, 0, -65526, 11, 0, 65503, 3, 0, 65504, 11, 0, 65505, 11, 0, 65506, 11, 0, 65507, 11, 0, 65508, 11, 0, 65509, 11, 0, 65510, 11, 0, 65511, 11, 0, 65512, 11, 0, 65513, 11, 0, 65514, 11, 0, 65515, 11, 0, 65516, 11, 0, 65517, 11, 0, 65518, 11, 0, 65519, 11, 0, 65520, 11, 0, 65521, 11, 0, 65522, 11, 0, 65523, 11, 0, 65524, 11, 0, 65525, 11, 0, 65526, 11, 0, 65527, 11, 0, 65528, 11, 0, 65529, 11, 0, 65530, 11, 0, 65531, 11, 0, 65532, 11, 0, 65533, 11, 0, 65534, 11, 0, 65535, 11, 0, 0, 11, 0, 1, 11, 0, 2, 11, 0, 3, 11, 0, 4, 11, 0, 5, 11, 0, 6, 11, 0, 7, 11, 0, 8, 11, 0, 9, 11, 0, 10, 11, 0, 131039, 3, 0, 131040, 11, 0, 131041, 11, 0, 131042, 11, 0, 131043, 11, 0, 131044, 11, 0, 131045, 11, 0, 131046, 11, 0, 131047, 11, 0, 131048, 11, 0, 131049, 11, 0, 131050, 11, 0, 131051, 11, 0, 131052, 11, 0, 131053, 11, 0, 131054, 11, 0, 131055, 11, 0, 131056, 11, 0, 131057, 11, 0, 131058, 11, 0, 131059, 11, 0, 131060, 11, 0, 131061, 11, 0, 131062, 11, 0, 131063, 11, 0, 131064, 11, 0, 131065, 11, 0, 131066, 11, 0, 131067, 11, 0, 131068, 11, 0, 131069, 11, 0, 131070, 11, 0, 131071, 11, 0, 65536, 11, 0, 65537, 11, 0, 65538, 11, 0, 65539, 11, 0, 65540, 11, 0, 65541, 11, 0, 65542, 11, 0, 65543, 11, 0, 65544, 11, 0, 65545, 11, 0, 65546, 11, 0, 196575, 1, 0, 196576, 0, 0, 196577, 0, 0, 196578, 0, 0, 196579, 0, 0, 196580, 0, 0, 196581, 2, 0, 196582, 11, 0, 196583, 11, 0, 196584, 11, 0, 196585, 11, 0, 196586, 11, 0, 196587, 11, 0, 196588, 11, 0, 196589, 11, 0, 196590, 11, 0, 196591, 11, 0, 196592, 11, 0, 196593, 1, 0, 196594, 0, 0, 196595, 0, 0, 196596, 0, 0, 196597, 0, 0, 196598, 0, 0, 196599, 0, 0, 196600, 0, 0, 196601, 0, 0, 196602, 0, 0, 196603, 0, 0, 196604, 0, 0, 196605, 0, 0, 196606, 0, 0, 196607, 0, 0, 131072, 0, 0, 131073, 0, 0, 131074, 0, 0, 131075, 0, 0, 131076, 0, 0, 131077, 0, 0, 131078, 0, 0, 131079, 0, 0, 131080, 0, 0, 131081, 0, 0, 131082, 2, 0, 262111, 536870915, 0, 262112, 12, 0, 262113, 12, 0, 262114, 12, 0, 262115, 12, 0, 262116, 12, 0, 262117, 3, 0, 262118, 11, 0, 262119, 11, 0, 262120, 11, 0, 262121, 11, 0, 262122, 11, 0, 262123, 11, 0, 262124, 11, 0, 262125, 11, 0, 262126, 11, 0, 262127, 11, 0, 262128, 11, 0, 262129, 536870915, 0, 262130, 12, 0, 262131, 12, 0, 262132, 12, 0, 262133, 12, 0, 262134, 12, 0, 262135, 12, 0, 262136, 12, 0, 262137, 12, 0, 262138, 12, 0, 262139, 12, 0, 262140, 12, 0, 262141, 12, 0, 262142, 12, 0, 262143, 12, 0, 196608, 12, 0, 196609, 12, 0, 196610, 12, 0, 196611, 12, 0, 196612, 12, 0, 196613, 12, 0, 196614, 12, 0, 196615, 12, 0, 196616, 12, 0, 196617, 12, 0, 196618, 3, 0, 327647, 536870915, 0, 327648, 12, 0, 327649, 12, 0, 327650, 12, 0, 327651, 12, 0, 327652, 12, 0, 327653, 3, 0, 327654, 11, 0, 327655, 11, 0, 327656, 11, 0, 327657, 11, 0, 327658, 11, 0, 327659, 11, 0, 327660, 11, 0, 327661, 11, 0, 327662, 11, 0, 327663, 11, 0, 327664, 11, 0, 327665, 536870915, 0, 327666, 12, 0, 327667, 12, 0, 327668, 12, 0, 327669, 12, 0, 327670, 12, 0, 327671, 12, 0, 327672, 12, 0, 327673, 12, 0, 327674, 12, 0, 327675, 12, 0, 327676, 12, 0, 327677, 12, 0, 327678, 12, 0, 327679, 12, 0, 262144, 12, 0, 262145, 12, 0, 262146, 12, 0, 262147, 12, 0, 262148, 12, 0, 262149, 12, 0, 262150, 12, 0, 262151, 12, 0, 262152, 12, 0, 262153, 12, 0, 262154, 3, 0 )

[node name="DecoGroup" type="Node2D" parent="tilemap"]

[node name="TileMap" type="TileMap" parent="tilemap/DecoGroup"]
tile_set = ExtResource( 1 )
cell_size = Vector2( 32, 32 )
compatibility_mode = true
format = 1
tile_data = PoolIntArray( -983070, 15, 0, -983059, 15, 0, -983043, 14, 0, -1048567, 14, 0, -655374, 18, 0, -524319, 21, 0, -524310, 21, 0, -524297, 20, 0, -524290, 19, 0, 0, 65536, 0, 131064, 17, 0 )

[node name="One-WayPlatformGroup" type="Node2D" parent="tilemap"]

[node name="One-WayPlatform" parent="tilemap/One-WayPlatformGroup" instance=ExtResource( 2 )]
position = Vector2( 160, -304 )

[node name="Sprite" parent="tilemap/One-WayPlatformGroup/One-WayPlatform/KinematicBody2D" index="0"]
region_enabled = true
region_rect = Rect2( 0, 0, 320, 32 )

[node name="oneway" parent="tilemap/One-WayPlatformGroup/One-WayPlatform/KinematicBody2D" index="1"]
scale = Vector2( 10, 1 )

[node name="TorchGroup" type="Node2D" parent="tilemap"]

[node name="torch" parent="tilemap/TorchGroup" instance=ExtResource( 3 )]
position = Vector2( 192, -64 )

[node name="torch4" parent="tilemap/TorchGroup" instance=ExtResource( 3 )]
position = Vector2( 192, -416 )

[node name="torch2" parent="tilemap/TorchGroup" instance=ExtResource( 3 )]
position = Vector2( -416, -64 )

[node name="torch3" parent="tilemap/TorchGroup" instance=ExtResource( 3 )]
position = Vector2( -896, -64 )

[node name="HangableGroup" type="Node2D" parent="tilemap"]

[node name="HangBlock" parent="tilemap/HangableGroup" instance=ExtResource( 4 )]
position = Vector2( 176, -272 )

[node name="HangBlock1" parent="tilemap/HangableGroup" instance=ExtResource( 4 )]
position = Vector2( 208, -272 )

[node name="HangBlock2" parent="tilemap/HangableGroup" instance=ExtResource( 4 )]
position = Vector2( 240, -272 )

[node name="HangBlock3" parent="tilemap/HangableGroup" instance=ExtResource( 4 )]
position = Vector2( 272, -272 )

[node name="HangBlock8" parent="tilemap/HangableGroup" instance=ExtResource( 4 )]
position = Vector2( 304, -272 )

[node name="Sprite" parent="tilemap/HangableGroup/HangBlock8" index="0"]
texture = ExtResource( 5 )
flip_h = true

[node name="HangBlock9" parent="tilemap/HangableGroup" instance=ExtResource( 4 )]
position = Vector2( 16, -272 )

[node name="Sprite" parent="tilemap/HangableGroup/HangBlock9" index="0"]
texture = ExtResource( 5 )

[node name="HangBlock4" parent="tilemap/HangableGroup" instance=ExtResource( 4 )]
position = Vector2( 144, -272 )

[node name="HangBlock5" parent="tilemap/HangableGroup" instance=ExtResource( 4 )]
position = Vector2( 112, -272 )

[node name="HangBlock6" parent="tilemap/HangableGroup" instance=ExtResource( 4 )]
position = Vector2( 80, -272 )

[node name="HangBlock7" parent="tilemap/HangableGroup" instance=ExtResource( 4 )]
position = Vector2( 48, -272 )

[node name="LadderGroup" type="Node2D" parent="tilemap"]

[node name="TestLadder" parent="tilemap/LadderGroup" instance=ExtResource( 6 )]
position = Vector2( -304, -448 )

[node name="Sprite" parent="tilemap/LadderGroup/TestLadder/KinematicBody2D" index="0"]
region_rect = Rect2( 0, 0, 32, 256 )

[node name="ladder" parent="tilemap/LadderGroup/TestLadder/KinematicBody2D" index="1"]
scale = Vector2( 1, 8 )

[node name="SwitchGroup" type="Node2D" parent="tilemap"]

[node name="FloorSwitch" parent="tilemap/SwitchGroup" instance=ExtResource( 7 )]
position = Vector2( -304, 64 )
target_nodes = [ "HangableGroup/HangBlock", "HangableGroup/HangBlock1", "HangableGroup/HangBlock2", "HangableGroup/HangBlock3", "HangableGroup/HangBlock4", "HangableGroup/HangBlock5", "HangableGroup/HangBlock6", "HangableGroup/HangBlock7", "HangableGroup/HangBlock8", "HangableGroup/HangBlock9" ]
is_toggle = true

[node name="EnemiesGroup" type="Node2D" parent="tilemap"]

[node name="Zombie" parent="tilemap/EnemiesGroup" instance=ExtResource( 8 )]
position = Vector2( -272, 0 )

[node name="TeleportGroup" type="Node2D" parent="tilemap"]

[node name="Teleport" parent="tilemap/TeleportGroup" instance=ExtResource( 9 )]
position = Vector2( 368, -16 )
target_level = "res://levels/icecave/0-2.tscn"
teleport_to = Vector2( -301, -1424 )

[node name="teleport" parent="tilemap/TeleportGroup/Teleport" index="0"]
scale = Vector2( 1, 5 )

[node name="Teleport2" parent="tilemap/TeleportGroup" instance=ExtResource( 9 )]
position = Vector2( -304, -592 )
is_horizontal = false
target_level = "res://levels/icecave/0-4.tscn"
teleport_to = Vector2( 16, -320 )

[node name="teleport" parent="tilemap/TeleportGroup/Teleport2" index="0"]
scale = Vector2( 3, 1 )

[node name="Teleport1" parent="tilemap/TeleportGroup" instance=ExtResource( 9 )]
position = Vector2( -656, 176 )
is_horizontal = false
target_level = "res://levels/icecave/1-0.tscn"
teleport_to = Vector2( 48, -656 )

[node name="teleport" parent="tilemap/TeleportGroup/Teleport1" index="0"]
scale = Vector2( 11, 1 )

[node name="boundaries" type="Node2D" parent="tilemap"]

[node name="NW" type="Position2D" parent="tilemap/boundaries"]
position = Vector2( -1062, -582 )

[node name="SE" type="Position2D" parent="tilemap/boundaries"]
position = Vector2( 362, 170 )

[editable path="tilemap/One-WayPlatformGroup/One-WayPlatform"]

[editable path="tilemap/HangableGroup/HangBlock8"]

[editable path="tilemap/HangableGroup/HangBlock9"]

[editable path="tilemap/LadderGroup/TestLadder"]

[editable path="tilemap/TeleportGroup/Teleport"]

[editable path="tilemap/TeleportGroup/Teleport2"]

[editable path="tilemap/TeleportGroup/Teleport1"]
