[gd_scene load_steps=2 format=2]

[ext_resource path="res://tools/map/tool.gd" type="Script" id=1]

[node name="MapTool" type="Control"]
margin_right = 40.0
margin_bottom = 40.0
size_flags_horizontal = 2
size_flags_vertical = 2
script = ExtResource( 1 )

[node name="statistics" type="ScrollContainer" parent="."]
margin_right = 800.0
margin_bottom = 592.0
size_flags_horizontal = 2
size_flags_vertical = 2

[node name="container" type="VBoxContainer" parent="statistics"]
margin_right = 600.0
rect_min_size = Vector2( 600, 0 )
size_flags_horizontal = 2
size_flags_vertical = 2
alignment = 1
