[gd_scene load_steps=9 format=2]

[ext_resource path="res://scenes/common/fluid/lava.gd" type="Script" id=1]
[ext_resource path="res://scenes/common/fluid/lava.png" type="Texture" id=2]
[ext_resource path="res://scenes/common/sunbeam-glow.png" type="Texture" id=3]

[sub_resource type="Shader" id=1]
code = "shader_type canvas_item;
render_mode blend_add;

uniform vec4 modulate:hint_color;

void fragment() {
COLOR = modulate;
}"

[sub_resource type="ShaderMaterial" id=2]
shader = SubResource( 1 )
shader_param/modulate = Color( 1, 0.188235, 0, 0.678431 )

[sub_resource type="ImageTexture" id=3]
flags = 2
flags = 2
size = Vector2( 32, 32 )

[sub_resource type="Animation" id=6]
resource_name = "idle"
length = 0.7
loop = true
tracks/0/type = "method"
tracks/0/path = NodePath(".")
tracks/0/interp = 1
tracks/0/loop_wrap = true
tracks/0/imported = false
tracks/0/enabled = true
tracks/0/keys = {
"times": PoolRealArray( 0, 0.1, 0.2, 0.3, 0.4, 0.5, 0.6 ),
"transitions": PoolRealArray( 1, 1, 1, 1, 1, 1, 1 ),
"values": [ {
"args": [ 0 ],
"method": "frame"
}, {
"args": [ 1 ],
"method": "frame"
}, {
"args": [ 2 ],
"method": "frame"
}, {
"args": [ 3 ],
"method": "frame"
}, {
"args": [ 4 ],
"method": "frame"
}, {
"args": [ 5 ],
"method": "frame"
}, {
"args": [ 6 ],
"method": "frame"
} ]
}

[sub_resource type="RectangleShape2D" id=5]
extents = Vector2( 16, 16 )

[node name="LavaSurface" type="Node2D"]
script = ExtResource( 1 )
__meta__ = {
"__editor_plugin_screen__": "2D"
}

[node name="Sprite" type="Sprite" parent="."]
material = SubResource( 2 )
z_index = 2
texture = SubResource( 3 )

[node name="Sprite2" type="Sprite" parent="."]
position = Vector2( 0, -16 )
z_index = 2
texture = ExtResource( 2 )
region_enabled = true
region_rect = Rect2( 0, 64, 32, 64 )

[node name="block" type="Light2D" parent="."]
texture = ExtResource( 3 )

[node name="AnimationPlayer" type="AnimationPlayer" parent="."]
autoplay = "idle"
anims/idle = SubResource( 6 )

[node name="lava" type="Area2D" parent="."]

[node name="lava" type="CollisionShape2D" parent="lava"]
shape = SubResource( 5 )
