[gd_scene load_steps=6 format=2]

[sub_resource type="Gradient" id=1]
offsets = PoolRealArray( 0.00568182, 1 )
colors = PoolColorArray( 0.721569, 0.823529, 0.921569, 0.545098, 1, 0.981266, 0.866667, 0.196078 )

[sub_resource type="GradientTexture" id=2]
gradient = SubResource( 1 )

[sub_resource type="Curve" id=3]
_data = [ Vector2( 0, 0 ), 0.0, 0.0, 0, 0, Vector2( 1, 1 ), 0.0, 0.0, 0, 0 ]

[sub_resource type="CurveTexture" id=4]
curve = SubResource( 3 )

[sub_resource type="ParticlesMaterial" id=5]
trail_size_modifier = SubResource( 4 )
emission_shape = 2
emission_box_extents = Vector3( 32, 2, 1 )
flag_disable_z = true
spread = 180.0
flatness = 1.0
gravity = Vector3( 0, -98, 0 )
initial_velocity = 18.7
initial_velocity_random = 1.0
angular_velocity_random = 1.0
orbit_velocity = 0.0
orbit_velocity_random = 0.0
linear_accel_random = 1.0
radial_accel = 100.0
radial_accel_random = 1.0
damping_random = 1.0
angle_random = 1.0
scale = 3.0
scale_random = 1.0
color_ramp = SubResource( 2 )

[node name="Node2D" type="Node2D"]

[node name="Particles2D" type="Particles2D" parent="."]
emitting = false
amount = 128
one_shot = true
speed_scale = 4.0
explosiveness = 0.69
randomness = 1.0
process_material = SubResource( 5 )
