[gd_scene load_steps=8 format=2]

[ext_resource path="res://scenes/dungeon/debugtiles.tres" type="TileSet" id=1]
[ext_resource path="res://scenes/dungeon/deco.tres" type="TileSet" id=2]
[ext_resource path="res://scenes/dungeon/climbableblock.tscn" type="PackedScene" id=3]
[ext_resource path="res://scenes/common/breakables/torch.tscn" type="PackedScene" id=4]
[ext_resource path="res://scenes/dungeon/ladder/ladder.tscn" type="PackedScene" id=5]
[ext_resource path="res://scenes/dungeon/ladder/laddertop.tscn" type="PackedScene" id=6]
[ext_resource path="res://scenes/common/teleport.tscn" type="PackedScene" id=7]

[node name="LVL_DUNGEON" type="Node2D"]
__meta__ = {
"__editor_plugin_screen__": "2D"
}

[node name="tilemap" type="TileMap" parent="."]
tile_set = ExtResource( 1 )
cell_size = Vector2( 32, 32 )
compatibility_mode = true
collision_layer = 524288
format = 1
tile_data = PoolIntArray( -1441809, 1610612749, 0, -1441808, 1073741862, 0, -1441807, 1073741862, 0, -1441806, 1073741862, 0, -1441805, 1073741862, 0, -1441804, 1073741862, 0, -1441803, 1073741862, 0, -1441802, 1073741862, 0, -1441801, 1073741862, 0, -1441800, 1073741862, 0, -1441799, 1073741862, 0, -1441798, 1073741862, 0, -1441797, 1073741862, 0, -1441796, 1073741862, 0, -1441795, 1073741862, 0, -1441794, 1073741862, 0, -1441793, 1073741862, 0, -1507328, 1073741862, 0, -1507327, 1073741862, 0, -1507326, 1073741862, 0, -1507325, 1073741862, 0, -1507324, 1073741862, 0, -1507323, 1073741862, 0, -1507322, 1073741862, 0, -1507321, 1073741862, 0, -1507320, 1073741862, 0, -1507319, 1073741862, 0, -1507318, 1073741862, 0, -1507317, 1073741862, 0, -1507316, 1073741862, 0, -1507315, 1073741862, 0, -1507314, 1073741862, 0, -1507313, 1073741862, 0, -1507312, 1073741862, 0, -1507311, 1073741862, 0, -1507310, 1073741862, 0, -1507309, 1073741837, 0, -1376273, 1073741838, 0, -1376272, 30, 0, -1376271, 30, 0, -1376270, 30, 0, -1376269, 30, 0, -1376268, 30, 0, -1376267, 30, 0, -1376266, 30, 0, -1376265, 30, 0, -1376264, 30, 0, -1376263, 30, 0, -1376262, 30, 0, -1376261, 30, 0, -1376260, 30, 0, -1376259, 30, 0, -1376258, 30, 0, -1376257, 30, 0, -1441792, 30, 0, -1441791, 30, 0, -1441790, 30, 0, -1441789, 30, 0, -1441788, 30, 0, -1441787, 30, 0, -1441786, 30, 0, -1441785, 30, 0, -1441784, 30, 0, -1441783, 30, 0, -1441782, 30, 0, -1441781, 30, 0, -1441780, 30, 0, -1441779, 30, 0, -1441778, 30, 0, -1441777, 30, 0, -1441776, 30, 0, -1441775, 30, 0, -1441774, 30, 0, -1441773, 1073741838, 0, -1310737, 1073741838, 0, -1310736, 30, 0, -1310735, 30, 0, -1310734, 30, 0, -1310733, 30, 0, -1310732, 30, 0, -1310731, 30, 0, -1310730, 30, 0, -1310729, 30, 0, -1310728, 30, 0, -1310727, 30, 0, -1310726, 30, 0, -1310725, 30, 0, -1310724, 30, 0, -1310723, 30, 0, -1310722, 30, 0, -1310721, 30, 0, -1376256, 30, 0, -1376255, 30, 0, -1376254, 30, 0, -1376253, 30, 0, -1376252, 30, 0, -1376251, 30, 0, -1376250, 30, 0, -1376249, 30, 0, -1376248, 30, 0, -1376247, 30, 0, -1376246, 30, 0, -1376245, 30, 0, -1376244, 30, 0, -1376243, 30, 0, -1376242, 30, 0, -1376241, 30, 0, -1376240, 30, 0, -1376239, 30, 0, -1376238, 30, 0, -1376237, 1073741838, 0, -1245201, 1073741837, 0, -1245200, 30, 0, -1245199, 30, 0, -1245198, 30, 0, -1245197, 30, 0, -1245196, 30, 0, -1245195, 30, 0, -1245194, 30, 0, -1245193, 30, 0, -1245192, 30, 0, -1245191, 30, 0, -1245190, 30, 0, -1245189, 30, 0, -1245188, 30, 0, -1245187, 30, 0, -1245186, 30, 0, -1245185, 30, 0, -1310720, 30, 0, -1310719, 30, 0, -1310718, 30, 0, -1310717, 30, 0, -1310716, 30, 0, -1310715, 30, 0, -1310714, 30, 0, -1310713, 30, 0, -1310712, 30, 0, -1310711, 30, 0, -1310710, 30, 0, -1310709, 30, 0, -1310708, 30, 0, -1310707, 30, 0, -1310706, 30, 0, -1310705, 30, 0, -1310704, 30, 0, -1310703, 30, 0, -1310702, 30, 0, -1310701, 1073741838, 0, -1179665, 30, 0, -1179664, 30, 0, -1179663, 30, 0, -1179662, 30, 0, -1179661, 30, 0, -1179660, 30, 0, -1179659, 30, 0, -1179658, 30, 0, -1179657, 30, 0, -1179656, 30, 0, -1179655, 30, 0, -1179654, 30, 0, -1179653, 30, 0, -1179652, 30, 0, -1179651, 30, 0, -1179650, 30, 0, -1179649, 30, 0, -1245184, 30, 0, -1245183, 30, 0, -1245182, 30, 0, -1245181, 30, 0, -1245180, 30, 0, -1245179, 30, 0, -1245178, 30, 0, -1245177, 30, 0, -1245176, 30, 0, -1245175, 30, 0, -1245174, 30, 0, -1245173, 30, 0, -1245172, 30, 0, -1245171, 30, 0, -1245170, 30, 0, -1245169, 30, 0, -1245168, 30, 0, -1245167, 30, 0, -1245166, 30, 0, -1245165, 1073741838, 0, -1114129, 30, 0, -1114128, 30, 0, -1114127, 30, 0, -1114126, 30, 0, -1114125, 30, 0, -1114124, 30, 0, -1114123, 30, 0, -1114122, 30, 0, -1114121, 30, 0, -1114120, 30, 0, -1114119, 30, 0, -1114118, 30, 0, -1114117, 30, 0, -1114116, 30, 0, -1114115, 30, 0, -1114114, 30, 0, -1114113, 30, 0, -1179648, 30, 0, -1179647, 30, 0, -1179646, 30, 0, -1179645, 30, 0, -1179644, 30, 0, -1179643, 30, 0, -1179642, 30, 0, -1179641, 30, 0, -1179640, 30, 0, -1179639, 30, 0, -1179638, 30, 0, -1179637, 30, 0, -1179636, 30, 0, -1179635, 30, 0, -1179634, 30, 0, -1179633, 30, 0, -1179632, 30, 0, -1179631, 30, 0, -1179630, 30, 0, -1179629, 1073741838, 0, -1048593, 1073741854, 0, -1048592, 30, 0, -1048591, 1073741854, 0, -1048590, 30, 0, -1048589, 30, 0, -1048588, 30, 0, -1048587, 30, 0, -1048586, 30, 0, -1048585, 30, 0, -1048584, 30, 0, -1048583, 30, 0, -1048582, 30, 0, -1048581, 30, 0, -1048580, 30, 0, -1048579, 30, 0, -1048578, 30, 0, -1048577, 30, 0, -1114112, 30, 0, -1114111, 30, 0, -1114110, 30, 0, -1114109, 30, 0, -1114108, 30, 0, -1114107, 30, 0, -1114106, 30, 0, -1114105, 30, 0, -1114104, 30, 0, -1114103, 30, 0, -1114102, 30, 0, -1114101, 30, 0, -1114100, 30, 0, -1114099, 30, 0, -1114098, 30, 0, -1114097, 30, 0, -1114096, 30, 0, -1114095, 30, 0, -1114094, 30, 0, -1114093, 1073741838, 0, -983057, 1073741854, 0, -983056, 30, 0, -983055, 30, 0, -983054, 30, 0, -983053, 30, 0, -983052, 30, 0, -983051, 30, 0, -983050, 30, 0, -983049, 30, 0, -983048, 30, 0, -983047, 30, 0, -983046, 30, 0, -983045, 30, 0, -983044, 30, 0, -983043, 30, 0, -983042, 30, 0, -983041, 30, 0, -1048576, 30, 0, -1048575, 30, 0, -1048574, 30, 0, -1048573, 30, 0, -1048572, 30, 0, -1048571, 30, 0, -1048570, 30, 0, -1048569, 30, 0, -1048568, 30, 0, -1048567, 30, 0, -1048566, 30, 0, -1048565, 30, 0, -1048564, 30, 0, -1048563, 30, 0, -1048562, 30, 0, -1048561, 30, 0, -1048560, 30, 0, -1048559, 30, 0, -1048558, 30, 0, -1048557, 1073741838, 0, -917521, 1073741854, 0, -917520, 30, 0, -917519, 30, 0, -917518, 30, 0, -917517, 30, 0, -917516, 30, 0, -917515, 30, 0, -917514, 30, 0, -917513, 30, 0, -917512, 30, 0, -917511, 30, 0, -917510, 30, 0, -917509, 30, 0, -917508, 30, 0, -917507, 30, 0, -917506, 30, 0, -917505, 30, 0, -983040, 30, 0, -983039, 30, 0, -983038, 30, 0, -983037, 30, 0, -983036, 30, 0, -983035, 30, 0, -983034, 30, 0, -983033, 30, 0, -983032, 30, 0, -983031, 30, 0, -983030, 30, 0, -983029, 30, 0, -983028, 30, 0, -983027, 30, 0, -983026, 30, 0, -983025, 30, 0, -983024, 30, 0, -983023, 30, 0, -983022, 30, 0, -983021, 1073741838, 0, -851985, 536870925, 0, -851984, 536870970, 0, -851983, 536870970, 0, -851982, 30, 0, -851981, 30, 0, -851980, 30, 0, -851979, 30, 0, -851978, 30, 0, -851977, 30, 0, -851976, 30, 0, -851975, 30, 0, -851974, 30, 0, -851973, 30, 0, -851972, 30, 0, -851971, 30, 0, -851970, 30, 0, -851969, 30, 0, -917504, 30, 0, -917503, 30, 0, -917502, 30, 0, -917501, 30, 0, -917500, 30, 0, -917499, 30, 0, -917498, 30, 0, -917497, 30, 0, -917496, 30, 0, -917495, 30, 0, -917494, 30, 0, -917493, 30, 0, -917492, 30, 0, -917491, 30, 0, -917490, 30, 0, -917489, 30, 0, -917488, 30, 0, -917487, 30, 0, -917486, 30, 0, -917485, 1073741838, 0, -786449, 14, 0, -786448, 30, 0, -786447, 30, 0, -786446, 30, 0, -786445, 30, 0, -786444, 30, 0, -786443, 30, 0, -786442, 30, 0, -786441, 30, 0, -786440, 30, 0, -786439, 30, 0, -786438, 30, 0, -786437, 30, 0, -786436, 30, 0, -786435, 30, 0, -786434, 30, 0, -786433, 30, 0, -851968, 30, 0, -851967, 30, 0, -851966, 30, 0, -851965, 30, 0, -851964, 30, 0, -851963, 30, 0, -851962, 30, 0, -851961, 30, 0, -851960, 30, 0, -851959, 30, 0, -851958, 30, 0, -851957, 30, 0, -851956, 30, 0, -851955, 30, 0, -851954, 30, 0, -851953, 30, 0, -851952, 30, 0, -851951, 30, 0, -851950, 30, 0, -851949, 1073741838, 0, -720913, 14, 0, -720912, 30, 0, -720911, 30, 0, -720910, 30, 0, -720909, 30, 0, -720908, 30, 0, -720907, 30, 0, -720906, 30, 0, -720905, 30, 0, -720904, 30, 0, -720903, 30, 0, -720902, 30, 0, -720901, 30, 0, -720900, 30, 0, -720899, 30, 0, -720898, 30, 0, -720897, 30, 0, -786432, 30, 0, -786431, 30, 0, -786430, 30, 0, -786429, 30, 0, -786428, 30, 0, -786427, 30, 0, -786426, 30, 0, -786425, 30, 0, -786424, 30, 0, -786423, 30, 0, -786422, 30, 0, -786421, 30, 0, -786420, 30, 0, -786419, 30, 0, -786418, 30, 0, -786417, 30, 0, -786416, 30, 0, -786415, 30, 0, -786414, 30, 0, -786413, 1073741838, 0, -655377, 14, 0, -655376, 30, 0, -655375, 30, 0, -655374, 30, 0, -655373, 30, 0, -655372, 30, 0, -655371, 30, 0, -655370, 30, 0, -655369, 30, 0, -655368, 30, 0, -655367, 30, 0, -655366, 30, 0, -655365, 30, 0, -655364, 30, 0, -655363, 30, 0, -655362, 30, 0, -655361, 30, 0, -720896, 30, 0, -720895, 30, 0, -720894, 30, 0, -720893, 30, 0, -720892, 30, 0, -720891, 30, 0, -720890, 30, 0, -720889, 30, 0, -720888, 30, 0, -720887, 30, 0, -720886, 30, 0, -720885, 30, 0, -720884, 30, 0, -720883, 30, 0, -720882, 30, 0, -720881, 30, 0, -720880, 30, 0, -720879, 30, 0, -720878, 30, 0, -720877, 1073741838, 0, -589841, 14, 0, -589840, 30, 0, -589839, 30, 0, -589838, 30, 0, -589837, 30, 0, -589836, 30, 0, -589835, 30, 0, -589834, 30, 0, -589833, 30, 0, -589832, 30, 0, -589831, 30, 0, -589830, 30, 0, -589829, 30, 0, -589828, 30, 0, -589827, 30, 0, -589826, 30, 0, -589825, 30, 0, -655360, 30, 0, -655359, 30, 0, -655358, 30, 0, -655357, 30, 0, -655356, 30, 0, -655355, 30, 0, -655354, 30, 0, -655353, 30, 0, -655352, 30, 0, -655351, 30, 0, -655350, 30, 0, -655349, 30, 0, -655348, 30, 0, -655347, 30, 0, -655346, 30, 0, -655345, 30, 0, -655344, 30, 0, -655343, 30, 0, -655342, 30, 0, -655341, 1073741838, 0, -524305, 14, 0, -524304, 30, 0, -524303, 30, 0, -524302, 30, 0, -524301, 30, 0, -524300, 30, 0, -524299, 30, 0, -524298, 30, 0, -524297, 30, 0, -524296, 30, 0, -524295, 30, 0, -524294, 30, 0, -524293, 30, 0, -524292, 30, 0, -524291, 30, 0, -524290, 30, 0, -524289, 30, 0, -589824, 30, 0, -589823, 30, 0, -589822, 30, 0, -589821, 30, 0, -589820, 30, 0, -589819, 30, 0, -589818, 30, 0, -589817, 30, 0, -589816, 30, 0, -589815, 30, 0, -589814, 30, 0, -589813, 30, 0, -589812, 30, 0, -589811, 30, 0, -589810, 30, 0, -589809, 30, 0, -589808, 30, 0, -589807, 30, 0, -589806, 30, 0, -589805, 1073741838, 0, -458769, 14, 0, -458768, 30, 0, -458767, 30, 0, -458766, 30, 0, -458765, 30, 0, -458764, 30, 0, -458763, 30, 0, -458762, 30, 0, -458761, 30, 0, -458760, 30, 0, -458759, 30, 0, -458758, 30, 0, -458757, 30, 0, -458756, 30, 0, -458755, 30, 0, -458754, 30, 0, -458753, 30, 0, -524288, 30, 0, -524287, 30, 0, -524286, 30, 0, -524285, 30, 0, -524284, 30, 0, -524283, 30, 0, -524282, 30, 0, -524281, 30, 0, -524280, 30, 0, -524279, 30, 0, -524278, 30, 0, -524277, 30, 0, -524276, 30, 0, -524275, 30, 0, -524274, 30, 0, -524273, 30, 0, -524272, 30, 0, -524271, 30, 0, -524270, 30, 0, -524269, 1073741838, 0, -393233, 14, 0, -393232, 30, 0, -393231, 30, 0, -393230, 30, 0, -393229, 30, 0, -393228, 30, 0, -393227, 30, 0, -393226, 30, 0, -393225, 30, 0, -393224, 30, 0, -393223, 30, 0, -393222, 30, 0, -393221, 30, 0, -393220, 30, 0, -393219, 30, 0, -393218, 30, 0, -393217, 30, 0, -458752, 30, 0, -458751, 30, 0, -458750, 30, 0, -458749, 30, 0, -458748, 30, 0, -458747, 30, 0, -458746, 30, 0, -458745, 30, 0, -458744, 30, 0, -458743, 30, 0, -458742, 30, 0, -458741, 30, 0, -458740, 30, 0, -458739, 30, 0, -458738, 30, 0, -458737, 30, 0, -458736, 30, 0, -458735, 30, 0, -458734, 30, 0, -458733, 1073741838, 0, -327697, 14, 0, -327696, 30, 0, -327695, 30, 0, -327694, 30, 0, -327693, 30, 0, -327692, 30, 0, -327691, 30, 0, -327690, 30, 0, -327689, 30, 0, -327688, 30, 0, -327687, 30, 0, -327686, 30, 0, -327685, 30, 0, -327684, 30, 0, -327683, 30, 0, -327682, 30, 0, -327681, 30, 0, -393216, 30, 0, -393215, 30, 0, -393214, 30, 0, -393213, 30, 0, -393212, 30, 0, -393211, 30, 0, -393210, 30, 0, -393209, 30, 0, -393208, 30, 0, -393207, 30, 0, -393206, 30, 0, -393205, 30, 0, -393204, 30, 0, -393203, 30, 0, -393202, 30, 0, -393201, 30, 0, -393200, 30, 0, -393199, 30, 0, -393198, 30, 0, -393197, 1610612749, 0, -262161, 14, 0, -262160, 30, 0, -262159, 30, 0, -262158, 30, 0, -262157, 30, 0, -262156, 30, 0, -262155, 30, 0, -262154, 30, 0, -262153, 30, 0, -262152, 30, 0, -262151, 30, 0, -262150, 30, 0, -262149, 30, 0, -262148, 30, 0, -262147, 30, 0, -262146, 30, 0, -262145, 30, 0, -327680, 30, 0, -327679, 30, 0, -327678, 30, 0, -327677, 30, 0, -327676, 30, 0, -327675, 30, 0, -327674, 30, 0, -327673, 30, 0, -327672, 30, 0, -327671, 30, 0, -327670, 30, 0, -327669, 30, 0, -327668, 30, 0, -327667, 30, 0, -327666, 30, 0, -327665, 30, 0, -327664, 30, 0, -327663, 30, 0, -327662, 30, 0, -327661, 30, 0, -196625, 14, 0, -196624, 30, 0, -196623, 30, 0, -196622, 30, 0, -196621, 30, 0, -196620, 30, 0, -196619, 30, 0, -196618, 30, 0, -196617, 30, 0, -196616, 30, 0, -196615, 30, 0, -196614, 30, 0, -196613, 30, 0, -196612, 30, 0, -196611, 30, 0, -196610, 30, 0, -196609, 30, 0, -262144, 30, 0, -262143, 30, 0, -262142, 30, 0, -262141, 30, 0, -262140, 30, 0, -262139, 30, 0, -262138, 30, 0, -262137, 30, 0, -262136, 30, 0, -262135, 30, 0, -262134, 30, 0, -262133, 30, 0, -262132, 30, 0, -262131, 30, 0, -262130, 30, 0, -262129, 30, 0, -262128, 30, 0, -262127, 30, 0, -262126, 30, 0, -262125, 30, 0, -131089, 14, 0, -131088, 30, 0, -131087, 30, 0, -131086, 30, 0, -131085, 30, 0, -131084, 30, 0, -131083, 30, 0, -131082, 30, 0, -131081, 30, 0, -131080, 30, 0, -131079, 30, 0, -131078, 30, 0, -131077, 30, 0, -131076, 30, 0, -131075, 30, 0, -131074, 30, 0, -131073, 30, 0, -196608, 30, 0, -196607, 30, 0, -196606, 30, 0, -196605, 30, 0, -196604, 30, 0, -196603, 30, 0, -196602, 30, 0, -196601, 30, 0, -196600, 30, 0, -196599, 30, 0, -196598, 30, 0, -196597, 30, 0, -196596, 30, 0, -196595, 30, 0, -196594, 30, 0, -196593, 30, 0, -196592, 30, 0, -196591, 30, 0, -196590, 30, 0, -196589, 30, 0, -65553, 14, 0, -65552, 30, 0, -65551, 30, 0, -65550, 30, 0, -65549, 30, 0, -65548, 30, 0, -65547, 30, 0, -65546, 30, 0, -65545, 30, 0, -65544, 30, 0, -65543, 30, 0, -65542, 30, 0, -65541, 30, 0, -65540, 30, 0, -65539, 30, 0, -65538, 30, 0, -65537, 30, 0, -131072, 30, 0, -131071, 30, 0, -131070, 30, 0, -131069, 30, 0, -131068, 30, 0, -131067, 30, 0, -131066, 30, 0, -131065, 30, 0, -131064, 30, 0, -131063, 30, 0, -131062, 30, 0, -131061, 30, 0, -131060, 30, 0, -131059, 30, 0, -131058, 30, 0, -131057, 30, 0, -131056, 30, 0, -131055, 30, 0, -131054, 30, 0, -131053, 30, 0, -17, 14, 0, -16, 30, 0, -15, 30, 0, -14, 30, 0, -13, 30, 0, -12, 30, 0, -11, 30, 0, -10, 30, 0, -9, 30, 0, -8, 30, 0, -7, 30, 0, -6, 30, 0, -5, 30, 0, -4, 30, 0, -3, 30, 0, -2, 30, 0, -1, 30, 0, -65536, 30, 0, -65535, 30, 0, -65534, 30, 0, -65533, 30, 0, -65532, 30, 0, -65531, 30, 0, -65530, 30, 0, -65529, 30, 0, -65528, 30, 0, -65527, 30, 0, -65526, 30, 0, -65525, 30, 0, -65524, 30, 0, -65523, 30, 0, -65522, 30, 0, -65521, 30, 0, -65520, 30, 0, -65519, 30, 0, -65518, 30, 0, -65517, 30, 0, 65519, 536870925, 0, 65520, 38, 0, 65521, 38, 0, 65522, 38, 0, 65523, 38, 0, 65524, 38, 0, 65525, 38, 0, 65526, 38, 0, 65527, 38, 0, 65528, 38, 0, 65529, 38, 0, 65530, 38, 0, 65531, 38, 0, 65532, 38, 0, 65533, 38, 0, 65534, 38, 0, 65535, 30, 0, 0, 30, 0, 1, 30, 0, 2, 30, 0, 3, 30, 0, 4, 38, 0, 5, 38, 0, 6, 38, 0, 7, 38, 0, 8, 38, 0, 9, 38, 0, 10, 38, 0, 11, 38, 0, 12, 38, 0, 13, 38, 0, 14, 38, 0, 15, 38, 0, 16, 38, 0, 17, 38, 0, 18, 38, 0, 19, 13, 0, 131055, 14, 0, 131056, 35, 0, 131057, 35, 0, 131058, 35, 0, 131059, 35, 0, 131060, 35, 0, 131061, 35, 0, 131062, 35, 0, 131063, 35, 0, 131064, 35, 0, 131065, 35, 0, 131066, 35, 0, 131067, 35, 0, 131068, 35, 0, 131069, 35, 0, 131070, 35, 0, 131071, 14, 0, 65536, 30, 0, 65537, 30, 0, 65538, 30, 0, 65539, 14, 0, 65540, 35, 0, 65541, 35, 0, 65542, 35, 0, 65543, 35, 0, 65544, 35, 0, 65545, 35, 0, 65546, 35, 0, 65547, 35, 0, 65548, 35, 0, 65549, 35, 0, 65550, 35, 0, 65551, 35, 0, 65552, 35, 0, 65553, 35, 0, 65554, 35, 0, 65555, 14, 0, 196591, 14, 0, 196592, 35, 0, 196593, 35, 0, 196594, 35, 0, 196595, 35, 0, 196596, 35, 0, 196597, 35, 0, 196598, 35, 0, 196599, 35, 0, 196600, 35, 0, 196601, 35, 0, 196602, 35, 0, 196603, 35, 0, 196604, 35, 0, 196605, 35, 0, 196606, 35, 0, 196607, 14, 0, 131072, 30, 0, 131073, 30, 0, 131074, 30, 0, 131075, 14, 0, 131076, 35, 0, 131077, 35, 0, 131078, 35, 0, 131079, 35, 0, 131080, 35, 0, 131081, 35, 0, 131082, 35, 0, 131083, 35, 0, 131084, 35, 0, 131085, 35, 0, 131086, 35, 0, 131087, 35, 0, 131088, 35, 0, 131089, 35, 0, 131090, 35, 0, 131091, 14, 0, 262127, 14, 0, 262128, 35, 0, 262129, 35, 0, 262130, 35, 0, 262131, 35, 0, 262132, 35, 0, 262133, 35, 0, 262134, 35, 0, 262135, 35, 0, 262136, 35, 0, 262137, 35, 0, 262138, 35, 0, 262139, 35, 0, 262140, 35, 0, 262141, 35, 0, 262142, 35, 0, 262143, 14, 0, 196608, 30, 0, 196609, 30, 0, 196610, 30, 0, 196611, 14, 0, 196612, 35, 0, 196613, 35, 0, 196614, 35, 0, 196615, 35, 0, 196616, 35, 0, 196617, 35, 0, 196618, 35, 0, 196619, 35, 0, 196620, 35, 0, 196621, 35, 0, 196622, 35, 0, 196623, 35, 0, 196624, 35, 0, 196625, 35, 0, 196626, 35, 0, 196627, 14, 0, 327663, 14, 0, 327664, 35, 0, 327665, 35, 0, 327666, 35, 0, 327667, 35, 0, 327668, 35, 0, 327669, 35, 0, 327670, 35, 0, 327671, 35, 0, 327672, 35, 0, 327673, 35, 0, 327674, 35, 0, 327675, 35, 0, 327676, 35, 0, 327677, 35, 0, 327678, 35, 0, 327679, 14, 0, 262144, 30, 0, 262145, 30, 0, 262146, 30, 0, 262147, 14, 0, 262148, 35, 0, 262149, 35, 0, 262150, 35, 0, 262151, 35, 0, 262152, 35, 0, 262153, 35, 0, 262154, 35, 0, 262155, 35, 0, 262156, 35, 0, 262157, 35, 0, 262158, 35, 0, 262159, 35, 0, 262160, 35, 0, 262161, 35, 0, 262162, 35, 0, 262163, 14, 0, 393199, 14, 0, 393200, 35, 0, 393201, 35, 0, 393202, 35, 0, 393203, 35, 0, 393204, 35, 0, 393205, 35, 0, 393206, 35, 0, 393207, 35, 0, 393208, 35, 0, 393209, 35, 0, 393210, 35, 0, 393211, 35, 0, 393212, 35, 0, 393213, 35, 0, 393214, 35, 0, 393215, 14, 0, 327680, 30, 0, 327681, 30, 0, 327682, 30, 0, 327683, 14, 0, 327684, 35, 0, 327685, 35, 0, 327686, 35, 0, 327687, 35, 0, 327688, 35, 0, 327689, 35, 0, 327690, 35, 0, 327691, 35, 0, 327692, 35, 0, 327693, 35, 0, 327694, 35, 0, 327695, 35, 0, 327696, 35, 0, 327697, 35, 0, 327698, 35, 0, 327699, 14, 0, 458735, 14, 0, 458736, 35, 0, 458737, 35, 0, 458738, 35, 0, 458739, 35, 0, 458740, 35, 0, 458741, 35, 0, 458742, 35, 0, 458743, 35, 0, 458744, 35, 0, 458745, 35, 0, 458746, 35, 0, 458747, 35, 0, 458748, 35, 0, 458749, 35, 0, 458750, 35, 0, 458751, 14, 0, 393216, 30, 0, 393217, 30, 0, 393218, 30, 0, 393219, 14, 0, 393220, 35, 0, 393221, 35, 0, 393222, 35, 0, 393223, 35, 0, 393224, 35, 0, 393225, 35, 0, 393226, 35, 0, 393227, 35, 0, 393228, 35, 0, 393229, 35, 0, 393230, 35, 0, 393231, 35, 0, 393232, 35, 0, 393233, 35, 0, 393234, 35, 0, 393235, 14, 0 )

[node name="DecoGroup" type="Node2D" parent="tilemap"]

[node name="TileMap" type="TileMap" parent="tilemap/DecoGroup"]
tile_set = ExtResource( 2 )
cell_size = Vector2( 32, 32 )
compatibility_mode = true
format = 1
tile_data = PoolIntArray( -1179647, 0, 0, -1114111, 1, 0, -1048575, 1, 0, -983039, 2, 0, -262157, 0, 0, -262153, 0, 0, -196621, 1, 0, -196617, 1, 0, -262134, 0, 0, -131085, 2, 0, -131081, 1, 0, -196598, 1, 0, -65545, 1, 0, -131062, 2, 0, -9, 2, 0 )

[node name="ClimbableGroup" type="Node2D" parent="tilemap"]

[node name="ClimbableBlock" parent="tilemap/ClimbableGroup" instance=ExtResource( 3 )]
position = Vector2( -16, 16 )

[node name="Sprite" parent="tilemap/ClimbableGroup/ClimbableBlock" index="0"]
offset = Vector2( 3, 0 )
flip_h = false

[node name="ClimbableBlock1" parent="tilemap/ClimbableGroup" instance=ExtResource( 3 )]
position = Vector2( 112, 16 )

[node name="ClimbableBlock2" parent="tilemap/ClimbableGroup" instance=ExtResource( 3 )]
position = Vector2( -432, -432 )

[node name="Sprite" parent="tilemap/ClimbableGroup/ClimbableBlock2" index="0"]
offset = Vector2( 3, 0 )
flip_h = false

[node name="TorchGroup" type="Node2D" parent="tilemap"]

[node name="torch" parent="tilemap/TorchGroup" instance=ExtResource( 4 )]
position = Vector2( -32, -128 )

[node name="torch1" parent="tilemap/TorchGroup" instance=ExtResource( 4 )]
position = Vector2( 128, -128 )

[node name="torch2" parent="tilemap/TorchGroup" instance=ExtResource( 4 )]
position = Vector2( -464, -544 )

[node name="torch3" parent="tilemap/TorchGroup" instance=ExtResource( 4 )]
position = Vector2( 496, -96 )
type = "ITEM"
reward = "res://scenes/items/gold/gold.tscn"
value = 50

[node name="LadderGroup" type="Node2D" parent="tilemap"]

[node name="TestLadder" parent="tilemap/LadderGroup" instance=ExtResource( 5 )]
position = Vector2( 48, 112 )

[node name="Sprite" parent="tilemap/LadderGroup/TestLadder/KinematicBody2D" index="0"]
region_rect = Rect2( 0, 0, 32, 224 )

[node name="ladder" parent="tilemap/LadderGroup/TestLadder/KinematicBody2D" index="1"]
scale = Vector2( 1, 7 )

[node name="TestLadder 2" parent="tilemap/LadderGroup" instance=ExtResource( 6 )]
position = Vector2( 48, -16 )

[node name="TeleportGroup" type="Node2D" parent="tilemap"]

[node name="Teleport" parent="tilemap/TeleportGroup" instance=ExtResource( 7 )]
position = Vector2( 48, 240 )
is_horizontal = false
target_level = "res://levels/common/catacombs.tscn"
teleport_to = Vector2( -16, -272 )

[node name="teleport" parent="tilemap/TeleportGroup/Teleport" index="0"]
scale = Vector2( 3, 1 )

[node name="Teleport1" parent="tilemap/TeleportGroup" instance=ExtResource( 7 )]
position = Vector2( 656, -80 )
target_level = "res://levels/dungeon/0-1.tscn"
teleport_to = Vector2( -652, -80 )

[node name="teleport" parent="tilemap/TeleportGroup/Teleport1" index="0"]
scale = Vector2( 1, 5 )

[node name="Teleport2" parent="tilemap/TeleportGroup" instance=ExtResource( 7 )]
position = Vector2( -560, -528 )
target_level = "res://levels/dungeon/0-8.tscn"
teleport_to = Vector2( 268, 80 )

[node name="teleport" parent="tilemap/TeleportGroup/Teleport2" index="0"]
scale = Vector2( 1, 5 )

[node name="boundaries" type="Node2D" parent="tilemap"]

[node name="NW" type="Position2D" parent="tilemap/boundaries"]
position = Vector2( -550, -742 )

[node name="SE" type="Position2D" parent="tilemap/boundaries"]
position = Vector2( 650, 234 )

[editable path="tilemap/ClimbableGroup/ClimbableBlock"]

[editable path="tilemap/ClimbableGroup/ClimbableBlock2"]

[editable path="tilemap/LadderGroup/TestLadder"]

[editable path="tilemap/TeleportGroup/Teleport"]

[editable path="tilemap/TeleportGroup/Teleport1"]

[editable path="tilemap/TeleportGroup/Teleport2"]
