[gd_scene load_steps=8 format=2]

[ext_resource path="res://scenes/dungeon/debugtiles.tres" type="TileSet" id=1]
[ext_resource path="res://scenes/dungeon/deco.tres" type="TileSet" id=2]
[ext_resource path="res://scenes/dungeon/climbableblock.tscn" type="PackedScene" id=3]
[ext_resource path="res://scenes/common/switches/floorswitch.tscn" type="PackedScene" id=4]
[ext_resource path="res://scenes/common/damagables/skeleton/skeleton.tscn" type="PackedScene" id=5]
[ext_resource path="res://scenes/common/sunbeam.tscn" type="PackedScene" id=6]
[ext_resource path="res://scenes/common/teleport.tscn" type="PackedScene" id=7]

[node name="LVL_NOTITLE" type="Node2D"]
__meta__ = {
"__editor_plugin_screen__": "2D"
}

[node name="tilemap" type="TileMap" parent="."]
tile_set = ExtResource( 1 )
cell_size = Vector2( 32, 32 )
compatibility_mode = true
collision_layer = 524288
format = 1
tile_data = PoolIntArray( -1114133, 1610612749, 0, -1114132, 1073741862, 0, -1114131, 1073741862, 0, -1114130, 1073741862, 0, -1114129, 1073741862, 0, -1114128, 1073741862, 0, -1114127, 1073741862, 0, -1114126, 1073741862, 0, -1114125, 1073741862, 0, -1114124, 1073741862, 0, -1114123, 1073741862, 0, -1114122, 1073741862, 0, -1114121, 1073741862, 0, -1114120, 1073741862, 0, -1114119, 1073741862, 0, -1114118, 1073741862, 0, -1114117, 1073741862, 0, -1114116, 1073741862, 0, -1114115, 1073741862, 0, -1114114, 1073741862, 0, -1114113, 1073741862, 0, -1179648, 1073741862, 0, -1179647, 1073741862, 0, -1179646, 1073741862, 0, -1179645, 1073741862, 0, -1179644, 1073741862, 0, -1179643, 1073741862, 0, -1179642, 1073741862, 0, -1179641, 1073741862, 0, -1179640, 1073741862, 0, -1179639, 1073741862, 0, -1179638, 1073741862, 0, -1179637, 1073741862, 0, -1179636, 1073741862, 0, -1179635, 1073741862, 0, -1179634, 1073741862, 0, -1179633, 1073741862, 0, -1179632, 1073741862, 0, -1179631, 1073741862, 0, -1179630, 1073741862, 0, -1179629, 1073741862, 0, -1179628, 1073741862, 0, -1179627, 1073741862, 0, -1179626, 1073741862, 0, -1179625, 1073741862, 0, -1179624, 1073741862, 0, -1179623, 1073741837, 0, -1048597, 1073741838, 0, -1048596, 30, 0, -1048595, 30, 0, -1048594, 30, 0, -1048593, 30, 0, -1048592, 30, 0, -1048591, 30, 0, -1048590, 30, 0, -1048589, 30, 0, -1048588, 30, 0, -1048587, 30, 0, -1048586, 30, 0, -1048585, 30, 0, -1048584, 30, 0, -1048583, 30, 0, -1048582, 30, 0, -1048581, 30, 0, -1048580, 30, 0, -1048579, 30, 0, -1048578, 30, 0, -1048577, 30, 0, -1114112, 30, 0, -1114111, 30, 0, -1114110, 30, 0, -1114109, 30, 0, -1114108, 30, 0, -1114107, 30, 0, -1114106, 30, 0, -1114105, 30, 0, -1114104, 30, 0, -1114103, 30, 0, -1114102, 30, 0, -1114101, 30, 0, -1114100, 30, 0, -1114099, 30, 0, -1114098, 30, 0, -1114097, 30, 0, -1114096, 30, 0, -1114095, 30, 0, -1114094, 30, 0, -1114093, 30, 0, -1114092, 30, 0, -1114091, 30, 0, -1114090, 30, 0, -1114089, 30, 0, -1114088, 30, 0, -1114087, 1073741838, 0, -983061, 1073741838, 0, -983060, 30, 0, -983059, 30, 0, -983058, 30, 0, -983057, 30, 0, -983056, 30, 0, -983055, 30, 0, -983054, 30, 0, -983053, 30, 0, -983052, 30, 0, -983051, 30, 0, -983050, 30, 0, -983049, 30, 0, -983048, 30, 0, -983047, 30, 0, -983046, 30, 0, -983045, 30, 0, -983044, 30, 0, -983043, 30, 0, -983042, 30, 0, -983041, 30, 0, -1048576, 30, 0, -1048575, 30, 0, -1048574, 30, 0, -1048573, 30, 0, -1048572, 30, 0, -1048571, 30, 0, -1048570, 30, 0, -1048569, 30, 0, -1048568, 30, 0, -1048567, 30, 0, -1048566, 30, 0, -1048565, 30, 0, -1048564, 30, 0, -1048563, 30, 0, -1048562, 30, 0, -1048561, 30, 0, -1048560, 30, 0, -1048559, 30, 0, -1048558, 30, 0, -1048557, 30, 0, -1048556, 30, 0, -1048555, 30, 0, -1048554, 30, 0, -1048553, 30, 0, -1048552, 30, 0, -1048551, 1073741838, 0, -917525, 1073741838, 0, -917524, 30, 0, -917523, 30, 0, -917522, 30, 0, -917521, 30, 0, -917520, 30, 0, -917519, 30, 0, -917518, 30, 0, -917517, 30, 0, -917516, 30, 0, -917515, 30, 0, -917514, 30, 0, -917513, 30, 0, -917512, 30, 0, -917511, 30, 0, -917510, 30, 0, -917509, 30, 0, -917508, 30, 0, -917507, 30, 0, -917506, 30, 0, -917505, 30, 0, -983040, 30, 0, -983039, 30, 0, -983038, 30, 0, -983037, 30, 0, -983036, 30, 0, -983035, 30, 0, -983034, 30, 0, -983033, 30, 0, -983032, 30, 0, -983031, 30, 0, -983030, 30, 0, -983029, 30, 0, -983028, 30, 0, -983027, 30, 0, -983026, 30, 0, -983025, 30, 0, -983024, 30, 0, -983023, 30, 0, -983022, 30, 0, -983021, 30, 0, -983020, 30, 0, -983019, 30, 0, -983018, 30, 0, -983017, 30, 0, -983016, 30, 0, -983015, 1073741838, 0, -851989, 1073741838, 0, -851988, 30, 0, -851987, 30, 0, -851986, 30, 0, -851985, 30, 0, -851984, 30, 0, -851983, 30, 0, -851982, 30, 0, -851981, 30, 0, -851980, 30, 0, -851979, 30, 0, -851978, 30, 0, -851977, 30, 0, -851976, 30, 0, -851975, 30, 0, -851974, 30, 0, -851973, 30, 0, -851972, 30, 0, -851971, 30, 0, -851970, 30, 0, -851969, 30, 0, -917504, 30, 0, -917503, 30, 0, -917502, 30, 0, -917501, 30, 0, -917500, 30, 0, -917499, 30, 0, -917498, 30, 0, -917497, 30, 0, -917496, 30, 0, -917495, 30, 0, -917494, 30, 0, -917493, 30, 0, -917492, 30, 0, -917491, 30, 0, -917490, 30, 0, -917489, 30, 0, -917488, 30, 0, -917487, 30, 0, -917486, 30, 0, -917485, 30, 0, -917484, 30, 0, -917483, 30, 0, -917482, 30, 0, -917481, 30, 0, -917480, 30, 0, -917479, 1073741838, 0, -786453, 1073741838, 0, -786452, 30, 0, -786451, 30, 0, -786450, 30, 0, -786449, 30, 0, -786448, 30, 0, -786447, 30, 0, -786446, 30, 0, -786445, 30, 0, -786444, 30, 0, -786443, 30, 0, -786442, 30, 0, -786441, 30, 0, -786440, 30, 0, -786439, 30, 0, -786438, 30, 0, -786437, 30, 0, -786436, 30, 0, -786435, 30, 0, -786434, 30, 0, -786433, 30, 0, -851968, 30, 0, -851967, 30, 0, -851966, 30, 0, -851965, 30, 0, -851964, 30, 0, -851963, 30, 0, -851962, 30, 0, -851961, 30, 0, -851960, 30, 0, -851959, 30, 0, -851958, 30, 0, -851957, 30, 0, -851956, 30, 0, -851955, 30, 0, -851954, 30, 0, -851953, 30, 0, -851952, 30, 0, -851951, 30, 0, -851950, 30, 0, -851949, 30, 0, -851948, 30, 0, -851947, 30, 0, -851946, 30, 0, -851945, 30, 0, -851944, 30, 0, -851943, 1073741838, 0, -720917, 1073741838, 0, -720916, 30, 0, -720915, 30, 0, -720914, 30, 0, -720913, 30, 0, -720912, 30, 0, -720911, 30, 0, -720910, 30, 0, -720909, 30, 0, -720908, 30, 0, -720907, 30, 0, -720906, 30, 0, -720905, 30, 0, -720904, 30, 0, -720903, 30, 0, -720902, 30, 0, -720901, 30, 0, -720900, 30, 0, -720899, 30, 0, -720898, 30, 0, -720897, 30, 0, -786432, 30, 0, -786431, 30, 0, -786430, 30, 0, -786429, 30, 0, -786428, 30, 0, -786427, 30, 0, -786426, 30, 0, -786425, 30, 0, -786424, 30, 0, -786423, 30, 0, -786422, 30, 0, -786421, 30, 0, -786420, 30, 0, -786419, 30, 0, -786418, 30, 0, -786417, 30, 0, -786416, 30, 0, -786415, 30, 0, -786414, 30, 0, -786413, 30, 0, -786412, 30, 0, -786411, 30, 0, -786410, 30, 0, -786409, 30, 0, -786408, 30, 0, -786407, 1073741838, 0, -655381, 1073741838, 0, -655380, 30, 0, -655379, 30, 0, -655378, 30, 0, -655377, 30, 0, -655376, 30, 0, -655375, 30, 0, -655374, 30, 0, -655373, 30, 0, -655372, 30, 0, -655371, 30, 0, -655370, 30, 0, -655369, 30, 0, -655368, 30, 0, -655367, 30, 0, -655366, 30, 0, -655365, 30, 0, -655364, 30, 0, -655363, 30, 0, -655362, 30, 0, -655361, 30, 0, -720896, 30, 0, -720895, 30, 0, -720894, 30, 0, -720893, 30, 0, -720892, 30, 0, -720891, 30, 0, -720890, 30, 0, -720889, 30, 0, -720888, 30, 0, -720887, 30, 0, -720886, 30, 0, -720885, 30, 0, -720884, 30, 0, -720883, 30, 0, -720882, 30, 0, -720881, 30, 0, -720880, 30, 0, -720879, 30, 0, -720878, 30, 0, -720877, 30, 0, -720876, 30, 0, -720875, 30, 0, -720874, 30, 0, -720873, 30, 0, -720872, 30, 0, -720871, 1073741838, 0, -589845, 1073741838, 0, -589844, 30, 0, -589843, 30, 0, -589842, 30, 0, -589841, 30, 0, -589840, 30, 0, -589839, 30, 0, -589838, 30, 0, -589837, 30, 0, -589836, 30, 0, -589835, 30, 0, -589834, 30, 0, -589833, 30, 0, -589832, 30, 0, -589831, 30, 0, -589830, 30, 0, -589829, 30, 0, -589828, 30, 0, -589827, 30, 0, -589826, 30, 0, -589825, 30, 0, -655360, 30, 0, -655359, 30, 0, -655358, 30, 0, -655357, 30, 0, -655356, 30, 0, -655355, 30, 0, -655354, 30, 0, -655353, 30, 0, -655352, 30, 0, -655351, 30, 0, -655350, 30, 0, -655349, 30, 0, -655348, 30, 0, -655347, 30, 0, -655346, 30, 0, -655345, 30, 0, -655344, 30, 0, -655343, 30, 0, -655342, 30, 0, -655341, 30, 0, -655340, 30, 0, -655339, 30, 0, -655338, 30, 0, -655337, 30, 0, -655336, 30, 0, -655335, 1073741838, 0, -524309, 1073741838, 0, -524308, 30, 0, -524307, 30, 0, -524306, 30, 0, -524305, 30, 0, -524304, 30, 0, -524303, 30, 0, -524302, 30, 0, -524301, 30, 0, -524300, 30, 0, -524299, 30, 0, -524298, 30, 0, -524297, 30, 0, -524296, 30, 0, -524295, 30, 0, -524294, 30, 0, -524293, 30, 0, -524292, 30, 0, -524291, 30, 0, -524290, 30, 0, -524289, 30, 0, -589824, 30, 0, -589823, 30, 0, -589822, 30, 0, -589821, 30, 0, -589820, 30, 0, -589819, 30, 0, -589818, 30, 0, -589817, 30, 0, -589816, 30, 0, -589815, 30, 0, -589814, 30, 0, -589813, 30, 0, -589812, 30, 0, -589811, 30, 0, -589810, 30, 0, -589809, 30, 0, -589808, 30, 0, -589807, 30, 0, -589806, 30, 0, -589805, 30, 0, -589804, 30, 0, -589803, 30, 0, -589802, 30, 0, -589801, 30, 0, -589800, 30, 0, -589799, 1073741838, 0, -458773, 1073741838, 0, -458772, 30, 0, -458771, 30, 0, -458770, 30, 0, -458769, 30, 0, -458768, 30, 0, -458767, 30, 0, -458766, 30, 0, -458765, 30, 0, -458764, 30, 0, -458763, 30, 0, -458762, 30, 0, -458761, 30, 0, -458760, 30, 0, -458759, 30, 0, -458758, 30, 0, -458757, 30, 0, -458756, 30, 0, -458755, 30, 0, -458754, 30, 0, -458753, 30, 0, -524288, 30, 0, -524287, 30, 0, -524286, 30, 0, -524285, 30, 0, -524284, 30, 0, -524283, 536870970, 0, -524282, 536870970, 0, -524281, 536870970, 0, -524280, 536870970, 0, -524279, 536870970, 0, -524278, 536870970, 0, -524277, 536870970, 0, -524276, 536870970, 0, -524275, 536870970, 0, -524274, 536870970, 0, -524273, 536870970, 0, -524272, 536870970, 0, -524271, 536870970, 0, -524270, 536870970, 0, -524269, 536870970, 0, -524268, 536870970, 0, -524267, 536870970, 0, -524266, 536870970, 0, -524265, 536870970, 0, -524264, 536870970, 0, -524263, 13, 0, -393237, 1073741838, 0, -393236, 30, 0, -393235, 30, 0, -393234, 30, 0, -393233, 30, 0, -393232, 30, 0, -393231, 30, 0, -393230, 30, 0, -393229, 30, 0, -393228, 30, 0, -393227, 30, 0, -393226, 30, 0, -393225, 30, 0, -393224, 30, 0, -393223, 30, 0, -393222, 30, 0, -393221, 30, 0, -393220, 30, 0, -393219, 30, 0, -393218, 30, 0, -393217, 30, 0, -458752, 30, 0, -458751, 30, 0, -458750, 30, 0, -458749, 30, 0, -458748, 30, 0, -458747, 30, 0, -458746, 30, 0, -458745, 30, 0, -458744, 30, 0, -458743, 30, 0, -458742, 30, 0, -458741, 30, 0, -458740, 30, 0, -458739, 30, 0, -458738, 30, 0, -458737, 30, 0, -458736, 30, 0, -458735, 30, 0, -458734, 30, 0, -458733, 30, 0, -458732, 30, 0, -458731, 30, 0, -458730, 30, 0, -458729, 30, 0, -458728, 30, 0, -458727, 1073741838, 0, -327701, 1073741837, 0, -327700, 30, 0, -327699, 30, 0, -327698, 30, 0, -327697, 30, 0, -327696, 30, 0, -327695, 30, 0, -327694, 30, 0, -327693, 30, 0, -327692, 30, 0, -327691, 30, 0, -327690, 30, 0, -327689, 30, 0, -327688, 30, 0, -327687, 30, 0, -327686, 30, 0, -327685, 30, 0, -327684, 30, 0, -327683, 30, 0, -327682, 30, 0, -327681, 30, 0, -393216, 30, 0, -393215, 30, 0, -393214, 30, 0, -393213, 30, 0, -393212, 30, 0, -393211, 30, 0, -393210, 30, 0, -393209, 30, 0, -393208, 30, 0, -393207, 30, 0, -393206, 30, 0, -393205, 30, 0, -393204, 30, 0, -393203, 30, 0, -393202, 30, 0, -393201, 30, 0, -393200, 30, 0, -393199, 30, 0, -393198, 30, 0, -393197, 30, 0, -393196, 30, 0, -393195, 30, 0, -393194, 30, 0, -393193, 30, 0, -393192, 30, 0, -393191, 1610612749, 0, -262165, 30, 0, -262164, 30, 0, -262163, 30, 0, -262162, 30, 0, -262161, 30, 0, -262160, 30, 0, -262159, 30, 0, -262158, 30, 0, -262157, 30, 0, -262156, 30, 0, -262155, 30, 0, -262154, 30, 0, -262153, 30, 0, -262152, 30, 0, -262151, 30, 0, -262150, 30, 0, -262149, 30, 0, -262148, 30, 0, -262147, 30, 0, -262146, 30, 0, -262145, 30, 0, -327680, 30, 0, -327679, 30, 0, -327678, 30, 0, -327677, 30, 0, -327676, 30, 0, -327675, 30, 0, -327674, 30, 0, -327673, 30, 0, -327672, 30, 0, -327671, 30, 0, -327670, 30, 0, -327669, 30, 0, -327668, 30, 0, -327667, 30, 0, -327666, 30, 0, -327665, 30, 0, -327664, 30, 0, -327663, 30, 0, -327662, 30, 0, -327661, 30, 0, -327660, 30, 0, -327659, 30, 0, -327658, 30, 0, -327657, 30, 0, -327656, 30, 0, -327655, 30, 0, -196629, 30, 0, -196628, 30, 0, -196627, 30, 0, -196626, 30, 0, -196625, 30, 0, -196624, 30, 0, -196623, 30, 0, -196622, 30, 0, -196621, 30, 0, -196620, 30, 0, -196619, 30, 0, -196618, 30, 0, -196617, 30, 0, -196616, 30, 0, -196615, 30, 0, -196614, 30, 0, -196613, 30, 0, -196612, 30, 0, -196611, 30, 0, -196610, 30, 0, -196609, 30, 0, -262144, 30, 0, -262143, 30, 0, -262142, 30, 0, -262141, 30, 0, -262140, 30, 0, -262139, 30, 0, -262138, 30, 0, -262137, 30, 0, -262136, 30, 0, -262135, 30, 0, -262134, 30, 0, -262133, 30, 0, -262132, 30, 0, -262131, 30, 0, -262130, 30, 0, -262129, 30, 0, -262128, 30, 0, -262127, 30, 0, -262126, 30, 0, -262125, 30, 0, -262124, 30, 0, -262123, 30, 0, -262122, 30, 0, -262121, 30, 0, -262120, 30, 0, -262119, 30, 0, -131093, 30, 0, -131092, 30, 0, -131091, 30, 0, -131090, 30, 0, -131089, 30, 0, -131088, 30, 0, -131087, 30, 0, -131086, 30, 0, -131085, 30, 0, -131084, 30, 0, -131083, 30, 0, -131082, 30, 0, -131081, 30, 0, -131080, 30, 0, -131079, 30, 0, -131078, 30, 0, -131077, 30, 0, -131076, 30, 0, -131075, 30, 0, -131074, 30, 0, -131073, 30, 0, -196608, 30, 0, -196607, 30, 0, -196606, 30, 0, -196605, 30, 0, -196604, 30, 0, -196603, 30, 0, -196602, 30, 0, -196601, 30, 0, -196600, 30, 0, -196599, 30, 0, -196598, 30, 0, -196597, 30, 0, -196596, 30, 0, -196595, 30, 0, -196594, 30, 0, -196593, 30, 0, -196592, 30, 0, -196591, 30, 0, -196590, 30, 0, -196589, 30, 0, -196588, 30, 0, -196587, 30, 0, -196586, 30, 0, -196585, 30, 0, -196584, 30, 0, -196583, 30, 0, -65557, 30, 0, -65556, 30, 0, -65555, 30, 0, -65554, 30, 0, -65553, 30, 0, -65552, 30, 0, -65551, 30, 0, -65550, 30, 0, -65549, 30, 0, -65548, 30, 0, -65547, 30, 0, -65546, 30, 0, -65545, 30, 0, -65544, 30, 0, -65543, 30, 0, -65542, 30, 0, -65541, 30, 0, -65540, 30, 0, -65539, 30, 0, -65538, 30, 0, -65537, 30, 0, -131072, 30, 0, -131071, 30, 0, -131070, 30, 0, -131069, 30, 0, -131068, 30, 0, -131067, 30, 0, -131066, 30, 0, -131065, 30, 0, -131064, 30, 0, -131063, 30, 0, -131062, 30, 0, -131061, 30, 0, -131060, 30, 0, -131059, 30, 0, -131058, 30, 0, -131057, 30, 0, -131056, 30, 0, -131055, 30, 0, -131054, 30, 0, -131053, 30, 0, -131052, 30, 0, -131051, 30, 0, -131050, 30, 0, -131049, 30, 0, -131048, 30, 0, -131047, 30, 0, -21, 30, 0, -20, 30, 0, -19, 30, 0, -18, 30, 0, -17, 30, 0, -16, 30, 0, -15, 30, 0, -14, 30, 0, -13, 30, 0, -12, 30, 0, -11, 30, 0, -10, 30, 0, -9, 30, 0, -8, 30, 0, -7, 30, 0, -6, 30, 0, -5, 30, 0, -4, 30, 0, -3, 30, 0, -2, 30, 0, -1, 30, 0, -65536, 30, 0, -65535, 30, 0, -65534, 30, 0, -65533, 30, 0, -65532, 30, 0, -65531, 30, 0, -65530, 30, 0, -65529, 30, 0, -65528, 30, 0, -65527, 30, 0, -65526, 30, 0, -65525, 30, 0, -65524, 30, 0, -65523, 30, 0, -65522, 30, 0, -65521, 30, 0, -65520, 30, 0, -65519, 30, 0, -65518, 30, 0, -65517, 30, 0, -65516, 30, 0, -65515, 30, 0, -65514, 30, 0, -65513, 30, 0, -65512, 30, 0, -65511, 30, 0, 65515, 536870925, 0, 65516, 38, 0, 65517, 38, 0, 65518, 38, 0, 65519, 38, 0, 65520, 38, 0, 65521, 38, 0, 65522, 38, 0, 65523, 38, 0, 65524, 38, 0, 65525, 38, 0, 65526, 38, 0, 65527, 38, 0, 65528, 38, 0, 65529, 38, 0, 65530, 38, 0, 65531, 38, 0, 65532, 38, 0, 65533, 38, 0, 65534, 38, 0, 65535, 38, 0, 0, 38, 0, 1, 38, 0, 2, 38, 0, 3, 38, 0, 4, 38, 0, 5, 38, 0, 6, 38, 0, 7, 38, 0, 8, 38, 0, 9, 38, 0, 10, 38, 0, 11, 38, 0, 12, 38, 0, 13, 38, 0, 14, 38, 0, 15, 38, 0, 16, 38, 0, 17, 38, 0, 18, 38, 0, 19, 38, 0, 20, 38, 0, 21, 38, 0, 22, 38, 0, 23, 38, 0, 24, 38, 0, 25, 13, 0 )

[node name="DecoGroup" type="Node2D" parent="tilemap"]
position = Vector2( 0, -1 )

[node name="TileMap" type="TileMap" parent="tilemap/DecoGroup"]
tile_set = ExtResource( 2 )
cell_size = Vector2( 32, 32 )
compatibility_mode = true
format = 1
tile_data = PoolIntArray( -851961, 0, 0, -786425, 1, 0, -720889, 1, 0, -655353, 2, 0, -327695, 0, 0, -262159, 1, 0, -262151, 3, 0, -262150, 4, 0, -262149, 4, 0, -262148, 536870915, 0, -327675, 3, 0, -327674, 4, 0, -327673, 4, 0, -327672, 536870915, 0, -327660, 0, 0, -196623, 2, 0, -196615, 5, 0, -196614, 6, 0, -196613, 6, 0, -196612, 536870917, 0, -262144, 0, 0, -262143, 0, 0, -262139, 5, 0, -262138, 6, 0, -262137, 6, 0, -262136, 536870917, 0, -262124, 2, 0, -131079, 5, 0, -131078, 6, 0, -131077, 6, 0, -131076, 536870917, 0, -196608, 1, 0, -196607, 1, 0, -196603, 5, 0, -196602, 6, 0, -196601, 6, 0, -196600, 536870917, 0, -65543, 5, 0, -65542, 6, 0, -65541, 6, 0, -65540, 536870917, 0, -131072, 1, 0, -131071, 2, 0, -131067, 5, 0, -131066, 6, 0, -131065, 6, 0, -131064, 536870917, 0, -7, 5, 0, -6, 6, 0, -5, 6, 0, -4, 536870917, 0, -65536, 2, 0, -65531, 5, 0, -65530, 6, 0, -65529, 6, 0, -65528, 536870917, 0 )

[node name="ClimbableGroup" type="Node2D" parent="tilemap"]

[node name="ClimbableBlock" parent="tilemap/ClimbableGroup" instance=ExtResource( 3 )]
position = Vector2( 144, -240 )

[node name="SwitchGroup" type="Node2D" parent="tilemap"]

[node name="FloorSwitch" parent="tilemap/SwitchGroup" instance=ExtResource( 4 )]
position = Vector2( -464, 0 )
target_nodes = [ "SunbeamGroup/Sunbeam", "SunbeamGroup/Sunbeam1" ]

[node name="FloorSwitch1" parent="tilemap/SwitchGroup" instance=ExtResource( 4 )]
position = Vector2( 656, 0 )
target_nodes = [ "SunbeamGroup/Sunbeam", "SunbeamGroup/Sunbeam1" ]

[node name="EnemiesGroup" type="Node2D" parent="tilemap"]

[node name="Skeleton" parent="tilemap/EnemiesGroup" instance=ExtResource( 5 )]
position = Vector2( 544, -304 )

[node name="SunbeamGroup" type="Node2D" parent="tilemap"]

[node name="Sunbeam" parent="tilemap/SunbeamGroup" instance=ExtResource( 6 )]
position = Vector2( -224, -288 )

[node name="block" parent="tilemap/SunbeamGroup/Sunbeam" index="0"]
scale = Vector2( 3, 18 )

[node name="sunbeam" parent="tilemap/SunbeamGroup/Sunbeam" index="1"]
scale = Vector2( 3, 18 )

[node name="Sunbeam1" parent="tilemap/SunbeamGroup" instance=ExtResource( 6 )]
position = Vector2( 416, -288 )

[node name="block" parent="tilemap/SunbeamGroup/Sunbeam1" index="0"]
scale = Vector2( 3, 18 )

[node name="sunbeam" parent="tilemap/SunbeamGroup/Sunbeam1" index="1"]
scale = Vector2( 3, 18 )

[node name="TeleportGroup" type="Node2D" parent="tilemap"]

[node name="Teleport" parent="tilemap/TeleportGroup" instance=ExtResource( 7 )]
position = Vector2( -688, -80 )
target_level = "res://levels/dungeon/0-0.tscn"
teleport_to = Vector2( 620, -80 )

[node name="teleport" parent="tilemap/TeleportGroup/Teleport" index="0"]
scale = Vector2( 1, 5 )

[node name="Teleport1" parent="tilemap/TeleportGroup" instance=ExtResource( 7 )]
position = Vector2( 848, -80 )
target_level = "res://levels/dungeon/0-2.tscn"
teleport_to = Vector2( -332, -80 )

[node name="teleport" parent="tilemap/TeleportGroup/Teleport1" index="0"]
scale = Vector2( 1, 5 )

[node name="boundaries" type="Node2D" parent="tilemap"]

[node name="NW" type="Position2D" parent="tilemap/boundaries"]
position = Vector2( -678, -582 )

[node name="SE" type="Position2D" parent="tilemap/boundaries"]
position = Vector2( 842, 42 )

[editable path="tilemap/SunbeamGroup/Sunbeam"]

[editable path="tilemap/SunbeamGroup/Sunbeam1"]

[editable path="tilemap/TeleportGroup/Teleport"]

[editable path="tilemap/TeleportGroup/Teleport1"]
