[gd_scene load_steps=16 format=2]

[ext_resource path="res://scenes/dungeon/debugtiles.tres" type="TileSet" id=1]
[ext_resource path="res://scenes/dungeon/deco.tres" type="TileSet" id=2]
[ext_resource path="res://scenes/dungeon/slopes/slope0-15.tscn" type="PackedScene" id=3]
[ext_resource path="res://scenes/dungeon/slopes/slope16-31.tscn" type="PackedScene" id=4]
[ext_resource path="res://scenes/dungeon/slopes/slope31-16.tscn" type="PackedScene" id=5]
[ext_resource path="res://scenes/dungeon/slopes/slope15-0.tscn" type="PackedScene" id=6]
[ext_resource path="res://scenes/dungeon/slopes/slopea-b.tscn" type="PackedScene" id=7]
[ext_resource path="res://scenes/dungeon/climbableblock.tscn" type="PackedScene" id=8]
[ext_resource path="res://scenes/common/switches/floorswitch.tscn" type="PackedScene" id=9]
[ext_resource path="res://scenes/common/damagables/zombie/zombie.tscn" type="PackedScene" id=10]
[ext_resource path="res://scenes/common/sunbeam.tscn" type="PackedScene" id=11]
[ext_resource path="res://scenes/common/teleport.tscn" type="PackedScene" id=12]

[sub_resource type="Shader" id=1]
code = "shader_type canvas_item;

void fragment() {
	COLOR = mix(vec4(0, 0, 0, 0), vec4(0, 0, 0, 1), max(0, 2.0 * (UV.y - UV.x * 0.5)));
}"

[sub_resource type="ShaderMaterial" id=2]
shader = SubResource( 1 )

[sub_resource type="ImageTexture" id=3]
size = Vector2( 32, 32 )

[node name="LVL_NOTITLE" type="Node2D"]
__meta__ = {
"__editor_plugin_screen__": "2D"
}

[node name="tilemap" type="TileMap" parent="."]
tile_set = ExtResource( 1 )
cell_size = Vector2( 32, 32 )
compatibility_mode = true
collision_layer = 524288
format = 1
tile_data = PoolIntArray( -851997, 1610612749, 0, -851996, 1073741862, 0, -851995, 1073741862, 0, -851994, 1073741862, 0, -851993, 1073741862, 0, -851992, 1073741862, 0, -851991, 1073741862, 0, -851990, 1073741862, 0, -851989, 1073741862, 0, -851988, 1073741862, 0, -851987, 1073741862, 0, -851986, 1073741862, 0, -851985, 1073741862, 0, -851984, 1073741862, 0, -851983, 1073741862, 0, -851982, 1073741862, 0, -851981, 1073741862, 0, -851980, 1073741862, 0, -851979, 1073741862, 0, -851978, 1073741862, 0, -851977, 1073741862, 0, -851976, 1073741862, 0, -851975, 1073741862, 0, -851974, 1073741862, 0, -851973, 1073741862, 0, -851972, 1073741862, 0, -851971, 1073741862, 0, -851970, 1073741862, 0, -851969, 1073741862, 0, -917504, 1073741862, 0, -917503, 1073741862, 0, -917502, 1073741862, 0, -917501, 1073741862, 0, -917500, 1073741862, 0, -917499, 1073741862, 0, -917498, 1073741862, 0, -917497, 1073741862, 0, -917496, 1073741862, 0, -917495, 1073741862, 0, -917494, 1073741862, 0, -917493, 1073741862, 0, -917492, 1073741837, 0, -786461, 1073741838, 0, -786460, 30, 0, -786459, 30, 0, -786458, 30, 0, -786457, 30, 0, -786456, 30, 0, -786455, 30, 0, -786454, 30, 0, -786453, 30, 0, -786452, 30, 0, -786451, 30, 0, -786450, 30, 0, -786449, 30, 0, -786448, 30, 0, -786447, 30, 0, -786446, 30, 0, -786445, 30, 0, -786444, 30, 0, -786443, 30, 0, -786442, 30, 0, -786441, 30, 0, -786440, 30, 0, -786439, 30, 0, -786438, 30, 0, -786437, 30, 0, -786436, 30, 0, -786435, 30, 0, -786434, 30, 0, -786433, 30, 0, -851968, 30, 0, -851967, 30, 0, -851966, 30, 0, -851965, 30, 0, -851964, 30, 0, -851963, 30, 0, -851962, 30, 0, -851961, 30, 0, -851960, 30, 0, -851959, 30, 0, -851958, 30, 0, -851957, 30, 0, -851956, 1073741838, 0, -720925, 1073741838, 0, -720924, 30, 0, -720923, 30, 0, -720922, 30, 0, -720921, 30, 0, -720920, 30, 0, -720919, 30, 0, -720918, 30, 0, -720917, 30, 0, -720916, 30, 0, -720915, 30, 0, -720914, 30, 0, -720913, 30, 0, -720912, 30, 0, -720911, 30, 0, -720910, 30, 0, -720909, 30, 0, -720908, 30, 0, -720907, 30, 0, -720906, 30, 0, -720905, 30, 0, -720904, 30, 0, -720903, 30, 0, -720902, 30, 0, -720901, 30, 0, -720900, 30, 0, -720899, 30, 0, -720898, 30, 0, -720897, 30, 0, -786432, 30, 0, -786431, 30, 0, -786430, 30, 0, -786429, 30, 0, -786428, 30, 0, -786427, 30, 0, -786426, 30, 0, -786425, 30, 0, -786424, 30, 0, -786423, 30, 0, -786422, 30, 0, -786421, 30, 0, -786420, 1073741838, 0, -655389, 1073741838, 0, -655388, 30, 0, -655387, 30, 0, -655386, 30, 0, -655385, 30, 0, -655384, 30, 0, -655383, 30, 0, -655382, 30, 0, -655381, 30, 0, -655380, 30, 0, -655379, 30, 0, -655378, 30, 0, -655377, 30, 0, -655376, 30, 0, -655375, 30, 0, -655374, 30, 0, -655373, 30, 0, -655372, 30, 0, -655371, 30, 0, -655370, 30, 0, -655369, 30, 0, -655368, 30, 0, -655367, 30, 0, -655366, 30, 0, -655365, 30, 0, -655364, 30, 0, -655363, 30, 0, -655362, 30, 0, -655361, 30, 0, -720896, 30, 0, -720895, 30, 0, -720894, 30, 0, -720893, 30, 0, -720892, 30, 0, -720891, 30, 0, -720890, 30, 0, -720889, 30, 0, -720888, 30, 0, -720887, 30, 0, -720886, 30, 0, -720885, 30, 0, -720884, 1073741838, 0, -589853, 1073741838, 0, -589852, 30, 0, -589851, 30, 0, -589850, 30, 0, -589849, 30, 0, -589848, 30, 0, -589847, 30, 0, -589846, 30, 0, -589845, 30, 0, -589844, 30, 0, -589843, 30, 0, -589842, 30, 0, -589841, 30, 0, -589840, 30, 0, -589839, 30, 0, -589838, 30, 0, -589837, 30, 0, -589836, 30, 0, -589835, 30, 0, -589834, 30, 0, -589833, 30, 0, -589832, 30, 0, -589831, 30, 0, -589830, 30, 0, -589829, 30, 0, -589828, 30, 0, -589827, 30, 0, -589826, 30, 0, -589825, 30, 0, -655360, 30, 0, -655359, 30, 0, -655358, 30, 0, -655357, 30, 0, -655356, 30, 0, -655355, 30, 0, -655354, 30, 0, -655353, 30, 0, -655352, 30, 0, -655351, 30, 0, -655350, 30, 0, -655349, 30, 0, -655348, 1073741838, 0, -524317, 1073741838, 0, -524316, 30, 0, -524315, 30, 0, -524314, 30, 0, -524313, 30, 0, -524312, 30, 0, -524311, 30, 0, -524310, 30, 0, -524309, 30, 0, -524308, 30, 0, -524307, 30, 0, -524306, 30, 0, -524305, 30, 0, -524304, 30, 0, -524303, 30, 0, -524302, 30, 0, -524301, 30, 0, -524300, 30, 0, -524299, 30, 0, -524298, 30, 0, -524297, 30, 0, -524296, 30, 0, -524295, 30, 0, -524294, 30, 0, -524293, 30, 0, -524292, 30, 0, -524291, 30, 0, -524290, 30, 0, -524289, 30, 0, -589824, 30, 0, -589823, 30, 0, -589822, 30, 0, -589821, 30, 0, -589820, 30, 0, -589819, 30, 0, -589818, 30, 0, -589817, 30, 0, -589816, 30, 0, -589815, 30, 0, -589814, 30, 0, -589813, 30, 0, -589812, 1073741838, 0, -458781, 1073741838, 0, -458780, 30, 0, -458779, 30, 0, -458778, 30, 0, -458777, 30, 0, -458776, 30, 0, -458775, 30, 0, -458774, 30, 0, -458773, 30, 0, -458772, 30, 0, -458771, 30, 0, -458770, 30, 0, -458769, 30, 0, -458768, 30, 0, -458767, 30, 0, -458766, 30, 0, -458765, 30, 0, -458764, 30, 0, -458763, 30, 0, -458762, 30, 0, -458761, 30, 0, -458760, 30, 0, -458759, 30, 0, -458758, 30, 0, -458757, 30, 0, -458756, 30, 0, -458755, 30, 0, -458754, 30, 0, -458753, 30, 0, -524288, 30, 0, -524287, 30, 0, -524286, 30, 0, -524285, 30, 0, -524284, 30, 0, -524283, 30, 0, -524282, 30, 0, -524281, 30, 0, -524280, 30, 0, -524279, 30, 0, -524278, 30, 0, -524277, 30, 0, -524276, 1073741838, 0, -393245, 1073741838, 0, -393244, 30, 0, -393243, 30, 0, -393242, 30, 0, -393241, 30, 0, -393240, 30, 0, -393239, 30, 0, -393238, 30, 0, -393237, 30, 0, -393236, 30, 0, -393235, 30, 0, -393234, 30, 0, -393233, 30, 0, -393232, 30, 0, -393231, 30, 0, -393230, 30, 0, -393229, 30, 0, -393228, 30, 0, -393227, 30, 0, -393226, 30, 0, -393225, 30, 0, -393224, 30, 0, -393223, 30, 0, -393222, 30, 0, -393221, 30, 0, -393220, 30, 0, -393219, 30, 0, -393218, 30, 0, -393217, 30, 0, -458752, 30, 0, -458751, 30, 0, -458750, 30, 0, -458749, 30, 0, -458748, 30, 0, -458747, 30, 0, -458746, 30, 0, -458745, 30, 0, -458744, 30, 0, -458743, 30, 0, -458742, 30, 0, -458741, 30, 0, -458740, 1073741838, 0, -327709, 1073741838, 0, -327708, 30, 0, -327707, 30, 0, -327706, 30, 0, -327705, 30, 0, -327704, 30, 0, -327703, 30, 0, -327702, 30, 0, -327701, 30, 0, -327700, 30, 0, -327699, 30, 0, -327698, 30, 0, -327697, 30, 0, -327696, 30, 0, -327695, 30, 0, -327694, 30, 0, -327693, 30, 0, -327692, 30, 0, -327691, 30, 0, -327690, 30, 0, -327689, 30, 0, -327688, 30, 0, -327687, 30, 0, -327686, 30, 0, -327685, 30, 0, -327684, 30, 0, -327683, 30, 0, -327682, 30, 0, -327681, 30, 0, -393216, 30, 0, -393215, 30, 0, -393214, 30, 0, -393213, 30, 0, -393212, 30, 0, -393211, 30, 0, -393210, 30, 0, -393209, 30, 0, -393208, 30, 0, -393207, 30, 0, -393206, 30, 0, -393205, 30, 0, -393204, 1073741838, 0, -262173, 536870925, 0, -262172, 536870970, 0, -262171, 536870970, 0, -262170, 536870970, 0, -262169, 536870970, 0, -262168, 30, 0, -262167, 30, 0, -262166, 30, 0, -262165, 30, 0, -262164, 30, 0, -262163, 30, 0, -262162, 30, 0, -262161, 30, 0, -262160, 30, 0, -262159, 30, 0, -262158, 30, 0, -262157, 30, 0, -262156, 30, 0, -262155, 30, 0, -262154, 30, 0, -262153, 30, 0, -262152, 30, 0, -262151, 30, 0, -262150, 30, 0, -262149, 30, 0, -262148, 30, 0, -262147, 30, 0, -262146, 30, 0, -262145, 30, 0, -327680, 30, 0, -327679, 30, 0, -327678, 30, 0, -327677, 30, 0, -327676, 30, 0, -327675, 30, 0, -327674, 30, 0, -327673, 30, 0, -327672, 536870970, 0, -327671, 536870970, 0, -327670, 536870970, 0, -327669, 536870970, 0, -327668, 13, 0, -196637, 1073741838, 0, -196636, 30, 0, -196635, 30, 0, -196634, 30, 0, -196633, 30, 0, -196632, 30, 0, -196631, 30, 0, -196630, 30, 0, -196629, 30, 0, -196628, 30, 0, -196627, 30, 0, -196626, 30, 0, -196625, 30, 0, -196624, 30, 0, -196623, 30, 0, -196622, 30, 0, -196621, 30, 0, -196620, 30, 0, -196619, 30, 0, -196618, 30, 0, -196617, 30, 0, -196616, 30, 0, -196615, 30, 0, -196614, 30, 0, -196613, 30, 0, -196612, 30, 0, -196611, 30, 0, -196610, 30, 0, -196609, 30, 0, -262144, 30, 0, -262143, 30, 0, -262142, 30, 0, -262141, 30, 0, -262140, 30, 0, -262139, 30, 0, -262138, 30, 0, -262137, 30, 0, -262136, 30, 0, -262135, 30, 0, -262134, 30, 0, -262133, 30, 0, -262132, 1073741838, 0, -131101, 1073741837, 0, -131100, 30, 0, -131099, 30, 0, -131098, 30, 0, -131097, 30, 0, -131096, 30, 0, -131095, 30, 0, -131094, 30, 0, -131093, 30, 0, -131092, 30, 0, -131091, 30, 0, -131090, 30, 0, -131089, 30, 0, -131088, 30, 0, -131087, 30, 0, -131086, 30, 0, -131085, 30, 0, -131084, 30, 0, -131083, 30, 0, -131082, 30, 0, -131081, 30, 0, -131080, 30, 0, -131079, 30, 0, -131078, 30, 0, -131077, 30, 0, -131076, 30, 0, -131075, 30, 0, -131074, 30, 0, -131073, 30, 0, -196608, 30, 0, -196607, 30, 0, -196606, 30, 0, -196605, 30, 0, -196604, 30, 0, -196603, 30, 0, -196602, 30, 0, -196601, 30, 0, -196600, 30, 0, -196599, 30, 0, -196598, 30, 0, -196597, 30, 0, -196596, 1610612749, 0, -65565, 30, 0, -65564, 30, 0, -65563, 30, 0, -65562, 30, 0, -65561, 30, 0, -65560, 30, 0, -65559, 30, 0, -65558, 30, 0, -65557, 30, 0, -65556, 30, 0, -65555, 30, 0, -65554, 30, 0, -65553, 30, 0, -65552, 30, 0, -65551, 30, 0, -65550, 30, 0, -65549, 30, 0, -65548, 30, 0, -65547, 30, 0, -65546, 30, 0, -65545, 30, 0, -65544, 30, 0, -65543, 30, 0, -65542, 30, 0, -65541, 30, 0, -65540, 30, 0, -65539, 30, 0, -65538, 30, 0, -65537, 30, 0, -131072, 30, 0, -131071, 30, 0, -131070, 30, 0, -131069, 30, 0, -131068, 30, 0, -131067, 30, 0, -131066, 30, 0, -131065, 30, 0, -131064, 30, 0, -131063, 30, 0, -131062, 30, 0, -131061, 30, 0, -131060, 30, 0, -29, 30, 0, -28, 30, 0, -27, 30, 0, -26, 30, 0, -25, 30, 0, -24, 30, 0, -23, 30, 0, -22, 30, 0, -21, 30, 0, -20, 30, 0, -19, 30, 0, -18, 30, 0, -17, 30, 0, -16, 30, 0, -15, 30, 0, -14, 30, 0, -13, 30, 0, -12, 30, 0, -11, 30, 0, -10, 30, 0, -9, 30, 0, -8, 30, 0, -7, 30, 0, -6, 30, 0, -5, 30, 0, -4, 30, 0, -3, 30, 0, -2, 30, 0, -1, 30, 0, -65536, 30, 0, -65535, 30, 0, -65534, 30, 0, -65533, 30, 0, -65532, 30, 0, -65531, 30, 0, -65530, 30, 0, -65529, 30, 0, -65528, 30, 0, -65527, 30, 0, -65526, 30, 0, -65525, 30, 0, -65524, 30, 0, 65507, 30, 0, 65508, 30, 0, 65509, 30, 0, 65510, 30, 0, 65511, 30, 0, 65512, 30, 0, 65513, 30, 0, 65514, 30, 0, 65515, 30, 0, 65516, 30, 0, 65517, 30, 0, 65518, 30, 0, 65519, 30, 0, 65520, 30, 0, 65521, 30, 0, 65522, 30, 0, 65523, 30, 0, 65524, 30, 0, 65525, 30, 0, 65526, 30, 0, 65527, 30, 0, 65528, 30, 0, 65529, 30, 0, 65530, 30, 0, 65531, 30, 0, 65532, 30, 0, 65533, 30, 0, 65534, 30, 0, 65535, 30, 0, 0, 30, 0, 1, 30, 0, 2, 30, 0, 3, 30, 0, 4, 30, 0, 5, 30, 0, 6, 30, 0, 7, 30, 0, 8, 30, 0, 9, 30, 0, 10, 30, 0, 11, 30, 0, 12, 30, 0, 131043, 30, 0, 131044, 30, 0, 131045, 30, 0, 131046, 30, 0, 131047, 30, 0, 131048, 30, 0, 131049, 30, 0, 131050, 30, 0, 131051, 30, 0, 131052, 30, 0, 131053, 30, 0, 131054, 30, 0, 131055, 30, 0, 131056, 30, 0, 131057, 30, 0, 131058, 30, 0, 131059, 30, 0, 131060, 30, 0, 131061, 30, 0, 131062, 30, 0, 131063, 30, 0, 131064, 30, 0, 131065, 30, 0, 131066, 30, 0, 131067, 30, 0, 131068, 30, 0, 131069, 30, 0, 131070, 30, 0, 131071, 30, 0, 65536, 30, 0, 65537, 30, 0, 65538, 30, 0, 65539, 30, 0, 65540, 30, 0, 65541, 30, 0, 65542, 30, 0, 65543, 30, 0, 65544, 30, 0, 65545, 30, 0, 65546, 30, 0, 65547, 30, 0, 65548, 30, 0, 196579, 30, 0, 196580, 30, 0, 196581, 30, 0, 196582, 30, 0, 196583, 30, 0, 196584, 30, 0, 196585, 30, 0, 196586, 30, 0, 196587, 30, 0, 196588, 30, 0, 196589, 30, 0, 196590, 30, 0, 196591, 30, 0, 196592, 30, 0, 196593, 30, 0, 196594, 30, 0, 196595, 30, 0, 196596, 30, 0, 196597, 30, 0, 196598, 30, 0, 196599, 30, 0, 196600, 30, 0, 196601, 30, 0, 196602, 30, 0, 196603, 30, 0, 196604, 30, 0, 196605, 30, 0, 196606, 30, 0, 196607, 30, 0, 131072, 30, 0, 131073, 30, 0, 131074, 30, 0, 131075, 30, 0, 131076, 30, 0, 131077, 30, 0, 131078, 30, 0, 131079, 30, 0, 131080, 30, 0, 131081, 30, 0, 131082, 30, 0, 131083, 30, 0, 131084, 30, 0, 262115, 536870925, 0, 262116, 38, 0, 262117, 38, 0, 262118, 38, 0, 262119, 38, 0, 262120, 38, 0, 262121, 38, 0, 262122, 38, 0, 262123, 38, 0, 262124, 38, 0, 262125, 38, 0, 262126, 38, 0, 262127, 43, 0, 262128, 30, 0, 262129, 30, 0, 262130, 30, 0, 262131, 30, 0, 262132, 30, 0, 262133, 30, 0, 262134, 30, 0, 262135, 30, 0, 262136, 30, 0, 262137, 30, 0, 262138, 30, 0, 262139, 30, 0, 262140, 30, 0, 262141, 30, 0, 262142, 30, 0, 262143, 30, 0, 196608, 43, 0, 196609, 38, 0, 196610, 38, 0, 196611, 38, 0, 196612, 38, 0, 196613, 38, 0, 196614, 38, 0, 196615, 38, 0, 196616, 38, 0, 196617, 38, 0, 196618, 38, 0, 196619, 38, 0, 196620, 13, 0, 327651, 14, 0, 327652, 35, 0, 327653, 35, 0, 327654, 35, 0, 327655, 35, 0, 327656, 35, 0, 327657, 35, 0, 327658, 35, 0, 327659, 35, 0, 327660, 35, 0, 327661, 35, 0, 327662, 35, 0, 327663, 35, 0, 327664, 536870971, 0, 327665, 18, 0, 327666, 30, 0, 327667, 30, 0, 327668, 30, 0, 327669, 30, 0, 327670, 30, 0, 327671, 30, 0, 327672, 30, 0, 327673, 30, 0, 327674, 30, 0, 327675, 30, 0, 327676, 30, 0, 327677, 30, 0, 327678, 536870930, 0, 327679, 536870971, 0, 262144, 35, 0, 262145, 35, 0, 262146, 35, 0, 262147, 35, 0, 262148, 35, 0, 262149, 35, 0, 262150, 35, 0, 262151, 35, 0, 262152, 35, 0, 262153, 35, 0, 262154, 35, 0, 262155, 35, 0, 262156, 14, 0, 393187, 14, 0, 393188, 35, 0, 393189, 35, 0, 393190, 35, 0, 393191, 35, 0, 393192, 35, 0, 393193, 35, 0, 393194, 35, 0, 393195, 35, 0, 393196, 35, 0, 393197, 35, 0, 393198, 35, 0, 393199, 35, 0, 393200, 35, 0, 393201, 536870971, 0, 393202, 536870971, 0, 393203, 18, 0, 393204, 43, 0, 393205, 38, 0, 393206, 38, 0, 393207, 38, 0, 393208, 38, 0, 393209, 38, 0, 393210, 38, 0, 393211, 43, 0, 393212, 536870930, 0, 393213, 536870971, 0, 393214, 536870971, 0, 393215, 35, 0, 327680, 35, 0, 327681, 35, 0, 327682, 35, 0, 327683, 35, 0, 327684, 35, 0, 327685, 35, 0, 327686, 35, 0, 327687, 35, 0, 327688, 35, 0, 327689, 35, 0, 327690, 35, 0, 327691, 35, 0, 327692, 14, 0 )

[node name="DecoGroup" type="Node2D" parent="tilemap"]

[node name="TileMap" type="TileMap" parent="tilemap/DecoGroup"]
tile_set = ExtResource( 2 )
cell_size = Vector2( 32, 32 )
compatibility_mode = true
format = 1
tile_data = PoolIntArray( -655386, 0, 0, -720887, 0, 0, -589850, 1, 0, -655351, 1, 0, -524314, 1, 0, -589815, 2, 0, -458778, 1, 0, -393242, 2, 0, -26, 0, 0, -21, 0, 0, -65532, 0, 0, -65527, 0, 0, 65510, 2, 0, 65515, 1, 0, 65525, 3, 0, 65526, 4, 0, 65527, 4, 0, 65528, 4, 0, 65529, 4, 0, 65530, 4, 0, 65531, 536870915, 0, 4, 1, 0, 9, 1, 0, 131051, 2, 0, 131061, 5, 0, 131062, 6, 0, 131063, 6, 0, 131064, 6, 0, 131065, 6, 0, 131066, 6, 0, 131067, 536870917, 0, 65540, 1, 0, 65545, 2, 0, 196597, 5, 0, 196598, 6, 0, 196599, 6, 0, 196600, 6, 0, 196601, 6, 0, 196602, 6, 0, 196603, 536870917, 0, 131076, 2, 0, 262133, 5, 0, 262134, 6, 0, 262135, 6, 0, 262136, 6, 0, 262137, 6, 0, 262138, 6, 0, 262139, 536870917, 0, 327669, 5, 0, 327670, 6, 0, 327671, 6, 0, 327672, 6, 0, 327673, 6, 0, 327674, 6, 0, 327675, 536870917, 0 )

[node name="gradient" type="Sprite" parent="tilemap/DecoGroup"]
material = SubResource( 2 )
position = Vector2( -448, 152 )
z_index = 1
texture = SubResource( 3 )
region_enabled = true
region_rect = Rect2( 0, 0, 128, 80 )

[node name="gradient2" type="Sprite" parent="tilemap/DecoGroup"]
material = SubResource( 2 )
position = Vector2( -64, 152 )
scale = Vector2( -1, 1 )
z_index = 1
texture = SubResource( 3 )
region_enabled = true
region_rect = Rect2( 0, 0, 128, 80 )

[node name="SlopeGroup" type="Node2D" parent="tilemap"]

[node name="TestSlope0-15" parent="tilemap/SlopeGroup" instance=ExtResource( 3 )]
position = Vector2( -496, 112 )

[node name="TestSlope0-16" parent="tilemap/SlopeGroup" instance=ExtResource( 3 )]
position = Vector2( -432, 144 )

[node name="TestSlope16-31" parent="tilemap/SlopeGroup" instance=ExtResource( 4 )]
position = Vector2( -464, 112 )

[node name="TestSlope31-16" parent="tilemap/SlopeGroup" instance=ExtResource( 5 )]
position = Vector2( -48, 112 )

[node name="TestSlope16-32" parent="tilemap/SlopeGroup" instance=ExtResource( 4 )]
position = Vector2( -400, 144 )

[node name="TestSlope15-0" parent="tilemap/SlopeGroup" instance=ExtResource( 6 )]
position = Vector2( -16, 112 )

[node name="TestSlope15-1" parent="tilemap/SlopeGroup" instance=ExtResource( 6 )]
position = Vector2( -80, 144 )

[node name="TestSlope31-17" parent="tilemap/SlopeGroup" instance=ExtResource( 5 )]
position = Vector2( -112, 144 )

[node name="TestSlopea-b" parent="tilemap/SlopeGroup" instance=ExtResource( 7 )]
position = Vector2( -528, 112 )

[node name="TestSlopea-b1" parent="tilemap/SlopeGroup" instance=ExtResource( 7 )]
position = Vector2( -464, 144 )

[node name="TestSlopea-b2" parent="tilemap/SlopeGroup" instance=ExtResource( 7 )]
position = Vector2( -400, 176 )

[node name="TestSlopea-b3" parent="tilemap/SlopeGroup" instance=ExtResource( 7 )]
position = Vector2( -368, 176 )

[node name="TestSlopea-b4" parent="tilemap/SlopeGroup" instance=ExtResource( 7 )]
position = Vector2( -112, 176 )

[node name="TestSlopea-b5" parent="tilemap/SlopeGroup" instance=ExtResource( 7 )]
position = Vector2( -144, 176 )

[node name="TestSlopea-b6" parent="tilemap/SlopeGroup" instance=ExtResource( 7 )]
position = Vector2( -48, 144 )

[node name="TestSlopea-b7" parent="tilemap/SlopeGroup" instance=ExtResource( 7 )]
position = Vector2( 16, 112 )

[node name="ClimbableGroup" type="Node2D" parent="tilemap"]

[node name="ClimbableBlock" parent="tilemap/ClimbableGroup" instance=ExtResource( 8 )]
position = Vector2( -752, -144 )

[node name="Sprite" parent="tilemap/ClimbableGroup/ClimbableBlock" index="0"]
offset = Vector2( 3, 0 )
flip_h = false

[node name="ClimbableBlock1" parent="tilemap/ClimbableGroup" instance=ExtResource( 8 )]
position = Vector2( 240, -144 )

[node name="SwitchGroup" type="Node2D" parent="tilemap"]

[node name="FloorSwitch" parent="tilemap/SwitchGroup" instance=ExtResource( 9 )]
position = Vector2( 304, -160 )
is_on = true
target_nodes = [ "SunbeamGroup/Sunbeam" ]
related_switches = [ "SwitchGroup/FloorSwitch2" ]

[node name="FloorSwitch1" parent="tilemap/SwitchGroup" instance=ExtResource( 9 )]
position = Vector2( 48, 96 )
once = true
target_nodes = [ "EnemiesGroup/Zombie3", "EnemiesGroup/Zombie4", "EnemiesGroup/Zombie5" ]

[node name="FloorSwitch2" parent="tilemap/SwitchGroup" instance=ExtResource( 9 )]
position = Vector2( -560, 96 )
is_on = true
target_nodes = [ "SunbeamGroup/Sunbeam" ]
related_switches = [ "SwitchGroup/FloorSwitch" ]

[node name="FloorSwitch3" parent="tilemap/SwitchGroup" instance=ExtResource( 9 )]
position = Vector2( -816, -160 )
once = true
target_nodes = [ "EnemiesGroup/Zombie", "EnemiesGroup/Zombie1", "EnemiesGroup/Zombie2" ]

[node name="EnemiesGroup" type="Node2D" parent="tilemap"]

[node name="Zombie" parent="tilemap/EnemiesGroup" instance=ExtResource( 10 )]
position = Vector2( -208, 96 )

[node name="Zombie1" parent="tilemap/EnemiesGroup" instance=ExtResource( 10 )]
position = Vector2( -176, 96 )

[node name="Zombie2" parent="tilemap/EnemiesGroup" instance=ExtResource( 10 )]
position = Vector2( -144, 96 )

[node name="Zombie3" parent="tilemap/EnemiesGroup" instance=ExtResource( 10 )]
position = Vector2( -304, 96 )

[node name="Zombie4" parent="tilemap/EnemiesGroup" instance=ExtResource( 10 )]
position = Vector2( -336, 96 )

[node name="Zombie5" parent="tilemap/EnemiesGroup" instance=ExtResource( 10 )]
position = Vector2( -368, 96 )

[node name="SunbeamGroup" type="Node2D" parent="tilemap"]

[node name="Sunbeam" parent="tilemap/SunbeamGroup" instance=ExtResource( 11 )]
position = Vector2( -256, -144 )

[node name="block" parent="tilemap/SunbeamGroup/Sunbeam" index="0"]
scale = Vector2( 8, 19 )

[node name="sunbeam" parent="tilemap/SunbeamGroup/Sunbeam" index="1"]
scale = Vector2( 8, 19 )

[node name="TeleportGroup" type="Node2D" parent="tilemap"]

[node name="Teleport" parent="tilemap/TeleportGroup" instance=ExtResource( 12 )]
position = Vector2( 432, 16 )
target_level = "res://levels/dungeon/0-2.tscn"
teleport_to = Vector2( -332, -1072 )

[node name="teleport" parent="tilemap/TeleportGroup/Teleport" index="0"]
scale = Vector2( 1, 5 )

[node name="Teleport1" parent="tilemap/TeleportGroup" instance=ExtResource( 12 )]
position = Vector2( -944, 16 )
target_level = "res://levels/dungeon/0-4.tscn"
teleport_to = Vector2( 588, -80 )

[node name="teleport" parent="tilemap/TeleportGroup/Teleport1" index="0"]
scale = Vector2( 1, 5 )

[node name="boundaries" type="Node2D" parent="tilemap"]

[node name="NW" type="Position2D" parent="tilemap/boundaries"]
position = Vector2( -934, -454 )

[node name="SE" type="Position2D" parent="tilemap/boundaries"]
position = Vector2( 426, 202 )

[editable path="tilemap/ClimbableGroup/ClimbableBlock"]

[editable path="tilemap/SunbeamGroup/Sunbeam"]

[editable path="tilemap/TeleportGroup/Teleport"]

[editable path="tilemap/TeleportGroup/Teleport1"]
