[gd_scene load_steps=13 format=2]

[ext_resource path="res://scenes/dungeon/debugtiles.tres" type="TileSet" id=1]
[ext_resource path="res://scenes/dungeon/deco.tres" type="TileSet" id=2]
[ext_resource path="res://scenes/dungeon/slopes/slope0-31.tscn" type="PackedScene" id=3]
[ext_resource path="res://scenes/dungeon/slopes/slope31-0.tscn" type="PackedScene" id=4]
[ext_resource path="res://scenes/dungeon/slopes/slopea-b.tscn" type="PackedScene" id=5]
[ext_resource path="res://scenes/npcs/npc.tscn" type="PackedScene" id=6]
[ext_resource path="res://scenes/common/switches/floorswitch.tscn" type="PackedScene" id=7]
[ext_resource path="res://scenes/common/sunbeam.tscn" type="PackedScene" id=8]
[ext_resource path="res://scenes/common/teleport.tscn" type="PackedScene" id=9]

[sub_resource type="Shader" id=1]
code = "shader_type canvas_item;

void fragment() {
	COLOR = mix(vec4(0, 0, 0, 0), vec4(0, 0, 0, 1), max(0, 2.0 * (UV.y - UV.x)));
}"

[sub_resource type="ShaderMaterial" id=2]
shader = SubResource( 1 )

[sub_resource type="ImageTexture" id=3]
size = Vector2( 32, 32 )

[node name="LVL_NOTITLE" type="Node2D"]
__meta__ = {
"__editor_plugin_screen__": "2D"
}

[node name="tilemap" type="TileMap" parent="."]
tile_set = ExtResource( 1 )
cell_size = Vector2( 32, 32 )
compatibility_mode = true
collision_layer = 524288
format = 1
tile_data = PoolIntArray( -786442, 1610612749, 0, -786441, 1073741862, 0, -786440, 1073741862, 0, -786439, 1073741862, 0, -786438, 1073741862, 0, -786437, 1073741862, 0, -786436, 1073741862, 0, -786435, 1073741862, 0, -786434, 1073741862, 0, -786433, 1073741862, 0, -851968, 1073741862, 0, -851967, 1073741862, 0, -851966, 1073741862, 0, -851965, 1073741862, 0, -851964, 1073741837, 0, -851963, 30, 0, -851962, 30, 0, -851961, 30, 0, -851960, 1610612749, 0, -851959, 1073741862, 0, -851958, 1073741862, 0, -851957, 1073741862, 0, -851956, 1073741862, 0, -851955, 1073741837, 0, -720906, 1073741838, 0, -720905, 30, 0, -720904, 30, 0, -720903, 30, 0, -720902, 30, 0, -720901, 30, 0, -720900, 30, 0, -720899, 30, 0, -720898, 30, 0, -720897, 30, 0, -786432, 30, 0, -786431, 30, 0, -786430, 30, 0, -786429, 30, 0, -786428, 30, 0, -786427, 30, 0, -786426, 30, 0, -786425, 30, 0, -786424, 30, 0, -786423, 30, 0, -786422, 30, 0, -786421, 30, 0, -786420, 30, 0, -786419, 1073741838, 0, -655370, 1073741838, 0, -655369, 30, 0, -655368, 30, 0, -655367, 30, 0, -655366, 30, 0, -655365, 30, 0, -655364, 30, 0, -655363, 30, 0, -655362, 30, 0, -655361, 30, 0, -720896, 30, 0, -720895, 30, 0, -720894, 30, 0, -720893, 30, 0, -720892, 30, 0, -720891, 30, 0, -720890, 30, 0, -720889, 30, 0, -720888, 30, 0, -720887, 30, 0, -720886, 30, 0, -720885, 30, 0, -720884, 30, 0, -720883, 1073741838, 0, -589834, 1073741838, 0, -589833, 30, 0, -589832, 30, 0, -589831, 30, 0, -589830, 30, 0, -589829, 30, 0, -589828, 30, 0, -589827, 30, 0, -589826, 30, 0, -589825, 30, 0, -655360, 30, 0, -655359, 30, 0, -655358, 30, 0, -655357, 30, 0, -655356, 30, 0, -655355, 30, 0, -655354, 30, 0, -655353, 30, 0, -655352, 30, 0, -655351, 30, 0, -655350, 30, 0, -655349, 30, 0, -655348, 30, 0, -655347, 1073741838, 0, -524298, 1073741838, 0, -524297, 30, 0, -524296, 30, 0, -524295, 30, 0, -524294, 30, 0, -524293, 30, 0, -524292, 30, 0, -524291, 30, 0, -524290, 30, 0, -524289, 30, 0, -589824, 30, 0, -589823, 30, 0, -589822, 30, 0, -589821, 30, 0, -589820, 30, 0, -589819, 30, 0, -589818, 30, 0, -589817, 30, 0, -589816, 30, 0, -589815, 30, 0, -589814, 30, 0, -589813, 30, 0, -589812, 30, 0, -589811, 1073741838, 0, -458762, 1073741838, 0, -458761, 30, 0, -458760, 30, 0, -458759, 30, 0, -458758, 30, 0, -458757, 30, 0, -458756, 30, 0, -458755, 30, 0, -458754, 30, 0, -458753, 30, 0, -524288, 30, 0, -524287, 30, 0, -524286, 30, 0, -524285, 30, 0, -524284, 30, 0, -524283, 30, 0, -524282, 30, 0, -524281, 30, 0, -524280, 30, 0, -524279, 30, 0, -524278, 30, 0, -524277, 30, 0, -524276, 30, 0, -524275, 1073741838, 0, -393226, 1073741838, 0, -393225, 30, 0, -393224, 30, 0, -393223, 30, 0, -393222, 30, 0, -393221, 30, 0, -393220, 30, 0, -393219, 30, 0, -393218, 30, 0, -393217, 30, 0, -458752, 30, 0, -458751, 30, 0, -458750, 30, 0, -458749, 30, 0, -458748, 30, 0, -458747, 30, 0, -458746, 30, 0, -458745, 30, 0, -458744, 30, 0, -458743, 30, 0, -458742, 30, 0, -458741, 30, 0, -458740, 30, 0, -458739, 1073741838, 0, -327690, 1073741838, 0, -327689, 30, 0, -327688, 30, 0, -327687, 30, 0, -327686, 30, 0, -327685, 30, 0, -327684, 30, 0, -327683, 30, 0, -327682, 30, 0, -327681, 30, 0, -393216, 30, 0, -393215, 30, 0, -393214, 30, 0, -393213, 30, 0, -393212, 30, 0, -393211, 30, 0, -393210, 30, 0, -393209, 30, 0, -393208, 30, 0, -393207, 30, 0, -393206, 30, 0, -393205, 30, 0, -393204, 30, 0, -393203, 1073741838, 0, -262154, 1073741838, 0, -262153, 30, 0, -262152, 30, 0, -262151, 30, 0, -262150, 30, 0, -262149, 30, 0, -262148, 30, 0, -262147, 30, 0, -262146, 30, 0, -262145, 30, 0, -327680, 30, 0, -327679, 30, 0, -327678, 30, 0, -327677, 30, 0, -327676, 30, 0, -327675, 30, 0, -327674, 30, 0, -327673, 30, 0, -327672, 30, 0, -327671, 30, 0, -327670, 30, 0, -327669, 30, 0, -327668, 30, 0, -327667, 1073741838, 0, -196618, 1073741838, 0, -196617, 30, 0, -196616, 30, 0, -196615, 30, 0, -196614, 30, 0, -196613, 30, 0, -196612, 30, 0, -196611, 30, 0, -196610, 30, 0, -196609, 30, 0, -262144, 30, 0, -262143, 30, 0, -262142, 30, 0, -262141, 30, 0, -262140, 30, 0, -262139, 30, 0, -262138, 30, 0, -262137, 30, 0, -262136, 30, 0, -262135, 30, 0, -262134, 30, 0, -262133, 30, 0, -262132, 30, 0, -262131, 1073741838, 0, -131082, 1073741838, 0, -131081, 30, 0, -131080, 30, 0, -131079, 30, 0, -131078, 30, 0, -131077, 30, 0, -131076, 30, 0, -131075, 30, 0, -131074, 30, 0, -131073, 30, 0, -196608, 30, 0, -196607, 30, 0, -196606, 30, 0, -196605, 30, 0, -196604, 30, 0, -196603, 30, 0, -196602, 30, 0, -196601, 30, 0, -196600, 30, 0, -196599, 30, 0, -196598, 30, 0, -196597, 30, 0, -196596, 30, 0, -196595, 1073741838, 0, -65546, 1073741838, 0, -65545, 30, 0, -65544, 30, 0, -65543, 30, 0, -65542, 30, 0, -65541, 30, 0, -65540, 30, 0, -65539, 30, 0, -65538, 30, 0, -65537, 30, 0, -131072, 30, 0, -131071, 30, 0, -131070, 30, 0, -131069, 30, 0, -131068, 30, 0, -131067, 30, 0, -131066, 30, 0, -131065, 30, 0, -131064, 30, 0, -131063, 30, 0, -131062, 30, 0, -131061, 30, 0, -131060, 30, 0, -131059, 1073741838, 0, -10, 1073741838, 0, -9, 30, 0, -8, 30, 0, -7, 30, 0, -6, 30, 0, -5, 30, 0, -4, 30, 0, -3, 30, 0, -2, 30, 0, -1, 30, 0, -65536, 30, 0, -65535, 30, 0, -65534, 30, 0, -65533, 30, 0, -65532, 30, 0, -65531, 30, 0, -65530, 30, 0, -65529, 30, 0, -65528, 30, 0, -65527, 30, 0, -65526, 30, 0, -65525, 30, 0, -65524, 30, 0, -65523, 1073741838, 0, 65526, 1073741837, 0, 65527, 30, 0, 65528, 30, 0, 65529, 30, 0, 65530, 30, 0, 65531, 30, 0, 65532, 30, 0, 65533, 30, 0, 65534, 30, 0, 65535, 30, 0, 0, 30, 0, 1, 30, 0, 2, 30, 0, 3, 30, 0, 4, 30, 0, 5, 30, 0, 6, 30, 0, 7, 30, 0, 8, 30, 0, 9, 30, 0, 10, 30, 0, 11, 30, 0, 12, 30, 0, 13, 1073741838, 0, 131062, 30, 0, 131063, 30, 0, 131064, 30, 0, 131065, 30, 0, 131066, 30, 0, 131067, 30, 0, 131068, 30, 0, 131069, 30, 0, 131070, 30, 0, 131071, 30, 0, 65536, 30, 0, 65537, 30, 0, 65538, 30, 0, 65539, 30, 0, 65540, 30, 0, 65541, 30, 0, 65542, 30, 0, 65543, 30, 0, 65544, 30, 0, 65545, 30, 0, 65546, 30, 0, 65547, 30, 0, 65548, 30, 0, 65549, 1073741838, 0, 196598, 30, 0, 196599, 30, 0, 196600, 30, 0, 196601, 30, 0, 196602, 30, 0, 196603, 30, 0, 196604, 30, 0, 196605, 30, 0, 196606, 30, 0, 196607, 30, 0, 131072, 30, 0, 131073, 30, 0, 131074, 30, 0, 131075, 30, 0, 131076, 30, 0, 131077, 30, 0, 131078, 30, 0, 131079, 30, 0, 131080, 30, 0, 131081, 30, 0, 131082, 30, 0, 131083, 30, 0, 131084, 30, 0, 131085, 1073741838, 0, 262134, 30, 0, 262135, 30, 0, 262136, 30, 0, 262137, 30, 0, 262138, 30, 0, 262139, 30, 0, 262140, 30, 0, 262141, 30, 0, 262142, 30, 0, 262143, 30, 0, 196608, 30, 0, 196609, 30, 0, 196610, 30, 0, 196611, 30, 0, 196612, 30, 0, 196613, 30, 0, 196614, 30, 0, 196615, 30, 0, 196616, 30, 0, 196617, 30, 0, 196618, 30, 0, 196619, 30, 0, 196620, 30, 0, 196621, 1073741838, 0, 327670, 30, 0, 327671, 30, 0, 327672, 30, 0, 327673, 30, 0, 327674, 30, 0, 327675, 30, 0, 327676, 30, 0, 327677, 30, 0, 327678, 30, 0, 327679, 30, 0, 262144, 30, 0, 262145, 30, 0, 262146, 30, 0, 262147, 30, 0, 262148, 30, 0, 262149, 30, 0, 262150, 30, 0, 262151, 30, 0, 262152, 30, 0, 262153, 30, 0, 262154, 30, 0, 262155, 30, 0, 262156, 30, 0, 262157, 1073741838, 0, 393206, 30, 0, 393207, 30, 0, 393208, 30, 0, 393209, 30, 0, 393210, 30, 0, 393211, 30, 0, 393212, 30, 0, 393213, 30, 0, 393214, 30, 0, 393215, 30, 0, 327680, 30, 0, 327681, 30, 0, 327682, 30, 0, 327683, 30, 0, 327684, 30, 0, 327685, 43, 0, 327686, 38, 0, 327687, 38, 0, 327688, 38, 0, 327689, 38, 0, 327690, 43, 0, 327691, 30, 0, 327692, 30, 0, 327693, 1073741838, 0, 458742, 536870925, 0, 458743, 38, 0, 458744, 38, 0, 458745, 38, 0, 458746, 38, 0, 458747, 38, 0, 458748, 38, 0, 458749, 38, 0, 458750, 38, 0, 458751, 38, 0, 393216, 38, 0, 393217, 38, 0, 393218, 38, 0, 393219, 43, 0, 393220, 536870929, 0, 393221, 35, 0, 393222, 35, 0, 393223, 35, 0, 393224, 35, 0, 393225, 35, 0, 393226, 35, 0, 393227, 17, 0, 393228, 43, 0, 393229, 13, 0 )

[node name="DecoGroup" type="Node2D" parent="tilemap"]

[node name="TileMap" type="TileMap" parent="tilemap/DecoGroup"]
tile_set = ExtResource( 2 )
cell_size = Vector2( 32, 32 )
compatibility_mode = true
format = 1
tile_data = PoolIntArray( -589818, 0, 0, -524282, 1, 0, -458746, 1, 0, -393210, 1, 0, -327674, 1, 0, -262138, 2, 0, -65543, 0, 0, -7, 1, 0, -65530, 3, 0, -65529, 4, 0, -65528, 4, 0, -65527, 536870915, 0, 65529, 1, 0, 1, 0, 0, 6, 5, 0, 7, 6, 0, 8, 6, 0, 9, 536870917, 0, 131065, 1, 0, 65537, 1, 0, 65542, 5, 0, 65543, 6, 0, 65544, 6, 0, 65545, 536870917, 0, 196601, 2, 0, 131073, 1, 0, 131078, 5, 0, 131079, 6, 0, 131080, 6, 0, 131081, 536870917, 0, 196609, 2, 0, 196614, 5, 0, 196615, 6, 0, 196616, 6, 0, 196617, 536870917, 0, 262150, 5, 0, 262151, 6, 0, 262152, 6, 0, 262153, 536870917, 0 )

[node name="gradient" type="Sprite" parent="tilemap/DecoGroup"]
material = SubResource( 2 )
position = Vector2( 368, 200 )
z_index = 1
texture = SubResource( 3 )
region_enabled = true
region_rect = Rect2( 0, 0, 32, 48 )

[node name="gradient2" type="Sprite" parent="tilemap/DecoGroup"]
material = SubResource( 2 )
position = Vector2( 144, 200 )
scale = Vector2( -1, 1 )
z_index = 1
texture = SubResource( 3 )
region_enabled = true
region_rect = Rect2( 0, 0, 32, 48 )

[node name="SlopeGroup" type="Node2D" parent="tilemap"]

[node name="TestSlope0-31" parent="tilemap/SlopeGroup" instance=ExtResource( 3 )]
position = Vector2( 368, 176 )

[node name="TestSlope31-0" parent="tilemap/SlopeGroup" instance=ExtResource( 4 )]
position = Vector2( 144, 176 )

[node name="TestSlopea-b" parent="tilemap/SlopeGroup" instance=ExtResource( 5 )]
position = Vector2( 336, 176 )

[node name="TestSlopea-b1" parent="tilemap/SlopeGroup" instance=ExtResource( 5 )]
position = Vector2( 176, 176 )

[node name="TestSlopea-b2" parent="tilemap/SlopeGroup" instance=ExtResource( 5 )]
position = Vector2( 112, 208 )

[node name="TestSlopea-b3" parent="tilemap/SlopeGroup" instance=ExtResource( 5 )]
position = Vector2( 400, 208 )

[node name="TestSlopea-b4" parent="tilemap/SlopeGroup" instance=ExtResource( 5 )]
position = Vector2( 368, 208 )

[node name="TestSlopea-b5" parent="tilemap/SlopeGroup" instance=ExtResource( 5 )]
position = Vector2( 144, 208 )

[node name="NPCGroup" type="Node2D" parent="tilemap"]

[node name="NPC" parent="tilemap/NPCGroup" instance=ExtResource( 6 )]
position = Vector2( 304, 96 )
dialogues = [ [ -1, "CHARACTER_POTIONSMASTER", "DIAG_DUNGEON0", null, null ] ]

[node name="Sprite" parent="tilemap/NPCGroup/NPC" index="1"]
scale = Vector2( -1, 1 )

[node name="SwitchGroup" type="Node2D" parent="tilemap"]

[node name="FloorSwitch" parent="tilemap/SwitchGroup" instance=ExtResource( 7 )]
position = Vector2( 48, 192 )
once = true
is_on = true
target_nodes = [ "SunbeamGroup/Sunbeam" ]

[node name="SunbeamGroup" type="Node2D" parent="tilemap"]

[node name="Sunbeam" parent="tilemap/SunbeamGroup" instance=ExtResource( 8 )]
position = Vector2( -96, -112 )

[node name="block" parent="tilemap/SunbeamGroup/Sunbeam" index="0"]
scale = Vector2( 4, 19 )

[node name="sunbeam" parent="tilemap/SunbeamGroup/Sunbeam" index="1"]
scale = Vector2( 4, 19 )

[node name="TeleportGroup" type="Node2D" parent="tilemap"]

[node name="Teleport" parent="tilemap/TeleportGroup" instance=ExtResource( 9 )]
position = Vector2( -336, 112 )
target_level = "res://levels/dungeon/0-2.tscn"
teleport_to = Vector2( 396, -80 )

[node name="teleport" parent="tilemap/TeleportGroup/Teleport" index="0"]
scale = Vector2( 1, 5 )

[node name="Teleport1" parent="tilemap/TeleportGroup" instance=ExtResource( 9 )]
position = Vector2( 208, -432 )
is_horizontal = false
target_level = "res://levels/dungeon/1-1.tscn"
teleport_to = Vector2( 336, 64 )

[node name="teleport" parent="tilemap/TeleportGroup/Teleport1" index="0"]
scale = Vector2( 3, 1 )

[node name="boundaries" type="Node2D" parent="tilemap"]

[node name="NW" type="Position2D" parent="tilemap/boundaries"]
position = Vector2( -326, -422 )

[node name="SE" type="Position2D" parent="tilemap/boundaries"]
position = Vector2( 458, 234 )

[editable path="tilemap/NPCGroup/NPC"]

[editable path="tilemap/SunbeamGroup/Sunbeam"]

[editable path="tilemap/TeleportGroup/Teleport"]

[editable path="tilemap/TeleportGroup/Teleport1"]
