[gd_scene load_steps=7 format=2]

[ext_resource path="res://scenes/dungeon/debugtiles.tres" type="TileSet" id=1]
[ext_resource path="res://scenes/dungeon/deco.tres" type="TileSet" id=2]
[ext_resource path="res://scenes/common/switches/floorswitch.tscn" type="PackedScene" id=3]
[ext_resource path="res://scenes/common/damagables/skeleton/skeleton.tscn" type="PackedScene" id=4]
[ext_resource path="res://scenes/common/sunbeam.tscn" type="PackedScene" id=5]
[ext_resource path="res://scenes/common/teleport.tscn" type="PackedScene" id=6]

[node name="LVL_NOTITLE" type="Node2D"]
__meta__ = {
"__editor_plugin_screen__": "2D"
}

[node name="tilemap" type="TileMap" parent="."]
tile_set = ExtResource( 1 )
cell_size = Vector2( 32, 32 )
cell_custom_transform = Transform2D( 1, 0, 0, 1, 0, 0 )
compatibility_mode = true
collision_layer = 524288
format = 1
tile_data = PoolIntArray( -1310726, 1610612749, 0, -1310725, 1073741862, 0, -1310724, 1073741862, 0, -1310723, 1073741862, 0, -1310722, 1073741862, 0, -1310721, 1073741862, 0, -1376256, 1073741862, 0, -1376255, 1073741862, 0, -1376254, 1073741862, 0, -1376253, 1073741862, 0, -1376252, 1073741862, 0, -1376251, 1073741862, 0, -1376250, 1073741862, 0, -1376249, 1073741862, 0, -1376248, 1073741862, 0, -1376247, 1073741862, 0, -1376246, 1073741862, 0, -1376245, 1073741862, 0, -1376244, 1073741862, 0, -1376243, 1073741862, 0, -1376242, 1073741862, 0, -1376241, 1073741862, 0, -1376240, 1073741862, 0, -1376239, 1073741837, 0, -1245190, 1073741838, 0, -1245189, 30, 0, -1245188, 30, 0, -1245187, 30, 0, -1245186, 30, 0, -1245185, 30, 0, -1310720, 30, 0, -1310719, 30, 0, -1310718, 30, 0, -1310717, 30, 0, -1310716, 30, 0, -1310715, 30, 0, -1310714, 30, 0, -1310713, 30, 0, -1310712, 30, 0, -1310711, 30, 0, -1310710, 30, 0, -1310709, 30, 0, -1310708, 30, 0, -1310707, 30, 0, -1310706, 30, 0, -1310705, 30, 0, -1310704, 30, 0, -1310703, 14, 0, -1179654, 1073741838, 0, -1179653, 30, 0, -1179652, 30, 0, -1179651, 30, 0, -1179650, 30, 0, -1179649, 30, 0, -1245184, 30, 0, -1245183, 30, 0, -1245182, 30, 0, -1245181, 30, 0, -1245180, 30, 0, -1245179, 30, 0, -1245178, 30, 0, -1245177, 30, 0, -1245176, 30, 0, -1245175, 30, 0, -1245174, 30, 0, -1245173, 30, 0, -1245172, 30, 0, -1245171, 30, 0, -1245170, 30, 0, -1245169, 30, 0, -1245168, 30, 0, -1245167, 14, 0, -1114118, 1073741838, 0, -1114117, 30, 0, -1114116, 30, 0, -1114115, 30, 0, -1114114, 30, 0, -1114113, 30, 0, -1179648, 30, 0, -1179647, 30, 0, -1179646, 30, 0, -1179645, 30, 0, -1179644, 30, 0, -1179643, 30, 0, -1179642, 30, 0, -1179641, 30, 0, -1179640, 30, 0, -1179639, 30, 0, -1179638, 30, 0, -1179637, 30, 0, -1179636, 30, 0, -1179635, 30, 0, -1179634, 30, 0, -1179633, 30, 0, -1179632, 30, 0, -1179631, 14, 0, -1048582, 1073741838, 0, -1048581, 30, 0, -1048580, 30, 0, -1048579, 30, 0, -1048578, 30, 0, -1048577, 30, 0, -1114112, 30, 0, -1114111, 30, 0, -1114110, 30, 0, -1114109, 30, 0, -1114108, 30, 0, -1114107, 30, 0, -1114106, 30, 0, -1114105, 30, 0, -1114104, 30, 0, -1114103, 30, 0, -1114102, 30, 0, -1114101, 30, 0, -1114100, 30, 0, -1114099, 30, 0, -1114098, 30, 0, -1114097, 30, 0, -1114096, 30, 0, -1114095, 14, 0, -983046, 1073741838, 0, -983045, 30, 0, -983044, 30, 0, -983043, 30, 0, -983042, 30, 0, -983041, 30, 0, -1048576, 30, 0, -1048575, 30, 0, -1048574, 30, 0, -1048573, 30, 0, -1048572, 30, 0, -1048571, 30, 0, -1048570, 30, 0, -1048569, 30, 0, -1048568, 30, 0, -1048567, 30, 0, -1048566, 30, 0, -1048565, 30, 0, -1048564, 30, 0, -1048563, 30, 0, -1048562, 30, 0, -1048561, 30, 0, -1048560, 30, 0, -1048559, 14, 0, -917510, 1073741838, 0, -917509, 30, 0, -917508, 30, 0, -917507, 30, 0, -917506, 30, 0, -917505, 30, 0, -983040, 30, 0, -983039, 30, 0, -983038, 30, 0, -983037, 30, 0, -983036, 30, 0, -983035, 30, 0, -983034, 30, 0, -983033, 30, 0, -983032, 30, 0, -983031, 30, 0, -983030, 30, 0, -983029, 30, 0, -983028, 30, 0, -983027, 30, 0, -983026, 30, 0, -983025, 30, 0, -983024, 30, 0, -983023, 14, 0, -851974, 1073741838, 0, -851973, 30, 0, -851972, 30, 0, -851971, 30, 0, -851970, 30, 0, -851969, 30, 0, -917504, 30, 0, -917503, 30, 0, -917502, 30, 0, -917501, 30, 0, -917500, 30, 0, -917499, 30, 0, -917498, 30, 0, -917497, 30, 0, -917496, 30, 0, -917495, 30, 0, -917494, 30, 0, -917493, 30, 0, -917492, 30, 0, -917491, 30, 0, -917490, 30, 0, -917489, 30, 0, -917488, 30, 0, -917487, 14, 0, -786438, 1073741838, 0, -786437, 30, 0, -786436, 30, 0, -786435, 30, 0, -786434, 30, 0, -786433, 30, 0, -851968, 30, 0, -851967, 30, 0, -851966, 30, 0, -851965, 30, 0, -851964, 30, 0, -851963, 30, 0, -851962, 30, 0, -851961, 30, 0, -851960, 30, 0, -851959, 30, 0, -851958, 30, 0, -851957, 30, 0, -851956, 30, 0, -851955, 30, 0, -851954, 30, 0, -851953, 30, 0, -851952, 30, 0, -851951, 14, 0, -720902, 1073741837, 0, -720901, 30, 0, -720900, 30, 0, -720899, 30, 0, -720898, 30, 0, -720897, 30, 0, -786432, 30, 0, -786431, 30, 0, -786430, 30, 0, -786429, 30, 0, -786428, 30, 0, -786427, 30, 0, -786426, 30, 0, -786425, 30, 0, -786424, 30, 0, -786423, 30, 0, -786422, 30, 0, -786421, 30, 0, -786420, 30, 0, -786419, 30, 0, -786418, 30, 0, -786417, 30, 0, -786416, 30, 0, -786415, 14, 0, -655366, 30, 0, -655365, 30, 0, -655364, 30, 0, -655363, 30, 0, -655362, 30, 0, -655361, 30, 0, -720896, 30, 0, -720895, 30, 0, -720894, 30, 0, -720893, 30, 0, -720892, 30, 0, -720891, 30, 0, -720890, 30, 0, -720889, 30, 0, -720888, 30, 0, -720887, 30, 0, -720886, 30, 0, -720885, 30, 0, -720884, 30, 0, -720883, 30, 0, -720882, 30, 0, -720881, 30, 0, -720880, 30, 0, -720879, 14, 0, -589830, 30, 0, -589829, 30, 0, -589828, 30, 0, -589827, 30, 0, -589826, 30, 0, -589825, 30, 0, -655360, 30, 0, -655359, 30, 0, -655358, 30, 0, -655357, 30, 0, -655356, 30, 0, -655355, 30, 0, -655354, 30, 0, -655353, 30, 0, -655352, 30, 0, -655351, 30, 0, -655350, 30, 0, -655349, 30, 0, -655348, 30, 0, -655347, 30, 0, -655346, 30, 0, -655345, 30, 0, -655344, 30, 0, -655343, 14, 0, -524294, 30, 0, -524293, 30, 0, -524292, 30, 0, -524291, 30, 0, -524290, 30, 0, -524289, 30, 0, -589824, 30, 0, -589823, 30, 0, -589822, 30, 0, -589821, 30, 0, -589820, 30, 0, -589819, 30, 0, -589818, 30, 0, -589817, 30, 0, -589816, 30, 0, -589815, 30, 0, -589814, 30, 0, -589813, 30, 0, -589812, 30, 0, -589811, 30, 0, -589810, 30, 0, -589809, 30, 0, -589808, 30, 0, -589807, 14, 0, -458758, 30, 0, -458757, 30, 0, -458756, 30, 0, -458755, 30, 0, -458754, 30, 0, -458753, 30, 0, -524288, 30, 0, -524287, 30, 0, -524286, 30, 0, -524285, 30, 0, -524284, 30, 0, -524283, 30, 0, -524282, 30, 0, -524281, 30, 0, -524280, 30, 0, -524279, 30, 0, -524278, 30, 0, -524277, 30, 0, -524276, 30, 0, -524275, 30, 0, -524274, 30, 0, -524273, 30, 0, -524272, 30, 0, -524271, 14, 0, -393222, 30, 0, -393221, 30, 0, -393220, 30, 0, -393219, 30, 0, -393218, 30, 0, -393217, 30, 0, -458752, 30, 0, -458751, 30, 0, -458750, 30, 0, -458749, 30, 0, -458748, 30, 0, -458747, 30, 0, -458746, 30, 0, -458745, 30, 0, -458744, 30, 0, -458743, 30, 0, -458742, 30, 0, -458741, 30, 0, -458740, 30, 0, -458739, 30, 0, -458738, 30, 0, -458737, 30, 0, -458736, 30, 0, -458735, 14, 0, -327686, 536870925, 0, -327685, 38, 0, -327684, 38, 0, -327683, 38, 0, -327682, 38, 0, -327681, 38, 0, -393216, 38, 0, -393215, 38, 0, -393214, 38, 0, -393213, 38, 0, -393212, 38, 0, -393211, 38, 0, -393210, 38, 0, -393209, 38, 0, -393208, 13, 0, -393207, 30, 0, -393206, 30, 0, -393205, 30, 0, -393204, 536870925, 0, -393203, 536870950, 0, -393202, 536870950, 0, -393201, 536870950, 0, -393200, 536870950, 0, -393199, 13, 0, -262150, 14, 0, -262149, 35, 0, -262148, 35, 0, -262147, 35, 0, -262146, 35, 0, -262145, 35, 0, -327680, 35, 0, -327679, 35, 0, -327678, 35, 0, -327677, 35, 0, -327676, 35, 0, -327675, 35, 0, -327674, 35, 0, -327673, 35, 0, -327672, 14, 0, -327671, 30, 0, -327670, 30, 0, -327669, 30, 0, -327668, 14, 0, -327667, 35, 0, -327666, 35, 0, -327665, 35, 0, -327664, 35, 0, -327663, 14, 0, -196614, 14, 0, -196613, 35, 0, -196612, 35, 0, -196611, 35, 0, -196610, 35, 0, -196609, 35, 0, -262144, 35, 0, -262143, 35, 0, -262142, 35, 0, -262141, 35, 0, -262140, 35, 0, -262139, 35, 0, -262138, 35, 0, -262137, 35, 0, -262136, 14, 0, -262135, 30, 0, -262134, 30, 0, -262133, 30, 0, -262132, 14, 0, -262131, 35, 0, -262130, 35, 0, -262129, 35, 0, -262128, 35, 0, -262127, 14, 0, -131078, 14, 0, -131077, 35, 0, -131076, 35, 0, -131075, 35, 0, -131074, 35, 0, -131073, 35, 0, -196608, 35, 0, -196607, 35, 0, -196606, 35, 0, -196605, 35, 0, -196604, 35, 0, -196603, 35, 0, -196602, 35, 0, -196601, 35, 0, -196600, 14, 0, -196599, 30, 0, -196598, 30, 0, -196597, 30, 0, -196596, 14, 0, -196595, 35, 0, -196594, 35, 0, -196593, 35, 0, -196592, 35, 0, -196591, 14, 0, -65542, 14, 0, -65541, 35, 0, -65540, 35, 0, -65539, 35, 0, -65538, 35, 0, -65537, 35, 0, -131072, 35, 0, -131071, 35, 0, -131070, 35, 0, -131069, 35, 0, -131068, 35, 0, -131067, 35, 0, -131066, 35, 0, -131065, 35, 0, -131064, 14, 0, -131063, 30, 0, -131062, 30, 0, -131061, 30, 0, -131060, 14, 0, -131059, 35, 0, -131058, 35, 0, -131057, 35, 0, -131056, 35, 0, -131055, 14, 0, -6, 14, 0, -5, 35, 0, -4, 35, 0, -3, 35, 0, -2, 35, 0, -1, 35, 0, -65536, 35, 0, -65535, 35, 0, -65534, 35, 0, -65533, 35, 0, -65532, 35, 0, -65531, 35, 0, -65530, 35, 0, -65529, 35, 0, -65528, 14, 0, -65527, 30, 0, -65526, 30, 0, -65525, 30, 0, -65524, 14, 0, -65523, 35, 0, -65522, 35, 0, -65521, 35, 0, -65520, 35, 0, -65519, 14, 0, 65530, 14, 0, 65531, 35, 0, 65532, 35, 0, 65533, 35, 0, 65534, 35, 0, 65535, 35, 0, 0, 35, 0, 1, 35, 0, 2, 35, 0, 3, 35, 0, 4, 35, 0, 5, 35, 0, 6, 35, 0, 7, 35, 0, 8, 14, 0, 9, 30, 0, 10, 30, 0, 11, 30, 0, 12, 14, 0, 13, 35, 0, 14, 35, 0, 15, 35, 0, 16, 35, 0, 17, 14, 0, 131066, 14, 0, 131067, 35, 0, 131068, 35, 0, 131069, 35, 0, 131070, 35, 0, 131071, 35, 0, 65536, 35, 0, 65537, 35, 0, 65538, 35, 0, 65539, 35, 0, 65540, 35, 0, 65541, 35, 0, 65542, 35, 0, 65543, 35, 0, 65544, 14, 0, 65545, 30, 0, 65546, 30, 0, 65547, 30, 0, 65548, 14, 0, 65549, 35, 0, 65550, 35, 0, 65551, 35, 0, 65552, 35, 0, 65553, 14, 0, 196602, 14, 0, 196603, 35, 0, 196604, 35, 0, 196605, 35, 0, 196606, 35, 0, 196607, 35, 0, 131072, 35, 0, 131073, 35, 0, 131074, 35, 0, 131075, 35, 0, 131076, 35, 0, 131077, 35, 0, 131078, 35, 0, 131079, 35, 0, 131080, 536870926, 0, 131081, 30, 0, 131082, 30, 0, 131083, 30, 0, 131084, 14, 0, 131085, 35, 0, 131086, 35, 0, 131087, 35, 0, 131088, 35, 0, 131089, 14, 0, 262138, 14, 0, 262139, 35, 0, 262140, 35, 0, 262141, 35, 0, 262142, 35, 0, 262143, 35, 0, 196608, 35, 0, 196609, 35, 0, 196610, 35, 0, 196611, 35, 0, 196612, 35, 0, 196613, 35, 0, 196614, 35, 0, 196615, 35, 0, 196616, 14, 0, 196617, 30, 0, 196618, 30, 0, 196619, 30, 0, 196620, 14, 0, 196621, 35, 0, 196622, 35, 0, 196623, 35, 0, 196624, 35, 0, 196625, 14, 0, 327674, 14, 0, 327675, 35, 0, 327676, 35, 0, 327677, 35, 0, 327678, 35, 0, 327679, 35, 0, 262144, 35, 0, 262145, 35, 0, 262146, 35, 0, 262147, 35, 0, 262148, 35, 0, 262149, 35, 0, 262150, 35, 0, 262151, 35, 0, 262152, 14, 0, 262153, 30, 0, 262154, 30, 0, 262155, 30, 0, 262156, 14, 0, 262157, 35, 0, 262158, 35, 0, 262159, 35, 0, 262160, 35, 0, 262161, 14, 0 )

[node name="DecoGroup" type="Node2D" parent="tilemap"]

[node name="TileMap" type="TileMap" parent="tilemap/DecoGroup"]
tile_set = ExtResource( 2 )
cell_size = Vector2( 32, 32 )
cell_custom_transform = Transform2D( 1, 0, 0, 1, 0, 0 )
compatibility_mode = true
format = 1
tile_data = PoolIntArray( -983039, 0, 0, -983036, 0, 0, -917503, 1, 0, -917500, 1, 0, -851967, 2, 0, -851964, 1, 0, -851954, 0, 0, -786428, 2, 0, -786418, 1, 0, -720896, 3, 0, -720895, 4, 0, -720894, 4, 0, -720893, 4, 0, -720892, 4, 0, -720891, 536870915, 0, -720882, 1, 0, -589827, 0, 0, -655360, 5, 0, -655359, 6, 0, -655358, 6, 0, -655357, 6, 0, -655356, 6, 0, -655355, 536870917, 0, -655346, 1, 0, -524291, 1, 0, -589824, 5, 0, -589823, 6, 0, -589822, 6, 0, -589821, 6, 0, -589820, 6, 0, -589819, 536870917, 0, -589810, 2, 0, -458755, 2, 0, -524288, 5, 0, -524287, 6, 0, -524286, 6, 0, -524285, 6, 0, -524284, 6, 0, -524283, 536870917, 0, -458752, 5, 0, -458751, 6, 0, -458750, 6, 0, -458749, 6, 0, -458748, 6, 0, -458747, 536870917, 0 )

[node name="SwitchGroup" type="Node2D" parent="tilemap"]

[node name="FloorSwitch" parent="tilemap/SwitchGroup" instance=ExtResource( 3 )]
position = Vector2( 464, -192 )
is_on = true
target_nodes = [ "SunbeamGroup/Sunbeam" ]

[node name="EnemiesGroup" type="Node2D" parent="tilemap"]

[node name="Skeleton" parent="tilemap/EnemiesGroup" instance=ExtResource( 4 )]
position = Vector2( 496, -240 )

[node name="SunbeamGroup" type="Node2D" parent="tilemap"]

[node name="Sunbeam" parent="tilemap/SunbeamGroup" instance=ExtResource( 5 )]
position = Vector2( 336, -256 )

[node name="block" parent="tilemap/SunbeamGroup/Sunbeam" index="0"]
scale = Vector2( 3, 26 )

[node name="sunbeam" parent="tilemap/SunbeamGroup/Sunbeam" index="1"]
scale = Vector2( 3, 26 )

[node name="TeleportGroup" type="Node2D" parent="tilemap"]

[node name="Teleport" parent="tilemap/TeleportGroup" instance=ExtResource( 6 )]
position = Vector2( -208, -272 )
target_level = "res://levels/dungeon/0-2.tscn"
teleport_to = Vector2( 396, -1040 )

[node name="teleport" parent="tilemap/TeleportGroup/Teleport" index="0"]
scale = Vector2( 1, 5 )

[node name="Teleport1" parent="tilemap/TeleportGroup" instance=ExtResource( 6 )]
position = Vector2( 336, 176 )
is_horizontal = false
target_level = "res://levels/dungeon/1-0.tscn"
teleport_to = Vector2( 208, -336 )

[node name="teleport" parent="tilemap/TeleportGroup/Teleport1" index="0"]
scale = Vector2( 3, 1 )

[node name="boundaries" type="Node2D" parent="tilemap"]

[node name="NW" type="Position2D" parent="tilemap/boundaries"]
position = Vector2( -198, -678 )

[node name="SE" type="Position2D" parent="tilemap/boundaries"]
position = Vector2( 586, 170 )

[editable path="tilemap/SunbeamGroup/Sunbeam"]

[editable path="tilemap/TeleportGroup/Teleport"]

[editable path="tilemap/TeleportGroup/Teleport1"]
