[gd_scene load_steps=8 format=2]

[ext_resource path="res://scenes/springislandcastle/tileset.tres" type="TileSet" id=1]
[ext_resource path="res://scenes/dungeon/ladder/ladder.tscn" type="PackedScene" id=2]
[ext_resource path="res://scenes/dungeon/ladder/laddertop.tscn" type="PackedScene" id=3]
[ext_resource path="res://scenes/common/damagables/skeleton/blackskeleton.tscn" type="PackedScene" id=4]
[ext_resource path="res://scenes/common/sunbeam.tscn" type="PackedScene" id=5]
[ext_resource path="res://scenes/common/switches/floorswitch.tscn" type="PackedScene" id=6]
[ext_resource path="res://scenes/common/teleport.tscn" type="PackedScene" id=7]

[node name="LVL_NOTITLE" type="Node2D"]
__meta__ = {
"__editor_plugin_screen__": "2D"
}

[node name="tilemap" type="TileMap" parent="."]
tile_set = ExtResource( 1 )
cell_size = Vector2( 32, 32 )
compatibility_mode = true
collision_layer = 524288
format = 1
tile_data = PoolIntArray( -917556, 1610612737, 0, -917555, 1073741824, 0, -917554, 1073741824, 0, -917553, 1073741824, 0, -917552, 1073741824, 0, -917551, 1073741825, 0, -917550, 7, 0, -917549, 7, 0, -917548, 7, 0, -917547, 1610612737, 0, -917546, 1073741824, 0, -917545, 1073741824, 0, -917544, 1073741824, 0, -917543, 1073741824, 0, -917542, 1073741824, 0, -917541, 1073741824, 0, -917540, 1073741824, 0, -917539, 1073741824, 0, -917538, 1073741824, 0, -917537, 1073741824, 0, -917536, 1073741824, 0, -917535, 1073741824, 0, -917534, 1073741824, 0, -917533, 1073741824, 0, -917532, 1073741824, 0, -917531, 1073741824, 0, -917530, 1073741824, 0, -917529, 1073741824, 0, -917528, 1073741824, 0, -917527, 1073741824, 0, -917526, 1073741824, 0, -917525, 1073741824, 0, -917524, 1073741824, 0, -917523, 1073741824, 0, -917522, 1073741824, 0, -917521, 1073741824, 0, -917520, 1073741824, 0, -917519, 1073741824, 0, -917518, 1073741824, 0, -917517, 1073741824, 0, -917516, 1073741824, 0, -917515, 1073741824, 0, -917514, 1073741824, 0, -917513, 1073741824, 0, -917512, 1073741824, 0, -917511, 1073741824, 0, -917510, 1073741824, 0, -917509, 1073741824, 0, -917508, 1073741824, 0, -917507, 1073741824, 0, -917506, 1073741824, 0, -917505, 1073741824, 0, -983040, 1073741824, 0, -983039, 1073741824, 0, -983038, 1073741824, 0, -983037, 1073741824, 0, -983036, 1073741824, 0, -983035, 1073741824, 0, -983034, 1073741824, 0, -983033, 1073741824, 0, -983032, 1073741824, 0, -983031, 1073741824, 0, -983030, 1073741824, 0, -983029, 1073741824, 0, -983028, 1073741824, 0, -983027, 1073741824, 0, -983026, 1073741824, 0, -983025, 1073741824, 0, -983024, 1073741824, 0, -983023, 1073741824, 0, -983022, 1073741824, 0, -983021, 1073741824, 0, -983020, 1073741824, 0, -983019, 1073741824, 0, -983018, 1073741824, 0, -983017, 1073741824, 0, -983016, 1073741824, 0, -983015, 1073741824, 0, -983014, 1073741824, 0, -983013, 1073741824, 0, -983012, 1073741824, 0, -983011, 1073741825, 0, -852020, 2, 0, -852019, 10, 0, -852015, 10, 0, -852011, 10, 0, -852007, 10, 0, -852003, 10, 0, -851999, 10, 0, -851995, 10, 0, -851991, 10, 0, -851987, 10, 0, -851983, 10, 0, -851979, 10, 0, -851975, 10, 0, -851971, 10, 0, -917503, 10, 0, -917499, 10, 0, -917495, 10, 0, -917491, 10, 0, -917487, 10, 0, -917483, 10, 0, -917479, 10, 0, -917475, 2, 0, -786484, 2, 0, -851939, 2, 0, -720948, 2, 0, -720947, 9, 0, -720946, 8, 0, -720945, 8, 0, -720944, 9, 0, -720943, 9, 0, -720942, 8, 0, -720941, 8, 0, -720940, 9, 0, -720939, 9, 0, -720938, 8, 0, -720937, 8, 0, -720936, 9, 0, -720935, 9, 0, -720934, 8, 0, -720933, 8, 0, -720932, 9, 0, -720931, 9, 0, -720930, 8, 0, -720929, 8, 0, -720928, 9, 0, -720927, 9, 0, -720926, 8, 0, -720925, 8, 0, -720924, 9, 0, -720923, 9, 0, -720922, 8, 0, -720921, 8, 0, -720920, 9, 0, -720919, 9, 0, -720918, 8, 0, -720917, 8, 0, -720916, 9, 0, -720915, 9, 0, -720914, 8, 0, -720913, 8, 0, -720912, 9, 0, -720911, 9, 0, -720910, 8, 0, -720909, 8, 0, -720908, 9, 0, -720907, 9, 0, -720906, 8, 0, -720905, 8, 0, -720904, 9, 0, -720903, 9, 0, -720902, 8, 0, -720901, 8, 0, -720900, 9, 0, -720899, 9, 0, -720898, 8, 0, -720897, 8, 0, -786432, 9, 0, -786431, 9, 0, -786430, 8, 0, -786429, 8, 0, -786428, 9, 0, -786427, 9, 0, -786426, 8, 0, -786425, 8, 0, -786424, 9, 0, -786423, 9, 0, -786422, 8, 0, -786421, 8, 0, -786420, 9, 0, -786419, 9, 0, -786418, 8, 0, -786417, 8, 0, -786416, 9, 0, -786415, 9, 0, -786414, 8, 0, -786413, 8, 0, -786412, 9, 0, -786411, 9, 0, -786410, 8, 0, -786409, 8, 0, -786408, 9, 0, -786407, 9, 0, -786406, 8, 0, -786405, 8, 0, -786404, 9, 0, -786403, 2, 0, -655412, 2, 0, -655411, 12, 0, -655407, 6, 0, -655403, 12, 0, -655399, 6, 0, -655395, 12, 0, -655391, 6, 0, -655387, 12, 0, -655383, 6, 0, -655379, 12, 0, -655375, 6, 0, -655371, 12, 0, -655367, 6, 0, -655363, 12, 0, -720895, 6, 0, -720891, 12, 0, -720887, 6, 0, -720883, 12, 0, -720879, 6, 0, -720875, 12, 0, -720871, 6, 0, -720867, 2, 0, -589876, 2, 0, -655331, 2, 0, -524340, 2, 0, -589795, 2, 0, -458804, 2, 0, -524259, 2, 0, -393268, 2, 0, -458723, 2, 0, -327732, 2, 0, -393187, 2, 0, -262196, 2, 0, -327651, 2, 0, -196660, 2, 0, -262115, 2, 0, -131124, 2, 0, -131123, 6, 0, -131119, 13, 0, -131115, 6, 0, -131111, 27, 0, -131107, 27, 0, -131103, 27, 0, -131099, 6, 0, -131095, 28, 0, -131091, 27, 0, -131087, 28, 0, -131083, 6, 0, -131079, 27, 0, -131075, 27, 0, -196607, 28, 0, -196603, 6, 0, -196599, 27, 0, -196595, 27, 0, -196591, 27, 0, -196587, 6, 0, -196583, 6, 0, -196579, 2, 0, -65588, 2, 0, -131043, 2, 0, -52, 2, 0, -65507, 2, 0, 65484, 2, 0, 29, 2, 0, 131020, 2, 0, 65565, 2, 0, 196556, 2, 0, 131101, 2, 0, 262092, 2, 0, 196637, 2, 0, 327628, 2, 0, 262173, 2, 0, 393164, 536870913, 0, 393165, 0, 0, 393166, 0, 0, 393167, 0, 0, 393168, 0, 0, 393169, 0, 0, 393170, 0, 0, 393171, 0, 0, 393172, 0, 0, 393173, 0, 0, 393174, 0, 0, 393175, 0, 0, 393176, 0, 0, 393177, 0, 0, 393178, 0, 0, 393179, 0, 0, 393180, 0, 0, 393181, 0, 0, 393182, 0, 0, 393183, 0, 0, 393184, 0, 0, 393185, 0, 0, 393186, 0, 0, 393187, 0, 0, 393188, 0, 0, 393189, 0, 0, 393190, 0, 0, 393191, 0, 0, 393192, 0, 0, 393193, 0, 0, 393194, 0, 0, 393195, 0, 0, 393196, 0, 0, 393197, 0, 0, 393198, 0, 0, 393199, 0, 0, 393200, 0, 0, 393201, 0, 0, 393202, 0, 0, 393203, 0, 0, 393204, 0, 0, 393205, 0, 0, 393206, 0, 0, 393207, 0, 0, 393208, 0, 0, 393209, 0, 0, 393210, 0, 0, 393211, 0, 0, 393212, 0, 0, 393213, 0, 0, 393214, 0, 0, 393215, 0, 0, 327680, 0, 0, 327681, 0, 0, 327682, 0, 0, 327683, 0, 0, 327684, 0, 0, 327685, 0, 0, 327686, 0, 0, 327687, 0, 0, 327688, 0, 0, 327689, 0, 0, 327690, 0, 0, 327691, 0, 0, 327692, 0, 0, 327693, 0, 0, 327694, 0, 0, 327695, 0, 0, 327696, 0, 0, 327697, 0, 0, 327698, 0, 0, 327699, 0, 0, 327700, 1, 0, 327701, 7, 0, 327702, 7, 0, 327703, 7, 0, 327704, 536870913, 0, 327705, 0, 0, 327706, 0, 0, 327707, 0, 0, 327708, 0, 0, 327709, 1, 0, 458700, 2, 0, 458701, 3, 0, 458702, -1610612732, 0, 458703, -1610612732, 0, 458704, -1610612732, 0, 458705, -1610612732, 0, 458706, -1610612732, 0, 458707, -1610612732, 0, 458708, -1610612732, 0, 458709, -1610612732, 0, 458710, -1610612732, 0, 458711, -1610612732, 0, 458712, -1610612732, 0, 458713, -1610612732, 0, 458714, -1610612732, 0, 458715, -1610612732, 0, 458716, -1610612732, 0, 458717, -1610612732, 0, 458718, -1610612732, 0, 458719, -1610612732, 0, 458720, -1610612732, 0, 458721, -1610612732, 0, 458722, -1610612732, 0, 458723, -1610612732, 0, 458724, -1610612732, 0, 458725, -1610612732, 0, 458726, -1610612732, 0, 458727, -1610612732, 0, 458728, -1610612732, 0, 458729, -1610612732, 0, 458730, -1610612732, 0, 458731, -1610612732, 0, 458732, -1610612732, 0, 458733, -1610612732, 0, 458734, -1610612732, 0, 458735, -1610612732, 0, 458736, -1610612732, 0, 458737, -1610612732, 0, 458738, -1610612732, 0, 458739, -1610612732, 0, 458740, -1610612732, 0, 458741, -1610612732, 0, 458742, -1610612732, 0, 458743, -1610612732, 0, 458744, -1610612732, 0, 458745, -1610612732, 0, 458746, -1610612732, 0, 458747, -1610612732, 0, 458748, -1610612732, 0, 458749, -1610612732, 0, 458750, -1610612732, 0, 458751, -1610612732, 0, 393216, -1610612732, 0, 393217, -1610612732, 0, 393218, -1610612732, 0, 393219, -1610612732, 0, 393220, -1610612732, 0, 393221, -1610612732, 0, 393222, -1610612732, 0, 393223, -1610612732, 0, 393224, -1610612732, 0, 393225, -1610612732, 0, 393226, -1610612732, 0, 393227, -1610612732, 0, 393228, -1610612732, 0, 393229, -1610612732, 0, 393230, -1610612732, 0, 393231, -1610612732, 0, 393232, -1610612732, 0, 393233, -1610612732, 0, 393234, -1610612732, 0, 393235, 536870915, 0, 393236, 2, 0, 393237, 7, 0, 393238, 7, 0, 393239, 7, 0, 393240, 2, 0, 393241, 3, 0, 393242, -1610612732, 0, 393243, -1610612732, 0, 393244, 536870915, 0, 393245, 2, 0, 524236, 2, 0, 524237, 4, 0, 524238, 5, 0, 524239, 5, 0, 524240, 5, 0, 524241, 5, 0, 524242, 5, 0, 524243, 5, 0, 524244, 5, 0, 524245, 5, 0, 524246, 5, 0, 524247, 5, 0, 524248, 5, 0, 524249, 5, 0, 524250, 5, 0, 524251, 5, 0, 524252, 5, 0, 524253, 5, 0, 524254, 5, 0, 524255, 5, 0, 524256, 5, 0, 524257, 5, 0, 524258, 5, 0, 524259, 5, 0, 524260, 5, 0, 524261, 5, 0, 524262, 5, 0, 524263, 5, 0, 524264, 5, 0, 524265, 5, 0, 524266, 5, 0, 524267, 5, 0, 524268, 5, 0, 524269, 5, 0, 524270, 5, 0, 524271, 5, 0, 524272, 5, 0, 524273, 5, 0, 524274, 5, 0, 524275, 5, 0, 524276, 5, 0, 524277, 5, 0, 524278, 5, 0, 524279, 5, 0, 524280, 5, 0, 524281, 5, 0, 524282, 5, 0, 524283, 5, 0, 524284, 5, 0, 524285, 5, 0, 524286, 5, 0, 524287, 5, 0, 458752, 5, 0, 458753, 5, 0, 458754, 5, 0, 458755, 5, 0, 458756, 5, 0, 458757, 5, 0, 458758, 5, 0, 458759, 5, 0, 458760, 5, 0, 458761, 5, 0, 458762, 5, 0, 458763, 5, 0, 458764, 5, 0, 458765, 5, 0, 458766, 5, 0, 458767, 5, 0, 458768, 5, 0, 458769, 5, 0, 458770, 5, 0, 458771, 4, 0, 458772, 2, 0, 458773, 7, 0, 458774, 7, 0, 458775, 7, 0, 458776, 2, 0, 458777, 4, 0, 458778, 5, 0, 458779, 5, 0, 458780, 4, 0, 458781, 2, 0, 589772, 2, 0, 589773, 1073741827, 0, 589774, -1610612732, 0, 589775, -1610612732, 0, 589776, -1610612732, 0, 589777, -1610612732, 0, 589778, -1610612732, 0, 589779, -1610612732, 0, 589780, -1610612732, 0, 589781, -1610612732, 0, 589782, -1610612732, 0, 589783, -1610612732, 0, 589784, -1610612732, 0, 589785, -1610612732, 0, 589786, -1610612732, 0, 589787, -1610612732, 0, 589788, -1610612732, 0, 589789, -1610612732, 0, 589790, -1610612732, 0, 589791, -1610612732, 0, 589792, -1610612732, 0, 589793, -1610612732, 0, 589794, -1610612732, 0, 589795, -1610612732, 0, 589796, -1610612732, 0, 589797, -1610612732, 0, 589798, -1610612732, 0, 589799, -1610612732, 0, 589800, -1610612732, 0, 589801, -1610612732, 0, 589802, -1610612732, 0, 589803, -1610612732, 0, 589804, -1610612732, 0, 589805, -1610612732, 0, 589806, -1610612732, 0, 589807, -1610612732, 0, 589808, -1610612732, 0, 589809, -1610612732, 0, 589810, -1610612732, 0, 589811, -1610612732, 0, 589812, -1610612732, 0, 589813, -1610612732, 0, 589814, -1610612732, 0, 589815, -1610612732, 0, 589816, -1610612732, 0, 589817, -1610612732, 0, 589818, -1610612732, 0, 589819, -1610612732, 0, 589820, -1610612732, 0, 589821, -1610612732, 0, 589822, -1610612732, 0, 589823, -1610612732, 0, 524288, -1610612732, 0, 524289, -1610612732, 0, 524290, -1610612732, 0, 524291, -1610612732, 0, 524292, -1610612732, 0, 524293, -1610612732, 0, 524294, -1610612732, 0, 524295, -1610612732, 0, 524296, -1610612732, 0, 524297, -1610612732, 0, 524298, -1610612732, 0, 524299, -1610612732, 0, 524300, -1610612732, 0, 524301, -1610612732, 0, 524302, -1610612732, 0, 524303, -1610612732, 0, 524304, -1610612732, 0, 524305, -1610612732, 0, 524306, -1610612732, 0, 524307, 1610612739, 0, 524308, 2, 0, 524309, 7, 0, 524310, 7, 0, 524311, 7, 0, 524312, 2, 0, 524313, 1073741827, 0, 524314, -1610612732, 0, 524315, -1610612732, 0, 524316, 1610612739, 0, 524317, 2, 0 )

[node name="LadderGroup" type="Node2D" parent="tilemap"]

[node name="TestLadder" parent="tilemap/LadderGroup" instance=ExtResource( 2 )]
position = Vector2( 720, 224 )

[node name="Sprite" parent="tilemap/LadderGroup/TestLadder/KinematicBody2D" index="0"]
region_rect = Rect2( 0, 0, 32, 128 )

[node name="ladder" parent="tilemap/LadderGroup/TestLadder/KinematicBody2D" index="1"]
scale = Vector2( 1, 4 )

[node name="TestLadder 2" parent="tilemap/LadderGroup" instance=ExtResource( 3 )]
position = Vector2( 720, 144 )

[node name="TestLadder1" parent="tilemap/LadderGroup" instance=ExtResource( 2 )]
position = Vector2( -1424, -368 )

[node name="Sprite" parent="tilemap/LadderGroup/TestLadder1/KinematicBody2D" index="0"]
region_rect = Rect2( 0, 0, 32, 224 )

[node name="ladder" parent="tilemap/LadderGroup/TestLadder1/KinematicBody2D" index="1"]
scale = Vector2( 1, 7 )

[node name="EnemiesGroup" type="Node2D" parent="tilemap"]

[node name="BlackSkeleton" parent="tilemap/EnemiesGroup" instance=ExtResource( 4 )]
position = Vector2( 336, 112 )

[node name="BlackSkeleton1" parent="tilemap/EnemiesGroup" instance=ExtResource( 4 )]
position = Vector2( 16, 112 )

[node name="BlackSkeleton2" parent="tilemap/EnemiesGroup" instance=ExtResource( 4 )]
position = Vector2( -320, 112 )

[node name="BlackSkeleton3" parent="tilemap/EnemiesGroup" instance=ExtResource( 4 )]
position = Vector2( -704, 112 )

[node name="BlackSkeleton4" parent="tilemap/EnemiesGroup" instance=ExtResource( 4 )]
position = Vector2( -1104, 112 )

[node name="SunbeamGroup" type="Node2D" parent="tilemap"]

[node name="Sunbeam" parent="tilemap/SunbeamGroup" instance=ExtResource( 5 )]
position = Vector2( -32, -160 )

[node name="block" parent="tilemap/SunbeamGroup/Sunbeam" index="0"]
scale = Vector2( 4, 20 )

[node name="sunbeam" parent="tilemap/SunbeamGroup/Sunbeam" index="1"]
scale = Vector2( 4, 20 )

[node name="Sunbeam1" parent="tilemap/SunbeamGroup" instance=ExtResource( 5 )]
position = Vector2( -544, -160 )

[node name="block" parent="tilemap/SunbeamGroup/Sunbeam1" index="0"]
scale = Vector2( 4, 20 )

[node name="sunbeam" parent="tilemap/SunbeamGroup/Sunbeam1" index="1"]
scale = Vector2( 4, 20 )

[node name="Sunbeam2" parent="tilemap/SunbeamGroup" instance=ExtResource( 5 )]
position = Vector2( -1056, -160 )

[node name="block" parent="tilemap/SunbeamGroup/Sunbeam2" index="0"]
scale = Vector2( 4, 20 )

[node name="sunbeam" parent="tilemap/SunbeamGroup/Sunbeam2" index="1"]
scale = Vector2( 4, 20 )

[node name="Sunbeam3" parent="tilemap/SunbeamGroup" instance=ExtResource( 5 )]
position = Vector2( 480, -160 )

[node name="block" parent="tilemap/SunbeamGroup/Sunbeam3" index="0"]
scale = Vector2( 4, 20 )

[node name="sunbeam" parent="tilemap/SunbeamGroup/Sunbeam3" index="1"]
scale = Vector2( 4, 20 )

[node name="SwitchGroup" type="Node2D" parent="tilemap"]

[node name="FloorSwitch" parent="tilemap/SwitchGroup" instance=ExtResource( 6 )]
position = Vector2( 480, 160 )
target_nodes = [ "SunbeamGroup/Sunbeam" ]
is_toggle = true

[node name="FloorSwitch1" parent="tilemap/SwitchGroup" instance=ExtResource( 6 )]
position = Vector2( -32, 160 )
target_nodes = [ "SunbeamGroup/Sunbeam3" ]
is_toggle = true

[node name="FloorSwitch2" parent="tilemap/SwitchGroup" instance=ExtResource( 6 )]
position = Vector2( -544, 160 )
target_nodes = [ "SunbeamGroup/Sunbeam2" ]
is_toggle = true

[node name="FloorSwitch3" parent="tilemap/SwitchGroup" instance=ExtResource( 6 )]
position = Vector2( -1056, 160 )
target_nodes = [ "SunbeamGroup/Sunbeam1" ]
is_toggle = true

[node name="TeleportGroup" type="Node2D" parent="tilemap"]

[node name="Teleport" parent="tilemap/TeleportGroup" instance=ExtResource( 7 )]
position = Vector2( 720, 304 )
is_horizontal = false
target_level = "res://levels/springislandcastle/1-2.tscn"
teleport_to = Vector2( 2032, -240 )

[node name="teleport" parent="tilemap/TeleportGroup/Teleport" index="0"]
scale = Vector2( 3, 1 )

[node name="Teleport1" parent="tilemap/TeleportGroup" instance=ExtResource( 7 )]
position = Vector2( -1424, -496 )
is_horizontal = false
target_level = "res://levels/springislandcastle/1-4.tscn"
teleport_to = Vector2( -112, 128 )

[node name="teleport" parent="tilemap/TeleportGroup/Teleport1" index="0"]
scale = Vector2( 3, 1 )

[node name="boundaries" type="Node2D" parent="tilemap"]

[node name="NW" type="Position2D" parent="tilemap/boundaries"]
position = Vector2( -1670, -486 )

[node name="SE" type="Position2D" parent="tilemap/boundaries"]
position = Vector2( 970, 298 )

[editable path="tilemap/LadderGroup/TestLadder"]

[editable path="tilemap/LadderGroup/TestLadder1"]

[editable path="tilemap/SunbeamGroup/Sunbeam"]

[editable path="tilemap/SunbeamGroup/Sunbeam1"]

[editable path="tilemap/SunbeamGroup/Sunbeam2"]

[editable path="tilemap/SunbeamGroup/Sunbeam3"]

[editable path="tilemap/TeleportGroup/Teleport"]

[editable path="tilemap/TeleportGroup/Teleport1"]
