[gd_scene load_steps=18 format=2]

[ext_resource path="res://scenes/lavacave/tileset.tres" type="TileSet" id=1]
[ext_resource path="res://scenes/lavacave/bubbles.tscn" type="PackedScene" id=2]
[ext_resource path="res://scenes/lavacave/movingplatform/movingplatform.tscn" type="PackedScene" id=3]
[ext_resource path="res://scenes/lavacave/climbableblock.tscn" type="PackedScene" id=4]
[ext_resource path="res://scenes/lavacave/BGs/cornerR.png" type="Texture" id=5]
[ext_resource path="res://scenes/lavacave/BGs/ledgeL.png" type="Texture" id=6]
[ext_resource path="res://scenes/lavacave/BGs/ledgeR.png" type="Texture" id=7]
[ext_resource path="res://scenes/lavacave/fallingplatform/fallingplatform.tscn" type="PackedScene" id=8]
[ext_resource path="res://scenes/common/fluid/lava.tscn" type="PackedScene" id=9]
[ext_resource path="res://scenes/common/breakables/torch.tscn" type="PackedScene" id=10]
[ext_resource path="res://scenes/common/damagables/demon/demon.tscn" type="PackedScene" id=11]
[ext_resource path="res://scenes/common/teleport.tscn" type="PackedScene" id=12]

[sub_resource type="PhysicsMaterial" id=1]
friction = 0.0

[sub_resource type="PhysicsMaterial" id=2]
friction = 0.0

[sub_resource type="PhysicsMaterial" id=3]
friction = 0.0

[sub_resource type="PhysicsMaterial" id=4]
friction = 0.0

[sub_resource type="PhysicsMaterial" id=5]
friction = 0.0

[node name="LVL_NOTITLE" type="Node2D"]
__meta__ = {
"__editor_plugin_screen__": "2D"
}

[node name="tilemap" type="TileMap" parent="."]
tile_set = ExtResource( 1 )
cell_size = Vector2( 32, 32 )
compatibility_mode = true
collision_layer = 524288
format = 1
tile_data = PoolIntArray( -589835, 1073741825, 0, -589834, 1073741824, 0, -589833, 1073741824, 0, -589832, 1073741824, 0, -589831, 1073741824, 0, -589830, 1073741824, 0, -589829, 1073741824, 0, -589828, 1073741824, 0, -589827, 1073741824, 0, -589826, 1073741824, 0, -589825, 1073741824, 0, -655360, 1073741824, 0, -655359, 1073741824, 0, -655358, 1073741824, 0, -655357, 1073741824, 0, -655356, 1073741824, 0, -655355, 1073741824, 0, -655354, 1073741824, 0, -655353, 1073741824, 0, -655352, 1073741824, 0, -655351, 1073741824, 0, -655350, 1073741824, 0, -655349, 1073741824, 0, -655348, 1073741824, 0, -655347, 1073741824, 0, -655346, 1073741824, 0, -655345, 1073741824, 0, -655344, 1073741824, 0, -655343, 1073741824, 0, -655342, 1073741824, 0, -655341, 1073741824, 0, -655340, 1073741824, 0, -655339, 1073741824, 0, -655338, 1073741824, 0, -655337, 1073741824, 0, -655336, 1073741824, 0, -655335, 1073741824, 0, -655334, 1073741824, 0, -655333, 1073741824, 0, -655332, 1073741826, 0, -655331, 15, 0, -655330, 15, 0, -655329, 15, 0, -655328, 15, 0, -655327, 15, 0, -655326, 15, 0, -655325, 1073741825, 0, -655324, 1073741824, 0, -655323, 1073741824, 0, -655322, 1073741824, 0, -655321, 1073741824, 0, -655320, 1073741824, 0, -655319, 1073741824, 0, -655318, 1073741824, 0, -655317, 1073741824, 0, -655316, 1073741824, 0, -655315, 1073741824, 0, -655314, 1073741824, 0, -655313, 1073741824, 0, -655312, 1073741824, 0, -655311, 1073741824, 0, -655310, 1073741824, 0, -655309, 1073741824, 0, -655308, 1073741824, 0, -655307, 1073741824, 0, -655306, 1073741824, 0, -655305, 1073741824, 0, -655304, 1073741824, 0, -655303, 1073741824, 0, -655302, 1073741824, 0, -655301, 1073741824, 0, -655300, 1073741824, 0, -655299, 1073741824, 0, -655298, 1073741824, 0, -655297, 1073741824, 0, -655296, 1073741824, 0, -655295, 1073741824, 0, -655294, 1073741824, 0, -655293, 1073741824, 0, -655292, 1073741824, 0, -655291, 1073741824, 0, -655290, 1073741824, 0, -655289, 1073741824, 0, -655288, 1073741824, 0, -655287, 1073741824, 0, -655286, 1073741824, 0, -655285, 1073741824, 0, -655284, 1073741824, 0, -655283, 1073741824, 0, -655282, 1073741824, 0, -655281, 1073741824, 0, -655280, 1073741824, 0, -655279, 1073741824, 0, -655278, 1073741824, 0, -655277, 1073741824, 0, -655276, 1073741824, 0, -655275, 1073741824, 0, -655274, 1073741824, 0, -655273, 1073741824, 0, -655272, 1073741824, 0, -655271, 1073741824, 0, -655270, 1073741824, 0, -655269, 1073741824, 0, -655268, 1073741824, 0, -655267, 1073741824, 0, -655266, 1073741824, 0, -655265, 1073741824, 0, -655264, 1073741826, 0, -524299, 3, 0, -524298, 11, 0, -524297, 11, 0, -524296, 11, 0, -524295, 11, 0, -524294, 11, 0, -524293, 11, 0, -524292, 11, 0, -524291, 11, 0, -524290, 11, 0, -524289, 11, 0, -589824, 11, 0, -589823, 11, 0, -589822, 11, 0, -589821, 11, 0, -589820, 11, 0, -589819, 11, 0, -589818, 11, 0, -589817, 11, 0, -589816, 11, 0, -589815, 11, 0, -589814, 11, 0, -589813, 11, 0, -589812, 11, 0, -589811, 11, 0, -589810, 11, 0, -589809, 11, 0, -589808, 11, 0, -589807, 11, 0, -589806, 11, 0, -589805, 11, 0, -589804, 11, 0, -589803, 11, 0, -589802, 11, 0, -589801, 11, 0, -589800, 11, 0, -589799, 11, 0, -589798, 11, 0, -589797, 11, 0, -589796, 536870915, 0, -589795, 15, 0, -589794, 15, 0, -589793, 15, 0, -589792, 15, 0, -589791, 15, 0, -589790, 15, 0, -589789, 3, 0, -589788, 11, 0, -589787, 11, 0, -589786, 11, 0, -589785, 11, 0, -589784, 11, 0, -589783, 11, 0, -589782, 11, 0, -589781, 11, 0, -589780, 11, 0, -589779, 11, 0, -589778, 11, 0, -589777, 11, 0, -589776, 11, 0, -589775, 11, 0, -589774, 11, 0, -589773, 11, 0, -589772, 11, 0, -589771, 11, 0, -589770, 11, 0, -589769, 11, 0, -589768, 11, 0, -589767, 11, 0, -589766, 11, 0, -589765, 11, 0, -589764, 11, 0, -589763, 11, 0, -589762, 11, 0, -589761, 11, 0, -589760, 11, 0, -589759, 11, 0, -589758, 11, 0, -589757, 11, 0, -589756, 11, 0, -589755, 11, 0, -589754, 11, 0, -589753, 11, 0, -589752, 11, 0, -589751, 11, 0, -589750, 11, 0, -589749, 11, 0, -589748, 11, 0, -589747, 11, 0, -589746, 11, 0, -589745, 11, 0, -589744, 11, 0, -589743, 11, 0, -589742, 11, 0, -589741, 11, 0, -589740, 11, 0, -589739, 11, 0, -589738, 11, 0, -589737, 11, 0, -589736, 11, 0, -589735, 11, 0, -589734, 11, 0, -589733, 11, 0, -589732, 11, 0, -589731, 11, 0, -589730, 11, 0, -589729, 11, 0, -589728, 11, 0, -458763, 3, 0, -458762, 11, 0, -458761, 11, 0, -458760, 11, 0, -458759, 11, 0, -458758, 11, 0, -458757, 11, 0, -458756, 11, 0, -458755, 11, 0, -458754, 11, 0, -458753, 11, 0, -524288, 11, 0, -524287, 11, 0, -524286, 11, 0, -524285, 11, 0, -524284, 11, 0, -524283, 11, 0, -524282, 11, 0, -524281, 11, 0, -524280, 11, 0, -524279, 11, 0, -524278, 11, 0, -524277, 11, 0, -524276, 11, 0, -524275, 11, 0, -524274, 11, 0, -524273, 11, 0, -524272, 11, 0, -524271, 11, 0, -524270, 11, 0, -524269, 11, 0, -524268, 11, 0, -524267, 11, 0, -524266, 11, 0, -524265, 11, 0, -524264, 11, 0, -524263, 11, 0, -524262, 11, 0, -524261, 11, 0, -524260, 536870915, 0, -524259, 15, 0, -524258, 15, 0, -524257, 15, 0, -524256, 15, 0, -524255, 15, 0, -524254, 15, 0, -524253, 3, 0, -524252, 11, 0, -524251, 11, 0, -524250, 11, 0, -524249, 11, 0, -524248, 11, 0, -524247, 11, 0, -524246, 11, 0, -524245, 11, 0, -524244, 11, 0, -524243, 11, 0, -524242, 11, 0, -524241, 11, 0, -524240, 11, 0, -524239, 11, 0, -524238, 11, 0, -524237, 11, 0, -524236, 11, 0, -524235, 11, 0, -524234, 11, 0, -524233, 11, 0, -524232, 11, 0, -524231, 11, 0, -524230, 11, 0, -524229, 11, 0, -524228, 11, 0, -524227, 11, 0, -524226, 11, 0, -524225, 11, 0, -524224, 11, 0, -524223, 11, 0, -524222, 11, 0, -524221, 11, 0, -524220, 11, 0, -524219, 11, 0, -524218, 11, 0, -524217, 11, 0, -524216, 11, 0, -524215, 11, 0, -524214, 11, 0, -524213, 11, 0, -524212, 11, 0, -524211, 11, 0, -524210, 11, 0, -524209, 11, 0, -524208, 11, 0, -524207, 11, 0, -524206, 11, 0, -524205, 11, 0, -524204, 11, 0, -524203, 11, 0, -524202, 11, 0, -524201, 11, 0, -524200, 11, 0, -524199, 11, 0, -524198, 11, 0, -524197, 11, 0, -524196, 11, 0, -524195, 11, 0, -524194, 11, 0, -524193, 11, 0, -524192, 11, 0, -393227, 3, 0, -393226, 11, 0, -393225, 11, 0, -393224, 11, 0, -393223, 11, 0, -393222, 11, 0, -393221, 11, 0, -393220, 11, 0, -393219, 11, 0, -393218, 11, 0, -393217, 11, 0, -458752, 11, 0, -458751, 11, 0, -458750, 11, 0, -458749, 11, 0, -458748, 11, 0, -458747, 11, 0, -458746, 11, 0, -458745, 11, 0, -458744, 11, 0, -458743, 11, 0, -458742, 11, 0, -458741, 11, 0, -458740, 11, 0, -458739, 11, 0, -458738, 11, 0, -458737, 11, 0, -458736, 11, 0, -458735, 11, 0, -458734, 11, 0, -458733, 11, 0, -458732, 11, 0, -458731, 11, 0, -458730, 11, 0, -458729, 11, 0, -458728, 11, 0, -458727, 11, 0, -458726, 11, 0, -458725, 11, 0, -458724, 536870915, 0, -458723, 15, 0, -458722, 15, 0, -458721, 15, 0, -458720, 15, 0, -458719, 15, 0, -458718, 15, 0, -458717, 3, 0, -458716, 11, 0, -458715, 11, 0, -458714, 11, 0, -458713, 11, 0, -458712, 11, 0, -458711, 11, 0, -458710, 11, 0, -458709, 11, 0, -458708, 11, 0, -458707, 11, 0, -458706, 11, 0, -458705, 11, 0, -458704, 11, 0, -458703, 11, 0, -458702, 11, 0, -458701, 11, 0, -458700, 11, 0, -458699, 11, 0, -458698, 11, 0, -458697, 11, 0, -458696, 11, 0, -458695, 11, 0, -458694, 11, 0, -458693, 11, 0, -458692, 11, 0, -458691, 11, 0, -458690, 11, 0, -458689, 11, 0, -458688, 11, 0, -458687, 11, 0, -458686, 11, 0, -458685, 11, 0, -458684, 11, 0, -458683, 11, 0, -458682, 11, 0, -458681, 11, 0, -458680, 11, 0, -458679, 11, 0, -458678, 11, 0, -458677, 11, 0, -458676, 11, 0, -458675, 11, 0, -458674, 11, 0, -458673, 11, 0, -458672, 11, 0, -458671, 11, 0, -458670, 11, 0, -458669, 11, 0, -458668, 11, 0, -458667, 11, 0, -458666, 11, 0, -458665, 11, 0, -458664, 11, 0, -458663, 11, 0, -458662, 11, 0, -458661, 11, 0, -458660, 11, 0, -458659, 11, 0, -458658, 11, 0, -458657, 11, 0, -458656, 11, 0, -327691, 3, 0, -327690, 11, 0, -327689, 11, 0, -327688, 11, 0, -327687, 11, 0, -327686, 11, 0, -327685, 11, 0, -327684, 11, 0, -327683, 11, 0, -327682, 11, 0, -327681, 11, 0, -393216, 11, 0, -393215, 11, 0, -393214, 11, 0, -393213, 11, 0, -393212, 11, 0, -393211, 11, 0, -393210, 11, 0, -393209, 11, 0, -393208, 11, 0, -393207, 11, 0, -393206, 11, 0, -393205, 11, 0, -393204, 11, 0, -393203, 11, 0, -393202, 11, 0, -393201, 11, 0, -393200, 11, 0, -393199, 11, 0, -393198, 11, 0, -393197, 11, 0, -393196, 11, 0, -393195, 11, 0, -393194, 11, 0, -393193, 11, 0, -393192, 11, 0, -393191, 11, 0, -393190, 11, 0, -393189, 11, 0, -393188, 536870915, 0, -393187, 15, 0, -393186, 15, 0, -393185, 15, 0, -393184, 15, 0, -393183, 15, 0, -393182, 15, 0, -393181, 3, 0, -393180, 11, 0, -393179, 11, 0, -393178, 11, 0, -393177, 11, 0, -393176, 11, 0, -393175, 11, 0, -393174, 11, 0, -393173, 11, 0, -393172, 11, 0, -393171, 11, 0, -393170, 11, 0, -393169, 11, 0, -393168, 11, 0, -393167, 11, 0, -393166, 11, 0, -393165, 11, 0, -393164, 11, 0, -393163, 11, 0, -393162, 11, 0, -393161, 11, 0, -393160, 11, 0, -393159, 11, 0, -393158, 11, 0, -393157, 11, 0, -393156, 11, 0, -393155, 11, 0, -393154, 11, 0, -393153, 11, 0, -393152, 11, 0, -393151, 11, 0, -393150, 11, 0, -393149, 11, 0, -393148, 11, 0, -393147, 11, 0, -393146, 11, 0, -393145, 11, 0, -393144, 11, 0, -393143, 11, 0, -393142, 11, 0, -393141, 11, 0, -393140, 11, 0, -393139, 11, 0, -393138, 11, 0, -393137, 11, 0, -393136, 11, 0, -393135, 11, 0, -393134, 11, 0, -393133, 11, 0, -393132, 11, 0, -393131, 11, 0, -393130, 11, 0, -393129, 11, 0, -393128, 11, 0, -393127, 11, 0, -393126, 11, 0, -393125, 11, 0, -393124, 11, 0, -393123, 11, 0, -393122, 11, 0, -393121, 11, 0, -393120, 11, 0, -262155, 3, 0, -262154, 11, 0, -262153, 11, 0, -262152, 11, 0, -262151, 11, 0, -262150, 11, 0, -262149, 11, 0, -262148, 11, 0, -262147, 11, 0, -262146, 11, 0, -262145, 11, 0, -327680, 11, 0, -327679, 11, 0, -327678, 11, 0, -327677, 11, 0, -327676, 11, 0, -327675, 11, 0, -327674, 11, 0, -327673, 11, 0, -327672, 11, 0, -327671, 11, 0, -327670, 11, 0, -327669, 11, 0, -327668, 11, 0, -327667, 11, 0, -327666, 11, 0, -327665, 11, 0, -327664, 11, 0, -327663, 11, 0, -327662, 11, 0, -327661, 11, 0, -327660, 11, 0, -327659, 11, 0, -327658, 11, 0, -327657, 11, 0, -327656, 11, 0, -327655, 11, 0, -327654, 11, 0, -327653, 11, 0, -327652, 536870915, 0, -327651, 15, 0, -327650, 15, 0, -327649, 15, 0, -327648, 15, 0, -327647, 15, 0, -327646, 15, 0, -327645, 3, 0, -327644, 11, 0, -327643, 11, 0, -327642, 11, 0, -327641, 11, 0, -327640, 11, 0, -327639, 11, 0, -327638, 11, 0, -327637, 11, 0, -327636, 11, 0, -327635, 11, 0, -327634, 11, 0, -327633, 11, 0, -327632, 11, 0, -327631, 11, 0, -327630, 11, 0, -327629, 11, 0, -327628, 11, 0, -327627, 11, 0, -327626, 11, 0, -327625, 11, 0, -327624, 11, 0, -327623, 11, 0, -327622, 11, 0, -327621, 11, 0, -327620, 11, 0, -327619, 11, 0, -327618, 11, 0, -327617, 11, 0, -327616, 11, 0, -327615, 11, 0, -327614, 11, 0, -327613, 11, 0, -327612, 11, 0, -327611, 11, 0, -327610, 11, 0, -327609, 11, 0, -327608, 11, 0, -327607, 11, 0, -327606, 11, 0, -327605, 11, 0, -327604, 11, 0, -327603, 11, 0, -327602, 11, 0, -327601, 11, 0, -327600, 11, 0, -327599, 11, 0, -327598, 11, 0, -327597, 11, 0, -327596, 11, 0, -327595, 11, 0, -327594, 11, 0, -327593, 11, 0, -327592, 11, 0, -327591, 11, 0, -327590, 11, 0, -327589, 11, 0, -327588, 11, 0, -327587, 11, 0, -327586, 11, 0, -327585, 11, 0, -327584, 11, 0, -196619, 3, 0, -196618, 11, 0, -196617, 11, 0, -196616, 11, 0, -196615, 11, 0, -196614, 11, 0, -196613, 11, 0, -196612, 11, 0, -196611, 11, 0, -196610, 11, 0, -196609, 11, 0, -262144, 11, 0, -262143, 11, 0, -262142, 11, 0, -262141, 11, 0, -262140, 11, 0, -262139, 11, 0, -262138, 11, 0, -262137, 11, 0, -262136, 11, 0, -262135, 11, 0, -262134, 11, 0, -262133, 11, 0, -262132, 11, 0, -262131, 11, 0, -262130, 11, 0, -262129, 11, 0, -262128, 11, 0, -262127, 11, 0, -262126, 11, 0, -262125, 11, 0, -262124, 11, 0, -262123, 11, 0, -262122, 11, 0, -262121, 11, 0, -262120, 11, 0, -262119, 11, 0, -262118, 11, 0, -262117, 11, 0, -262116, 536870915, 0, -262115, 15, 0, -262114, 15, 0, -262113, 15, 0, -262112, 15, 0, -262111, 15, 0, -262110, 15, 0, -262109, 3, 0, -262108, 11, 0, -262107, 11, 0, -262106, 11, 0, -262105, 11, 0, -262104, 11, 0, -262103, 11, 0, -262102, 11, 0, -262101, 11, 0, -262100, 11, 0, -262099, 11, 0, -262098, 11, 0, -262097, 11, 0, -262096, 11, 0, -262095, 11, 0, -262094, 11, 0, -262093, 11, 0, -262092, 11, 0, -262091, 11, 0, -262090, 11, 0, -262089, 11, 0, -262088, 11, 0, -262087, 11, 0, -262086, 11, 0, -262085, 11, 0, -262084, 11, 0, -262083, 11, 0, -262082, 11, 0, -262081, 11, 0, -262080, 11, 0, -262079, 11, 0, -262078, 11, 0, -262077, 11, 0, -262076, 11, 0, -262075, 11, 0, -262074, 11, 0, -262073, 11, 0, -262072, 11, 0, -262071, 11, 0, -262070, 11, 0, -262069, 11, 0, -262068, 11, 0, -262067, 11, 0, -262066, 11, 0, -262065, 11, 0, -262064, 11, 0, -262063, 11, 0, -262062, 11, 0, -262061, 11, 0, -262060, 11, 0, -262059, 11, 0, -262058, 11, 0, -262057, 11, 0, -262056, 11, 0, -262055, 11, 0, -262054, 11, 0, -262053, 11, 0, -262052, 11, 0, -262051, 11, 0, -262050, 11, 0, -262049, 11, 0, -262048, 11, 0, -131083, 1073741826, 0, -131082, 11, 0, -131081, 11, 0, -131080, 11, 0, -131079, 11, 0, -131078, 11, 0, -131077, 11, 0, -131076, 11, 0, -131075, 11, 0, -131074, 11, 0, -131073, 11, 0, -196608, 11, 0, -196607, 11, 0, -196606, 11, 0, -196605, 11, 0, -196604, 11, 0, -196603, 11, 0, -196602, 11, 0, -196601, 11, 0, -196600, 11, 0, -196599, 11, 0, -196598, 11, 0, -196597, 11, 0, -196596, 11, 0, -196595, 11, 0, -196594, 11, 0, -196593, 11, 0, -196592, 11, 0, -196591, 11, 0, -196590, 11, 0, -196589, 11, 0, -196588, 18, 0, -196587, 11, 0, -196586, 11, 0, -196585, 11, 0, -196584, 11, 0, -196583, 11, 0, -196582, 11, 0, -196581, 11, 0, -196580, 536870915, 0, -196579, 15, 0, -196578, 15, 0, -196577, 15, 0, -196576, 15, 0, -196575, 15, 0, -196574, 15, 0, -196573, 3, 0, -196572, 11, 0, -196571, 11, 0, -196570, 11, 0, -196569, 11, 0, -196568, 11, 0, -196567, 11, 0, -196566, 11, 0, -196565, 11, 0, -196564, 11, 0, -196563, 11, 0, -196562, 11, 0, -196561, 11, 0, -196560, 11, 0, -196559, 11, 0, -196558, 11, 0, -196557, 11, 0, -196556, 11, 0, -196555, 11, 0, -196554, 11, 0, -196553, 11, 0, -196552, 11, 0, -196551, 11, 0, -196550, 11, 0, -196549, 11, 0, -196548, 11, 0, -196547, 11, 0, -196546, 11, 0, -196545, 11, 0, -196544, 11, 0, -196543, 11, 0, -196542, 11, 0, -196541, 11, 0, -196540, 11, 0, -196539, 11, 0, -196538, 11, 0, -196537, 11, 0, -196536, 11, 0, -196535, 11, 0, -196534, 11, 0, -196533, 11, 0, -196532, 11, 0, -196531, 11, 0, -196530, 11, 0, -196529, 11, 0, -196528, 11, 0, -196527, 11, 0, -196526, 11, 0, -196525, 11, 0, -196524, 11, 0, -196523, 11, 0, -196522, 11, 0, -196521, 11, 0, -196520, 11, 0, -196519, 11, 0, -196518, 11, 0, -196517, 11, 0, -196516, 11, 0, -196515, 11, 0, -196514, 11, 0, -196513, 11, 0, -196512, 11, 0, -65547, 11, 0, -65546, 11, 0, -65545, 11, 0, -65544, 11, 0, -65543, 11, 0, -65542, 11, 0, -65541, 11, 0, -65540, 11, 0, -65539, 11, 0, -65538, 11, 0, -65537, 11, 0, -131072, 11, 0, -131071, 11, 0, -131070, 11, 0, -131069, 11, 0, -131068, 11, 0, -131067, 11, 0, -131066, 11, 0, -131065, 11, 0, -131064, 11, 0, -131063, 11, 0, -131062, 11, 0, -131061, 11, 0, -131060, 11, 0, -131059, 11, 0, -131058, 11, 0, -131057, 11, 0, -131056, 11, 0, -131055, 11, 0, -131054, 11, 0, -131053, 11, 0, -131052, 11, 0, -131051, 11, 0, -131050, 11, 0, -131049, 11, 0, -131048, 11, 0, -131047, 11, 0, -131046, 11, 0, -131045, 11, 0, -131044, 536870915, 0, -131043, 15, 0, -131042, 15, 0, -131041, 15, 0, -131040, 15, 0, -131039, 15, 0, -131038, 15, 0, -131037, 3, 0, -131036, 11, 0, -131035, 11, 0, -131034, 11, 0, -131033, 11, 0, -131032, 11, 0, -131031, 11, 0, -131030, 11, 0, -131029, 11, 0, -131028, 11, 0, -131027, 11, 0, -131026, 11, 0, -131025, 11, 0, -131024, 11, 0, -131023, 11, 0, -131022, 11, 0, -131021, 11, 0, -131020, 11, 0, -131019, 11, 0, -131018, 11, 0, -131017, 11, 0, -131016, 11, 0, -131015, 11, 0, -131014, 11, 0, -131013, 11, 0, -131012, 11, 0, -131011, 11, 0, -131010, 11, 0, -131009, 11, 0, -131008, 11, 0, -131007, 11, 0, -131006, 11, 0, -131005, 11, 0, -131004, 11, 0, -131003, 11, 0, -131002, 11, 0, -131001, 11, 0, -131000, 11, 0, -130999, 11, 0, -130998, 11, 0, -130997, 11, 0, -130996, 11, 0, -130995, 11, 0, -130994, 11, 0, -130993, 11, 0, -130992, 11, 0, -130991, 11, 0, -130990, 11, 0, -130989, 11, 0, -130988, 11, 0, -130987, 11, 0, -130986, 11, 0, -130985, 11, 0, -130984, 11, 0, -130983, 11, 0, -130982, 11, 0, -130981, 11, 0, -130980, 11, 0, -130979, 11, 0, -130978, 11, 0, -130977, 11, 0, -130976, 11, 0, -11, 11, 0, -10, 11, 0, -9, 11, 0, -8, 11, 0, -7, 11, 0, -6, 11, 0, -5, 11, 0, -4, 11, 0, -3, 11, 0, -2, 11, 0, -1, 11, 0, -65536, 11, 0, -65535, 11, 0, -65534, 11, 0, -65533, 11, 0, -65532, 11, 0, -65531, 11, 0, -65530, 11, 0, -65529, 11, 0, -65528, 11, 0, -65527, 11, 0, -65526, 11, 0, -65525, 11, 0, -65524, 11, 0, -65523, 11, 0, -65522, 11, 0, -65521, 11, 0, -65520, 11, 0, -65519, 11, 0, -65518, 11, 0, -65517, 11, 0, -65516, 11, 0, -65515, 11, 0, -65514, 11, 0, -65513, 11, 0, -65512, 11, 0, -65511, 11, 0, -65510, 11, 0, -65509, 11, 0, -65508, 536870915, 0, -65507, 15, 0, -65506, 15, 0, -65505, 15, 0, -65504, 15, 0, -65503, 15, 0, -65502, 15, 0, -65501, 3, 0, -65500, 11, 0, -65499, 11, 0, -65498, 11, 0, -65497, 11, 0, -65496, 11, 0, -65495, 11, 0, -65494, 11, 0, -65493, 11, 0, -65492, 11, 0, -65491, 11, 0, -65490, 11, 0, -65489, 11, 0, -65488, 11, 0, -65487, 11, 0, -65486, 11, 0, -65485, 11, 0, -65484, 11, 0, -65483, 11, 0, -65482, 11, 0, -65481, 11, 0, -65480, 11, 0, -65479, 11, 0, -65478, 11, 0, -65477, 11, 0, -65476, 11, 0, -65475, 11, 0, -65474, 11, 0, -65473, 11, 0, -65472, 11, 0, -65471, 11, 0, -65470, 11, 0, -65469, 11, 0, -65468, 11, 0, -65467, 11, 0, -65466, 11, 0, -65465, 11, 0, -65464, 11, 0, -65463, 11, 0, -65462, 11, 0, -65461, 11, 0, -65460, 11, 0, -65459, 11, 0, -65458, 11, 0, -65457, 11, 0, -65456, 11, 0, -65455, 11, 0, -65454, 11, 0, -65453, 11, 0, -65452, 11, 0, -65451, 11, 0, -65450, 11, 0, -65449, 11, 0, -65448, 11, 0, -65447, 11, 0, -65446, 11, 0, -65445, 11, 0, -65444, 11, 0, -65443, 11, 0, -65442, 11, 0, -65441, 11, 0, -65440, 11, 0, 65525, 11, 0, 65526, 11, 0, 65527, 11, 0, 65528, 11, 0, 65529, 11, 0, 65530, 11, 0, 65531, 11, 0, 65532, 11, 0, 65533, 11, 0, 65534, 11, 0, 65535, 11, 0, 0, 11, 0, 1, 11, 0, 2, 11, 0, 3, 11, 0, 4, 11, 0, 5, 11, 0, 6, 11, 0, 7, 11, 0, 8, 11, 0, 9, 11, 0, 10, 11, 0, 11, 11, 0, 12, 11, 0, 13, 11, 0, 14, 11, 0, 15, 11, 0, 16, 11, 0, 17, 11, 0, 18, 11, 0, 19, 11, 0, 20, 11, 0, 21, 11, 0, 22, 11, 0, 23, 11, 0, 24, 11, 0, 25, 11, 0, 26, 11, 0, 27, 11, 0, 28, 1073741825, 0, 29, 1073741824, 0, 30, 1073741824, 0, 31, 1073741824, 0, 32, 1073741824, 0, 33, 1073741824, 0, 34, 1073741824, 0, 35, 1073741826, 0, 36, 11, 0, 37, 11, 0, 38, 11, 0, 39, 11, 0, 40, 11, 0, 41, 11, 0, 42, 11, 0, 43, 11, 0, 44, 11, 0, 45, 11, 0, 46, 11, 0, 47, 11, 0, 48, 11, 0, 49, 11, 0, 50, 11, 0, 51, 11, 0, 52, 11, 0, 53, 11, 0, 54, 11, 0, 55, 11, 0, 56, 11, 0, 57, 11, 0, 58, 11, 0, 59, 11, 0, 60, 11, 0, 61, 11, 0, 62, 11, 0, 63, 11, 0, 64, 11, 0, 65, 11, 0, 66, 11, 0, 67, 11, 0, 68, 11, 0, 69, 11, 0, 70, 11, 0, 71, 11, 0, 72, 11, 0, 73, 11, 0, 74, 11, 0, 75, 11, 0, 76, 11, 0, 77, 11, 0, 78, 11, 0, 79, 11, 0, 80, 11, 0, 81, 11, 0, 82, 11, 0, 83, 11, 0, 84, 11, 0, 85, 11, 0, 86, 11, 0, 87, 11, 0, 88, 11, 0, 89, 11, 0, 90, 11, 0, 91, 11, 0, 92, 11, 0, 93, 11, 0, 94, 11, 0, 95, 11, 0, 96, 11, 0, 131061, 11, 0, 131062, 11, 0, 131063, 11, 0, 131064, 11, 0, 131065, 11, 0, 131066, 11, 0, 131067, 11, 0, 131068, 11, 0, 131069, 11, 0, 131070, 11, 0, 131071, 11, 0, 65536, 11, 0, 65537, 11, 0, 65538, 11, 0, 65539, 11, 0, 65540, 11, 0, 65541, 11, 0, 65542, 11, 0, 65543, 11, 0, 65544, 11, 0, 65545, 11, 0, 65546, 11, 0, 65547, 11, 0, 65548, 11, 0, 65549, 11, 0, 65550, 11, 0, 65551, 11, 0, 65552, 11, 0, 65553, 11, 0, 65554, 11, 0, 65555, 11, 0, 65556, 11, 0, 65557, 11, 0, 65558, 11, 0, 65559, 11, 0, 65560, 11, 0, 65561, 11, 0, 65562, 11, 0, 65563, 11, 0, 65564, 11, 0, 65565, 11, 0, 65566, 11, 0, 65567, 11, 0, 65568, 11, 0, 65569, 11, 0, 65570, 11, 0, 65571, 11, 0, 65572, 11, 0, 65573, 11, 0, 65574, 11, 0, 65575, 11, 0, 65576, 11, 0, 65577, 11, 0, 65578, 11, 0, 65579, 11, 0, 65580, 11, 0, 65581, 11, 0, 65582, 11, 0, 65583, 11, 0, 65584, 11, 0, 65585, 11, 0, 65586, 11, 0, 65587, 11, 0, 65588, 11, 0, 65589, 11, 0, 65590, 11, 0, 65591, 11, 0, 65592, 11, 0, 65593, 11, 0, 65594, 0, 0, 65595, 0, 0, 65596, 0, 0, 65597, 0, 0, 65598, 0, 0, 65599, 0, 0, 65600, 0, 0, 65601, 11, 0, 65602, 11, 0, 65603, 11, 0, 65604, 11, 0, 65605, 11, 0, 65606, 11, 0, 65607, 11, 0, 65608, 11, 0, 65609, 11, 0, 65610, 11, 0, 65611, 11, 0, 65612, 11, 0, 65613, 11, 0, 65614, 11, 0, 65615, 11, 0, 65616, 11, 0, 65617, 11, 0, 65618, 11, 0, 65619, 11, 0, 65620, 11, 0, 65621, 11, 0, 65622, 11, 0, 65623, 11, 0, 65624, 11, 0, 65625, 11, 0, 65626, 11, 0, 65627, 11, 0, 65628, 11, 0, 65629, 11, 0, 65630, 11, 0, 65631, 11, 0, 65632, 11, 0, 196597, 11, 0, 196598, 11, 0, 196599, 11, 0, 196600, 11, 0, 196601, 11, 0, 196602, 11, 0, 196603, 11, 0, 196604, 11, 0, 196605, 11, 0, 196606, 11, 0, 196607, 11, 0, 131072, 11, 0, 131073, 11, 0, 131074, 11, 0, 131075, 11, 0, 131076, 11, 0, 131077, 11, 0, 131078, 11, 0, 131079, 11, 0, 131080, 11, 0, 131081, 11, 0, 131082, 11, 0, 131083, 11, 0, 131084, 11, 0, 131085, 11, 0, 131086, 11, 0, 131087, 11, 0, 131088, 11, 0, 131089, 11, 0, 131090, 11, 0, 131091, 11, 0, 131092, 11, 0, 131093, 11, 0, 131094, 11, 0, 131095, 11, 0, 131096, 11, 0, 131097, 11, 0, 131098, 11, 0, 131099, 11, 0, 131100, 11, 0, 131101, 11, 0, 131102, 11, 0, 131103, 11, 0, 131104, 11, 0, 131105, 11, 0, 131106, 11, 0, 131107, 11, 0, 131108, 11, 0, 131109, 11, 0, 131110, 11, 0, 131111, 11, 0, 131112, 11, 0, 131113, 11, 0, 131114, 11, 0, 131115, 11, 0, 131116, 11, 0, 131117, 11, 0, 131118, 11, 0, 131119, 11, 0, 131120, 11, 0, 131121, 11, 0, 131122, 11, 0, 131123, 11, 0, 131124, 11, 0, 131125, 11, 0, 131126, 11, 0, 131127, 11, 0, 131128, 11, 0, 131129, 11, 0, 131130, 11, 0, 131131, 11, 0, 131132, 11, 0, 131133, 11, 0, 131134, 11, 0, 131135, 11, 0, 131136, 11, 0, 131137, 11, 0, 131138, 11, 0, 131139, 11, 0, 131140, 11, 0, 131141, 11, 0, 131142, 11, 0, 131143, 11, 0, 131144, 11, 0, 131145, 11, 0, 131146, 11, 0, 131147, 11, 0, 131148, 11, 0, 131149, 11, 0, 131150, 11, 0, 131151, 11, 0, 131152, 11, 0, 131153, 11, 0, 131154, 11, 0, 131155, 11, 0, 131156, 11, 0, 131157, 11, 0, 131158, 11, 0, 131159, 11, 0, 131160, 11, 0, 131161, 11, 0, 131162, 11, 0, 131163, 11, 0, 131164, 11, 0, 131165, 11, 0, 131166, 11, 0, 131167, 11, 0, 131168, 11, 0, 262133, 1, 0, 262134, 0, 0, 262135, 0, 0, 262136, 0, 0, 262137, 0, 0, 262138, 0, 0, 262139, 0, 0, 262140, 0, 0, 262141, 0, 0, 262142, 0, 0, 262143, 0, 0, 196608, 0, 0, 196609, 0, 0, 196610, 11, 0, 196611, 11, 0, 196612, 11, 0, 196613, 11, 0, 196614, 11, 0, 196615, 11, 0, 196616, 11, 0, 196617, 11, 0, 196618, 11, 0, 196619, 11, 0, 196620, 11, 0, 196621, 11, 0, 196622, 11, 0, 196623, 11, 0, 196624, 11, 0, 196625, 11, 0, 196626, 11, 0, 196627, 11, 0, 196628, 11, 0, 196629, 11, 0, 196630, 11, 0, 196631, 11, 0, 196632, 11, 0, 196633, 11, 0, 196634, 11, 0, 196635, 11, 0, 196636, 11, 0, 196637, 11, 0, 196638, 11, 0, 196639, 11, 0, 196640, 11, 0, 196641, 11, 0, 196642, 11, 0, 196643, 11, 0, 196644, 11, 0, 196645, 11, 0, 196646, 11, 0, 196647, 11, 0, 196648, 11, 0, 196649, 11, 0, 196650, 11, 0, 196651, 11, 0, 196652, 11, 0, 196653, 11, 0, 196654, 11, 0, 196655, 11, 0, 196656, 11, 0, 196657, 11, 0, 196658, 11, 0, 196659, 11, 0, 196660, 11, 0, 196661, 11, 0, 196662, 11, 0, 196663, 11, 0, 196664, 11, 0, 196665, 11, 0, 196666, 11, 0, 196667, 11, 0, 196668, 11, 0, 196669, 11, 0, 196670, 11, 0, 196671, 11, 0, 196672, 11, 0, 196673, 11, 0, 196674, 11, 0, 196675, 11, 0, 196676, 11, 0, 196677, 11, 0, 196678, 11, 0, 196679, 11, 0, 196680, 11, 0, 196681, 11, 0, 196682, 11, 0, 196683, 11, 0, 196684, 11, 0, 196685, 11, 0, 196686, 11, 0, 196687, 11, 0, 196688, 11, 0, 196689, 18, 0, 196690, 11, 0, 196691, 11, 0, 196692, 11, 0, 196693, 11, 0, 196694, 11, 0, 196695, 11, 0, 196696, 11, 0, 196697, 11, 0, 196698, 0, 0, 196699, 0, 0, 196700, 0, 0, 196701, 0, 0, 196702, 0, 0, 196703, 0, 0, 196704, 0, 0, 327669, 15, 0, 327670, 15, 0, 327671, 15, 0, 327672, 15, 0, 327673, 15, 0, 327674, 15, 0, 327675, 15, 0, 327676, 15, 0, 327677, 15, 0, 327678, 15, 0, 327679, 15, 0, 262144, 15, 0, 262145, 15, 0, 262146, 3, 0, 262147, 11, 0, 262148, 11, 0, 262149, 11, 0, 262150, 11, 0, 262151, 11, 0, 262152, 11, 0, 262153, 11, 0, 262154, 11, 0, 262155, 11, 0, 262156, 11, 0, 262157, 11, 0, 262158, 11, 0, 262159, 11, 0, 262160, 11, 0, 262161, 11, 0, 262162, 11, 0, 262163, 11, 0, 262164, 11, 0, 262165, 11, 0, 262166, 11, 0, 262167, 11, 0, 262168, 11, 0, 262169, 11, 0, 262170, 11, 0, 262171, 11, 0, 262172, 11, 0, 262173, 11, 0, 262174, 11, 0, 262175, 11, 0, 262176, 11, 0, 262177, 11, 0, 262178, 11, 0, 262179, 11, 0, 262180, 11, 0, 262181, 11, 0, 262182, 11, 0, 262183, 11, 0, 262184, 11, 0, 262185, 11, 0, 262186, 11, 0, 262187, 11, 0, 262188, 11, 0, 262189, 11, 0, 262190, 11, 0, 262191, 11, 0, 262192, 11, 0, 262193, 11, 0, 262194, 11, 0, 262195, 11, 0, 262196, 11, 0, 262197, 11, 0, 262198, 11, 0, 262199, 11, 0, 262200, 11, 0, 262201, 11, 0, 262202, 11, 0, 262203, 11, 0, 262204, 11, 0, 262205, 11, 0, 262206, 11, 0, 262207, 11, 0, 262208, 11, 0, 262209, 11, 0, 262210, 11, 0, 262211, 11, 0, 262212, 11, 0, 262213, 11, 0, 262214, 11, 0, 262215, 11, 0, 262216, 11, 0, 262217, 11, 0, 262218, 11, 0, 262219, 11, 0, 262220, 11, 0, 262221, 11, 0, 262222, 11, 0, 262223, 11, 0, 262224, 11, 0, 262225, 11, 0, 262226, 11, 0, 262227, 11, 0, 262228, 11, 0, 262229, 11, 0, 262230, 11, 0, 262231, 11, 0, 262232, 11, 0, 262233, 11, 0, 262234, 11, 0, 262235, 11, 0, 262236, 11, 0, 262237, 11, 0, 262238, 11, 0, 262239, 11, 0, 262240, 11, 0, 393205, 15, 0, 393206, 15, 0, 393207, 15, 0, 393208, 15, 0, 393209, 15, 0, 393210, 15, 0, 393211, 15, 0, 393212, 15, 0, 393213, 15, 0, 393214, 15, 0, 393215, 15, 0, 327680, 15, 0, 327681, 15, 0, 327682, 3, 0, 327683, 11, 0, 327684, 11, 0, 327685, 11, 0, 327686, 11, 0, 327687, 11, 0, 327688, 11, 0, 327689, 11, 0, 327690, 11, 0, 327691, 11, 0, 327692, 11, 0, 327693, 11, 0, 327694, 11, 0, 327695, 11, 0, 327696, 11, 0, 327697, 11, 0, 327698, 11, 0, 327699, 11, 0, 327700, 11, 0, 327701, 11, 0, 327702, 11, 0, 327703, 11, 0, 327704, 11, 0, 327705, 11, 0, 327706, 11, 0, 327707, 11, 0, 327708, 11, 0, 327709, 11, 0, 327710, 11, 0, 327711, 11, 0, 327712, 11, 0, 327713, 11, 0, 327714, 11, 0, 327715, 11, 0, 327716, 18, 0, 327717, 11, 0, 327718, 11, 0, 327719, 11, 0, 327720, 11, 0, 327721, 11, 0, 327722, 11, 0, 327723, 11, 0, 327724, 11, 0, 327725, 11, 0, 327726, 11, 0, 327727, 11, 0, 327728, 11, 0, 327729, 11, 0, 327730, 11, 0, 327731, 11, 0, 327732, 11, 0, 327733, 11, 0, 327734, 11, 0, 327735, 11, 0, 327736, 11, 0, 327737, 11, 0, 327738, 11, 0, 327739, 11, 0, 327740, 11, 0, 327741, 11, 0, 327742, 11, 0, 327743, 11, 0, 327744, 11, 0, 327745, 11, 0, 327746, 11, 0, 327747, 11, 0, 327748, 11, 0, 327749, 18, 0, 327750, 11, 0, 327751, 11, 0, 327752, 11, 0, 327753, 11, 0, 327754, 11, 0, 327755, 11, 0, 327756, 11, 0, 327757, 11, 0, 327758, 11, 0, 327759, 11, 0, 327760, 11, 0, 327761, 11, 0, 327762, 11, 0, 327763, 11, 0, 327764, 11, 0, 327765, 11, 0, 327766, 11, 0, 327767, 11, 0, 327768, 11, 0, 327769, 11, 0, 327770, 11, 0, 327771, 11, 0, 327772, 11, 0, 327773, 11, 0, 327774, 11, 0, 327775, 11, 0, 327776, 11, 0, 458741, 15, 0, 458742, 15, 0, 458743, 15, 0, 458744, 15, 0, 458745, 15, 0, 458746, 15, 0, 458747, 15, 0, 458748, 15, 0, 458749, 15, 0, 458750, 15, 0, 458751, 15, 0, 393216, 15, 0, 393217, 15, 0, 393218, 3, 0, 393219, 11, 0, 393220, 11, 0, 393221, 11, 0, 393222, 11, 0, 393223, 11, 0, 393224, 11, 0, 393225, 11, 0, 393226, 11, 0, 393227, 11, 0, 393228, 11, 0, 393229, 11, 0, 393230, 11, 0, 393231, 11, 0, 393232, 11, 0, 393233, 11, 0, 393234, 11, 0, 393235, 11, 0, 393236, 11, 0, 393237, 11, 0, 393238, 11, 0, 393239, 11, 0, 393240, 11, 0, 393241, 11, 0, 393242, 11, 0, 393243, 11, 0, 393244, 11, 0, 393245, 11, 0, 393246, 11, 0, 393247, 11, 0, 393248, 11, 0, 393249, 11, 0, 393250, 11, 0, 393251, 11, 0, 393252, 11, 0, 393253, 11, 0, 393254, 11, 0, 393255, 11, 0, 393256, 11, 0, 393257, 11, 0, 393258, 11, 0, 393259, 11, 0, 393260, 11, 0, 393261, 11, 0, 393262, 11, 0, 393263, 11, 0, 393264, 11, 0, 393265, 11, 0, 393266, 11, 0, 393267, 11, 0, 393268, 11, 0, 393269, 11, 0, 393270, 11, 0, 393271, 11, 0, 393272, 11, 0, 393273, 11, 0, 393274, 11, 0, 393275, 11, 0, 393276, 11, 0, 393277, 11, 0, 393278, 11, 0, 393279, 11, 0, 393280, 11, 0, 393281, 11, 0, 393282, 11, 0, 393283, 11, 0, 393284, 11, 0, 393285, 11, 0, 393286, 11, 0, 393287, 11, 0, 393288, 11, 0, 393289, 11, 0, 393290, 11, 0, 393291, 11, 0, 393292, 11, 0, 393293, 11, 0, 393294, 11, 0, 393295, 11, 0, 393296, 11, 0, 393297, 11, 0, 393298, 11, 0, 393299, 11, 0, 393300, 11, 0, 393301, 11, 0, 393302, 11, 0, 393303, 11, 0, 393304, 11, 0, 393305, 11, 0, 393306, 11, 0, 393307, 11, 0, 393308, 11, 0, 393309, 11, 0, 393310, 11, 0, 393311, 11, 0, 393312, 11, 0, 524277, 15, 0, 524278, 15, 0, 524279, 15, 0, 524280, 15, 0, 524281, 15, 0, 524282, 15, 0, 524283, 15, 0, 524284, 15, 0, 524285, 15, 0, 524286, 15, 0, 524287, 15, 0, 458752, 15, 0, 458753, 15, 0, 458754, 3, 0, 458755, 11, 0, 458756, 11, 0, 458757, 11, 0, 458758, 11, 0, 458759, 11, 0, 458760, 11, 0, 458761, 11, 0, 458762, 11, 0, 458763, 18, 0, 458764, 11, 0, 458765, 11, 0, 458766, 11, 0, 458767, 11, 0, 458768, 11, 0, 458769, 11, 0, 458770, 11, 0, 458771, 11, 0, 458772, 11, 0, 458773, 11, 0, 458774, 11, 0, 458775, 11, 0, 458776, 11, 0, 458777, 11, 0, 458778, 11, 0, 458779, 11, 0, 458780, 11, 0, 458781, 11, 0, 458782, 11, 0, 458783, 11, 0, 458784, 11, 0, 458785, 11, 0, 458786, 11, 0, 458787, 11, 0, 458788, 11, 0, 458789, 11, 0, 458790, 11, 0, 458791, 11, 0, 458792, 11, 0, 458793, 11, 0, 458794, 11, 0, 458795, 11, 0, 458796, 11, 0, 458797, 11, 0, 458798, 11, 0, 458799, 11, 0, 458800, 11, 0, 458801, 11, 0, 458802, 11, 0, 458803, 11, 0, 458804, 11, 0, 458805, 11, 0, 458806, 11, 0, 458807, 11, 0, 458808, 11, 0, 458809, 11, 0, 458810, 11, 0, 458811, 11, 0, 458812, 11, 0, 458813, 11, 0, 458814, 11, 0, 458815, 11, 0, 458816, 11, 0, 458817, 11, 0, 458818, 11, 0, 458819, 11, 0, 458820, 11, 0, 458821, 11, 0, 458822, 11, 0, 458823, 11, 0, 458824, 11, 0, 458825, 11, 0, 458826, 11, 0, 458827, 11, 0, 458828, 11, 0, 458829, 11, 0, 458830, 11, 0, 458831, 11, 0, 458832, 11, 0, 458833, 11, 0, 458834, 11, 0, 458835, 11, 0, 458836, 11, 0, 458837, 11, 0, 458838, 11, 0, 458839, 11, 0, 458840, 11, 0, 458841, 11, 0, 458842, 11, 0, 458843, 11, 0, 458844, 11, 0, 458845, 11, 0, 458846, 11, 0, 458847, 11, 0, 458848, 11, 0, 589813, 15, 0, 589814, 15, 0, 589815, 15, 0, 589816, 15, 0, 589817, 15, 0, 589818, 15, 0, 589819, 15, 0, 589820, 15, 0, 589821, 15, 0, 589822, 15, 0, 589823, 15, 0, 524288, 15, 0, 524289, 15, 0, 524290, 3, 0, 524291, 11, 0, 524292, 11, 0, 524293, 11, 0, 524294, 11, 0, 524295, 11, 0, 524296, 11, 0, 524297, 11, 0, 524298, 11, 0, 524299, 11, 0, 524300, 11, 0, 524301, 11, 0, 524302, 11, 0, 524303, 11, 0, 524304, 11, 0, 524305, 11, 0, 524306, 11, 0, 524307, 11, 0, 524308, 11, 0, 524309, 11, 0, 524310, 11, 0, 524311, 11, 0, 524312, 11, 0, 524313, 11, 0, 524314, 11, 0, 524315, 11, 0, 524316, 11, 0, 524317, 11, 0, 524318, 11, 0, 524319, 11, 0, 524320, 11, 0, 524321, 11, 0, 524322, 11, 0, 524323, 11, 0, 524324, 11, 0, 524325, 11, 0, 524326, 11, 0, 524327, 11, 0, 524328, 11, 0, 524329, 11, 0, 524330, 11, 0, 524331, 11, 0, 524332, 11, 0, 524333, 11, 0, 524334, 11, 0, 524335, 11, 0, 524336, 11, 0, 524337, 11, 0, 524338, 11, 0, 524339, 11, 0, 524340, 11, 0, 524341, 11, 0, 524342, 11, 0, 524343, 11, 0, 524344, 11, 0, 524345, 11, 0, 524346, 11, 0, 524347, 11, 0, 524348, 11, 0, 524349, 11, 0, 524350, 11, 0, 524351, 11, 0, 524352, 11, 0, 524353, 11, 0, 524354, 11, 0, 524355, 11, 0, 524356, 11, 0, 524357, 11, 0, 524358, 11, 0, 524359, 11, 0, 524360, 11, 0, 524361, 11, 0, 524362, 11, 0, 524363, 11, 0, 524364, 11, 0, 524365, 11, 0, 524366, 11, 0, 524367, 11, 0, 524368, 11, 0, 524369, 11, 0, 524370, 11, 0, 524371, 11, 0, 524372, 11, 0, 524373, 11, 0, 524374, 11, 0, 524375, 11, 0, 524376, 11, 0, 524377, 11, 0, 524378, 11, 0, 524379, 11, 0, 524380, 18, 0, 524381, 11, 0, 524382, 11, 0, 524383, 11, 0, 524384, 11, 0, 655349, 15, 0, 655350, 15, 0, 655351, 15, 0, 655352, 15, 0, 655353, 15, 0, 655354, 15, 0, 655355, 15, 0, 655356, 15, 0, 655357, 15, 0, 655358, 15, 0, 655359, 15, 0, 589824, 15, 0, 589825, 15, 0, 589826, 3, 0, 589827, 11, 0, 589828, 11, 0, 589829, 11, 0, 589830, 11, 0, 589831, 11, 0, 589832, 11, 0, 589833, 11, 0, 589834, 11, 0, 589835, 11, 0, 589836, 11, 0, 589837, 11, 0, 589838, 11, 0, 589839, 11, 0, 589840, 11, 0, 589841, 11, 0, 589842, 11, 0, 589843, 11, 0, 589844, 11, 0, 589845, 11, 0, 589846, 11, 0, 589847, 11, 0, 589848, 11, 0, 589849, 11, 0, 589850, 11, 0, 589851, 11, 0, 589852, 11, 0, 589853, 11, 0, 589854, 11, 0, 589855, 11, 0, 589856, 11, 0, 589857, 11, 0, 589858, 11, 0, 589859, 11, 0, 589860, 11, 0, 589861, 11, 0, 589862, 11, 0, 589863, 11, 0, 589864, 11, 0, 589865, 11, 0, 589866, 11, 0, 589867, 11, 0, 589868, 11, 0, 589869, 11, 0, 589870, 11, 0, 589871, 11, 0, 589872, 11, 0, 589873, 11, 0, 589874, 11, 0, 589875, 11, 0, 589876, 11, 0, 589877, 11, 0, 589878, 11, 0, 589879, 11, 0, 589880, 11, 0, 589881, 11, 0, 589882, 11, 0, 589883, 11, 0, 589884, 11, 0, 589885, 11, 0, 589886, 11, 0, 589887, 11, 0, 589888, 11, 0, 589889, 11, 0, 589890, 11, 0, 589891, 11, 0, 589892, 11, 0, 589893, 11, 0, 589894, 11, 0, 589895, 11, 0, 589896, 11, 0, 589897, 11, 0, 589898, 11, 0, 589899, 11, 0, 589900, 11, 0, 589901, 11, 0, 589902, 11, 0, 589903, 11, 0, 589904, 11, 0, 589905, 11, 0, 589906, 11, 0, 589907, 11, 0, 589908, 11, 0, 589909, 11, 0, 589910, 11, 0, 589911, 11, 0, 589912, 11, 0, 589913, 11, 0, 589914, 11, 0, 589915, 11, 0, 589916, 11, 0, 589917, 11, 0, 589918, 11, 0, 589919, 11, 0, 589920, 11, 0, 720885, 15, 0, 720886, 15, 0, 720887, 15, 0, 720888, 15, 0, 720889, 15, 0, 720890, 15, 0, 720891, 15, 0, 720892, 15, 0, 720893, 15, 0, 720894, 15, 0, 720895, 15, 0, 655360, 15, 0, 655361, 15, 0, 655362, 3, 0, 655363, 11, 0, 655364, 11, 0, 655365, 11, 0, 655366, 11, 0, 655367, 11, 0, 655368, 11, 0, 655369, 11, 0, 655370, 11, 0, 655371, 11, 0, 655372, 11, 0, 655373, 11, 0, 655374, 11, 0, 655375, 11, 0, 655376, 11, 0, 655377, 11, 0, 655378, 11, 0, 655379, 11, 0, 655380, 11, 0, 655381, 11, 0, 655382, 11, 0, 655383, 11, 0, 655384, 11, 0, 655385, 11, 0, 655386, 11, 0, 655387, 11, 0, 655388, 11, 0, 655389, 11, 0, 655390, 11, 0, 655391, 11, 0, 655392, 11, 0, 655393, 11, 0, 655394, 11, 0, 655395, 11, 0, 655396, 11, 0, 655397, 11, 0, 655398, 11, 0, 655399, 11, 0, 655400, 11, 0, 655401, 11, 0, 655402, 11, 0, 655403, 11, 0, 655404, 11, 0, 655405, 11, 0, 655406, 11, 0, 655407, 11, 0, 655408, 11, 0, 655409, 11, 0, 655410, 11, 0, 655411, 11, 0, 655412, 11, 0, 655413, 11, 0, 655414, 18, 0, 655415, 11, 0, 655416, 11, 0, 655417, 11, 0, 655418, 11, 0, 655419, 11, 0, 655420, 11, 0, 655421, 11, 0, 655422, 11, 0, 655423, 11, 0, 655424, 11, 0, 655425, 11, 0, 655426, 11, 0, 655427, 11, 0, 655428, 11, 0, 655429, 11, 0, 655430, 11, 0, 655431, 11, 0, 655432, 11, 0, 655433, 11, 0, 655434, 11, 0, 655435, 11, 0, 655436, 11, 0, 655437, 11, 0, 655438, 11, 0, 655439, 11, 0, 655440, 11, 0, 655441, 11, 0, 655442, 11, 0, 655443, 11, 0, 655444, 11, 0, 655445, 11, 0, 655446, 11, 0, 655447, 11, 0, 655448, 11, 0, 655449, 11, 0, 655450, 11, 0, 655451, 11, 0, 655452, 11, 0, 655453, 11, 0, 655454, 11, 0, 655455, 11, 0, 655456, 11, 0, 786421, 15, 0, 786422, 15, 0, 786423, 15, 0, 786424, 15, 0, 786425, 15, 0, 786426, 15, 0, 786427, 15, 0, 786428, 15, 0, 786429, 15, 0, 786430, 15, 0, 786431, 15, 0, 720896, 15, 0, 720897, 15, 0, 720898, 3, 0, 720899, 11, 0, 720900, 11, 0, 720901, 11, 0, 720902, 11, 0, 720903, 11, 0, 720904, 11, 0, 720905, 11, 0, 720906, 11, 0, 720907, 11, 0, 720908, 11, 0, 720909, 11, 0, 720910, 11, 0, 720911, 11, 0, 720912, 11, 0, 720913, 11, 0, 720914, 11, 0, 720915, 11, 0, 720916, 11, 0, 720917, 11, 0, 720918, 11, 0, 720919, 11, 0, 720920, 11, 0, 720921, 11, 0, 720922, 11, 0, 720923, 11, 0, 720924, 11, 0, 720925, 11, 0, 720926, 11, 0, 720927, 11, 0, 720928, 11, 0, 720929, 11, 0, 720930, 11, 0, 720931, 11, 0, 720932, 11, 0, 720933, 11, 0, 720934, 11, 0, 720935, 11, 0, 720936, 11, 0, 720937, 11, 0, 720938, 11, 0, 720939, 11, 0, 720940, 11, 0, 720941, 11, 0, 720942, 11, 0, 720943, 11, 0, 720944, 11, 0, 720945, 11, 0, 720946, 11, 0, 720947, 11, 0, 720948, 11, 0, 720949, 11, 0, 720950, 11, 0, 720951, 11, 0, 720952, 11, 0, 720953, 11, 0, 720954, 11, 0, 720955, 11, 0, 720956, 11, 0, 720957, 11, 0, 720958, 11, 0, 720959, 11, 0, 720960, 11, 0, 720961, 11, 0, 720962, 11, 0, 720963, 11, 0, 720964, 11, 0, 720965, 11, 0, 720966, 11, 0, 720967, 11, 0, 720968, 11, 0, 720969, 11, 0, 720970, 11, 0, 720971, 11, 0, 720972, 11, 0, 720973, 11, 0, 720974, 11, 0, 720975, 11, 0, 720976, 11, 0, 720977, 11, 0, 720978, 11, 0, 720979, 11, 0, 720980, 11, 0, 720981, 11, 0, 720982, 11, 0, 720983, 11, 0, 720984, 11, 0, 720985, 18, 0, 720986, 11, 0, 720987, 11, 0, 720988, 11, 0, 720989, 11, 0, 720990, 11, 0, 720991, 11, 0, 720992, 11, 0, 851957, 15, 0, 851958, 15, 0, 851959, 15, 0, 851960, 15, 0, 851961, 15, 0, 851962, 15, 0, 851963, 15, 0, 851964, 15, 0, 851965, 15, 0, 851966, 15, 0, 851967, 15, 0, 786432, 15, 0, 786433, 15, 0, 786434, 3, 0, 786435, 11, 0, 786436, 11, 0, 786437, 11, 0, 786438, 11, 0, 786439, 11, 0, 786440, 11, 0, 786441, 11, 0, 786442, 11, 0, 786443, 11, 0, 786444, 11, 0, 786445, 11, 0, 786446, 11, 0, 786447, 11, 0, 786448, 11, 0, 786449, 11, 0, 786450, 11, 0, 786451, 11, 0, 786452, 11, 0, 786453, 11, 0, 786454, 11, 0, 786455, 11, 0, 786456, 11, 0, 786457, 11, 0, 786458, 11, 0, 786459, 11, 0, 786460, 11, 0, 786461, 11, 0, 786462, 11, 0, 786463, 11, 0, 786464, 11, 0, 786465, 11, 0, 786466, 11, 0, 786467, 11, 0, 786468, 11, 0, 786469, 11, 0, 786470, 11, 0, 786471, 11, 0, 786472, 11, 0, 786473, 11, 0, 786474, 11, 0, 786475, 11, 0, 786476, 11, 0, 786477, 11, 0, 786478, 11, 0, 786479, 11, 0, 786480, 11, 0, 786481, 11, 0, 786482, 11, 0, 786483, 11, 0, 786484, 11, 0, 786485, 11, 0, 786486, 11, 0, 786487, 11, 0, 786488, 11, 0, 786489, 11, 0, 786490, 11, 0, 786491, 11, 0, 786492, 11, 0, 786493, 11, 0, 786494, 11, 0, 786495, 11, 0, 786496, 11, 0, 786497, 11, 0, 786498, 11, 0, 786499, 11, 0, 786500, 11, 0, 786501, 11, 0, 786502, 11, 0, 786503, 11, 0, 786504, 11, 0, 786505, 11, 0, 786506, 18, 0, 786507, 11, 0, 786508, 11, 0, 786509, 11, 0, 786510, 11, 0, 786511, 11, 0, 786512, 11, 0, 786513, 11, 0, 786514, 11, 0, 786515, 11, 0, 786516, 11, 0, 786517, 11, 0, 786518, 11, 0, 786519, 11, 0, 786520, 11, 0, 786521, 11, 0, 786522, 11, 0, 786523, 11, 0, 786524, 11, 0, 786525, 11, 0, 786526, 11, 0, 786527, 11, 0, 786528, 11, 0, 917493, 15, 0, 917494, 15, 0, 917495, 15, 0, 917496, 15, 0, 917497, 15, 0, 917498, 15, 0, 917499, 15, 0, 917500, 15, 0, 917501, 15, 0, 917502, 15, 0, 917503, 15, 0, 851968, 15, 0, 851969, 15, 0, 851970, 3, 0, 851971, 11, 0, 851972, 11, 0, 851973, 11, 0, 851974, 11, 0, 851975, 11, 0, 851976, 11, 0, 851977, 11, 0, 851978, 11, 0, 851979, 11, 0, 851980, 11, 0, 851981, 11, 0, 851982, 11, 0, 851983, 11, 0, 851984, 11, 0, 851985, 11, 0, 851986, 11, 0, 851987, 11, 0, 851988, 11, 0, 851989, 11, 0, 851990, 18, 0, 851991, 11, 0, 851992, 11, 0, 851993, 11, 0, 851994, 11, 0, 851995, 11, 0, 851996, 11, 0, 851997, 11, 0, 851998, 11, 0, 851999, 11, 0, 852000, 11, 0, 852001, 11, 0, 852002, 11, 0, 852003, 11, 0, 852004, 11, 0, 852005, 11, 0, 852006, 11, 0, 852007, 11, 0, 852008, 11, 0, 852009, 11, 0, 852010, 11, 0, 852011, 11, 0, 852012, 11, 0, 852013, 11, 0, 852014, 11, 0, 852015, 11, 0, 852016, 11, 0, 852017, 11, 0, 852018, 11, 0, 852019, 11, 0, 852020, 11, 0, 852021, 11, 0, 852022, 11, 0, 852023, 11, 0, 852024, 11, 0, 852025, 11, 0, 852026, 11, 0, 852027, 11, 0, 852028, 11, 0, 852029, 11, 0, 852030, 11, 0, 852031, 11, 0, 852032, 11, 0, 852033, 11, 0, 852034, 11, 0, 852035, 11, 0, 852036, 11, 0, 852037, 11, 0, 852038, 11, 0, 852039, 11, 0, 852040, 11, 0, 852041, 11, 0, 852042, 11, 0, 852043, 11, 0, 852044, 11, 0, 852045, 11, 0, 852046, 11, 0, 852047, 11, 0, 852048, 11, 0, 852049, 11, 0, 852050, 11, 0, 852051, 11, 0, 852052, 11, 0, 852053, 11, 0, 852054, 11, 0, 852055, 11, 0, 852056, 11, 0, 852057, 11, 0, 852058, 11, 0, 852059, 11, 0, 852060, 11, 0, 852061, 11, 0, 852062, 11, 0, 852063, 11, 0, 852064, 11, 0, 983029, 15, 0, 983030, 15, 0, 983031, 15, 0, 983032, 15, 0, 983033, 15, 0, 983034, 15, 0, 983035, 15, 0, 983036, 15, 0, 983037, 15, 0, 983038, 15, 0, 983039, 15, 0, 917504, 15, 0, 917505, 15, 0, 917506, 3, 0, 917507, 11, 0, 917508, 11, 0, 917509, 11, 0, 917510, 11, 0, 917511, 11, 0, 917512, 11, 0, 917513, 11, 0, 917514, 11, 0, 917515, 11, 0, 917516, 11, 0, 917517, 11, 0, 917518, 11, 0, 917519, 11, 0, 917520, 11, 0, 917521, 11, 0, 917522, 11, 0, 917523, 11, 0, 917524, 11, 0, 917525, 11, 0, 917526, 11, 0, 917527, 11, 0, 917528, 11, 0, 917529, 11, 0, 917530, 11, 0, 917531, 11, 0, 917532, 11, 0, 917533, 11, 0, 917534, 11, 0, 917535, 11, 0, 917536, 11, 0, 917537, 11, 0, 917538, 11, 0, 917539, 11, 0, 917540, 11, 0, 917541, 11, 0, 917542, 11, 0, 917543, 11, 0, 917544, 11, 0, 917545, 11, 0, 917546, 11, 0, 917547, 11, 0, 917548, 11, 0, 917549, 11, 0, 917550, 11, 0, 917551, 11, 0, 917552, 11, 0, 917553, 11, 0, 917554, 11, 0, 917555, 11, 0, 917556, 11, 0, 917557, 11, 0, 917558, 11, 0, 917559, 11, 0, 917560, 11, 0, 917561, 11, 0, 917562, 11, 0, 917563, 11, 0, 917564, 11, 0, 917565, 11, 0, 917566, 11, 0, 917567, 11, 0, 917568, 11, 0, 917569, 11, 0, 917570, 11, 0, 917571, 11, 0, 917572, 11, 0, 917573, 11, 0, 917574, 11, 0, 917575, 11, 0, 917576, 11, 0, 917577, 11, 0, 917578, 11, 0, 917579, 11, 0, 917580, 11, 0, 917581, 11, 0, 917582, 11, 0, 917583, 11, 0, 917584, 11, 0, 917585, 11, 0, 917586, 11, 0, 917587, 11, 0, 917588, 11, 0, 917589, 11, 0, 917590, 11, 0, 917591, 11, 0, 917592, 11, 0, 917593, 11, 0, 917594, 11, 0, 917595, 11, 0, 917596, 11, 0, 917597, 11, 0, 917598, 11, 0, 917599, 11, 0, 917600, 11, 0, 1048565, 15, 0, 1048566, 15, 0, 1048567, 15, 0, 1048568, 15, 0, 1048569, 15, 0, 1048570, 15, 0, 1048571, 15, 0, 1048572, 15, 0, 1048573, 15, 0, 1048574, 15, 0, 1048575, 15, 0, 983040, 15, 0, 983041, 15, 0, 983042, 3, 0, 983043, 11, 0, 983044, 11, 0, 983045, 11, 0, 983046, 11, 0, 983047, 11, 0, 983048, 11, 0, 983049, 11, 0, 983050, 11, 0, 983051, 11, 0, 983052, 11, 0, 983053, 11, 0, 983054, 11, 0, 983055, 11, 0, 983056, 11, 0, 983057, 11, 0, 983058, 11, 0, 983059, 11, 0, 983060, 11, 0, 983061, 11, 0, 983062, 11, 0, 983063, 11, 0, 983064, 11, 0, 983065, 11, 0, 983066, 11, 0, 983067, 11, 0, 983068, 11, 0, 983069, 11, 0, 983070, 11, 0, 983071, 11, 0, 983072, 11, 0, 983073, 11, 0, 983074, 11, 0, 983075, 11, 0, 983076, 11, 0, 983077, 11, 0, 983078, 11, 0, 983079, 18, 0, 983080, 11, 0, 983081, 11, 0, 983082, 11, 0, 983083, 11, 0, 983084, 11, 0, 983085, 11, 0, 983086, 11, 0, 983087, 11, 0, 983088, 11, 0, 983089, 11, 0, 983090, 11, 0, 983091, 11, 0, 983092, 11, 0, 983093, 11, 0, 983094, 11, 0, 983095, 11, 0, 983096, 11, 0, 983097, 11, 0, 983098, 11, 0, 983099, 11, 0, 983100, 11, 0, 983101, 11, 0, 983102, 11, 0, 983103, 11, 0, 983104, 11, 0, 983105, 11, 0, 983106, 11, 0, 983107, 11, 0, 983108, 11, 0, 983109, 11, 0, 983110, 11, 0, 983111, 11, 0, 983112, 11, 0, 983113, 11, 0, 983114, 11, 0, 983115, 11, 0, 983116, 11, 0, 983117, 11, 0, 983118, 11, 0, 983119, 11, 0, 983120, 11, 0, 983121, 11, 0, 983122, 11, 0, 983123, 11, 0, 983124, 11, 0, 983125, 11, 0, 983126, 11, 0, 983127, 11, 0, 983128, 11, 0, 983129, 11, 0, 983130, 11, 0, 983131, 11, 0, 983132, 11, 0, 983133, 11, 0, 983134, 11, 0, 983135, 11, 0, 983136, 11, 0, 1114101, 15, 0, 1114102, 15, 0, 1114103, 15, 0, 1114104, 15, 0, 1114105, 15, 0, 1114106, 15, 0, 1114107, 15, 0, 1114108, 15, 0, 1114109, 15, 0, 1114110, 15, 0, 1114111, 15, 0, 1048576, 15, 0, 1048577, 15, 0, 1048578, 3, 0, 1048579, 11, 0, 1048580, 11, 0, 1048581, 11, 0, 1048582, 11, 0, 1048583, 11, 0, 1048584, 11, 0, 1048585, 11, 0, 1048586, 11, 0, 1048587, 11, 0, 1048588, 11, 0, 1048589, 11, 0, 1048590, 11, 0, 1048591, 11, 0, 1048592, 11, 0, 1048593, 11, 0, 1048594, 11, 0, 1048595, 11, 0, 1048596, 11, 0, 1048597, 11, 0, 1048598, 11, 0, 1048599, 11, 0, 1048600, 11, 0, 1048601, 11, 0, 1048602, 11, 0, 1048603, 11, 0, 1048604, 11, 0, 1048605, 11, 0, 1048606, 11, 0, 1048607, 11, 0, 1048608, 11, 0, 1048609, 11, 0, 1048610, 11, 0, 1048611, 11, 0, 1048612, 11, 0, 1048613, 11, 0, 1048614, 11, 0, 1048615, 11, 0, 1048616, 11, 0, 1048617, 11, 0, 1048618, 11, 0, 1048619, 11, 0, 1048620, 11, 0, 1048621, 11, 0, 1048622, 11, 0, 1048623, 11, 0, 1048624, 11, 0, 1048625, 11, 0, 1048626, 11, 0, 1048627, 11, 0, 1048628, 11, 0, 1048629, 11, 0, 1048630, 11, 0, 1048631, 11, 0, 1048632, 11, 0, 1048633, 11, 0, 1048634, 11, 0, 1048635, 11, 0, 1048636, 11, 0, 1048637, 11, 0, 1048638, 11, 0, 1048639, 11, 0, 1048640, 11, 0, 1048641, 11, 0, 1048642, 11, 0, 1048643, 11, 0, 1048644, 11, 0, 1048645, 11, 0, 1048646, 11, 0, 1048647, 11, 0, 1048648, 11, 0, 1048649, 11, 0, 1048650, 11, 0, 1048651, 11, 0, 1048652, 11, 0, 1048653, 11, 0, 1048654, 11, 0, 1048655, 11, 0, 1048656, 11, 0, 1048657, 11, 0, 1048658, 11, 0, 1048659, 11, 0, 1048660, 11, 0, 1048661, 11, 0, 1048662, 11, 0, 1048663, 11, 0, 1048664, 11, 0, 1048665, 11, 0, 1048666, 11, 0, 1048667, 11, 0, 1048668, 11, 0, 1048669, 18, 0, 1048670, 11, 0, 1048671, 11, 0, 1048672, 11, 0, 1179637, 15, 0, 1179638, 15, 0, 1179639, 15, 0, 1179640, 15, 0, 1179641, 15, 0, 1179642, 15, 0, 1179643, 15, 0, 1179644, 15, 0, 1179645, 15, 0, 1179646, 15, 0, 1179647, 15, 0, 1114112, 15, 0, 1114113, 15, 0, 1114114, 3, 0, 1114115, 11, 0, 1114116, 11, 0, 1114117, 11, 0, 1114118, 11, 0, 1114119, 11, 0, 1114120, 11, 0, 1114121, 11, 0, 1114122, 11, 0, 1114123, 11, 0, 1114124, 11, 0, 1114125, 11, 0, 1114126, 11, 0, 1114127, 11, 0, 1114128, 11, 0, 1114129, 11, 0, 1114130, 11, 0, 1114131, 11, 0, 1114132, 11, 0, 1114133, 11, 0, 1114134, 11, 0, 1114135, 11, 0, 1114136, 11, 0, 1114137, 11, 0, 1114138, 11, 0, 1114139, 11, 0, 1114140, 11, 0, 1114141, 11, 0, 1114142, 11, 0, 1114143, 11, 0, 1114144, 11, 0, 1114145, 11, 0, 1114146, 11, 0, 1114147, 11, 0, 1114148, 11, 0, 1114149, 11, 0, 1114150, 11, 0, 1114151, 11, 0, 1114152, 11, 0, 1114153, 11, 0, 1114154, 11, 0, 1114155, 11, 0, 1114156, 11, 0, 1114157, 11, 0, 1114158, 11, 0, 1114159, 11, 0, 1114160, 11, 0, 1114161, 11, 0, 1114162, 11, 0, 1114163, 11, 0, 1114164, 11, 0, 1114165, 11, 0, 1114166, 11, 0, 1114167, 11, 0, 1114168, 11, 0, 1114169, 11, 0, 1114170, 11, 0, 1114171, 11, 0, 1114172, 11, 0, 1114173, 11, 0, 1114174, 11, 0, 1114175, 11, 0, 1114176, 11, 0, 1114177, 11, 0, 1114178, 11, 0, 1114179, 18, 0, 1114180, 11, 0, 1114181, 11, 0, 1114182, 11, 0, 1114183, 11, 0, 1114184, 11, 0, 1114185, 11, 0, 1114186, 11, 0, 1114187, 11, 0, 1114188, 11, 0, 1114189, 11, 0, 1114190, 11, 0, 1114191, 11, 0, 1114192, 11, 0, 1114193, 11, 0, 1114194, 11, 0, 1114195, 11, 0, 1114196, 11, 0, 1114197, 11, 0, 1114198, 11, 0, 1114199, 11, 0, 1114200, 11, 0, 1114201, 11, 0, 1114202, 11, 0, 1114203, 11, 0, 1114204, 11, 0, 1114205, 11, 0, 1114206, 11, 0, 1114207, 11, 0, 1114208, 11, 0, 1245173, 15, 0, 1245174, 15, 0, 1245175, 15, 0, 1245176, 15, 0, 1245177, 15, 0, 1245178, 15, 0, 1245179, 15, 0, 1245180, 15, 0, 1245181, 15, 0, 1245182, 15, 0, 1245183, 15, 0, 1179648, 15, 0, 1179649, 15, 0, 1179650, 3, 0, 1179651, 11, 0, 1179652, 11, 0, 1179653, 18, 0, 1179654, 11, 0, 1179655, 11, 0, 1179656, 11, 0, 1179657, 11, 0, 1179658, 11, 0, 1179659, 11, 0, 1179660, 11, 0, 1179661, 11, 0, 1179662, 11, 0, 1179663, 11, 0, 1179664, 11, 0, 1179665, 11, 0, 1179666, 11, 0, 1179667, 11, 0, 1179668, 11, 0, 1179669, 11, 0, 1179670, 11, 0, 1179671, 11, 0, 1179672, 11, 0, 1179673, 11, 0, 1179674, 11, 0, 1179675, 11, 0, 1179676, 11, 0, 1179677, 11, 0, 1179678, 11, 0, 1179679, 11, 0, 1179680, 11, 0, 1179681, 11, 0, 1179682, 11, 0, 1179683, 11, 0, 1179684, 18, 0, 1179685, 18, 0, 1179686, 11, 0, 1179687, 11, 0, 1179688, 11, 0, 1179689, 11, 0, 1179690, 11, 0, 1179691, 11, 0, 1179692, 11, 0, 1179693, 11, 0, 1179694, 11, 0, 1179695, 11, 0, 1179696, 11, 0, 1179697, 11, 0, 1179698, 11, 0, 1179699, 11, 0, 1179700, 11, 0, 1179701, 11, 0, 1179702, 11, 0, 1179703, 11, 0, 1179704, 11, 0, 1179705, 11, 0, 1179706, 11, 0, 1179707, 11, 0, 1179708, 11, 0, 1179709, 11, 0, 1179710, 11, 0, 1179711, 11, 0, 1179712, 11, 0, 1179713, 11, 0, 1179714, 11, 0, 1179715, 11, 0, 1179716, 11, 0, 1179717, 11, 0, 1179718, 11, 0, 1179719, 11, 0, 1179720, 11, 0, 1179721, 11, 0, 1179722, 11, 0, 1179723, 11, 0, 1179724, 11, 0, 1179725, 11, 0, 1179726, 11, 0, 1179727, 11, 0, 1179728, 11, 0, 1179729, 11, 0, 1179730, 11, 0, 1179731, 11, 0, 1179732, 11, 0, 1179733, 11, 0, 1179734, 11, 0, 1179735, 11, 0, 1179736, 11, 0, 1179737, 11, 0, 1179738, 11, 0, 1179739, 11, 0, 1179740, 11, 0, 1179741, 11, 0, 1179742, 11, 0, 1179743, 11, 0, 1179744, 11, 0, 1310709, 15, 0, 1310710, 15, 0, 1310711, 15, 0, 1310712, 15, 0, 1310713, 15, 0, 1310714, 15, 0, 1310715, 15, 0, 1310716, 15, 0, 1310717, 15, 0, 1310718, 15, 0, 1310719, 15, 0, 1245184, 15, 0, 1245185, 15, 0, 1245186, 3, 0, 1245187, 11, 0, 1245188, 11, 0, 1245189, 11, 0, 1245190, 11, 0, 1245191, 11, 0, 1245192, 11, 0, 1245193, 11, 0, 1245194, 11, 0, 1245195, 11, 0, 1245196, 11, 0, 1245197, 11, 0, 1245198, 11, 0, 1245199, 11, 0, 1245200, 11, 0, 1245201, 11, 0, 1245202, 11, 0, 1245203, 11, 0, 1245204, 11, 0, 1245205, 11, 0, 1245206, 11, 0, 1245207, 11, 0, 1245208, 11, 0, 1245209, 11, 0, 1245210, 11, 0, 1245211, 11, 0, 1245212, 11, 0, 1245213, 11, 0, 1245214, 11, 0, 1245215, 11, 0, 1245216, 18, 0, 1245217, 11, 0, 1245218, 11, 0, 1245219, 11, 0, 1245220, 11, 0, 1245221, 11, 0, 1245222, 11, 0, 1245223, 11, 0, 1245224, 11, 0, 1245225, 11, 0, 1245226, 11, 0, 1245227, 11, 0, 1245228, 11, 0, 1245229, 18, 0, 1245230, 11, 0, 1245231, 11, 0, 1245232, 11, 0, 1245233, 18, 0, 1245234, 11, 0, 1245235, 11, 0, 1245236, 11, 0, 1245237, 11, 0, 1245238, 11, 0, 1245239, 11, 0, 1245240, 11, 0, 1245241, 11, 0, 1245242, 18, 0, 1245243, 18, 0, 1245244, 11, 0, 1245245, 11, 0, 1245246, 11, 0, 1245247, 11, 0, 1245248, 11, 0, 1245249, 11, 0, 1245250, 11, 0, 1245251, 11, 0, 1245252, 11, 0, 1245253, 11, 0, 1245254, 11, 0, 1245255, 11, 0, 1245256, 11, 0, 1245257, 11, 0, 1245258, 11, 0, 1245259, 11, 0, 1245260, 11, 0, 1245261, 11, 0, 1245262, 11, 0, 1245263, 11, 0, 1245264, 11, 0, 1245265, 11, 0, 1245266, 11, 0, 1245267, 11, 0, 1245268, 11, 0, 1245269, 11, 0, 1245270, 11, 0, 1245271, 11, 0, 1245272, 11, 0, 1245273, 11, 0, 1245274, 11, 0, 1245275, 11, 0, 1245276, 11, 0, 1245277, 11, 0, 1245278, 11, 0, 1245279, 11, 0, 1245280, 11, 0, 1376245, 15, 0, 1376246, 15, 0, 1376247, 15, 0, 1376248, 15, 0, 1376249, 15, 0, 1376250, 15, 0, 1376251, 15, 0, 1376252, 15, 0, 1376253, 15, 0, 1376254, 15, 0, 1376255, 15, 0, 1310720, 15, 0, 1310721, 15, 0, 1310722, 3, 0, 1310723, 11, 0, 1310724, 18, 0, 1310725, 11, 0, 1310726, 11, 0, 1310727, 11, 0, 1310728, 11, 0, 1310729, 11, 0, 1310730, 18, 0, 1310731, 11, 0, 1310732, 11, 0, 1310733, 11, 0, 1310734, 18, 0, 1310735, 11, 0, 1310736, 11, 0, 1310737, 11, 0, 1310738, 11, 0, 1310739, 11, 0, 1310740, 11, 0, 1310741, 11, 0, 1310742, 11, 0, 1310743, 11, 0, 1310744, 11, 0, 1310745, 11, 0, 1310746, 11, 0, 1310747, 18, 0, 1310748, 11, 0, 1310749, 11, 0, 1310750, 11, 0, 1310751, 11, 0, 1310752, 11, 0, 1310753, 11, 0, 1310754, 11, 0, 1310755, 11, 0, 1310756, 11, 0, 1310757, 11, 0, 1310758, 11, 0, 1310759, 11, 0, 1310760, 11, 0, 1310761, 11, 0, 1310762, 11, 0, 1310763, 11, 0, 1310764, 11, 0, 1310765, 11, 0, 1310766, 11, 0, 1310767, 11, 0, 1310768, 11, 0, 1310769, 11, 0, 1310770, 11, 0, 1310771, 11, 0, 1310772, 11, 0, 1310773, 11, 0, 1310774, 11, 0, 1310775, 11, 0, 1310776, 11, 0, 1310777, 11, 0, 1310778, 11, 0, 1310779, 11, 0, 1310780, 11, 0, 1310781, 11, 0, 1310782, 11, 0, 1310783, 18, 0, 1310784, 11, 0, 1310785, 11, 0, 1310786, 11, 0, 1310787, 11, 0, 1310788, 11, 0, 1310789, 11, 0, 1310790, 11, 0, 1310791, 11, 0, 1310792, 11, 0, 1310793, 11, 0, 1310794, 11, 0, 1310795, 11, 0, 1310796, 11, 0, 1310797, 11, 0, 1310798, 11, 0, 1310799, 11, 0, 1310800, 11, 0, 1310801, 11, 0, 1310802, 11, 0, 1310803, 11, 0, 1310804, 11, 0, 1310805, 11, 0, 1310806, 11, 0, 1310807, 11, 0, 1310808, 18, 0, 1310809, 18, 0, 1310810, 11, 0, 1310811, 11, 0, 1310812, 11, 0, 1310813, 11, 0, 1310814, 11, 0, 1310815, 11, 0, 1310816, 11, 0, 1441781, 15, 0, 1441782, 15, 0, 1441783, 15, 0, 1441784, 15, 0, 1441785, 15, 0, 1441786, 15, 0, 1441787, 15, 0, 1441788, 15, 0, 1441789, 15, 0, 1441790, 15, 0, 1441791, 15, 0, 1376256, 15, 0, 1376257, 15, 0, 1376258, 3, 0, 1376259, 11, 0, 1376260, 11, 0, 1376261, 11, 0, 1376262, 11, 0, 1376263, 11, 0, 1376264, 18, 0, 1376265, 18, 0, 1376266, 11, 0, 1376267, 11, 0, 1376268, 11, 0, 1376269, 11, 0, 1376270, 11, 0, 1376271, 11, 0, 1376272, 11, 0, 1376273, 18, 0, 1376274, 18, 0, 1376275, 11, 0, 1376276, 11, 0, 1376277, 18, 0, 1376278, 18, 0, 1376279, 11, 0, 1376280, 11, 0, 1376281, 11, 0, 1376282, 11, 0, 1376283, 11, 0, 1376284, 11, 0, 1376285, 11, 0, 1376286, 11, 0, 1376287, 11, 0, 1376288, 18, 0, 1376289, 18, 0, 1376290, 18, 0, 1376291, 11, 0, 1376292, 11, 0, 1376293, 11, 0, 1376294, 11, 0, 1376295, 11, 0, 1376296, 11, 0, 1376297, 18, 0, 1376298, 18, 0, 1376299, 11, 0, 1376300, 11, 0, 1376301, 11, 0, 1376302, 11, 0, 1376303, 11, 0, 1376304, 11, 0, 1376305, 11, 0, 1376306, 11, 0, 1376307, 11, 0, 1376308, 11, 0, 1376309, 11, 0, 1376310, 11, 0, 1376311, 11, 0, 1376312, 11, 0, 1376313, 11, 0, 1376314, 11, 0, 1376315, 11, 0, 1376316, 11, 0, 1376317, 11, 0, 1376318, 11, 0, 1376319, 11, 0, 1376320, 11, 0, 1376321, 11, 0, 1376322, 11, 0, 1376323, 11, 0, 1376324, 11, 0, 1376325, 11, 0, 1376326, 11, 0, 1376327, 11, 0, 1376328, 11, 0, 1376329, 11, 0, 1376330, 11, 0, 1376331, 11, 0, 1376332, 11, 0, 1376333, 11, 0, 1376334, 11, 0, 1376335, 11, 0, 1376336, 11, 0, 1376337, 11, 0, 1376338, 11, 0, 1376339, 18, 0, 1376340, 11, 0, 1376341, 11, 0, 1376342, 11, 0, 1376343, 11, 0, 1376344, 11, 0, 1376345, 11, 0, 1376346, 11, 0, 1376347, 11, 0, 1376348, 11, 0, 1376349, 11, 0, 1376350, 11, 0, 1376351, 11, 0, 1376352, 11, 0, 1507317, 15, 0, 1507318, 15, 0, 1507319, 15, 0, 1507320, 15, 0, 1507321, 15, 0, 1507322, 15, 0, 1507323, 15, 0, 1507324, 15, 0, 1507325, 15, 0, 1507326, 15, 0, 1507327, 15, 0, 1441792, 15, 0, 1441793, 15, 0, 1441794, 3, 0, 1441795, 17, 0, 1441796, 17, 0, 1441797, 17, 0, 1441798, 17, 0, 1441799, 17, 0, 1441800, 17, 0, 1441801, 17, 0, 1441802, 17, 0, 1441803, 17, 0, 1441804, 17, 0, 1441805, 17, 0, 1441806, 17, 0, 1441807, 17, 0, 1441808, 17, 0, 1441809, 17, 0, 1441810, 17, 0, 1441811, 17, 0, 1441812, 17, 0, 1441813, 17, 0, 1441814, 17, 0, 1441815, 17, 0, 1441816, 17, 0, 1441817, 18, 0, 1441818, 11, 0, 1441819, 11, 0, 1441820, 11, 0, 1441821, 11, 0, 1441822, 11, 0, 1441823, 18, 0, 1441824, 18, 0, 1441825, 11, 0, 1441826, 18, 0, 1441827, 18, 0, 1441828, 18, 0, 1441829, 11, 0, 1441830, 11, 0, 1441831, 11, 0, 1441832, 11, 0, 1441833, 11, 0, 1441834, 11, 0, 1441835, 11, 0, 1441836, 11, 0, 1441837, 11, 0, 1441838, 18, 0, 1441839, 18, 0, 1441840, 18, 0, 1441841, 18, 0, 1441842, 18, 0, 1441843, 11, 0, 1441844, 11, 0, 1441845, 11, 0, 1441846, 11, 0, 1441847, 11, 0, 1441848, 11, 0, 1441849, 11, 0, 1441850, 11, 0, 1441851, 11, 0, 1441852, 11, 0, 1441853, 11, 0, 1441854, 11, 0, 1441855, 11, 0, 1441856, 11, 0, 1441857, 11, 0, 1441858, 11, 0, 1441859, 11, 0, 1441860, 11, 0, 1441861, 11, 0, 1441862, 18, 0, 1441863, 18, 0, 1441864, 18, 0, 1441865, 18, 0, 1441866, 11, 0, 1441867, 11, 0, 1441868, 11, 0, 1441869, 11, 0, 1441870, 11, 0, 1441871, 11, 0, 1441872, 11, 0, 1441873, 11, 0, 1441874, 11, 0, 1441875, 11, 0, 1441876, 11, 0, 1441877, 11, 0, 1441878, 11, 0, 1441879, 11, 0, 1441880, 11, 0, 1441881, 11, 0, 1441882, 11, 0, 1441883, 11, 0, 1441884, 11, 0, 1441885, 11, 0, 1441886, 11, 0, 1441887, 11, 0, 1441888, 11, 0, 1572853, 15, 0, 1572854, 15, 0, 1572855, 15, 0, 1572856, 15, 0, 1572857, 15, 0, 1572858, 15, 0, 1572859, 15, 0, 1572860, 15, 0, 1572861, 15, 0, 1572862, 15, 0, 1572863, 15, 0, 1507328, 15, 0, 1507329, 15, 0, 1507330, 3, 0, 1507331, 16, 0, 1507332, 16, 0, 1507333, 16, 0, 1507334, 16, 0, 1507335, 16, 0, 1507336, 16, 0, 1507337, 16, 0, 1507338, 16, 0, 1507339, 16, 0, 1507340, 16, 0, 1507341, 16, 0, 1507342, 16, 0, 1507343, 16, 0, 1507344, 16, 0, 1507345, 16, 0, 1507346, 16, 0, 1507347, 16, 0, 1507348, 16, 0, 1507349, 16, 0, 1507350, 16, 0, 1507351, 16, 0, 1507352, 16, 0, 1507353, 17, 0, 1507354, 17, 0, 1507355, 17, 0, 1507356, 17, 0, 1507357, 17, 0, 1507358, 17, 0, 1507359, 17, 0, 1507360, 17, 0, 1507361, 17, 0, 1507362, 17, 0, 1507363, 17, 0, 1507364, 17, 0, 1507365, 17, 0, 1507366, 17, 0, 1507367, 17, 0, 1507368, 17, 0, 1507369, 17, 0, 1507370, 17, 0, 1507371, 17, 0, 1507372, 17, 0, 1507373, 17, 0, 1507374, 17, 0, 1507375, 17, 0, 1507376, 17, 0, 1507377, 17, 0, 1507378, 17, 0, 1507379, 17, 0, 1507380, 17, 0, 1507381, 17, 0, 1507382, 17, 0, 1507383, 17, 0, 1507384, 17, 0, 1507385, 17, 0, 1507386, 17, 0, 1507387, 17, 0, 1507388, 17, 0, 1507389, 17, 0, 1507390, 17, 0, 1507391, 17, 0, 1507392, 17, 0, 1507393, 17, 0, 1507394, 17, 0, 1507395, 17, 0, 1507396, 17, 0, 1507397, 17, 0, 1507398, 17, 0, 1507399, 17, 0, 1507400, 17, 0, 1507401, 17, 0, 1507402, 17, 0, 1507403, 17, 0, 1507404, 17, 0, 1507405, 17, 0, 1507406, 17, 0, 1507407, 17, 0, 1507408, 17, 0, 1507409, 17, 0, 1507410, 17, 0, 1507411, 17, 0, 1507412, 17, 0, 1507413, 17, 0, 1507414, 17, 0, 1507415, 17, 0, 1507416, 17, 0, 1507417, 17, 0, 1507418, 17, 0, 1507419, 17, 0, 1507420, 17, 0, 1507421, 17, 0, 1507422, 17, 0, 1507423, 17, 0, 1507424, 17, 0, 1638389, 15, 0, 1638390, 15, 0, 1638391, 15, 0, 1638392, 15, 0, 1638393, 15, 0, 1638394, 15, 0, 1638395, 15, 0, 1638396, 15, 0, 1638397, 15, 0, 1638398, 15, 0, 1638399, 15, 0, 1572864, 15, 0, 1572865, 15, 0, 1572866, 3, 0, 1572867, 16, 0, 1572868, 16, 0, 1572869, 16, 0, 1572870, 16, 0, 1572871, 16, 0, 1572872, 16, 0, 1572873, 16, 0, 1572874, 16, 0, 1572875, 16, 0, 1572876, 16, 0, 1572877, 16, 0, 1572878, 16, 0, 1572879, 16, 0, 1572880, 16, 0, 1572881, 16, 0, 1572882, 16, 0, 1572883, 16, 0, 1572884, 16, 0, 1572885, 16, 0, 1572886, 16, 0, 1572887, 16, 0, 1572888, 16, 0, 1572889, 16, 0, 1572890, 16, 0, 1572891, 16, 0, 1572892, 16, 0, 1572893, 16, 0, 1572894, 16, 0, 1572895, 16, 0, 1572896, 16, 0, 1572897, 16, 0, 1572898, 16, 0, 1572899, 16, 0, 1572900, 16, 0, 1572901, 16, 0, 1572902, 16, 0, 1572903, 16, 0, 1572904, 16, 0, 1572905, 16, 0, 1572906, 16, 0, 1572907, 16, 0, 1572908, 16, 0, 1572909, 16, 0, 1572910, 16, 0, 1572911, 16, 0, 1572912, 16, 0, 1572913, 16, 0, 1572914, 16, 0, 1572915, 16, 0, 1572916, 16, 0, 1572917, 16, 0, 1572918, 16, 0, 1572919, 16, 0, 1572920, 16, 0, 1572921, 16, 0, 1572922, 16, 0, 1572923, 16, 0, 1572924, 16, 0, 1572925, 16, 0, 1572926, 16, 0, 1572927, 16, 0, 1572928, 16, 0, 1572929, 16, 0, 1572930, 16, 0, 1572931, 16, 0, 1572932, 16, 0, 1572933, 16, 0, 1572934, 16, 0, 1572935, 16, 0, 1572936, 16, 0, 1572937, 16, 0, 1572938, 16, 0, 1572939, 16, 0, 1572940, 16, 0, 1572941, 16, 0, 1572942, 16, 0, 1572943, 16, 0, 1572944, 16, 0, 1572945, 16, 0, 1572946, 16, 0, 1572947, 16, 0, 1572948, 16, 0, 1572949, 16, 0, 1572950, 16, 0, 1572951, 16, 0, 1572952, 16, 0, 1572953, 16, 0, 1572954, 16, 0, 1572955, 16, 0, 1572956, 16, 0, 1572957, 16, 0, 1572958, 16, 0, 1572959, 16, 0, 1572960, 16, 0, 1703925, 15, 0, 1703926, 15, 0, 1703927, 15, 0, 1703928, 15, 0, 1703929, 15, 0, 1703930, 15, 0, 1703931, 15, 0, 1703932, 15, 0, 1703933, 15, 0, 1703934, 15, 0, 1703935, 15, 0, 1638400, 15, 0, 1638401, 15, 0, 1638402, 1, 0, 1638403, 0, 0, 1638404, 0, 0, 1638405, 0, 0, 1638406, 0, 0, 1638407, 0, 0, 1638408, 0, 0, 1638409, 0, 0, 1638410, 11, 0, 1638411, 16, 0, 1638412, 16, 0, 1638413, 16, 0, 1638414, 16, 0, 1638415, 16, 0, 1638416, 16, 0, 1638417, 16, 0, 1638418, 16, 0, 1638419, 16, 0, 1638420, 16, 0, 1638421, 16, 0, 1638422, 16, 0, 1638423, 16, 0, 1638424, 16, 0, 1638425, 16, 0, 1638426, 16, 0, 1638427, 16, 0, 1638428, 16, 0, 1638429, 16, 0, 1638430, 16, 0, 1638431, 16, 0, 1638432, 16, 0, 1638433, 16, 0, 1638434, 16, 0, 1638435, 16, 0, 1638436, 16, 0, 1638437, 16, 0, 1638438, 16, 0, 1638439, 16, 0, 1638440, 16, 0, 1638441, 16, 0, 1638442, 16, 0, 1638443, 16, 0, 1638444, 16, 0, 1638445, 16, 0, 1638446, 16, 0, 1638447, 16, 0, 1638448, 16, 0, 1638449, 16, 0, 1638450, 16, 0, 1638451, 16, 0, 1638452, 16, 0, 1638453, 16, 0, 1638454, 16, 0, 1638455, 16, 0, 1638456, 16, 0, 1638457, 16, 0, 1638458, 16, 0, 1638459, 16, 0, 1638460, 16, 0, 1638461, 16, 0, 1638462, 16, 0, 1638463, 16, 0, 1638464, 16, 0, 1638465, 16, 0, 1638466, 16, 0, 1638467, 16, 0, 1638468, 16, 0, 1638469, 16, 0, 1638470, 16, 0, 1638471, 16, 0, 1638472, 16, 0, 1638473, 16, 0, 1638474, 16, 0, 1638475, 16, 0, 1638476, 16, 0, 1638477, 16, 0, 1638478, 16, 0, 1638479, 16, 0, 1638480, 16, 0, 1638481, 16, 0, 1638482, 16, 0, 1638483, 16, 0, 1638484, 16, 0, 1638485, 16, 0, 1638486, 16, 0, 1638487, 16, 0, 1638488, 16, 0, 1638489, 16, 0, 1638490, 16, 0, 1638491, 16, 0, 1638492, 16, 0, 1638493, 16, 0, 1638494, 16, 0, 1638495, 16, 0, 1638496, 16, 0, 1769461, 15, 0, 1769462, 15, 0, 1769463, 15, 0, 1769464, 15, 0, 1769465, 15, 0, 1769466, 15, 0, 1769467, 15, 0, 1769468, 15, 0, 1769469, 15, 0, 1769470, 15, 0, 1769471, 15, 0, 1703936, 15, 0, 1703937, 15, 0, 1703938, 15, 0, 1703939, 15, 0, 1703940, 15, 0, 1703941, 15, 0, 1703942, 15, 0, 1703943, 15, 0, 1703944, 15, 0, 1703945, 15, 0, 1703946, 3, 0, 1703947, 16, 0, 1703948, 16, 0, 1703949, 16, 0, 1703950, 16, 0, 1703951, 16, 0, 1703952, 16, 0, 1703953, 16, 0, 1703954, 16, 0, 1703955, 16, 0, 1703956, 16, 0, 1703957, 16, 0, 1703958, 16, 0, 1703959, 16, 0, 1703960, 16, 0, 1703961, 16, 0, 1703962, 16, 0, 1703963, 16, 0, 1703964, 16, 0, 1703965, 16, 0, 1703966, 16, 0, 1703967, 16, 0, 1703968, 16, 0, 1703969, 16, 0, 1703970, 16, 0, 1703971, 16, 0, 1703972, 16, 0, 1703973, 16, 0, 1703974, 16, 0, 1703975, 16, 0, 1703976, 16, 0, 1703977, 16, 0, 1703978, 16, 0, 1703979, 16, 0, 1703980, 16, 0, 1703981, 16, 0, 1703982, 16, 0, 1703983, 16, 0, 1703984, 16, 0, 1703985, 16, 0, 1703986, 16, 0, 1703987, 16, 0, 1703988, 16, 0, 1703989, 16, 0, 1703990, 16, 0, 1703991, 16, 0, 1703992, 16, 0, 1703993, 16, 0, 1703994, 16, 0, 1703995, 16, 0, 1703996, 16, 0, 1703997, 16, 0, 1703998, 16, 0, 1703999, 16, 0, 1704000, 16, 0, 1704001, 16, 0, 1704002, 16, 0, 1704003, 16, 0, 1704004, 16, 0, 1704005, 16, 0, 1704006, 16, 0, 1704007, 16, 0, 1704008, 16, 0, 1704009, 16, 0, 1704010, 16, 0, 1704011, 16, 0, 1704012, 16, 0, 1704013, 16, 0, 1704014, 16, 0, 1704015, 16, 0, 1704016, 16, 0, 1704017, 16, 0, 1704018, 16, 0, 1704019, 16, 0, 1704020, 16, 0, 1704021, 16, 0, 1704022, 16, 0, 1704023, 16, 0, 1704024, 16, 0, 1704025, 16, 0, 1704026, 16, 0, 1704027, 16, 0, 1704028, 16, 0, 1704029, 16, 0, 1704030, 16, 0, 1704031, 16, 0, 1704032, 16, 0, 1834997, 15, 0, 1834998, 15, 0, 1834999, 15, 0, 1835000, 15, 0, 1835001, 15, 0, 1835002, 15, 0, 1835003, 15, 0, 1835004, 15, 0, 1835005, 15, 0, 1835006, 15, 0, 1835007, 15, 0, 1769472, 15, 0, 1769473, 15, 0, 1769474, 15, 0, 1769475, 15, 0, 1769476, 15, 0, 1769477, 15, 0, 1769478, 15, 0, 1769479, 15, 0, 1769480, 15, 0, 1769481, 15, 0, 1769482, 3, 0, 1769483, 16, 0, 1769484, 16, 0, 1769485, 16, 0, 1769486, 16, 0, 1769487, 16, 0, 1769488, 16, 0, 1769489, 16, 0, 1769490, 16, 0, 1769491, 16, 0, 1769492, 16, 0, 1769493, 16, 0, 1769494, 16, 0, 1769495, 16, 0, 1769496, 16, 0, 1769497, 16, 0, 1769498, 16, 0, 1769499, 16, 0, 1769500, 16, 0, 1769501, 16, 0, 1769502, 16, 0, 1769503, 16, 0, 1769504, 16, 0, 1769505, 16, 0, 1769506, 16, 0, 1769507, 16, 0, 1769508, 16, 0, 1769509, 16, 0, 1769510, 16, 0, 1769511, 16, 0, 1769512, 16, 0, 1769513, 16, 0, 1769514, 16, 0, 1769515, 16, 0, 1769516, 16, 0, 1769517, 16, 0, 1769518, 16, 0, 1769519, 16, 0, 1769520, 16, 0, 1769521, 16, 0, 1769522, 16, 0, 1769523, 16, 0, 1769524, 16, 0, 1769525, 16, 0, 1769526, 16, 0, 1769527, 16, 0, 1769528, 16, 0, 1769529, 16, 0, 1769530, 16, 0, 1769531, 16, 0, 1769532, 16, 0, 1769533, 16, 0, 1769534, 16, 0, 1769535, 16, 0, 1769536, 16, 0, 1769537, 16, 0, 1769538, 16, 0, 1769539, 16, 0, 1769540, 16, 0, 1769541, 16, 0, 1769542, 16, 0, 1769543, 16, 0, 1769544, 16, 0, 1769545, 16, 0, 1769546, 16, 0, 1769547, 16, 0, 1769548, 16, 0, 1769549, 16, 0, 1769550, 16, 0, 1769551, 16, 0, 1769552, 16, 0, 1769553, 16, 0, 1769554, 16, 0, 1769555, 16, 0, 1769556, 16, 0, 1769557, 16, 0, 1769558, 16, 0, 1769559, 16, 0, 1769560, 16, 0, 1769561, 16, 0, 1769562, 16, 0, 1769563, 16, 0, 1769564, 16, 0, 1769565, 16, 0, 1769566, 16, 0, 1769567, 16, 0, 1769568, 16, 0, 1900533, 15, 0, 1900534, 15, 0, 1900535, 15, 0, 1900536, 15, 0, 1900537, 15, 0, 1900538, 15, 0, 1900539, 15, 0, 1900540, 15, 0, 1900541, 15, 0, 1900542, 15, 0, 1900543, 15, 0, 1835008, 15, 0, 1835009, 15, 0, 1835010, 15, 0, 1835011, 15, 0, 1835012, 15, 0, 1835013, 15, 0, 1835014, 15, 0, 1835015, 15, 0, 1835016, 15, 0, 1835017, 15, 0, 1835018, 3, 0, 1835019, 16, 0, 1835020, 16, 0, 1835021, 16, 0, 1835022, 16, 0, 1835023, 16, 0, 1835024, 16, 0, 1835025, 16, 0, 1835026, 16, 0, 1835027, 16, 0, 1835028, 16, 0, 1835029, 16, 0, 1835030, 16, 0, 1835031, 16, 0, 1835032, 16, 0, 1835033, 16, 0, 1835034, 16, 0, 1835035, 16, 0, 1835036, 16, 0, 1835037, 16, 0, 1835038, 16, 0, 1835039, 16, 0, 1835040, 16, 0, 1835041, 16, 0, 1835042, 16, 0, 1835043, 16, 0, 1835044, 16, 0, 1835045, 16, 0, 1835046, 16, 0, 1835047, 16, 0, 1835048, 16, 0, 1835049, 16, 0, 1835050, 16, 0, 1835051, 16, 0, 1835052, 16, 0, 1835053, 16, 0, 1835054, 16, 0, 1835055, 16, 0, 1835056, 16, 0, 1835057, 16, 0, 1835058, 16, 0, 1835059, 16, 0, 1835060, 16, 0, 1835061, 16, 0, 1835062, 16, 0, 1835063, 16, 0, 1835064, 16, 0, 1835065, 16, 0, 1835066, 16, 0, 1835067, 16, 0, 1835068, 16, 0, 1835069, 16, 0, 1835070, 16, 0, 1835071, 16, 0, 1835072, 16, 0, 1835073, 16, 0, 1835074, 16, 0, 1835075, 16, 0, 1835076, 16, 0, 1835077, 16, 0, 1835078, 16, 0, 1835079, 16, 0, 1835080, 16, 0, 1835081, 16, 0, 1835082, 16, 0, 1835083, 16, 0, 1835084, 16, 0, 1835085, 16, 0, 1835086, 16, 0, 1835087, 16, 0, 1835088, 16, 0, 1835089, 16, 0, 1835090, 16, 0, 1835091, 16, 0, 1835092, 16, 0, 1835093, 16, 0, 1835094, 16, 0, 1835095, 16, 0, 1835096, 16, 0, 1835097, 16, 0, 1835098, 16, 0, 1835099, 16, 0, 1835100, 16, 0, 1835101, 16, 0, 1835102, 16, 0, 1835103, 16, 0, 1835104, 16, 0, 1966069, 15, 0, 1966070, 15, 0, 1966071, 15, 0, 1966072, 15, 0, 1966073, 15, 0, 1966074, 15, 0, 1966075, 15, 0, 1966076, 15, 0, 1966077, 15, 0, 1966078, 15, 0, 1966079, 15, 0, 1900544, 15, 0, 1900545, 15, 0, 1900546, 15, 0, 1900547, 15, 0, 1900548, 15, 0, 1900549, 15, 0, 1900550, 15, 0, 1900551, 15, 0, 1900552, 15, 0, 1900553, 15, 0, 1900554, 3, 0, 1900555, 16, 0, 1900556, 16, 0, 1900557, 16, 0, 1900558, 16, 0, 1900559, 16, 0, 1900560, 16, 0, 1900561, 16, 0, 1900562, 16, 0, 1900563, 16, 0, 1900564, 16, 0, 1900565, 16, 0, 1900566, 16, 0, 1900567, 16, 0, 1900568, 16, 0, 1900569, 16, 0, 1900570, 16, 0, 1900571, 16, 0, 1900572, 16, 0, 1900573, 16, 0, 1900574, 16, 0, 1900575, 16, 0, 1900576, 16, 0, 1900577, 16, 0, 1900578, 16, 0, 1900579, 16, 0, 1900580, 16, 0, 1900581, 16, 0, 1900582, 16, 0, 1900583, 16, 0, 1900584, 16, 0, 1900585, 16, 0, 1900586, 16, 0, 1900587, 16, 0, 1900588, 16, 0, 1900589, 16, 0, 1900590, 16, 0, 1900591, 16, 0, 1900592, 16, 0, 1900593, 16, 0, 1900594, 16, 0, 1900595, 16, 0, 1900596, 16, 0, 1900597, 16, 0, 1900598, 16, 0, 1900599, 16, 0, 1900600, 16, 0, 1900601, 16, 0, 1900602, 16, 0, 1900603, 16, 0, 1900604, 16, 0, 1900605, 16, 0, 1900606, 16, 0, 1900607, 16, 0, 1900608, 16, 0, 1900609, 16, 0, 1900610, 16, 0, 1900611, 16, 0, 1900612, 16, 0, 1900613, 16, 0, 1900614, 16, 0, 1900615, 16, 0, 1900616, 16, 0, 1900617, 16, 0, 1900618, 16, 0, 1900619, 16, 0, 1900620, 16, 0, 1900621, 16, 0, 1900622, 16, 0, 1900623, 16, 0, 1900624, 16, 0, 1900625, 16, 0, 1900626, 16, 0, 1900627, 16, 0, 1900628, 16, 0, 1900629, 16, 0, 1900630, 16, 0, 1900631, 16, 0, 1900632, 16, 0, 1900633, 16, 0, 1900634, 16, 0, 1900635, 16, 0, 1900636, 16, 0, 1900637, 16, 0, 1900638, 16, 0, 1900639, 16, 0, 1900640, 16, 0, 2031605, 15, 0, 2031606, 15, 0, 2031607, 15, 0, 2031608, 15, 0, 2031609, 15, 0, 2031610, 15, 0, 2031611, 15, 0, 2031612, 15, 0, 2031613, 15, 0, 2031614, 15, 0, 2031615, 15, 0, 1966080, 15, 0, 1966081, 15, 0, 1966082, 15, 0, 1966083, 15, 0, 1966084, 15, 0, 1966085, 15, 0, 1966086, 15, 0, 1966087, 15, 0, 1966088, 15, 0, 1966089, 15, 0, 1966090, 3, 0, 1966091, 16, 0, 1966092, 16, 0, 1966093, 16, 0, 1966094, 16, 0, 1966095, 16, 0, 1966096, 16, 0, 1966097, 16, 0, 1966098, 16, 0, 1966099, 16, 0, 1966100, 16, 0, 1966101, 16, 0, 1966102, 16, 0, 1966103, 16, 0, 1966104, 16, 0, 1966105, 16, 0, 1966106, 16, 0, 1966107, 16, 0, 1966108, 16, 0, 1966109, 16, 0, 1966110, 16, 0, 1966111, 16, 0, 1966112, 16, 0, 1966113, 16, 0, 1966114, 16, 0, 1966115, 16, 0, 1966116, 16, 0, 1966117, 16, 0, 1966118, 16, 0, 1966119, 16, 0, 1966120, 16, 0, 1966121, 16, 0, 1966122, 16, 0, 1966123, 16, 0, 1966124, 16, 0, 1966125, 16, 0, 1966126, 16, 0, 1966127, 16, 0, 1966128, 16, 0, 1966129, 16, 0, 1966130, 16, 0, 1966131, 16, 0, 1966132, 16, 0, 1966133, 16, 0, 1966134, 16, 0, 1966135, 16, 0, 1966136, 16, 0, 1966137, 16, 0, 1966138, 16, 0, 1966139, 16, 0, 1966140, 16, 0, 1966141, 16, 0, 1966142, 16, 0, 1966143, 16, 0, 1966144, 16, 0, 1966145, 16, 0, 1966146, 16, 0, 1966147, 16, 0, 1966148, 16, 0, 1966149, 16, 0, 1966150, 16, 0, 1966151, 16, 0, 1966152, 16, 0, 1966153, 16, 0, 1966154, 16, 0, 1966155, 16, 0, 1966156, 16, 0, 1966157, 16, 0, 1966158, 16, 0, 1966159, 16, 0, 1966160, 16, 0, 1966161, 16, 0, 1966162, 16, 0, 1966163, 16, 0, 1966164, 16, 0, 1966165, 16, 0, 1966166, 16, 0, 1966167, 16, 0, 1966168, 16, 0, 1966169, 16, 0, 1966170, 16, 0, 1966171, 16, 0, 1966172, 16, 0, 1966173, 16, 0, 1966174, 16, 0, 1966175, 16, 0, 1966176, 16, 0, 2097141, 15, 0, 2097142, 15, 0, 2097143, 15, 0, 2097144, 15, 0, 2097145, 15, 0, 2097146, 15, 0, 2097147, 15, 0, 2097148, 15, 0, 2097149, 15, 0, 2097150, 15, 0, 2097151, 15, 0, 2031616, 15, 0, 2031617, 15, 0, 2031618, 15, 0, 2031619, 15, 0, 2031620, 15, 0, 2031621, 15, 0, 2031622, 15, 0, 2031623, 15, 0, 2031624, 15, 0, 2031625, 15, 0, 2031626, 3, 0, 2031627, 16, 0, 2031628, 16, 0, 2031629, 16, 0, 2031630, 16, 0, 2031631, 16, 0, 2031632, 16, 0, 2031633, 16, 0, 2031634, 16, 0, 2031635, 16, 0, 2031636, 16, 0, 2031637, 16, 0, 2031638, 16, 0, 2031639, 16, 0, 2031640, 16, 0, 2031641, 16, 0, 2031642, 16, 0, 2031643, 16, 0, 2031644, 16, 0, 2031645, 16, 0, 2031646, 16, 0, 2031647, 16, 0, 2031648, 16, 0, 2031649, 16, 0, 2031650, 16, 0, 2031651, 16, 0, 2031652, 16, 0, 2031653, 16, 0, 2031654, 16, 0, 2031655, 16, 0, 2031656, 16, 0, 2031657, 16, 0, 2031658, 16, 0, 2031659, 16, 0, 2031660, 16, 0, 2031661, 16, 0, 2031662, 16, 0, 2031663, 16, 0, 2031664, 16, 0, 2031665, 16, 0, 2031666, 16, 0, 2031667, 16, 0, 2031668, 16, 0, 2031669, 16, 0, 2031670, 16, 0, 2031671, 16, 0, 2031672, 16, 0, 2031673, 16, 0, 2031674, 16, 0, 2031675, 16, 0, 2031676, 16, 0, 2031677, 16, 0, 2031678, 16, 0, 2031679, 16, 0, 2031680, 16, 0, 2031681, 16, 0, 2031682, 16, 0, 2031683, 16, 0, 2031684, 16, 0, 2031685, 16, 0, 2031686, 16, 0, 2031687, 16, 0, 2031688, 16, 0, 2031689, 16, 0, 2031690, 16, 0, 2031691, 16, 0, 2031692, 16, 0, 2031693, 16, 0, 2031694, 16, 0, 2031695, 16, 0, 2031696, 16, 0, 2031697, 16, 0, 2031698, 16, 0, 2031699, 16, 0, 2031700, 16, 0, 2031701, 16, 0, 2031702, 16, 0, 2031703, 16, 0, 2031704, 16, 0, 2031705, 16, 0, 2031706, 16, 0, 2031707, 16, 0, 2031708, 16, 0, 2031709, 16, 0, 2031710, 16, 0, 2031711, 16, 0, 2031712, 16, 0, 2162677, 15, 0, 2162678, 15, 0, 2162679, 15, 0, 2162680, 15, 0, 2162681, 15, 0, 2162682, 15, 0, 2162683, 15, 0, 2162684, 15, 0, 2162685, 15, 0, 2162686, 15, 0, 2162687, 15, 0, 2097152, 15, 0, 2097153, 15, 0, 2097154, 15, 0, 2097155, 15, 0, 2097156, 15, 0, 2097157, 15, 0, 2097158, 15, 0, 2097159, 15, 0, 2097160, 15, 0, 2097161, 15, 0, 2097162, 3, 0, 2097163, 16, 0, 2097164, 16, 0, 2097165, 16, 0, 2097166, 16, 0, 2097167, 16, 0, 2097168, 16, 0, 2097169, 16, 0, 2097170, 16, 0, 2097171, 16, 0, 2097172, 16, 0, 2097173, 16, 0, 2097174, 16, 0, 2097175, 16, 0, 2097176, 16, 0, 2097177, 16, 0, 2097178, 16, 0, 2097179, 16, 0, 2097180, 16, 0, 2097181, 16, 0, 2097182, 16, 0, 2097183, 16, 0, 2097184, 16, 0, 2097185, 16, 0, 2097186, 16, 0, 2097187, 16, 0, 2097188, 16, 0, 2097189, 16, 0, 2097190, 16, 0, 2097191, 16, 0, 2097192, 16, 0, 2097193, 16, 0, 2097194, 16, 0, 2097195, 16, 0, 2097196, 16, 0, 2097197, 16, 0, 2097198, 16, 0, 2097199, 16, 0, 2097200, 16, 0, 2097201, 16, 0, 2097202, 16, 0, 2097203, 16, 0, 2097204, 16, 0, 2097205, 16, 0, 2097206, 16, 0, 2097207, 16, 0, 2097208, 16, 0, 2097209, 16, 0, 2097210, 16, 0, 2097211, 16, 0, 2097212, 16, 0, 2097213, 16, 0, 2097214, 16, 0, 2097215, 16, 0, 2097216, 16, 0, 2097217, 16, 0, 2097218, 16, 0, 2097219, 16, 0, 2097220, 16, 0, 2097221, 16, 0, 2097222, 16, 0, 2097223, 16, 0, 2097224, 16, 0, 2097225, 16, 0, 2097226, 16, 0, 2097227, 16, 0, 2097228, 16, 0, 2097229, 16, 0, 2097230, 16, 0, 2097231, 16, 0, 2097232, 16, 0, 2097233, 16, 0, 2097234, 16, 0, 2097235, 16, 0, 2097236, 16, 0, 2097237, 16, 0, 2097238, 16, 0, 2097239, 16, 0, 2097240, 16, 0, 2097241, 16, 0, 2097242, 16, 0, 2097243, 16, 0, 2097244, 16, 0, 2097245, 16, 0, 2097246, 16, 0, 2097247, 16, 0, 2097248, 16, 0, 2228213, 15, 0, 2228214, 15, 0, 2228215, 15, 0, 2228216, 15, 0, 2228217, 15, 0, 2228218, 15, 0, 2228219, 15, 0, 2228220, 15, 0, 2228221, 15, 0, 2228222, 15, 0, 2228223, 15, 0, 2162688, 15, 0, 2162689, 15, 0, 2162690, 15, 0, 2162691, 15, 0, 2162692, 15, 0, 2162693, 15, 0, 2162694, 15, 0, 2162695, 15, 0, 2162696, 15, 0, 2162697, 15, 0, 2162698, 3, 0, 2162699, 16, 0, 2162700, 16, 0, 2162701, 16, 0, 2162702, 16, 0, 2162703, 16, 0, 2162704, 16, 0, 2162705, 16, 0, 2162706, 16, 0, 2162707, 16, 0, 2162708, 16, 0, 2162709, 16, 0, 2162710, 16, 0, 2162711, 16, 0, 2162712, 16, 0, 2162713, 16, 0, 2162714, 16, 0, 2162715, 16, 0, 2162716, 16, 0, 2162717, 16, 0, 2162718, 16, 0, 2162719, 16, 0, 2162720, 16, 0, 2162721, 16, 0, 2162722, 16, 0, 2162723, 16, 0, 2162724, 16, 0, 2162725, 16, 0, 2162726, 16, 0, 2162727, 16, 0, 2162728, 16, 0, 2162729, 16, 0, 2162730, 16, 0, 2162731, 16, 0, 2162732, 16, 0, 2162733, 16, 0, 2162734, 16, 0, 2162735, 16, 0, 2162736, 16, 0, 2162737, 16, 0, 2162738, 16, 0, 2162739, 16, 0, 2162740, 16, 0, 2162741, 16, 0, 2162742, 16, 0, 2162743, 16, 0, 2162744, 16, 0, 2162745, 16, 0, 2162746, 16, 0, 2162747, 16, 0, 2162748, 16, 0, 2162749, 16, 0, 2162750, 16, 0, 2162751, 16, 0, 2162752, 16, 0, 2162753, 16, 0, 2162754, 16, 0, 2162755, 16, 0, 2162756, 16, 0, 2162757, 16, 0, 2162758, 16, 0, 2162759, 16, 0, 2162760, 16, 0, 2162761, 16, 0, 2162762, 16, 0, 2162763, 16, 0, 2162764, 16, 0, 2162765, 16, 0, 2162766, 16, 0, 2162767, 16, 0, 2162768, 16, 0, 2162769, 16, 0, 2162770, 16, 0, 2162771, 16, 0, 2162772, 16, 0, 2162773, 16, 0, 2162774, 16, 0, 2162775, 16, 0, 2162776, 16, 0, 2162777, 16, 0, 2162778, 16, 0, 2162779, 16, 0, 2162780, 16, 0, 2162781, 16, 0, 2162782, 16, 0, 2162783, 16, 0, 2162784, 16, 0, 2293749, 15, 0, 2293750, 15, 0, 2293751, 15, 0, 2293752, 15, 0, 2293753, 15, 0, 2293754, 15, 0, 2293755, 15, 0, 2293756, 15, 0, 2293757, 15, 0, 2293758, 15, 0, 2293759, 15, 0, 2228224, 15, 0, 2228225, 15, 0, 2228226, 15, 0, 2228227, 15, 0, 2228228, 15, 0, 2228229, 15, 0, 2228230, 15, 0, 2228231, 15, 0, 2228232, 15, 0, 2228233, 15, 0, 2228234, 1, 0, 2228235, 0, 0, 2228236, 0, 0, 2228237, 0, 0, 2228238, 0, 0, 2228239, 0, 0, 2228240, 0, 0, 2228241, 0, 0, 2228242, 0, 0, 2228243, 0, 0, 2228244, 0, 0, 2228245, 0, 0, 2228246, 0, 0, 2228247, 0, 0, 2228248, 0, 0, 2228249, 0, 0, 2228250, 0, 0, 2228251, 0, 0, 2228252, 0, 0, 2228253, 0, 0, 2228254, 0, 0, 2228255, 0, 0, 2228256, 0, 0, 2228257, 0, 0, 2228258, 0, 0, 2228259, 0, 0, 2228260, 0, 0, 2228261, 0, 0, 2228262, 0, 0, 2228263, 0, 0, 2228264, 0, 0, 2228265, 0, 0, 2228266, 0, 0, 2228267, 0, 0, 2228268, 0, 0, 2228269, 0, 0, 2228270, 0, 0, 2228271, 0, 0, 2228272, 0, 0, 2228273, 0, 0, 2228274, 0, 0, 2228275, 0, 0, 2228276, 0, 0, 2228277, 0, 0, 2228278, 0, 0, 2228279, 0, 0, 2228280, 0, 0, 2228281, 0, 0, 2228282, 0, 0, 2228283, 0, 0, 2228284, 0, 0, 2228285, 0, 0, 2228286, 0, 0, 2228287, 0, 0, 2228288, 0, 0, 2228289, 0, 0, 2228290, 0, 0, 2228291, 0, 0, 2228292, 0, 0, 2228293, 0, 0, 2228294, 0, 0, 2228295, 0, 0, 2228296, 0, 0, 2228297, 0, 0, 2228298, 0, 0, 2228299, 0, 0, 2228300, 0, 0, 2228301, 0, 0, 2228302, 0, 0, 2228303, 0, 0, 2228304, 0, 0, 2228305, 0, 0, 2228306, 0, 0, 2228307, 0, 0, 2228308, 0, 0, 2228309, 0, 0, 2228310, 0, 0, 2228311, 0, 0, 2228312, 0, 0, 2228313, 0, 0, 2228314, 0, 0, 2228315, 0, 0, 2228316, 0, 0, 2228317, 0, 0, 2228318, 0, 0, 2228319, 0, 0, 2228320, 0, 0 )

[node name="DecoGroup" type="Node2D" parent="tilemap"]

[node name="TileMap" type="TileMap" parent="tilemap/DecoGroup"]
tile_set = ExtResource( 1 )
cell_size = Vector2( 32, 32 )
compatibility_mode = true
format = 1
tile_data = PoolIntArray( -589830, 20, 0, -589829, 21, 0, -655355, 19, 0, -655353, 20, 0, -655344, 21, 0, -655340, 19, 0, -655338, 20, 0, -655323, 20, 0, -655317, 21, 0, -655316, 20, 0, -655301, 20, 0, -655300, 21, 0, -655297, 19, 0, -655292, 20, 0, -655277, 20, 0, -655273, 19, 0, -655271, 20, 0, 32, 20, 0, 34, 21, 0, 131131, 23, 0, 131134, 24, 0, 131136, 23, 0, 262235, 23, 0, 262238, 22, 0, 262239, 24, 0 )

[node name="bubbles" parent="tilemap/DecoGroup" instance=ExtResource( 2 )]
position = Vector2( 512, 1024 )

[node name="bubbles2" parent="tilemap/DecoGroup" instance=ExtResource( 2 )]
position = Vector2( 832, 960 )

[node name="bubbles3" parent="tilemap/DecoGroup" instance=ExtResource( 2 )]
position = Vector2( 1344, 992 )

[node name="bubbles4" parent="tilemap/DecoGroup" instance=ExtResource( 2 )]
position = Vector2( 1600, 1024 )

[node name="bubbles5" parent="tilemap/DecoGroup" instance=ExtResource( 2 )]
position = Vector2( 2240, 960 )

[node name="bubbles6" parent="tilemap/DecoGroup" instance=ExtResource( 2 )]
position = Vector2( 2688, 992 )

[node name="MovingPlatformGroup" type="Node2D" parent="tilemap"]

[node name="MovingPlatform" parent="tilemap/MovingPlatformGroup" instance=ExtResource( 3 )]
position = Vector2( 192, 400 )
motion = Vector2( 0, 128 )
cycle = 10.0

[node name="MovingPlatform1" parent="tilemap/MovingPlatformGroup" instance=ExtResource( 3 )]
position = Vector2( 192, 112 )
motion = Vector2( 1280, 0 )
cycle = 8.0
offset = -0.7
linear = true
start_direction = -1

[node name="MovingPlatform2" parent="tilemap/MovingPlatformGroup" instance=ExtResource( 3 )]
position = Vector2( 2016, 480 )
motion = Vector2( 0, 128 )
cycle = 12.0

[node name="ClimbableGroup" type="Node2D" parent="tilemap"]
position = Vector2( 0, -1 )

[node name="ClimbableBlock" parent="tilemap/ClimbableGroup" instance=ExtResource( 4 )]
position = Vector2( 80, 113 )
physics_material_override = SubResource( 1 )

[node name="Sprite" parent="tilemap/ClimbableGroup/ClimbableBlock" index="0"]
texture = ExtResource( 5 )

[node name="ClimbableBlock1" parent="tilemap/ClimbableGroup" instance=ExtResource( 4 )]
position = Vector2( 336, 817 )
physics_material_override = SubResource( 2 )

[node name="Sprite" parent="tilemap/ClimbableGroup/ClimbableBlock1" index="0"]
texture = ExtResource( 5 )

[node name="ClimbableBlock2" parent="tilemap/ClimbableGroup" instance=ExtResource( 4 )]
position = Vector2( 1840, 49 )
physics_material_override = SubResource( 3 )

[node name="Sprite" parent="tilemap/ClimbableGroup/ClimbableBlock2" index="0"]
texture = ExtResource( 6 )

[node name="ClimbableBlock3" parent="tilemap/ClimbableGroup" instance=ExtResource( 4 )]
position = Vector2( 2096, 49 )
physics_material_override = SubResource( 4 )

[node name="Sprite" parent="tilemap/ClimbableGroup/ClimbableBlock3" index="0"]
texture = ExtResource( 7 )

[node name="ClimbableBlock4" parent="tilemap/ClimbableGroup" instance=ExtResource( 4 )]
position = Vector2( 2864, 113 )
physics_material_override = SubResource( 5 )

[node name="Sprite" parent="tilemap/ClimbableGroup/ClimbableBlock4" index="0"]
texture = ExtResource( 6 )

[node name="FallingPlatformGroup" type="Node2D" parent="tilemap"]

[node name="FallingPlatform" parent="tilemap/FallingPlatformGroup" instance=ExtResource( 8 )]
position = Vector2( 1504, 496 )

[node name="FallingPlatform4" parent="tilemap/FallingPlatformGroup" instance=ExtResource( 8 )]
position = Vector2( 2496, 496 )

[node name="FallingPlatform1" parent="tilemap/FallingPlatformGroup" instance=ExtResource( 8 )]
position = Vector2( 1184, 816 )

[node name="FallingPlatform2" parent="tilemap/FallingPlatformGroup" instance=ExtResource( 8 )]
position = Vector2( 928, 816 )

[node name="FallingPlatform3" parent="tilemap/FallingPlatformGroup" instance=ExtResource( 8 )]
position = Vector2( 672, 816 )

[node name="LavaGroup" type="Node2D" parent="tilemap"]

[node name="LavaSurface" parent="tilemap/LavaGroup" instance=ExtResource( 9 )]
position = Vector2( 1728, 960 )
surface_width = 2752

[node name="Sprite" parent="tilemap/LavaGroup/LavaSurface" index="0"]
region_enabled = true
region_rect = Rect2( 0, 0, 2752, 256 )

[node name="Sprite2" parent="tilemap/LavaGroup/LavaSurface" index="1"]
position = Vector2( 0, -128 )
region_rect = Rect2( 0, 64, 2752, 64 )

[node name="block" parent="tilemap/LavaGroup/LavaSurface" index="2"]
scale = Vector2( 86, 8 )

[node name="lava" parent="tilemap/LavaGroup/LavaSurface" index="4"]
scale = Vector2( 86, 8 )

[node name="TorchGroup" type="Node2D" parent="tilemap"]
position = Vector2( -192, -32 )

[node name="torch" parent="tilemap/TorchGroup" instance=ExtResource( 10 )]

[node name="torch2" parent="tilemap/TorchGroup" instance=ExtResource( 10 )]
position = Vector2( 512, 0 )

[node name="torch3" parent="tilemap/TorchGroup" instance=ExtResource( 10 )]
position = Vector2( 960, 288 )

[node name="torch4" parent="tilemap/TorchGroup" instance=ExtResource( 10 )]
position = Vector2( 1728, 0 )

[node name="torch6" parent="tilemap/TorchGroup" instance=ExtResource( 10 )]
position = Vector2( 2624, 0 )

[node name="torch7" parent="tilemap/TorchGroup" instance=ExtResource( 10 )]
position = Vector2( 3136, 0 )
type = "ITEM"
reward = "res://scenes/items/gold/gold.tscn"
value = 100

[node name="torch5" parent="tilemap/TorchGroup" instance=ExtResource( 10 )]
position = Vector2( 1728, 224 )

[node name="EnemiesGroup" type="Node2D" parent="tilemap"]

[node name="Demon" parent="tilemap/EnemiesGroup" instance=ExtResource( 11 )]
position = Vector2( 1472, -80 )

[node name="Demon2" parent="tilemap/EnemiesGroup" instance=ExtResource( 11 )]
position = Vector2( 2352, -48 )

[node name="TeleportGroup" type="Node2D" parent="tilemap"]

[node name="Teleport" parent="tilemap/TeleportGroup" instance=ExtResource( 12 )]
position = Vector2( -368, 16 )
target_level = "res://levels/lavacave/0-0.tscn"
teleport_to = Vector2( 264, -1296 )

[node name="teleport" parent="tilemap/TeleportGroup/Teleport" index="0"]
scale = Vector2( 1, 5 )

[node name="Teleport1" parent="tilemap/TeleportGroup" instance=ExtResource( 12 )]
position = Vector2( 3120, -96 )
target_level = "res://levels/lavacave/0-2.tscn"
teleport_to = Vector2( -364, -896 )

[node name="teleport" parent="tilemap/TeleportGroup/Teleport1" index="0"]
scale = Vector2( 1, 12 )

[node name="Teleport2" parent="tilemap/TeleportGroup" instance=ExtResource( 12 )]
position = Vector2( 3120, 608 )
target_level = "res://levels/lavacave/0-2.tscn"
teleport_to = Vector2( -364, -192 )

[node name="teleport" parent="tilemap/TeleportGroup/Teleport2" index="0"]
scale = Vector2( 1, 30 )

[node name="boundaries" type="Node2D" parent="tilemap"]

[node name="NW" type="Position2D" parent="tilemap/boundaries"]
position = Vector2( -358, -326 )

[node name="SE" type="Position2D" parent="tilemap/boundaries"]
position = Vector2( 3114, 1130 )

[editable path="tilemap/ClimbableGroup/ClimbableBlock"]

[editable path="tilemap/ClimbableGroup/ClimbableBlock1"]

[editable path="tilemap/ClimbableGroup/ClimbableBlock2"]

[editable path="tilemap/ClimbableGroup/ClimbableBlock3"]

[editable path="tilemap/ClimbableGroup/ClimbableBlock4"]

[editable path="tilemap/LavaGroup/LavaSurface"]

[editable path="tilemap/TeleportGroup/Teleport"]

[editable path="tilemap/TeleportGroup/Teleport1"]

[editable path="tilemap/TeleportGroup/Teleport2"]
