[gd_scene load_steps=15 format=2]

[ext_resource path="res://scenes/marblecastle/boss/statue.gd" type="Script" id=1]
[ext_resource path="res://scenes/marblecastle/boss/bass.png" type="Texture" id=2]
[ext_resource path="res://scenes/marblecastle/boss/bassline.png" type="Texture" id=3]
[ext_resource path="res://scenes/marblecastle/boss/bassrubble.png" type="Texture" id=4]

[sub_resource type="ParticlesMaterial" id=1]
flag_disable_z = true
spread = 0.0
gravity = Vector3( 0, 98, 0 )
angular_velocity = 2.0
angular_velocity_random = 1.0
orbit_velocity = 0.0
orbit_velocity_random = 0.0
linear_accel = 64.0
linear_accel_random = 1.0
damping = 10.0
damping_random = 1.0
angle_random = 1.0
scale = 1.25
scale_random = 1.0
color = Color( 0.384314, 0.345098, 0.36, 1 )
anim_speed = 1.0

[sub_resource type="Curve" id=2]
_data = [ Vector2( 0, 1 ), 0.0, 0.0, 0, 0, Vector2( 1, 0.424805 ), 0.0, 0.0, 0, 0 ]

[sub_resource type="CurveTexture" id=3]
curve = SubResource( 2 )

[sub_resource type="ParticlesMaterial" id=4]
emission_shape = 2
emission_box_extents = Vector3( 48, 160, 1 )
flag_disable_z = true
gravity = Vector3( 0, 64, 0 )
angular_velocity = 3.0
angular_velocity_random = 1.0
orbit_velocity = 0.0
orbit_velocity_random = 0.0
linear_accel = 32.0
linear_accel_random = 1.0
radial_accel = 16.0
tangential_accel = 10.0
damping = 64.0
damping_random = 1.0
angle = 180.0
angle_random = 1.0
scale = 2.0
scale_curve = SubResource( 3 )
color = Color( 0.38, 0.35, 0.36, 1 )
anim_speed = 1.0

[sub_resource type="RectangleShape2D" id=5]
extents = Vector2( 16, 16 )

[sub_resource type="Animation" id=6]
tracks/0/type = "value"
tracks/0/path = NodePath("Sprite:visible")
tracks/0/interp = 1
tracks/0/loop_wrap = true
tracks/0/imported = false
tracks/0/enabled = true
tracks/0/keys = {
"times": PoolRealArray( 0 ),
"transitions": PoolRealArray( 1 ),
"update": 1,
"values": [ true ]
}
tracks/1/type = "value"
tracks/1/path = NodePath("line:visible")
tracks/1/interp = 1
tracks/1/loop_wrap = true
tracks/1/imported = false
tracks/1/enabled = true
tracks/1/keys = {
"times": PoolRealArray( 0 ),
"transitions": PoolRealArray( 1 ),
"update": 1,
"values": [ true ]
}
tracks/2/type = "value"
tracks/2/path = NodePath("line:modulate")
tracks/2/interp = 1
tracks/2/loop_wrap = true
tracks/2/imported = false
tracks/2/enabled = true
tracks/2/keys = {
"times": PoolRealArray( 0, 1 ),
"transitions": PoolRealArray( 1, 1 ),
"update": 0,
"values": [ Color( 1, 1, 1, 0 ), Color( 1, 1, 1, 1 ) ]
}

[sub_resource type="Animation" id=7]
tracks/0/type = "value"
tracks/0/path = NodePath("Sprite:visible")
tracks/0/interp = 1
tracks/0/loop_wrap = true
tracks/0/imported = false
tracks/0/enabled = true
tracks/0/keys = {
"times": PoolRealArray( 0 ),
"transitions": PoolRealArray( 1 ),
"update": 1,
"values": [ true ]
}
tracks/1/type = "value"
tracks/1/path = NodePath("line:visible")
tracks/1/interp = 1
tracks/1/loop_wrap = true
tracks/1/imported = false
tracks/1/enabled = true
tracks/1/keys = {
"times": PoolRealArray( 0, 1 ),
"transitions": PoolRealArray( 1, 1 ),
"update": 1,
"values": [ true, false ]
}
tracks/2/type = "value"
tracks/2/path = NodePath("line:modulate")
tracks/2/interp = 1
tracks/2/loop_wrap = true
tracks/2/imported = false
tracks/2/enabled = true
tracks/2/keys = {
"times": PoolRealArray( 0, 1 ),
"transitions": PoolRealArray( 1, 1 ),
"update": 0,
"values": [ Color( 1, 1, 1, 1 ), Color( 1, 1, 1, 0 ) ]
}

[sub_resource type="Animation" id=8]
length = 0.6
tracks/0/type = "value"
tracks/0/path = NodePath("rubble:visible")
tracks/0/interp = 1
tracks/0/loop_wrap = true
tracks/0/imported = false
tracks/0/enabled = true
tracks/0/keys = {
"times": PoolRealArray( 0 ),
"transitions": PoolRealArray( 1 ),
"update": 1,
"values": [ true ]
}
tracks/1/type = "value"
tracks/1/path = NodePath("Sprite:visible")
tracks/1/interp = 1
tracks/1/loop_wrap = true
tracks/1/imported = false
tracks/1/enabled = true
tracks/1/keys = {
"times": PoolRealArray( 0 ),
"transitions": PoolRealArray( 1 ),
"update": 1,
"values": [ false ]
}
tracks/2/type = "value"
tracks/2/path = NodePath("line:visible")
tracks/2/interp = 1
tracks/2/loop_wrap = true
tracks/2/imported = false
tracks/2/enabled = true
tracks/2/keys = {
"times": PoolRealArray( 0 ),
"transitions": PoolRealArray( 1 ),
"update": 1,
"values": [ false ]
}
tracks/3/type = "value"
tracks/3/path = NodePath("explode:emitting")
tracks/3/interp = 1
tracks/3/loop_wrap = true
tracks/3/imported = false
tracks/3/enabled = true
tracks/3/keys = {
"times": PoolRealArray( 0, 0.6 ),
"transitions": PoolRealArray( 1, 1 ),
"update": 1,
"values": [ true, false ]
}

[sub_resource type="Animation" id=9]
length = 0.1
tracks/0/type = "value"
tracks/0/path = NodePath("rubble:visible")
tracks/0/interp = 1
tracks/0/loop_wrap = true
tracks/0/imported = false
tracks/0/enabled = true
tracks/0/keys = {
"times": PoolRealArray( 0 ),
"transitions": PoolRealArray( 1 ),
"update": 1,
"values": [ false ]
}
tracks/1/type = "value"
tracks/1/path = NodePath("Sprite:visible")
tracks/1/interp = 1
tracks/1/loop_wrap = true
tracks/1/imported = false
tracks/1/enabled = true
tracks/1/keys = {
"times": PoolRealArray( 0 ),
"transitions": PoolRealArray( 1 ),
"update": 1,
"values": [ true ]
}
tracks/2/type = "value"
tracks/2/path = NodePath("dust:emitting")
tracks/2/interp = 1
tracks/2/loop_wrap = true
tracks/2/imported = false
tracks/2/enabled = true
tracks/2/keys = {
"times": PoolRealArray( 0 ),
"transitions": PoolRealArray( 1 ),
"update": 1,
"values": [ true ]
}
tracks/3/type = "value"
tracks/3/path = NodePath("dust1:emitting")
tracks/3/interp = 1
tracks/3/loop_wrap = true
tracks/3/imported = false
tracks/3/enabled = true
tracks/3/keys = {
"times": PoolRealArray( 0 ),
"transitions": PoolRealArray( 1 ),
"update": 1,
"values": [ true ]
}
tracks/4/type = "value"
tracks/4/path = NodePath("dust2:emitting")
tracks/4/interp = 1
tracks/4/loop_wrap = true
tracks/4/imported = false
tracks/4/enabled = true
tracks/4/keys = {
"times": PoolRealArray( 0 ),
"transitions": PoolRealArray( 1 ),
"update": 1,
"values": [ true ]
}
tracks/5/type = "value"
tracks/5/path = NodePath("dust3:emitting")
tracks/5/interp = 1
tracks/5/loop_wrap = true
tracks/5/imported = false
tracks/5/enabled = true
tracks/5/keys = {
"times": PoolRealArray( 0 ),
"transitions": PoolRealArray( 1 ),
"update": 1,
"values": [ true ]
}
tracks/6/type = "value"
tracks/6/path = NodePath("dust4:emitting")
tracks/6/interp = 1
tracks/6/loop_wrap = true
tracks/6/imported = false
tracks/6/enabled = true
tracks/6/keys = {
"times": PoolRealArray( 0 ),
"transitions": PoolRealArray( 1 ),
"update": 1,
"values": [ true ]
}

[sub_resource type="Animation" id=10]
tracks/0/type = "value"
tracks/0/path = NodePath("rubble:visible")
tracks/0/interp = 1
tracks/0/loop_wrap = true
tracks/0/imported = false
tracks/0/enabled = true
tracks/0/keys = {
"times": PoolRealArray( 0 ),
"transitions": PoolRealArray( 1 ),
"update": 1,
"values": [ false ]
}
tracks/1/type = "value"
tracks/1/path = NodePath("Sprite:visible")
tracks/1/interp = 1
tracks/1/loop_wrap = true
tracks/1/imported = false
tracks/1/enabled = true
tracks/1/keys = {
"times": PoolRealArray( 0 ),
"transitions": PoolRealArray( 1 ),
"update": 1,
"values": [ true ]
}

[node name="statue" type="Node2D"]
script = ExtResource( 1 )

[node name="Sprite" type="Sprite" parent="."]
position = Vector2( -64, -48 )
texture = ExtResource( 2 )
centered = false

[node name="line" type="Sprite" parent="."]
visible = false
modulate = Color( 1, 1, 1, 0 )
self_modulate = Color( 1, 0, 0, 1 )
position = Vector2( -64, -48 )
texture = ExtResource( 3 )
centered = false

[node name="rubble" type="Sprite" parent="."]
visible = false
position = Vector2( 48, 304 )
texture = ExtResource( 4 )

[node name="dust" type="Particles2D" parent="."]
position = Vector2( 32, 32 )
emitting = false
amount = 96
one_shot = true
preprocess = 0.1
speed_scale = 4.0
process_material = SubResource( 1 )

[node name="dust1" type="Particles2D" parent="."]
position = Vector2( 69, 186 )
emitting = false
amount = 96
one_shot = true
preprocess = 0.1
speed_scale = 4.0
process_material = SubResource( 1 )

[node name="dust2" type="Particles2D" parent="."]
position = Vector2( 36, 132 )
emitting = false
amount = 96
one_shot = true
preprocess = 0.1
speed_scale = 4.0
process_material = SubResource( 1 )

[node name="dust3" type="Particles2D" parent="."]
position = Vector2( 64, 64 )
emitting = false
amount = 96
one_shot = true
preprocess = 0.1
speed_scale = 4.0
process_material = SubResource( 1 )

[node name="dust4" type="Particles2D" parent="."]
position = Vector2( 47, 144 )
emitting = false
amount = 96
one_shot = true
preprocess = 0.1
speed_scale = 4.0
process_material = SubResource( 1 )

[node name="explode" type="Particles2D" parent="."]
position = Vector2( 48, 160 )
emitting = false
amount = 1024
lifetime = 2.0
one_shot = true
preprocess = 0.1
speed_scale = 6.0
local_coords = false
process_material = SubResource( 4 )

[node name="collision" type="Area2D" parent="."]
visible = false
position = Vector2( 48, 160 )
scale = Vector2( 3, 10 )

[node name="CollisionShape2D" type="CollisionShape2D" parent="collision"]
shape = SubResource( 5 )

[node name="AnimationPlayer" type="AnimationPlayer" parent="."]
anims/activate = SubResource( 6 )
anims/deactivate = SubResource( 7 )
anims/die = SubResource( 8 )
anims/hurt = SubResource( 9 )
anims/idle = SubResource( 10 )
