[gd_scene load_steps=21 format=2]

[ext_resource path="res://scenes/mausoleum/tileset.tres" type="TileSet" id=1]
[ext_resource path="res://scenes/common/cryptFGtileset.tres" type="TileSet" id=2]
[ext_resource path="res://scenes/mausoleum/climbableblock.tscn" type="PackedScene" id=3]
[ext_resource path="res://scenes/common/breakables/bluetorch.tscn" type="PackedScene" id=4]
[ext_resource path="res://scenes/dungeon/ladder/ladder.tscn" type="PackedScene" id=5]
[ext_resource path="res://scenes/dungeon/ladder/laddertop.tscn" type="PackedScene" id=6]
[ext_resource path="res://scenes/dungeon/onewayplatform.tscn" type="PackedScene" id=7]
[ext_resource path="res://scenes/dungeon/platforms/flooredge2.png" type="Texture" id=8]
[ext_resource path="res://scenes/common/hangable.tscn" type="PackedScene" id=9]
[ext_resource path="res://scenes/common/hangblockend.png" type="Texture" id=10]
[ext_resource path="res://scenes/dungeon/movingplatform/movingplatform.tscn" type="PackedScene" id=11]
[ext_resource path="res://scenes/common/damagables/orc/orc.tscn" type="PackedScene" id=12]
[ext_resource path="res://scenes/common/damagables/plant/plant.tscn" type="PackedScene" id=13]
[ext_resource path="res://scenes/common/damagables/imp/imp.tscn" type="PackedScene" id=14]
[ext_resource path="res://scenes/items/magic/thunder.tscn" type="PackedScene" id=15]
[ext_resource path="res://scenes/common/BaseWatcher.gd" type="Script" id=16]
[ext_resource path="res://scenes/common/teleport.tscn" type="PackedScene" id=17]

[sub_resource type="PhysicsMaterial" id=1]
friction = 0.0

[sub_resource type="PhysicsMaterial" id=2]
friction = 0.0

[sub_resource type="PhysicsMaterial" id=3]
friction = 0.0

[node name="LVL_NOTITLE" type="Node2D"]
__meta__ = {
"__editor_plugin_screen__": "2D"
}

[node name="tilemap" type="TileMap" parent="."]
tile_set = ExtResource( 1 )
cell_size = Vector2( 32, 32 )
compatibility_mode = true
collision_layer = 524288
format = 1
tile_data = PoolIntArray( -1769552, 1610612737, 0, -1769551, 1073741824, 0, -1769550, 1073741824, 0, -1769549, 1073741824, 0, -1769548, 1073741824, 0, -1769547, 1073741824, 0, -1769546, 1073741824, 0, -1769545, 1073741824, 0, -1769544, 1073741824, 0, -1769543, 1073741824, 0, -1769542, 1073741824, 0, -1769541, 1073741824, 0, -1769540, 1073741824, 0, -1769539, 1073741824, 0, -1769538, 1073741824, 0, -1769537, 1073741824, 0, -1769536, 1073741824, 0, -1769535, 1073741824, 0, -1769534, 1073741824, 0, -1769533, 1073741824, 0, -1769532, 1073741824, 0, -1769531, 1073741824, 0, -1769530, 1073741824, 0, -1769529, 1073741824, 0, -1769528, 1073741824, 0, -1769527, 1073741824, 0, -1769526, 1073741824, 0, -1769525, 1073741824, 0, -1769524, 1073741824, 0, -1769523, 1073741824, 0, -1769522, 1073741824, 0, -1769521, 1073741824, 0, -1769520, 1073741824, 0, -1769519, 1073741824, 0, -1769518, 1073741824, 0, -1769517, 1073741824, 0, -1769516, 1073741824, 0, -1769515, 1073741824, 0, -1769514, 1073741824, 0, -1769513, 1073741824, 0, -1769512, 1073741824, 0, -1769511, 1073741824, 0, -1769510, 1073741824, 0, -1769509, 1073741824, 0, -1769508, 1073741824, 0, -1769507, 1073741824, 0, -1769506, 1073741824, 0, -1769505, 1073741824, 0, -1769504, 1073741824, 0, -1769503, 1073741824, 0, -1769502, 1073741824, 0, -1769501, 1073741824, 0, -1769500, 1073741824, 0, -1769499, 1073741824, 0, -1769498, 1073741824, 0, -1769497, 1073741824, 0, -1769496, 1073741824, 0, -1769495, 1073741824, 0, -1769494, 1073741824, 0, -1769493, 1073741824, 0, -1769492, 1073741824, 0, -1769491, 1073741824, 0, -1769490, 1073741824, 0, -1769489, 1073741824, 0, -1769488, 1073741824, 0, -1769487, 1073741824, 0, -1769486, 1073741824, 0, -1769485, 1073741824, 0, -1769484, 1073741824, 0, -1769483, 1073741824, 0, -1769482, 1073741824, 0, -1769481, 1073741824, 0, -1769480, 1073741824, 0, -1769479, 1073741824, 0, -1769478, 1073741824, 0, -1769477, 1073741824, 0, -1769476, 1073741824, 0, -1769475, 1073741824, 0, -1769474, 1073741824, 0, -1769473, 1073741824, 0, -1835008, 1073741824, 0, -1835007, 1073741825, 0, -1835006, 3, 0, -1835005, 3, 0, -1835004, 3, 0, -1835003, 1610612737, 0, -1835002, 1073741824, 0, -1835001, 1073741824, 0, -1835000, 1073741825, 0, -1704016, 2, 0, -1704015, 3, 0, -1704014, 3, 0, -1704013, 3, 0, -1704012, 3, 0, -1704011, 3, 0, -1704010, 3, 0, -1704009, 3, 0, -1704008, 3, 0, -1704007, 3, 0, -1704006, 3, 0, -1704005, 3, 0, -1704004, 3, 0, -1704003, 3, 0, -1704002, 3, 0, -1704001, 3, 0, -1704000, 3, 0, -1703999, 3, 0, -1703998, 3, 0, -1703997, 3, 0, -1703996, 3, 0, -1703995, 3, 0, -1703994, 3, 0, -1703993, 3, 0, -1703992, 3, 0, -1703991, 3, 0, -1703990, 3, 0, -1703989, 3, 0, -1703988, 3, 0, -1703987, 3, 0, -1703986, 3, 0, -1703985, 3, 0, -1703984, 3, 0, -1703983, 3, 0, -1703982, 3, 0, -1703981, 3, 0, -1703980, 3, 0, -1703979, 3, 0, -1703978, 3, 0, -1703977, 3, 0, -1703976, 3, 0, -1703975, 3, 0, -1703974, 3, 0, -1703973, 3, 0, -1703972, 3, 0, -1703971, 3, 0, -1703970, 3, 0, -1703969, 3, 0, -1703968, 3, 0, -1703967, 3, 0, -1703966, 3, 0, -1703965, 3, 0, -1703964, 3, 0, -1703963, 3, 0, -1703962, 3, 0, -1703961, 3, 0, -1703960, 3, 0, -1703959, 3, 0, -1703958, 3, 0, -1703957, 3, 0, -1703956, 3, 0, -1703955, 3, 0, -1703954, 3, 0, -1703953, 3, 0, -1703952, 3, 0, -1703951, 3, 0, -1703950, 3, 0, -1703949, 3, 0, -1703948, 3, 0, -1703947, 3, 0, -1703946, 3, 0, -1703945, 3, 0, -1703944, 3, 0, -1703943, 3, 0, -1703942, 3, 0, -1703941, 3, 0, -1703940, 536870914, 0, -1703939, 4, 0, -1703938, 2, 0, -1703937, 3, 0, -1769472, 3, 0, -1769471, 3, 0, -1769470, 3, 0, -1769469, 3, 0, -1769468, 3, 0, -1769467, 3, 0, -1769466, 3, 0, -1769465, 3, 0, -1769464, 536870914, 0, -1638480, 2, 0, -1638479, 3, 0, -1638478, 3, 0, -1638477, 3, 0, -1638476, 3, 0, -1638475, 3, 0, -1638474, 3, 0, -1638473, 3, 0, -1638472, 3, 0, -1638471, 3, 0, -1638470, 3, 0, -1638469, 3, 0, -1638468, 3, 0, -1638467, 3, 0, -1638466, 3, 0, -1638465, 3, 0, -1638464, 3, 0, -1638463, 3, 0, -1638462, 3, 0, -1638461, 3, 0, -1638460, 3, 0, -1638459, 3, 0, -1638458, 3, 0, -1638457, 3, 0, -1638456, 3, 0, -1638455, 3, 0, -1638454, 3, 0, -1638453, 3, 0, -1638452, 3, 0, -1638451, 3, 0, -1638450, 3, 0, -1638449, 3, 0, -1638448, 3, 0, -1638447, 3, 0, -1638446, 3, 0, -1638445, 3, 0, -1638444, 3, 0, -1638443, 3, 0, -1638442, 3, 0, -1638441, 3, 0, -1638440, 3, 0, -1638439, 3, 0, -1638438, 3, 0, -1638437, 3, 0, -1638436, 3, 0, -1638435, 3, 0, -1638434, 3, 0, -1638433, 3, 0, -1638432, 3, 0, -1638431, 3, 0, -1638430, 3, 0, -1638429, 3, 0, -1638428, 3, 0, -1638427, 3, 0, -1638426, 3, 0, -1638425, 3, 0, -1638424, 3, 0, -1638423, 3, 0, -1638422, 3, 0, -1638421, 3, 0, -1638420, 3, 0, -1638419, 3, 0, -1638418, 3, 0, -1638417, 3, 0, -1638416, 3, 0, -1638415, 3, 0, -1638414, 3, 0, -1638413, 3, 0, -1638412, 3, 0, -1638411, 3, 0, -1638410, 3, 0, -1638409, 3, 0, -1638408, 3, 0, -1638407, 3, 0, -1638406, 3, 0, -1638405, 3, 0, -1638404, 536870914, 0, -1638403, 4, 0, -1638402, 2, 0, -1638401, 3, 0, -1703936, 3, 0, -1703935, 3, 0, -1703934, 3, 0, -1703933, 3, 0, -1703932, 3, 0, -1703931, 3, 0, -1703930, 3, 0, -1703929, 3, 0, -1703928, 536870914, 0, -1572944, 2, 0, -1572943, 3, 0, -1572942, 3, 0, -1572941, 3, 0, -1572940, 3, 0, -1572939, 3, 0, -1572938, 3, 0, -1572937, 3, 0, -1572936, 3, 0, -1572935, 3, 0, -1572934, 3, 0, -1572933, 3, 0, -1572932, 3, 0, -1572931, 3, 0, -1572930, 3, 0, -1572929, 3, 0, -1572928, 3, 0, -1572927, 3, 0, -1572926, 3, 0, -1572925, 3, 0, -1572924, 3, 0, -1572923, 3, 0, -1572922, 3, 0, -1572921, 3, 0, -1572920, 3, 0, -1572919, 3, 0, -1572918, 3, 0, -1572917, 3, 0, -1572916, 3, 0, -1572915, 3, 0, -1572914, 3, 0, -1572913, 3, 0, -1572912, 3, 0, -1572911, 3, 0, -1572910, 3, 0, -1572909, 3, 0, -1572908, 3, 0, -1572907, 3, 0, -1572906, 3, 0, -1572905, 3, 0, -1572904, 3, 0, -1572903, 3, 0, -1572902, 3, 0, -1572901, 3, 0, -1572900, 3, 0, -1572899, 3, 0, -1572898, 3, 0, -1572897, 3, 0, -1572896, 3, 0, -1572895, 3, 0, -1572894, 3, 0, -1572893, 3, 0, -1572892, 3, 0, -1572891, 3, 0, -1572890, 3, 0, -1572889, 3, 0, -1572888, 3, 0, -1572887, 3, 0, -1572886, 3, 0, -1572885, 3, 0, -1572884, 3, 0, -1572883, 3, 0, -1572882, 3, 0, -1572881, 3, 0, -1572880, 3, 0, -1572879, 3, 0, -1572878, 3, 0, -1572877, 3, 0, -1572876, 3, 0, -1572875, 3, 0, -1572874, 3, 0, -1572873, 3, 0, -1572872, 3, 0, -1572871, 3, 0, -1572870, 3, 0, -1572869, 3, 0, -1572868, 536870914, 0, -1572867, 4, 0, -1572866, 2, 0, -1572865, 3, 0, -1638400, 3, 0, -1638399, 3, 0, -1638398, 3, 0, -1638397, 3, 0, -1638396, 3, 0, -1638395, 3, 0, -1638394, 3, 0, -1638393, 3, 0, -1638392, 536870914, 0, -1507408, 2, 0, -1507407, 3, 0, -1507406, 3, 0, -1507405, 3, 0, -1507404, 3, 0, -1507403, 3, 0, -1507402, 3, 0, -1507401, 3, 0, -1507400, 3, 0, -1507399, 3, 0, -1507398, 3, 0, -1507397, 3, 0, -1507396, 3, 0, -1507395, 3, 0, -1507394, 3, 0, -1507393, 3, 0, -1507392, 3, 0, -1507391, 3, 0, -1507390, 3, 0, -1507389, 3, 0, -1507388, 3, 0, -1507387, 3, 0, -1507386, 3, 0, -1507385, 3, 0, -1507384, 3, 0, -1507383, 3, 0, -1507382, 3, 0, -1507381, 3, 0, -1507380, 3, 0, -1507379, 3, 0, -1507378, 3, 0, -1507377, 3, 0, -1507376, 3, 0, -1507375, 3, 0, -1507374, 3, 0, -1507373, 3, 0, -1507372, 3, 0, -1507371, 3, 0, -1507370, 3, 0, -1507369, 3, 0, -1507368, 3, 0, -1507367, 3, 0, -1507366, 3, 0, -1507365, 3, 0, -1507364, 3, 0, -1507363, 3, 0, -1507362, 3, 0, -1507361, 3, 0, -1507360, 3, 0, -1507359, 3, 0, -1507358, 3, 0, -1507357, 3, 0, -1507356, 3, 0, -1507355, 3, 0, -1507354, 3, 0, -1507353, 3, 0, -1507352, 3, 0, -1507351, 3, 0, -1507350, 3, 0, -1507349, 3, 0, -1507348, 3, 0, -1507347, 3, 0, -1507346, 3, 0, -1507345, 3, 0, -1507344, 3, 0, -1507343, 3, 0, -1507342, 3, 0, -1507341, 3, 0, -1507340, 3, 0, -1507339, 3, 0, -1507338, 3, 0, -1507337, 3, 0, -1507336, 3, 0, -1507335, 3, 0, -1507334, 3, 0, -1507333, 3, 0, -1507332, 536870914, 0, -1507331, 4, 0, -1507330, 2, 0, -1507329, 3, 0, -1572864, 3, 0, -1572863, 3, 0, -1572862, 3, 0, -1572861, 3, 0, -1572860, 3, 0, -1572859, 3, 0, -1572858, 3, 0, -1572857, 3, 0, -1572856, 536870914, 0, -1441872, 2, 0, -1441871, 3, 0, -1441870, 3, 0, -1441869, 3, 0, -1441868, 3, 0, -1441867, 3, 0, -1441866, 3, 0, -1441865, 3, 0, -1441864, 3, 0, -1441863, 3, 0, -1441862, 3, 0, -1441861, 3, 0, -1441860, 3, 0, -1441859, 3, 0, -1441858, 3, 0, -1441857, 3, 0, -1441856, 3, 0, -1441855, 3, 0, -1441854, 3, 0, -1441853, 3, 0, -1441852, 3, 0, -1441851, 3, 0, -1441850, 3, 0, -1441849, 3, 0, -1441848, 3, 0, -1441847, 3, 0, -1441846, 3, 0, -1441845, 3, 0, -1441844, 3, 0, -1441843, 3, 0, -1441842, 3, 0, -1441841, 3, 0, -1441840, 3, 0, -1441839, 3, 0, -1441838, 3, 0, -1441837, 3, 0, -1441836, 3, 0, -1441835, 3, 0, -1441834, 3, 0, -1441833, 3, 0, -1441832, 3, 0, -1441831, 3, 0, -1441830, 3, 0, -1441829, 3, 0, -1441828, 3, 0, -1441827, 3, 0, -1441826, 3, 0, -1441825, 3, 0, -1441824, 3, 0, -1441823, 3, 0, -1441822, 3, 0, -1441821, 3, 0, -1441820, 3, 0, -1441819, 3, 0, -1441818, 3, 0, -1441817, 3, 0, -1441816, 3, 0, -1441815, 3, 0, -1441814, 3, 0, -1441813, 3, 0, -1441812, 3, 0, -1441811, 3, 0, -1441810, 3, 0, -1441809, 3, 0, -1441808, 3, 0, -1441807, 3, 0, -1441806, 3, 0, -1441805, 3, 0, -1441804, 3, 0, -1441803, 3, 0, -1441802, 3, 0, -1441801, 3, 0, -1441800, 3, 0, -1441799, 3, 0, -1441798, 3, 0, -1441797, 3, 0, -1441796, 536870914, 0, -1441795, 4, 0, -1441794, 2, 0, -1441793, 3, 0, -1507328, 3, 0, -1507327, 3, 0, -1507326, 3, 0, -1507325, 3, 0, -1507324, 3, 0, -1507323, 3, 0, -1507322, 3, 0, -1507321, 3, 0, -1507320, 536870914, 0, -1376336, 2, 0, -1376335, 3, 0, -1376334, 3, 0, -1376333, 3, 0, -1376332, 3, 0, -1376331, 3, 0, -1376330, 3, 0, -1376329, 3, 0, -1376328, 3, 0, -1376327, 3, 0, -1376326, 3, 0, -1376325, 3, 0, -1376324, 3, 0, -1376323, 3, 0, -1376322, 3, 0, -1376321, 3, 0, -1376320, 3, 0, -1376319, 3, 0, -1376318, 3, 0, -1376317, 3, 0, -1376316, 3, 0, -1376315, 3, 0, -1376314, 3, 0, -1376313, 3, 0, -1376312, 3, 0, -1376311, 3, 0, -1376310, 3, 0, -1376309, 3, 0, -1376308, 3, 0, -1376307, 3, 0, -1376306, 3, 0, -1376305, 3, 0, -1376304, 3, 0, -1376303, 3, 0, -1376302, 3, 0, -1376301, 3, 0, -1376300, 3, 0, -1376299, 3, 0, -1376298, 3, 0, -1376297, 3, 0, -1376296, 3, 0, -1376295, 3, 0, -1376294, 3, 0, -1376293, 3, 0, -1376292, 3, 0, -1376291, 3, 0, -1376290, 3, 0, -1376289, 3, 0, -1376288, 3, 0, -1376287, 3, 0, -1376286, 3, 0, -1376285, 3, 0, -1376284, 3, 0, -1376283, 3, 0, -1376282, 3, 0, -1376281, 3, 0, -1376280, 3, 0, -1376279, 3, 0, -1376278, 3, 0, -1376277, 3, 0, -1376276, 3, 0, -1376275, 3, 0, -1376274, 3, 0, -1376273, 3, 0, -1376272, 3, 0, -1376271, 3, 0, -1376270, 3, 0, -1376269, 3, 0, -1376268, 3, 0, -1376267, 3, 0, -1376266, 3, 0, -1376265, 3, 0, -1376264, 3, 0, -1376263, 3, 0, -1376262, 3, 0, -1376261, 3, 0, -1376260, 536870914, 0, -1376259, 4, 0, -1376258, 2, 0, -1376257, 3, 0, -1441792, 3, 0, -1441791, 3, 0, -1441790, 3, 0, -1441789, 3, 0, -1441788, 3, 0, -1441787, 3, 0, -1441786, 3, 0, -1441785, 3, 0, -1441784, 536870914, 0, -1310800, 2, 0, -1310799, 3, 0, -1310798, 3, 0, -1310797, 3, 0, -1310796, 3, 0, -1310795, 3, 0, -1310794, 3, 0, -1310793, 3, 0, -1310792, 3, 0, -1310791, 3, 0, -1310790, 3, 0, -1310789, 3, 0, -1310788, 3, 0, -1310787, 3, 0, -1310786, 3, 0, -1310785, 3, 0, -1310784, 3, 0, -1310783, 3, 0, -1310782, 3, 0, -1310781, 3, 0, -1310780, 3, 0, -1310779, 3, 0, -1310778, 3, 0, -1310777, 3, 0, -1310776, 3, 0, -1310775, 3, 0, -1310774, 3, 0, -1310773, 3, 0, -1310772, 3, 0, -1310771, 3, 0, -1310770, 3, 0, -1310769, 3, 0, -1310768, 3, 0, -1310767, 3, 0, -1310766, 3, 0, -1310765, 3, 0, -1310764, 3, 0, -1310763, 3, 0, -1310762, 3, 0, -1310761, 3, 0, -1310760, 3, 0, -1310759, 3, 0, -1310758, 3, 0, -1310757, 3, 0, -1310756, 3, 0, -1310755, 3, 0, -1310754, 3, 0, -1310753, 3, 0, -1310752, 3, 0, -1310751, 3, 0, -1310750, 3, 0, -1310749, 3, 0, -1310748, 3, 0, -1310747, 3, 0, -1310746, 3, 0, -1310745, 3, 0, -1310744, 3, 0, -1310743, 3, 0, -1310742, 3, 0, -1310741, 3, 0, -1310740, 3, 0, -1310739, 3, 0, -1310738, 3, 0, -1310737, 3, 0, -1310736, 3, 0, -1310735, 3, 0, -1310734, 3, 0, -1310733, 3, 0, -1310732, 3, 0, -1310731, 3, 0, -1310730, 3, 0, -1310729, 3, 0, -1310728, 3, 0, -1310727, 3, 0, -1310726, 3, 0, -1310725, 3, 0, -1310724, 536870914, 0, -1310723, 4, 0, -1310722, 2, 0, -1310721, 3, 0, -1376256, 3, 0, -1376255, 3, 0, -1376254, 3, 0, -1376253, 3, 0, -1376252, 3, 0, -1376251, 3, 0, -1376250, 3, 0, -1376249, 3, 0, -1376248, 536870914, 0, -1245264, 2, 0, -1245263, 3, 0, -1245262, 3, 0, -1245261, 3, 0, -1245260, 3, 0, -1245259, 3, 0, -1245258, 3, 0, -1245257, 3, 0, -1245256, 3, 0, -1245255, 3, 0, -1245254, 3, 0, -1245253, 3, 0, -1245252, 3, 0, -1245251, 0, 0, -1245250, 0, 0, -1245249, 0, 0, -1245248, 0, 0, -1245247, 0, 0, -1245246, 0, 0, -1245245, 0, 0, -1245244, 0, 0, -1245243, 0, 0, -1245242, 0, 0, -1245241, 0, 0, -1245240, 0, 0, -1245239, 0, 0, -1245238, 0, 0, -1245237, 0, 0, -1245236, 0, 0, -1245235, 0, 0, -1245234, 0, 0, -1245233, 0, 0, -1245232, 0, 0, -1245231, 0, 0, -1245230, 0, 0, -1245229, 0, 0, -1245228, 0, 0, -1245227, 0, 0, -1245226, 0, 0, -1245225, 0, 0, -1245224, 0, 0, -1245223, 0, 0, -1245222, 0, 0, -1245221, 0, 0, -1245220, 0, 0, -1245219, 0, 0, -1245218, 0, 0, -1245217, 0, 0, -1245216, 3, 0, -1245215, 3, 0, -1245214, 3, 0, -1245213, 3, 0, -1245212, 3, 0, -1245211, 3, 0, -1245210, 3, 0, -1245209, 3, 0, -1245208, 3, 0, -1245207, 3, 0, -1245206, 3, 0, -1245205, 3, 0, -1245204, 3, 0, -1245203, 3, 0, -1245202, 3, 0, -1245201, 3, 0, -1245200, 3, 0, -1245199, 3, 0, -1245198, 3, 0, -1245197, 3, 0, -1245196, 3, 0, -1245195, 3, 0, -1245194, 3, 0, -1245193, 3, 0, -1245192, 3, 0, -1245191, 3, 0, -1245190, 3, 0, -1245189, 3, 0, -1245188, 536870914, 0, -1245187, 4, 0, -1245186, 2, 0, -1245185, 3, 0, -1310720, 3, 0, -1310719, 3, 0, -1310718, 3, 0, -1310717, 3, 0, -1310716, 3, 0, -1310715, 3, 0, -1310714, 3, 0, -1310713, 3, 0, -1310712, 536870914, 0, -1179728, 2, 0, -1179727, 3, 0, -1179726, 3, 0, -1179725, 3, 0, -1179724, 3, 0, -1179723, 3, 0, -1179722, 3, 0, -1179721, 3, 0, -1179720, 3, 0, -1179719, 3, 0, -1179718, 3, 0, -1179717, 3, 0, -1179716, 536870914, 0, -1179715, 4, 0, -1179714, 2, 0, -1179713, 3, 0, -1179712, 3, 0, -1179711, 3, 0, -1179710, 3, 0, -1179709, 3, 0, -1179708, 3, 0, -1179707, 3, 0, -1179706, 3, 0, -1179705, 3, 0, -1179704, 3, 0, -1179703, 3, 0, -1179702, 3, 0, -1179701, 3, 0, -1179700, 3, 0, -1179699, 3, 0, -1179698, 3, 0, -1179697, 3, 0, -1179696, 3, 0, -1179695, 3, 0, -1179694, 3, 0, -1179693, 3, 0, -1179692, 3, 0, -1179691, 3, 0, -1179690, 3, 0, -1179689, 3, 0, -1179688, 3, 0, -1179687, 3, 0, -1179686, 3, 0, -1179685, 3, 0, -1179684, 3, 0, -1179683, 536870914, 0, -1179682, 4, 0, -1179681, 4, 0, -1179680, 2, 0, -1179679, 3, 0, -1179678, 3, 0, -1179677, 3, 0, -1179676, 3, 0, -1179675, 3, 0, -1179674, 3, 0, -1179673, 3, 0, -1179672, 3, 0, -1179671, 3, 0, -1179670, 3, 0, -1179669, 3, 0, -1179668, 3, 0, -1179667, 3, 0, -1179666, 3, 0, -1179665, 3, 0, -1179664, 3, 0, -1179663, 3, 0, -1179662, 3, 0, -1179661, 3, 0, -1179660, 3, 0, -1179659, 3, 0, -1179658, 3, 0, -1179657, 3, 0, -1179656, 3, 0, -1179655, 3, 0, -1179654, 3, 0, -1179653, 3, 0, -1179652, 536870914, 0, -1179651, 4, 0, -1179650, 2, 0, -1179649, 3, 0, -1245184, 3, 0, -1245183, 3, 0, -1245182, 3, 0, -1245181, 3, 0, -1245180, 3, 0, -1245179, 3, 0, -1245178, 3, 0, -1245177, 3, 0, -1245176, 536870914, 0, -1114192, 2, 0, -1114191, 3, 0, -1114190, 3, 0, -1114189, 3, 0, -1114188, 3, 0, -1114187, 3, 0, -1114186, 3, 0, -1114185, 3, 0, -1114184, 3, 0, -1114183, 3, 0, -1114182, 3, 0, -1114181, 3, 0, -1114180, 536870914, 0, -1114179, 4, 0, -1114178, 2, 0, -1114177, 3, 0, -1114176, 3, 0, -1114175, 3, 0, -1114174, 3, 0, -1114173, 3, 0, -1114172, 3, 0, -1114171, 3, 0, -1114170, 3, 0, -1114169, 3, 0, -1114168, 3, 0, -1114167, 3, 0, -1114166, 3, 0, -1114165, 3, 0, -1114164, 3, 0, -1114163, 3, 0, -1114162, 3, 0, -1114161, 3, 0, -1114160, 3, 0, -1114159, 3, 0, -1114158, 3, 0, -1114157, 3, 0, -1114156, 3, 0, -1114155, 3, 0, -1114154, 3, 0, -1114153, 3, 0, -1114152, 3, 0, -1114151, 3, 0, -1114150, 3, 0, -1114149, 3, 0, -1114148, 3, 0, -1114147, 536870914, 0, -1114146, 4, 0, -1114145, 4, 0, -1114144, 2, 0, -1114143, 3, 0, -1114142, 3, 0, -1114141, 3, 0, -1114140, 3, 0, -1114139, 3, 0, -1114138, 3, 0, -1114137, 3, 0, -1114136, 3, 0, -1114135, 3, 0, -1114134, 3, 0, -1114133, 3, 0, -1114132, 3, 0, -1114131, 3, 0, -1114130, 3, 0, -1114129, 3, 0, -1114128, 3, 0, -1114127, 3, 0, -1114126, 3, 0, -1114125, 3, 0, -1114124, 3, 0, -1114123, 3, 0, -1114122, 3, 0, -1114121, 3, 0, -1114120, 3, 0, -1114119, 3, 0, -1114118, 3, 0, -1114117, 3, 0, -1114116, 536870914, 0, -1114115, 4, 0, -1114114, 2, 0, -1114113, 3, 0, -1179648, 3, 0, -1179647, 3, 0, -1179646, 3, 0, -1179645, 3, 0, -1179644, 3, 0, -1179643, 3, 0, -1179642, 3, 0, -1179641, 3, 0, -1179640, 536870914, 0, -1048656, 2, 0, -1048655, 3, 0, -1048654, 3, 0, -1048653, 3, 0, -1048652, 3, 0, -1048651, 3, 0, -1048650, 3, 0, -1048649, 3, 0, -1048648, 3, 0, -1048647, 3, 0, -1048646, 3, 0, -1048645, 3, 0, -1048644, 536870914, 0, -1048643, 4, 0, -1048642, 2, 0, -1048641, 3, 0, -1048640, 3, 0, -1048639, 3, 0, -1048638, 3, 0, -1048637, 3, 0, -1048636, 3, 0, -1048635, 3, 0, -1048634, 3, 0, -1048633, 3, 0, -1048632, 3, 0, -1048631, 3, 0, -1048630, 3, 0, -1048629, 3, 0, -1048628, 3, 0, -1048627, 3, 0, -1048626, 3, 0, -1048625, 3, 0, -1048624, 3, 0, -1048623, 3, 0, -1048622, 3, 0, -1048621, 3, 0, -1048620, 3, 0, -1048619, 3, 0, -1048618, 3, 0, -1048617, 3, 0, -1048616, 3, 0, -1048615, 3, 0, -1048614, 3, 0, -1048613, 3, 0, -1048612, 3, 0, -1048611, 536870914, 0, -1048610, 4, 0, -1048609, 4, 0, -1048608, 2, 0, -1048607, 3, 0, -1048606, 3, 0, -1048605, 3, 0, -1048604, 3, 0, -1048603, 3, 0, -1048602, 3, 0, -1048601, 3, 0, -1048600, 3, 0, -1048599, 3, 0, -1048598, 3, 0, -1048597, 3, 0, -1048596, 3, 0, -1048595, 3, 0, -1048594, 3, 0, -1048593, 3, 0, -1048592, 3, 0, -1048591, 3, 0, -1048590, 3, 0, -1048589, 3, 0, -1048588, 3, 0, -1048587, 3, 0, -1048586, 3, 0, -1048585, 3, 0, -1048584, 3, 0, -1048583, 3, 0, -1048582, 3, 0, -1048581, 3, 0, -1048580, 536870914, 0, -1048579, 4, 0, -1048578, 2, 0, -1048577, 3, 0, -1114112, 3, 0, -1114111, 3, 0, -1114110, 3, 0, -1114109, 3, 0, -1114108, 3, 0, -1114107, 3, 0, -1114106, 3, 0, -1114105, 3, 0, -1114104, 536870914, 0, -983120, 2, 0, -983119, 3, 0, -983118, 3, 0, -983117, 3, 0, -983116, 3, 0, -983115, 3, 0, -983114, 3, 0, -983113, 3, 0, -983112, 3, 0, -983111, 3, 0, -983110, 3, 0, -983109, 3, 0, -983108, 536870914, 0, -983107, 4, 0, -983106, 2, 0, -983105, 3, 0, -983104, 3, 0, -983103, 3, 0, -983102, 3, 0, -983101, 3, 0, -983100, 3, 0, -983099, 3, 0, -983098, 3, 0, -983097, 3, 0, -983096, 3, 0, -983095, 3, 0, -983094, 3, 0, -983093, 3, 0, -983092, 3, 0, -983091, 3, 0, -983090, 3, 0, -983089, 3, 0, -983088, 3, 0, -983087, 3, 0, -983086, 3, 0, -983085, 3, 0, -983084, 3, 0, -983083, 3, 0, -983082, 3, 0, -983081, 3, 0, -983080, 3, 0, -983079, 3, 0, -983078, 3, 0, -983077, 3, 0, -983076, 3, 0, -983075, 536870914, 0, -983074, 4, 0, -983073, 4, 0, -983072, 2, 0, -983071, 3, 0, -983070, 3, 0, -983069, 3, 0, -983068, 3, 0, -983067, 3, 0, -983066, 3, 0, -983065, 3, 0, -983064, 3, 0, -983063, 3, 0, -983062, 3, 0, -983061, 3, 0, -983060, 3, 0, -983059, 3, 0, -983058, 3, 0, -983057, 3, 0, -983056, 3, 0, -983055, 3, 0, -983054, 3, 0, -983053, 3, 0, -983052, 3, 0, -983051, 3, 0, -983050, 3, 0, -983049, 3, 0, -983048, 3, 0, -983047, 3, 0, -983046, 3, 0, -983045, 3, 0, -983044, 536870914, 0, -983043, 4, 0, -983042, 2, 0, -983041, 3, 0, -1048576, 3, 0, -1048575, 3, 0, -1048574, 3, 0, -1048573, 3, 0, -1048572, 3, 0, -1048571, 3, 0, -1048570, 3, 0, -1048569, 3, 0, -1048568, 536870914, 0, -917584, 2, 0, -917583, 3, 0, -917582, 3, 0, -917581, 3, 0, -917580, 3, 0, -917579, 3, 0, -917578, 3, 0, -917577, 3, 0, -917576, 3, 0, -917575, 3, 0, -917574, 3, 0, -917573, 3, 0, -917572, 536870914, 0, -917571, 4, 0, -917570, 2, 0, -917569, 3, 0, -917568, 3, 0, -917567, 3, 0, -917566, 3, 0, -917565, 3, 0, -917564, 3, 0, -917563, 3, 0, -917562, 3, 0, -917561, 3, 0, -917560, 3, 0, -917559, 3, 0, -917558, 3, 0, -917557, 3, 0, -917556, 3, 0, -917555, 3, 0, -917554, 3, 0, -917553, 3, 0, -917552, 3, 0, -917551, 3, 0, -917550, 3, 0, -917549, 3, 0, -917548, 3, 0, -917547, 3, 0, -917546, 3, 0, -917545, 3, 0, -917544, 3, 0, -917543, 3, 0, -917542, 3, 0, -917541, 3, 0, -917540, 3, 0, -917539, 536870914, 0, -917538, 4, 0, -917537, 4, 0, -917536, 2, 0, -917535, 3, 0, -917534, 3, 0, -917533, 3, 0, -917532, 3, 0, -917531, 3, 0, -917530, 3, 0, -917529, 3, 0, -917528, 3, 0, -917527, 3, 0, -917526, 3, 0, -917525, 3, 0, -917524, 3, 0, -917523, 3, 0, -917522, 3, 0, -917521, 3, 0, -917520, 3, 0, -917519, 3, 0, -917518, 3, 0, -917517, 3, 0, -917516, 3, 0, -917515, 3, 0, -917514, 3, 0, -917513, 3, 0, -917512, 3, 0, -917511, 3, 0, -917510, 3, 0, -917509, 3, 0, -917508, 536870914, 0, -917507, 4, 0, -917506, 2, 0, -917505, 3, 0, -983040, 3, 0, -983039, 3, 0, -983038, 3, 0, -983037, 3, 0, -983036, 3, 0, -983035, 3, 0, -983034, 3, 0, -983033, 3, 0, -983032, 536870914, 0, -852048, 2, 0, -852047, 3, 0, -852046, 3, 0, -852045, 3, 0, -852044, 3, 0, -852043, 3, 0, -852042, 3, 0, -852041, 3, 0, -852040, 3, 0, -852039, 3, 0, -852038, 3, 0, -852037, 3, 0, -852036, 536870914, 0, -852035, 4, 0, -852034, 2, 0, -852033, 3, 0, -852032, 3, 0, -852031, 3, 0, -852030, 3, 0, -852029, 3, 0, -852028, 3, 0, -852027, 3, 0, -852026, 3, 0, -852025, 3, 0, -852024, 3, 0, -852023, 3, 0, -852022, 3, 0, -852021, 3, 0, -852020, 3, 0, -852019, 3, 0, -852018, 3, 0, -852017, 3, 0, -852016, 3, 0, -852015, 3, 0, -852014, 3, 0, -852013, 3, 0, -852012, 3, 0, -852011, 3, 0, -852010, 3, 0, -852009, 3, 0, -852008, 3, 0, -852007, 3, 0, -852006, 3, 0, -852005, 3, 0, -852004, 3, 0, -852003, 536870913, 0, -852002, 0, 0, -852001, 0, 0, -852000, 0, 0, -851999, 0, 0, -851998, 0, 0, -851997, 0, 0, -851996, 0, 0, -851995, 0, 0, -851994, 0, 0, -851993, 0, 0, -851992, 0, 0, -851991, 0, 0, -851990, 0, 0, -851989, 0, 0, -851988, 0, 0, -851987, 0, 0, -851986, 0, 0, -851985, 0, 0, -851984, 0, 0, -851983, 0, 0, -851982, 0, 0, -851981, 0, 0, -851980, 0, 0, -851979, 3, 0, -851978, 3, 0, -851977, 3, 0, -851976, 3, 0, -851975, 3, 0, -851974, 3, 0, -851973, 3, 0, -851972, 536870914, 0, -851971, 4, 0, -851970, 2, 0, -851969, 3, 0, -917504, 3, 0, -917503, 3, 0, -917502, 3, 0, -917501, 3, 0, -917500, 3, 0, -917499, 3, 0, -917498, 3, 0, -917497, 3, 0, -917496, 536870914, 0, -786512, 2, 0, -786511, 3, 0, -786510, 3, 0, -786509, 3, 0, -786508, 3, 0, -786507, 3, 0, -786506, 3, 0, -786505, 3, 0, -786504, 3, 0, -786503, 3, 0, -786502, 3, 0, -786501, 3, 0, -786500, 536870914, 0, -786499, 4, 0, -786498, 2, 0, -786497, 3, 0, -786496, 3, 0, -786495, 3, 0, -786494, 3, 0, -786493, 3, 0, -786492, 3, 0, -786491, 3, 0, -786490, 3, 0, -786489, 3, 0, -786488, 3, 0, -786487, 3, 0, -786486, 3, 0, -786485, 3, 0, -786484, 3, 0, -786483, 3, 0, -786482, 3, 0, -786481, 3, 0, -786480, 3, 0, -786479, 3, 0, -786478, 3, 0, -786477, 3, 0, -786476, 3, 0, -786475, 3, 0, -786474, 3, 0, -786473, 3, 0, -786472, 3, 0, -786471, 3, 0, -786470, 3, 0, -786469, 3, 0, -786468, 3, 0, -786467, 3, 0, -786466, 3, 0, -786465, 3, 0, -786464, 3, 0, -786463, 3, 0, -786462, 3, 0, -786461, 3, 0, -786460, 3, 0, -786459, 3, 0, -786458, 3, 0, -786457, 3, 0, -786456, 3, 0, -786455, 3, 0, -786454, 3, 0, -786453, 3, 0, -786452, 3, 0, -786451, 3, 0, -786450, 3, 0, -786449, 3, 0, -786448, 3, 0, -786447, 3, 0, -786446, 3, 0, -786445, 3, 0, -786444, 3, 0, -786443, 3, 0, -786442, 3, 0, -786441, 3, 0, -786440, 3, 0, -786439, 3, 0, -786438, 3, 0, -786437, 3, 0, -786436, 536870914, 0, -786435, 4, 0, -786434, 2, 0, -786433, 3, 0, -851968, 3, 0, -851967, 3, 0, -851966, 3, 0, -851965, 3, 0, -851964, 3, 0, -851963, 3, 0, -851962, 3, 0, -851961, 3, 0, -851960, 536870914, 0, -720976, 2, 0, -720975, 3, 0, -720974, 3, 0, -720973, 3, 0, -720972, 3, 0, -720971, 3, 0, -720970, 3, 0, -720969, 3, 0, -720968, 3, 0, -720967, 3, 0, -720966, 3, 0, -720965, 3, 0, -720964, 536870914, 0, -720963, 4, 0, -720962, 2, 0, -720961, 3, 0, -720960, 3, 0, -720959, 3, 0, -720958, 3, 0, -720957, 3, 0, -720956, 3, 0, -720955, 3, 0, -720954, 3, 0, -720953, 3, 0, -720952, 3, 0, -720951, 3, 0, -720950, 3, 0, -720949, 3, 0, -720948, 3, 0, -720947, 3, 0, -720946, 3, 0, -720945, 3, 0, -720944, 3, 0, -720943, 3, 0, -720942, 3, 0, -720941, 3, 0, -720940, 3, 0, -720939, 3, 0, -720938, 3, 0, -720937, 3, 0, -720936, 3, 0, -720935, 3, 0, -720934, 3, 0, -720933, 3, 0, -720932, 3, 0, -720931, 3, 0, -720930, 3, 0, -720929, 3, 0, -720928, 3, 0, -720927, 3, 0, -720926, 3, 0, -720925, 3, 0, -720924, 3, 0, -720923, 3, 0, -720922, 3, 0, -720921, 3, 0, -720920, 3, 0, -720919, 3, 0, -720918, 3, 0, -720917, 3, 0, -720916, 3, 0, -720915, 3, 0, -720914, 3, 0, -720913, 3, 0, -720912, 3, 0, -720911, 3, 0, -720910, 3, 0, -720909, 3, 0, -720908, 3, 0, -720907, 3, 0, -720906, 3, 0, -720905, 3, 0, -720904, 3, 0, -720903, 3, 0, -720902, 3, 0, -720901, 3, 0, -720900, 536870914, 0, -720899, 4, 0, -720898, 2, 0, -720897, 3, 0, -786432, 3, 0, -786431, 3, 0, -786430, 3, 0, -786429, 3, 0, -786428, 3, 0, -786427, 3, 0, -786426, 3, 0, -786425, 3, 0, -786424, 536870914, 0, -655440, 2, 0, -655439, 3, 0, -655438, 3, 0, -655437, 3, 0, -655436, 3, 0, -655435, 3, 0, -655434, 3, 0, -655433, 3, 0, -655432, 3, 0, -655431, 3, 0, -655430, 3, 0, -655429, 3, 0, -655428, 536870914, 0, -655427, 4, 0, -655426, 2, 0, -655425, 3, 0, -655424, 3, 0, -655423, 3, 0, -655422, 3, 0, -655421, 3, 0, -655420, 3, 0, -655419, 3, 0, -655418, 3, 0, -655417, 3, 0, -655416, 3, 0, -655415, 3, 0, -655414, 3, 0, -655413, 3, 0, -655412, 3, 0, -655411, 3, 0, -655410, 3, 0, -655409, 3, 0, -655408, 3, 0, -655407, 3, 0, -655406, 3, 0, -655405, 3, 0, -655404, 3, 0, -655403, 3, 0, -655402, 3, 0, -655401, 3, 0, -655400, 3, 0, -655399, 3, 0, -655398, 3, 0, -655397, 3, 0, -655396, 3, 0, -655395, 3, 0, -655394, 3, 0, -655393, 3, 0, -655392, 3, 0, -655391, 3, 0, -655390, 3, 0, -655389, 3, 0, -655388, 3, 0, -655387, 3, 0, -655386, 3, 0, -655385, 3, 0, -655384, 3, 0, -655383, 3, 0, -655382, 3, 0, -655381, 3, 0, -655380, 3, 0, -655379, 3, 0, -655378, 3, 0, -655377, 3, 0, -655376, 3, 0, -655375, 3, 0, -655374, 3, 0, -655373, 3, 0, -655372, 3, 0, -655371, 3, 0, -655370, 3, 0, -655369, 3, 0, -655368, 3, 0, -655367, 3, 0, -655366, 3, 0, -655365, 3, 0, -655364, 536870914, 0, -655363, 4, 0, -655362, 2, 0, -655361, 3, 0, -720896, 3, 0, -720895, 3, 0, -720894, 3, 0, -720893, 3, 0, -720892, 3, 0, -720891, 3, 0, -720890, 3, 0, -720889, 3, 0, -720888, 536870914, 0, -589904, 2, 0, -589903, 3, 0, -589902, 3, 0, -589901, 3, 0, -589900, 3, 0, -589899, 3, 0, -589898, 3, 0, -589897, 3, 0, -589896, 3, 0, -589895, 3, 0, -589894, 3, 0, -589893, 3, 0, -589892, 536870914, 0, -589891, 4, 0, -589890, 2, 0, -589889, 3, 0, -589888, 3, 0, -589887, 3, 0, -589886, 3, 0, -589885, 3, 0, -589884, 3, 0, -589883, 3, 0, -589882, 3, 0, -589881, 3, 0, -589880, 3, 0, -589879, 3, 0, -589878, 3, 0, -589877, 3, 0, -589876, 3, 0, -589875, 3, 0, -589874, 3, 0, -589873, 3, 0, -589872, 3, 0, -589871, 3, 0, -589870, 3, 0, -589869, 3, 0, -589868, 3, 0, -589867, 3, 0, -589866, 3, 0, -589865, 3, 0, -589864, 3, 0, -589863, 3, 0, -589862, 3, 0, -589861, 3, 0, -589860, 3, 0, -589859, 3, 0, -589858, 3, 0, -589857, 3, 0, -589856, 3, 0, -589855, 3, 0, -589854, 3, 0, -589853, 3, 0, -589852, 3, 0, -589851, 3, 0, -589850, 3, 0, -589849, 3, 0, -589848, 3, 0, -589847, 3, 0, -589846, 3, 0, -589845, 3, 0, -589844, 3, 0, -589843, 3, 0, -589842, 3, 0, -589841, 3, 0, -589840, 3, 0, -589839, 3, 0, -589838, 3, 0, -589837, 3, 0, -589836, 3, 0, -589835, 3, 0, -589834, 3, 0, -589833, 3, 0, -589832, 3, 0, -589831, 3, 0, -589830, 3, 0, -589829, 3, 0, -589828, 536870914, 0, -589827, 4, 0, -589826, 2, 0, -589825, 3, 0, -655360, 3, 0, -655359, 3, 0, -655358, 3, 0, -655357, 3, 0, -655356, 3, 0, -655355, 3, 0, -655354, 3, 0, -655353, 3, 0, -655352, 536870914, 0, -524368, 2, 0, -524367, 3, 0, -524366, 3, 0, -524365, 3, 0, -524364, 3, 0, -524363, 3, 0, -524362, 3, 0, -524361, 3, 0, -524360, 3, 0, -524359, 3, 0, -524358, 3, 0, -524357, 3, 0, -524356, 536870914, 0, -524355, 4, 0, -524354, 2, 0, -524353, 3, 0, -524352, 3, 0, -524351, 3, 0, -524350, 3, 0, -524349, 3, 0, -524348, 3, 0, -524347, 3, 0, -524346, 3, 0, -524345, 3, 0, -524344, 3, 0, -524343, 3, 0, -524342, 3, 0, -524341, 3, 0, -524340, 3, 0, -524339, 3, 0, -524338, 3, 0, -524337, 3, 0, -524336, 3, 0, -524335, 3, 0, -524334, 3, 0, -524333, 3, 0, -524332, 3, 0, -524331, 3, 0, -524330, 3, 0, -524329, 3, 0, -524328, 3, 0, -524327, 3, 0, -524326, 3, 0, -524325, 3, 0, -524324, 3, 0, -524323, 3, 0, -524322, 3, 0, -524321, 3, 0, -524320, 3, 0, -524319, 3, 0, -524318, 3, 0, -524317, 3, 0, -524316, 3, 0, -524315, 3, 0, -524314, 3, 0, -524313, 3, 0, -524312, 3, 0, -524311, 3, 0, -524310, 3, 0, -524309, 3, 0, -524308, 3, 0, -524307, 3, 0, -524306, 3, 0, -524305, 3, 0, -524304, 3, 0, -524303, 3, 0, -524302, 3, 0, -524301, 3, 0, -524300, 3, 0, -524299, 3, 0, -524298, 3, 0, -524297, 3, 0, -524296, 3, 0, -524295, 3, 0, -524294, 3, 0, -524293, 3, 0, -524292, 536870914, 0, -524291, 4, 0, -524290, 2, 0, -524289, 3, 0, -589824, 3, 0, -589823, 3, 0, -589822, 3, 0, -589821, 3, 0, -589820, 3, 0, -589819, 3, 0, -589818, 3, 0, -589817, 3, 0, -589816, 536870914, 0, -458832, 2, 0, -458831, 3, 0, -458830, 3, 0, -458829, 3, 0, -458828, 3, 0, -458827, 3, 0, -458826, 3, 0, -458825, 3, 0, -458824, 3, 0, -458823, 3, 0, -458822, 3, 0, -458821, 3, 0, -458820, 536870914, 0, -458819, 4, 0, -458818, 2, 0, -458817, 3, 0, -458816, 3, 0, -458815, 3, 0, -458814, 3, 0, -458813, 3, 0, -458812, 3, 0, -458811, 3, 0, -458810, 3, 0, -458809, 3, 0, -458808, 3, 0, -458807, 3, 0, -458806, 3, 0, -458805, 3, 0, -458804, 3, 0, -458803, 3, 0, -458802, 3, 0, -458801, 3, 0, -458800, 3, 0, -458799, 3, 0, -458798, 3, 0, -458797, 3, 0, -458796, 3, 0, -458795, 3, 0, -458794, 3, 0, -458793, 3, 0, -458792, 3, 0, -458791, 3, 0, -458790, 3, 0, -458789, 3, 0, -458788, 3, 0, -458787, 3, 0, -458786, 3, 0, -458785, 3, 0, -458784, 3, 0, -458783, 3, 0, -458782, 3, 0, -458781, 3, 0, -458780, 3, 0, -458779, 3, 0, -458778, 3, 0, -458777, 3, 0, -458776, 3, 0, -458775, 3, 0, -458774, 3, 0, -458773, 3, 0, -458772, 3, 0, -458771, 3, 0, -458770, 3, 0, -458769, 3, 0, -458768, 3, 0, -458767, 3, 0, -458766, 3, 0, -458765, 3, 0, -458764, 3, 0, -458763, 3, 0, -458762, 3, 0, -458761, 3, 0, -458760, 3, 0, -458759, 3, 0, -458758, 3, 0, -458757, 3, 0, -458756, 536870914, 0, -458755, 4, 0, -458754, 2, 0, -458753, 3, 0, -524288, 3, 0, -524287, 3, 0, -524286, 3, 0, -524285, 3, 0, -524284, 3, 0, -524283, 3, 0, -524282, 3, 0, -524281, 3, 0, -524280, 536870914, 0, -393296, 2, 0, -393295, 3, 0, -393294, 3, 0, -393293, 3, 0, -393292, 3, 0, -393291, 3, 0, -393290, 3, 0, -393289, 3, 0, -393288, 3, 0, -393287, 3, 0, -393286, 3, 0, -393285, 3, 0, -393284, 536870914, 0, -393283, 4, 0, -393282, 2, 0, -393281, 3, 0, -393280, 3, 0, -393279, 3, 0, -393278, 3, 0, -393277, 3, 0, -393276, 3, 0, -393275, 3, 0, -393274, 3, 0, -393273, 3, 0, -393272, 3, 0, -393271, 3, 0, -393270, 3, 0, -393269, 3, 0, -393268, 3, 0, -393267, 3, 0, -393266, 3, 0, -393265, 3, 0, -393264, 3, 0, -393263, 3, 0, -393262, 3, 0, -393261, 3, 0, -393260, 3, 0, -393259, 3, 0, -393258, 3, 0, -393257, 3, 0, -393256, 3, 0, -393255, 3, 0, -393254, 3, 0, -393253, 3, 0, -393252, 3, 0, -393251, 3, 0, -393250, 3, 0, -393249, 3, 0, -393248, 3, 0, -393247, 3, 0, -393246, 3, 0, -393245, 3, 0, -393244, 3, 0, -393243, 3, 0, -393242, 3, 0, -393241, 3, 0, -393240, 3, 0, -393239, 3, 0, -393238, 3, 0, -393237, 3, 0, -393236, 3, 0, -393235, 3, 0, -393234, 3, 0, -393233, 3, 0, -393232, 3, 0, -393231, 3, 0, -393230, 3, 0, -393229, 3, 0, -393228, 3, 0, -393227, 3, 0, -393226, 3, 0, -393225, 3, 0, -393224, 3, 0, -393223, 3, 0, -393222, 3, 0, -393221, 3, 0, -393220, 536870914, 0, -393219, 4, 0, -393218, 2, 0, -393217, 3, 0, -458752, 3, 0, -458751, 3, 0, -458750, 3, 0, -458749, 3, 0, -458748, 3, 0, -458747, 3, 0, -458746, 3, 0, -458745, 3, 0, -458744, 536870914, 0, -327760, 2, 0, -327759, 3, 0, -327758, 3, 0, -327757, 3, 0, -327756, 3, 0, -327755, 3, 0, -327754, 3, 0, -327753, 3, 0, -327752, 3, 0, -327751, 3, 0, -327750, 3, 0, -327749, 3, 0, -327748, 536870914, 0, -327747, 4, 0, -327746, 2, 0, -327745, 3, 0, -327744, 3, 0, -327743, 3, 0, -327742, 3, 0, -327741, 3, 0, -327740, 3, 0, -327739, 3, 0, -327738, 3, 0, -327737, 3, 0, -327736, 3, 0, -327735, 3, 0, -327734, 3, 0, -327733, 3, 0, -327732, 3, 0, -327731, 3, 0, -327730, 3, 0, -327729, 3, 0, -327728, 3, 0, -327727, 3, 0, -327726, 3, 0, -327725, 3, 0, -327724, 3, 0, -327723, 3, 0, -327722, 3, 0, -327721, 3, 0, -327720, 3, 0, -327719, 3, 0, -327718, 3, 0, -327717, 3, 0, -327716, 3, 0, -327715, 3, 0, -327714, 3, 0, -327713, 3, 0, -327712, 3, 0, -327711, 3, 0, -327710, 3, 0, -327709, 3, 0, -327708, 3, 0, -327707, 3, 0, -327706, 3, 0, -327705, 3, 0, -327704, 3, 0, -327703, 3, 0, -327702, 3, 0, -327701, 3, 0, -327700, 3, 0, -327699, 3, 0, -327698, 3, 0, -327697, 3, 0, -327696, 3, 0, -327695, 3, 0, -327694, 3, 0, -327693, 3, 0, -327692, 3, 0, -327691, 3, 0, -327690, 3, 0, -327689, 3, 0, -327688, 3, 0, -327687, 3, 0, -327686, 3, 0, -327685, 3, 0, -327684, 536870914, 0, -327683, 4, 0, -327682, 2, 0, -327681, 3, 0, -393216, 3, 0, -393215, 3, 0, -393214, 3, 0, -393213, 3, 0, -393212, 3, 0, -393211, 3, 0, -393210, 3, 0, -393209, 3, 0, -393208, 536870914, 0, -262224, 2, 0, -262223, 3, 0, -262222, 3, 0, -262221, 3, 0, -262220, 3, 0, -262219, 3, 0, -262218, 3, 0, -262217, 3, 0, -262216, 3, 0, -262215, 3, 0, -262214, 3, 0, -262213, 3, 0, -262212, 536870914, 0, -262211, 4, 0, -262210, 2, 0, -262209, 3, 0, -262208, 3, 0, -262207, 3, 0, -262206, 3, 0, -262205, 3, 0, -262204, 3, 0, -262203, 3, 0, -262202, 3, 0, -262201, 3, 0, -262200, 3, 0, -262199, 3, 0, -262198, 3, 0, -262197, 3, 0, -262196, 3, 0, -262195, 3, 0, -262194, 3, 0, -262193, 3, 0, -262192, 3, 0, -262191, 3, 0, -262190, 3, 0, -262189, 3, 0, -262188, 3, 0, -262187, 3, 0, -262186, 3, 0, -262185, 3, 0, -262184, 3, 0, -262183, 3, 0, -262182, 3, 0, -262181, 3, 0, -262180, 3, 0, -262179, 3, 0, -262178, 3, 0, -262177, 3, 0, -262176, 3, 0, -262175, 3, 0, -262174, 3, 0, -262173, 3, 0, -262172, 3, 0, -262171, 3, 0, -262170, 3, 0, -262169, 3, 0, -262168, 3, 0, -262167, 3, 0, -262166, 3, 0, -262165, 3, 0, -262164, 3, 0, -262163, 3, 0, -262162, 3, 0, -262161, 3, 0, -262160, 3, 0, -262159, 3, 0, -262158, 3, 0, -262157, 3, 0, -262156, 3, 0, -262155, 3, 0, -262154, 3, 0, -262153, 3, 0, -262152, 3, 0, -262151, 3, 0, -262150, 3, 0, -262149, 3, 0, -262148, 536870914, 0, -262147, 4, 0, -262146, 2, 0, -262145, 3, 0, -327680, 3, 0, -327679, 3, 0, -327678, 3, 0, -327677, 3, 0, -327676, 3, 0, -327675, 3, 0, -327674, 3, 0, -327673, 3, 0, -327672, 536870914, 0, -196688, 2, 0, -196687, 3, 0, -196686, 3, 0, -196685, 3, 0, -196684, 3, 0, -196683, 3, 0, -196682, 3, 0, -196681, 3, 0, -196680, 3, 0, -196679, 3, 0, -196678, 3, 0, -196677, 3, 0, -196676, 0, 0, -196675, 0, 0, -196674, 0, 0, -196673, 0, 0, -196672, 0, 0, -196671, 0, 0, -196670, 0, 0, -196669, 0, 0, -196668, 0, 0, -196667, 0, 0, -196666, 0, 0, -196665, 0, 0, -196664, 0, 0, -196663, 0, 0, -196662, 0, 0, -196661, 0, 0, -196660, 0, 0, -196659, 0, 0, -196658, 0, 0, -196657, 0, 0, -196656, 0, 0, -196655, 0, 0, -196654, 0, 0, -196653, 0, 0, -196652, 0, 0, -196651, 0, 0, -196650, 0, 0, -196649, 0, 0, -196648, 0, 0, -196647, 0, 0, -196646, 0, 0, -196645, 0, 0, -196644, 0, 0, -196643, 0, 0, -196642, 0, 0, -196641, 0, 0, -196640, 0, 0, -196639, 0, 0, -196638, 0, 0, -196637, 0, 0, -196636, 0, 0, -196635, 0, 0, -196634, 0, 0, -196633, 0, 0, -196632, 0, 0, -196631, 0, 0, -196630, 0, 0, -196629, 0, 0, -196628, 0, 0, -196627, 0, 0, -196626, 0, 0, -196625, 0, 0, -196624, 0, 0, -196623, 0, 0, -196622, 0, 0, -196621, 0, 0, -196620, 0, 0, -196619, 0, 0, -196618, 0, 0, -196617, 0, 0, -196616, 0, 0, -196615, 0, 0, -196614, 0, 0, -196613, 0, 0, -196612, 0, 0, -196611, 0, 0, -196610, 1, 0, -196609, 3, 0, -262144, 3, 0, -262143, 3, 0, -262142, 3, 0, -262141, 3, 0, -262140, 3, 0, -262139, 3, 0, -262138, 3, 0, -262137, 3, 0, -262136, 536870914, 0, -131152, 2, 0, -131151, 3, 0, -131150, 3, 0, -131149, 3, 0, -131148, 3, 0, -131147, 3, 0, -131146, 3, 0, -131145, 3, 0, -131144, 3, 0, -131143, 3, 0, -131142, 3, 0, -131141, 3, 0, -131140, 3, 0, -131139, 3, 0, -131138, 3, 0, -131137, 3, 0, -131136, 3, 0, -131135, 3, 0, -131134, 3, 0, -131133, 3, 0, -131132, 3, 0, -131131, 3, 0, -131130, 3, 0, -131129, 3, 0, -131128, 3, 0, -131127, 3, 0, -131126, 3, 0, -131125, 3, 0, -131124, 3, 0, -131123, 3, 0, -131122, 3, 0, -131121, 3, 0, -131120, 3, 0, -131119, 3, 0, -131118, 3, 0, -131117, 3, 0, -131116, 3, 0, -131115, 3, 0, -131114, 3, 0, -131113, 3, 0, -131112, 3, 0, -131111, 3, 0, -131110, 3, 0, -131109, 3, 0, -131108, 3, 0, -131107, 3, 0, -131106, 3, 0, -131105, 3, 0, -131104, 3, 0, -131103, 3, 0, -131102, 3, 0, -131101, 3, 0, -131100, 3, 0, -131099, 3, 0, -131098, 3, 0, -131097, 3, 0, -131096, 3, 0, -131095, 3, 0, -131094, 3, 0, -131093, 3, 0, -131092, 3, 0, -131091, 3, 0, -131090, 3, 0, -131089, 3, 0, -131088, 3, 0, -131087, 3, 0, -131086, 3, 0, -131085, 3, 0, -131084, 3, 0, -131083, 3, 0, -131082, 3, 0, -131081, 3, 0, -131080, 3, 0, -131079, 3, 0, -131078, 3, 0, -131077, 3, 0, -131076, 3, 0, -131075, 3, 0, -131074, 3, 0, -131073, 3, 0, -196608, 3, 0, -196607, 3, 0, -196606, 3, 0, -196605, 3, 0, -196604, 3, 0, -196603, 3, 0, -196602, 3, 0, -196601, 3, 0, -196600, 536870914, 0, -65616, 1073741825, 0, -65615, 3, 0, -65614, 3, 0, -65613, 3, 0, -65612, 3, 0, -65611, 3, 0, -65610, 3, 0, -65609, 3, 0, -65608, 3, 0, -65607, 3, 0, -65606, 3, 0, -65605, 3, 0, -65604, 3, 0, -65603, 3, 0, -65602, 3, 0, -65601, 3, 0, -65600, 3, 0, -65599, 3, 0, -65598, 3, 0, -65597, 3, 0, -65596, 3, 0, -65595, 3, 0, -65594, 3, 0, -65593, 3, 0, -65592, 3, 0, -65591, 3, 0, -65590, 3, 0, -65589, 3, 0, -65588, 3, 0, -65587, 3, 0, -65586, 3, 0, -65585, 3, 0, -65584, 3, 0, -65583, 3, 0, -65582, 3, 0, -65581, 3, 0, -65580, 3, 0, -65579, 3, 0, -65578, 3, 0, -65577, 3, 0, -65576, 3, 0, -65575, 3, 0, -65574, 3, 0, -65573, 3, 0, -65572, 3, 0, -65571, 3, 0, -65570, 3, 0, -65569, 3, 0, -65568, 3, 0, -65567, 3, 0, -65566, 3, 0, -65565, 3, 0, -65564, 3, 0, -65563, 3, 0, -65562, 3, 0, -65561, 3, 0, -65560, 3, 0, -65559, 3, 0, -65558, 3, 0, -65557, 3, 0, -65556, 3, 0, -65555, 3, 0, -65554, 3, 0, -65553, 3, 0, -65552, 3, 0, -65551, 3, 0, -65550, 3, 0, -65549, 3, 0, -65548, 3, 0, -65547, 3, 0, -65546, 3, 0, -65545, 3, 0, -65544, 3, 0, -65543, 3, 0, -65542, 3, 0, -65541, 3, 0, -65540, 3, 0, -65539, 3, 0, -65538, 3, 0, -65537, 3, 0, -131072, 3, 0, -131071, 3, 0, -131070, 3, 0, -131069, 3, 0, -131068, 3, 0, -131067, 3, 0, -131066, 3, 0, -131065, 3, 0, -131064, 536870914, 0, -80, 3, 0, -79, 3, 0, -78, 3, 0, -77, 3, 0, -76, 3, 0, -75, 3, 0, -74, 3, 0, -73, 3, 0, -72, 3, 0, -71, 3, 0, -70, 3, 0, -69, 3, 0, -68, 3, 0, -67, 3, 0, -66, 3, 0, -65, 3, 0, -64, 3, 0, -63, 3, 0, -62, 3, 0, -61, 3, 0, -60, 3, 0, -59, 3, 0, -58, 3, 0, -57, 3, 0, -56, 3, 0, -55, 3, 0, -54, 3, 0, -53, 3, 0, -52, 3, 0, -51, 3, 0, -50, 3, 0, -49, 3, 0, -48, 3, 0, -47, 3, 0, -46, 3, 0, -45, 3, 0, -44, 3, 0, -43, 3, 0, -42, 3, 0, -41, 3, 0, -40, 3, 0, -39, 3, 0, -38, 3, 0, -37, 3, 0, -36, 3, 0, -35, 3, 0, -34, 3, 0, -33, 3, 0, -32, 3, 0, -31, 3, 0, -30, 3, 0, -29, 3, 0, -28, 3, 0, -27, 3, 0, -26, 3, 0, -25, 3, 0, -24, 3, 0, -23, 3, 0, -22, 3, 0, -21, 3, 0, -20, 3, 0, -19, 3, 0, -18, 3, 0, -17, 3, 0, -16, 3, 0, -15, 3, 0, -14, 3, 0, -13, 3, 0, -12, 3, 0, -11, 3, 0, -10, 3, 0, -9, 3, 0, -8, 3, 0, -7, 3, 0, -6, 3, 0, -5, 3, 0, -4, 3, 0, -3, 3, 0, -2, 3, 0, -1, 3, 0, -65536, 3, 0, -65535, 3, 0, -65534, 3, 0, -65533, 3, 0, -65532, 3, 0, -65531, 3, 0, -65530, 3, 0, -65529, 3, 0, -65528, 536870914, 0, 65456, 3, 0, 65457, 3, 0, 65458, 3, 0, 65459, 3, 0, 65460, 3, 0, 65461, 3, 0, 65462, 3, 0, 65463, 3, 0, 65464, 3, 0, 65465, 3, 0, 65466, 3, 0, 65467, 3, 0, 65468, 3, 0, 65469, 3, 0, 65470, 3, 0, 65471, 3, 0, 65472, 3, 0, 65473, 3, 0, 65474, 3, 0, 65475, 3, 0, 65476, 3, 0, 65477, 3, 0, 65478, 3, 0, 65479, 3, 0, 65480, 3, 0, 65481, 3, 0, 65482, 3, 0, 65483, 3, 0, 65484, 3, 0, 65485, 3, 0, 65486, 3, 0, 65487, 3, 0, 65488, 3, 0, 65489, 3, 0, 65490, 3, 0, 65491, 3, 0, 65492, 3, 0, 65493, 3, 0, 65494, 3, 0, 65495, 3, 0, 65496, 3, 0, 65497, 3, 0, 65498, 3, 0, 65499, 3, 0, 65500, 3, 0, 65501, 3, 0, 65502, 3, 0, 65503, 3, 0, 65504, 3, 0, 65505, 3, 0, 65506, 3, 0, 65507, 3, 0, 65508, 3, 0, 65509, 3, 0, 65510, 3, 0, 65511, 3, 0, 65512, 3, 0, 65513, 3, 0, 65514, 3, 0, 65515, 3, 0, 65516, 3, 0, 65517, 3, 0, 65518, 3, 0, 65519, 3, 0, 65520, 3, 0, 65521, 3, 0, 65522, 3, 0, 65523, 3, 0, 65524, 3, 0, 65525, 3, 0, 65526, 3, 0, 65527, 3, 0, 65528, 3, 0, 65529, 3, 0, 65530, 3, 0, 65531, 3, 0, 65532, 3, 0, 65533, 3, 0, 65534, 3, 0, 65535, 3, 0, 0, 3, 0, 1, 3, 0, 2, 3, 0, 3, 3, 0, 4, 3, 0, 5, 3, 0, 6, 3, 0, 7, 3, 0, 8, 536870914, 0, 130992, 3, 0, 130993, 3, 0, 130994, 3, 0, 130995, 3, 0, 130996, 3, 0, 130997, 3, 0, 130998, 3, 0, 130999, 3, 0, 131000, 3, 0, 131001, 3, 0, 131002, 3, 0, 131003, 3, 0, 131004, 3, 0, 131005, 3, 0, 131006, 3, 0, 131007, 3, 0, 131008, 3, 0, 131009, 3, 0, 131010, 3, 0, 131011, 3, 0, 131012, 3, 0, 131013, 3, 0, 131014, 3, 0, 131015, 3, 0, 131016, 3, 0, 131017, 3, 0, 131018, 3, 0, 131019, 3, 0, 131020, 3, 0, 131021, 3, 0, 131022, 3, 0, 131023, 3, 0, 131024, 3, 0, 131025, 3, 0, 131026, 3, 0, 131027, 3, 0, 131028, 3, 0, 131029, 3, 0, 131030, 3, 0, 131031, 3, 0, 131032, 3, 0, 131033, 3, 0, 131034, 3, 0, 131035, 3, 0, 131036, 3, 0, 131037, 3, 0, 131038, 3, 0, 131039, 3, 0, 131040, 3, 0, 131041, 3, 0, 131042, 3, 0, 131043, 3, 0, 131044, 3, 0, 131045, 3, 0, 131046, 3, 0, 131047, 3, 0, 131048, 3, 0, 131049, 3, 0, 131050, 3, 0, 131051, 3, 0, 131052, 3, 0, 131053, 3, 0, 131054, 3, 0, 131055, 3, 0, 131056, 3, 0, 131057, 3, 0, 131058, 3, 0, 131059, 3, 0, 131060, 3, 0, 131061, 3, 0, 131062, 3, 0, 131063, 3, 0, 131064, 3, 0, 131065, 3, 0, 131066, 3, 0, 131067, 3, 0, 131068, 3, 0, 131069, 3, 0, 131070, 3, 0, 131071, 3, 0, 65536, 3, 0, 65537, 3, 0, 65538, 3, 0, 65539, 3, 0, 65540, 3, 0, 65541, 3, 0, 65542, 3, 0, 65543, 3, 0, 65544, 536870914, 0, 196528, 3, 0, 196529, 3, 0, 196530, 3, 0, 196531, 3, 0, 196532, 3, 0, 196533, 3, 0, 196534, 3, 0, 196535, 3, 0, 196536, 3, 0, 196537, 3, 0, 196538, 3, 0, 196539, 3, 0, 196540, 3, 0, 196541, 3, 0, 196542, 3, 0, 196543, 3, 0, 196544, 3, 0, 196545, 3, 0, 196546, 3, 0, 196547, 3, 0, 196548, 3, 0, 196549, 3, 0, 196550, 3, 0, 196551, 3, 0, 196552, 3, 0, 196553, 3, 0, 196554, 3, 0, 196555, 3, 0, 196556, 3, 0, 196557, 3, 0, 196558, 3, 0, 196559, 3, 0, 196560, 3, 0, 196561, 3, 0, 196562, 3, 0, 196563, 3, 0, 196564, 3, 0, 196565, 3, 0, 196566, 3, 0, 196567, 3, 0, 196568, 3, 0, 196569, 3, 0, 196570, 3, 0, 196571, 3, 0, 196572, 3, 0, 196573, 3, 0, 196574, 3, 0, 196575, 3, 0, 196576, 3, 0, 196577, 3, 0, 196578, 3, 0, 196579, 3, 0, 196580, 3, 0, 196581, 3, 0, 196582, 3, 0, 196583, 3, 0, 196584, 3, 0, 196585, 3, 0, 196586, 3, 0, 196587, 3, 0, 196588, 3, 0, 196589, 3, 0, 196590, 3, 0, 196591, 3, 0, 196592, 3, 0, 196593, 3, 0, 196594, 3, 0, 196595, 3, 0, 196596, 3, 0, 196597, 3, 0, 196598, 3, 0, 196599, 3, 0, 196600, 3, 0, 196601, 3, 0, 196602, 3, 0, 196603, 3, 0, 196604, 3, 0, 196605, 3, 0, 196606, 3, 0, 196607, 3, 0, 131072, 3, 0, 131073, 3, 0, 131074, 3, 0, 131075, 3, 0, 131076, 3, 0, 131077, 3, 0, 131078, 3, 0, 131079, 3, 0, 131080, 536870914, 0, 262064, 3, 0, 262065, 3, 0, 262066, 3, 0, 262067, 3, 0, 262068, 3, 0, 262069, 3, 0, 262070, 3, 0, 262071, 3, 0, 262072, 3, 0, 262073, 3, 0, 262074, 3, 0, 262075, 3, 0, 262076, 3, 0, 262077, 3, 0, 262078, 3, 0, 262079, 3, 0, 262080, 3, 0, 262081, 3, 0, 262082, 3, 0, 262083, 3, 0, 262084, 3, 0, 262085, 3, 0, 262086, 3, 0, 262087, 3, 0, 262088, 3, 0, 262089, 3, 0, 262090, 3, 0, 262091, 3, 0, 262092, 3, 0, 262093, 3, 0, 262094, 3, 0, 262095, 3, 0, 262096, 3, 0, 262097, 3, 0, 262098, 3, 0, 262099, 3, 0, 262100, 3, 0, 262101, 3, 0, 262102, 3, 0, 262103, 3, 0, 262104, 3, 0, 262105, 3, 0, 262106, 3, 0, 262107, 3, 0, 262108, 3, 0, 262109, 3, 0, 262110, 3, 0, 262111, 3, 0, 262112, 3, 0, 262113, 3, 0, 262114, 3, 0, 262115, 3, 0, 262116, 3, 0, 262117, 3, 0, 262118, 3, 0, 262119, 3, 0, 262120, 3, 0, 262121, 3, 0, 262122, 3, 0, 262123, 3, 0, 262124, 3, 0, 262125, 3, 0, 262126, 3, 0, 262127, 3, 0, 262128, 3, 0, 262129, 3, 0, 262130, 3, 0, 262131, 3, 0, 262132, 3, 0, 262133, 3, 0, 262134, 3, 0, 262135, 3, 0, 262136, 3, 0, 262137, 3, 0, 262138, 3, 0, 262139, 3, 0, 262140, 3, 0, 262141, 3, 0, 262142, 3, 0, 262143, 3, 0, 196608, 3, 0, 196609, 3, 0, 196610, 3, 0, 196611, 3, 0, 196612, 3, 0, 196613, 3, 0, 196614, 3, 0, 196615, 3, 0, 196616, 536870914, 0, 327600, 536870913, 0, 327601, 0, 0, 327602, 0, 0, 327603, 0, 0, 327604, 0, 0, 327605, 0, 0, 327606, 0, 0, 327607, 0, 0, 327608, 0, 0, 327609, 0, 0, 327610, 0, 0, 327611, 0, 0, 327612, 0, 0, 327613, 0, 0, 327614, 0, 0, 327615, 0, 0, 327616, 0, 0, 327617, 0, 0, 327618, 0, 0, 327619, 0, 0, 327620, 0, 0, 327621, 0, 0, 327622, 0, 0, 327623, 0, 0, 327624, 0, 0, 327625, 0, 0, 327626, 0, 0, 327627, 0, 0, 327628, 0, 0, 327629, 0, 0, 327630, 0, 0, 327631, 0, 0, 327632, 0, 0, 327633, 0, 0, 327634, 0, 0, 327635, 0, 0, 327636, 0, 0, 327637, 0, 0, 327638, 0, 0, 327639, 0, 0, 327640, 0, 0, 327641, 0, 0, 327642, 0, 0, 327643, 0, 0, 327644, 0, 0, 327645, 0, 0, 327646, 0, 0, 327647, 0, 0, 327648, 0, 0, 327649, 0, 0, 327650, 0, 0, 327651, 0, 0, 327652, 0, 0, 327653, 0, 0, 327654, 0, 0, 327655, 0, 0, 327656, 0, 0, 327657, 0, 0, 327658, 0, 0, 327659, 0, 0, 327660, 0, 0, 327661, 0, 0, 327662, 0, 0, 327663, 0, 0, 327664, 0, 0, 327665, 0, 0, 327666, 0, 0, 327667, 0, 0, 327668, 0, 0, 327669, 0, 0, 327670, 0, 0, 327671, 0, 0, 327672, 0, 0, 327673, 0, 0, 327674, 0, 0, 327675, 0, 0, 327676, 0, 0, 327677, 1, 0, 327678, 3, 0, 327679, 3, 0, 262144, 3, 0, 262145, 536870913, 0, 262146, 0, 0, 262147, 0, 0, 262148, 0, 0, 262149, 0, 0, 262150, 0, 0, 262151, 0, 0, 262152, 0, 0, 393136, 2, 0, 393137, 4, 0, 393138, 4, 0, 393139, 4, 0, 393140, 4, 0, 393141, 4, 0, 393142, 4, 0, 393143, 4, 0, 393144, 4, 0, 393145, 4, 0, 393146, 4, 0, 393147, 4, 0, 393148, 4, 0, 393149, 4, 0, 393150, 4, 0, 393151, 4, 0, 393152, 4, 0, 393153, 4, 0, 393154, 4, 0, 393155, 4, 0, 393156, 4, 0, 393157, 4, 0, 393158, 4, 0, 393159, 4, 0, 393160, 4, 0, 393161, 4, 0, 393162, 4, 0, 393163, 4, 0, 393164, 4, 0, 393165, 4, 0, 393166, 4, 0, 393167, 4, 0, 393168, 4, 0, 393169, 4, 0, 393170, 4, 0, 393171, 4, 0, 393172, 4, 0, 393173, 4, 0, 393174, 4, 0, 393175, 4, 0, 393176, 4, 0, 393177, 4, 0, 393178, 4, 0, 393179, 4, 0, 393180, 4, 0, 393181, 4, 0, 393182, 4, 0, 393183, 4, 0, 393184, 4, 0, 393185, 4, 0, 393186, 4, 0, 393187, 4, 0, 393188, 4, 0, 393189, 4, 0, 393190, 4, 0, 393191, 4, 0, 393192, 4, 0, 393193, 4, 0, 393194, 4, 0, 393195, 4, 0, 393196, 4, 0, 393197, 4, 0, 393198, 4, 0, 393199, 4, 0, 393200, 4, 0, 393201, 4, 0, 393202, 4, 0, 393203, 4, 0, 393204, 4, 0, 393205, 4, 0, 393206, 4, 0, 393207, 4, 0, 393208, 4, 0, 393209, 4, 0, 393210, 4, 0, 393211, 4, 0, 393212, 4, 0, 393213, 2, 0, 393214, 3, 0, 393215, 3, 0, 327680, 3, 0, 327681, 536870914, 0, 327682, 4, 0, 327683, 4, 0, 327684, 4, 0, 327685, 4, 0, 327686, 4, 0, 327687, 4, 0, 327688, 2, 0, 458672, 2, 0, 458673, 4, 0, 458674, 4, 0, 458675, 4, 0, 458676, 4, 0, 458677, 4, 0, 458678, 4, 0, 458679, 4, 0, 458680, 4, 0, 458681, 4, 0, 458682, 4, 0, 458683, 4, 0, 458684, 4, 0, 458685, 4, 0, 458686, 4, 0, 458687, 4, 0, 458688, 4, 0, 458689, 4, 0, 458690, 4, 0, 458691, 4, 0, 458692, 4, 0, 458693, 4, 0, 458694, 4, 0, 458695, 4, 0, 458696, 4, 0, 458697, 4, 0, 458698, 4, 0, 458699, 4, 0, 458700, 4, 0, 458701, 4, 0, 458702, 4, 0, 458703, 4, 0, 458704, 4, 0, 458705, 4, 0, 458706, 4, 0, 458707, 4, 0, 458708, 4, 0, 458709, 4, 0, 458710, 4, 0, 458711, 4, 0, 458712, 4, 0, 458713, 4, 0, 458714, 4, 0, 458715, 4, 0, 458716, 4, 0, 458717, 4, 0, 458718, 4, 0, 458719, 4, 0, 458720, 4, 0, 458721, 4, 0, 458722, 4, 0, 458723, 4, 0, 458724, 4, 0, 458725, 4, 0, 458726, 4, 0, 458727, 4, 0, 458728, 4, 0, 458729, 4, 0, 458730, 4, 0, 458731, 4, 0, 458732, 4, 0, 458733, 4, 0, 458734, 4, 0, 458735, 4, 0, 458736, 4, 0, 458737, 4, 0, 458738, 4, 0, 458739, 4, 0, 458740, 4, 0, 458741, 4, 0, 458742, 4, 0, 458743, 4, 0, 458744, 4, 0, 458745, 4, 0, 458746, 4, 0, 458747, 4, 0, 458748, 4, 0, 458749, 2, 0, 458750, 3, 0, 458751, 3, 0, 393216, 3, 0, 393217, 536870914, 0, 393218, 4, 0, 393219, 4, 0, 393220, 4, 0, 393221, 4, 0, 393222, 4, 0, 393223, 4, 0, 393224, 2, 0, 524208, 2, 0, 524209, 4, 0, 524210, 4, 0, 524211, 4, 0, 524212, 4, 0, 524213, 4, 0, 524214, 4, 0, 524215, 4, 0, 524216, 4, 0, 524217, 4, 0, 524218, 4, 0, 524219, 4, 0, 524220, 4, 0, 524221, 4, 0, 524222, 4, 0, 524223, 4, 0, 524224, 4, 0, 524225, 4, 0, 524226, 4, 0, 524227, 4, 0, 524228, 4, 0, 524229, 4, 0, 524230, 4, 0, 524231, 4, 0, 524232, 4, 0, 524233, 4, 0, 524234, 4, 0, 524235, 4, 0, 524236, 4, 0, 524237, 4, 0, 524238, 4, 0, 524239, 4, 0, 524240, 4, 0, 524241, 4, 0, 524242, 4, 0, 524243, 4, 0, 524244, 4, 0, 524245, 4, 0, 524246, 4, 0, 524247, 4, 0, 524248, 4, 0, 524249, 4, 0, 524250, 4, 0, 524251, 4, 0, 524252, 4, 0, 524253, 4, 0, 524254, 4, 0, 524255, 4, 0, 524256, 4, 0, 524257, 4, 0, 524258, 4, 0, 524259, 4, 0, 524260, 4, 0, 524261, 4, 0, 524262, 4, 0, 524263, 4, 0, 524264, 4, 0, 524265, 4, 0, 524266, 4, 0, 524267, 4, 0, 524268, 4, 0, 524269, 4, 0, 524270, 4, 0, 524271, 4, 0, 524272, 4, 0, 524273, 4, 0, 524274, 4, 0, 524275, 4, 0, 524276, 4, 0, 524277, 4, 0, 524278, 4, 0, 524279, 4, 0, 524280, 4, 0, 524281, 4, 0, 524282, 4, 0, 524283, 4, 0, 524284, 4, 0, 524285, 2, 0, 524286, 3, 0, 524287, 3, 0, 458752, 3, 0, 458753, 536870914, 0, 458754, 4, 0, 458755, 4, 0, 458756, 4, 0, 458757, 4, 0, 458758, 4, 0, 458759, 4, 0, 458760, 2, 0, 589744, 2, 0, 589745, 4, 0, 589746, 4, 0, 589747, 4, 0, 589748, 4, 0, 589749, 4, 0, 589750, 4, 0, 589751, 4, 0, 589752, 4, 0, 589753, 4, 0, 589754, 4, 0, 589755, 4, 0, 589756, 4, 0, 589757, 4, 0, 589758, 4, 0, 589759, 4, 0, 589760, 4, 0, 589761, 4, 0, 589762, 4, 0, 589763, 4, 0, 589764, 4, 0, 589765, 4, 0, 589766, 4, 0, 589767, 4, 0, 589768, 4, 0, 589769, 4, 0, 589770, 4, 0, 589771, 4, 0, 589772, 4, 0, 589773, 4, 0, 589774, 4, 0, 589775, 4, 0, 589776, 4, 0, 589777, 4, 0, 589778, 4, 0, 589779, 4, 0, 589780, 4, 0, 589781, 4, 0, 589782, 4, 0, 589783, 4, 0, 589784, 4, 0, 589785, 4, 0, 589786, 4, 0, 589787, 4, 0, 589788, 4, 0, 589789, 4, 0, 589790, 4, 0, 589791, 4, 0, 589792, 4, 0, 589793, 4, 0, 589794, 4, 0, 589795, 4, 0, 589796, 4, 0, 589797, 4, 0, 589798, 4, 0, 589799, 4, 0, 589800, 4, 0, 589801, 4, 0, 589802, 4, 0, 589803, 4, 0, 589804, 4, 0, 589805, 4, 0, 589806, 4, 0, 589807, 4, 0, 589808, 4, 0, 589809, 4, 0, 589810, 4, 0, 589811, 4, 0, 589812, 4, 0, 589813, 4, 0, 589814, 4, 0, 589815, 4, 0, 589816, 4, 0, 589817, 4, 0, 589818, 4, 0, 589819, 4, 0, 589820, 4, 0, 589821, 2, 0, 589822, 3, 0, 589823, 3, 0, 524288, 3, 0, 524289, 536870914, 0, 524290, 4, 0, 524291, 4, 0, 524292, 4, 0, 524293, 4, 0, 524294, 4, 0, 524295, 4, 0, 524296, 2, 0, 655280, 2, 0, 655281, 4, 0, 655282, 4, 0, 655283, 4, 0, 655284, 4, 0, 655285, 4, 0, 655286, 4, 0, 655287, 4, 0, 655288, 4, 0, 655289, 4, 0, 655290, 4, 0, 655291, 4, 0, 655292, 4, 0, 655293, 4, 0, 655294, 4, 0, 655295, 4, 0, 655296, 4, 0, 655297, 4, 0, 655298, 4, 0, 655299, 4, 0, 655300, 4, 0, 655301, 4, 0, 655302, 4, 0, 655303, 4, 0, 655304, 4, 0, 655305, 4, 0, 655306, 4, 0, 655307, 4, 0, 655308, 4, 0, 655309, 4, 0, 655310, 4, 0, 655311, 4, 0, 655312, 4, 0, 655313, 4, 0, 655314, 4, 0, 655315, 4, 0, 655316, 4, 0, 655317, 4, 0, 655318, 4, 0, 655319, 4, 0, 655320, 4, 0, 655321, 4, 0, 655322, 4, 0, 655323, 4, 0, 655324, 4, 0, 655325, 4, 0, 655326, 4, 0, 655327, 4, 0, 655328, 4, 0, 655329, 4, 0, 655330, 4, 0, 655331, 4, 0, 655332, 4, 0, 655333, 4, 0, 655334, 4, 0, 655335, 4, 0, 655336, 4, 0, 655337, 4, 0, 655338, 4, 0, 655339, 4, 0, 655340, 4, 0, 655341, 4, 0, 655342, 4, 0, 655343, 4, 0, 655344, 4, 0, 655345, 4, 0, 655346, 4, 0, 655347, 4, 0, 655348, 4, 0, 655349, 4, 0, 655350, 4, 0, 655351, 4, 0, 655352, 4, 0, 655353, 4, 0, 655354, 4, 0, 655355, 4, 0, 655356, 4, 0, 655357, 2, 0, 655358, 3, 0, 655359, 3, 0, 589824, 3, 0, 589825, 536870914, 0, 589826, 4, 0, 589827, 4, 0, 589828, 4, 0, 589829, 4, 0, 589830, 4, 0, 589831, 4, 0, 589832, 2, 0, 720816, 2, 0, 720817, 4, 0, 720818, 4, 0, 720819, 4, 0, 720820, 4, 0, 720821, 4, 0, 720822, 4, 0, 720823, 4, 0, 720824, 4, 0, 720825, 4, 0, 720826, 4, 0, 720827, 4, 0, 720828, 4, 0, 720829, 4, 0, 720830, 4, 0, 720831, 4, 0, 720832, 4, 0, 720833, 4, 0, 720834, 4, 0, 720835, 4, 0, 720836, 4, 0, 720837, 4, 0, 720838, 4, 0, 720839, 4, 0, 720840, 4, 0, 720841, 4, 0, 720842, 4, 0, 720843, 4, 0, 720844, 4, 0, 720845, 4, 0, 720846, 4, 0, 720847, 4, 0, 720848, 4, 0, 720849, 4, 0, 720850, 4, 0, 720851, 4, 0, 720852, 4, 0, 720853, 4, 0, 720854, 4, 0, 720855, 4, 0, 720856, 4, 0, 720857, 4, 0, 720858, 1610612737, 0, 720859, 1073741824, 0, 720860, 1073741824, 0, 720861, 1073741824, 0, 720862, 1073741824, 0, 720863, 1073741824, 0, 720864, 1073741824, 0, 720865, 1073741824, 0, 720866, 1073741824, 0, 720867, 1073741824, 0, 720868, 1073741824, 0, 720869, 1073741824, 0, 720870, 1073741824, 0, 720871, 1073741824, 0, 720872, 1073741824, 0, 720873, 1073741824, 0, 720874, 1073741825, 0, 720875, 4, 0, 720876, 4, 0, 720877, 4, 0, 720878, 4, 0, 720879, 4, 0, 720880, 4, 0, 720881, 4, 0, 720882, 4, 0, 720883, 4, 0, 720884, 4, 0, 720885, 4, 0, 720886, 4, 0, 720887, 4, 0, 720888, 4, 0, 720889, 4, 0, 720890, 4, 0, 720891, 4, 0, 720892, 4, 0, 720893, 2, 0, 720894, 3, 0, 720895, 3, 0, 655360, 3, 0, 655361, 536870914, 0, 655362, 4, 0, 655363, 4, 0, 655364, 4, 0, 655365, 4, 0, 655366, 4, 0, 655367, 4, 0, 655368, 2, 0, 786352, 2, 0, 786353, 4, 0, 786354, 4, 0, 786355, 4, 0, 786356, 4, 0, 786357, 4, 0, 786358, 4, 0, 786359, 4, 0, 786360, 4, 0, 786361, 4, 0, 786362, 4, 0, 786363, 4, 0, 786364, 4, 0, 786365, 4, 0, 786366, 4, 0, 786367, 4, 0, 786368, 4, 0, 786369, 4, 0, 786370, 4, 0, 786371, 4, 0, 786372, 4, 0, 786373, 4, 0, 786374, 4, 0, 786375, 4, 0, 786376, 4, 0, 786377, 4, 0, 786378, 4, 0, 786379, 4, 0, 786380, 4, 0, 786381, 4, 0, 786382, 4, 0, 786383, 4, 0, 786384, 4, 0, 786385, 4, 0, 786386, 4, 0, 786387, 4, 0, 786388, 4, 0, 786389, 4, 0, 786390, 4, 0, 786391, 4, 0, 786392, 4, 0, 786393, 4, 0, 786394, 2, 0, 786395, 3, 0, 786396, 3, 0, 786397, 3, 0, 786398, 3, 0, 786399, 3, 0, 786400, 3, 0, 786401, 3, 0, 786402, 3, 0, 786403, 3, 0, 786404, 3, 0, 786405, 3, 0, 786406, 3, 0, 786407, 3, 0, 786408, 3, 0, 786409, 3, 0, 786410, 536870914, 0, 786411, 4, 0, 786412, 4, 0, 786413, 4, 0, 786414, 4, 0, 786415, 4, 0, 786416, 4, 0, 786417, 4, 0, 786418, 4, 0, 786419, 4, 0, 786420, 4, 0, 786421, 4, 0, 786422, 4, 0, 786423, 4, 0, 786424, 4, 0, 786425, 4, 0, 786426, 4, 0, 786427, 4, 0, 786428, 4, 0, 786429, 2, 0, 786430, 3, 0, 786431, 3, 0, 720896, 3, 0, 720897, 536870914, 0, 720898, 4, 0, 720899, 4, 0, 720900, 4, 0, 720901, 4, 0, 720902, 4, 0, 720903, 4, 0, 720904, 2, 0, 851888, 2, 0, 851889, 4, 0, 851890, 4, 0, 851891, 4, 0, 851892, 4, 0, 851893, 4, 0, 851894, 4, 0, 851895, 4, 0, 851896, 4, 0, 851897, 4, 0, 851898, 4, 0, 851899, 4, 0, 851900, 4, 0, 851901, 4, 0, 851902, 4, 0, 851903, 4, 0, 851904, 4, 0, 851905, 4, 0, 851906, 4, 0, 851907, 4, 0, 851908, 4, 0, 851909, 4, 0, 851910, 4, 0, 851911, 4, 0, 851912, 4, 0, 851913, 4, 0, 851914, 4, 0, 851915, 4, 0, 851916, 4, 0, 851917, 4, 0, 851918, 4, 0, 851919, 4, 0, 851920, 4, 0, 851921, 4, 0, 851922, 4, 0, 851923, 4, 0, 851924, 4, 0, 851925, 4, 0, 851926, 4, 0, 851927, 4, 0, 851928, 4, 0, 851929, 4, 0, 851930, 2, 0, 851931, 3, 0, 851932, 3, 0, 851933, 3, 0, 851934, 3, 0, 851935, 3, 0, 851936, 3, 0, 851937, 3, 0, 851938, 3, 0, 851939, 3, 0, 851940, 3, 0, 851941, 3, 0, 851942, 3, 0, 851943, 3, 0, 851944, 3, 0, 851945, 3, 0, 851946, 536870914, 0, 851947, 4, 0, 851948, 4, 0, 851949, 4, 0, 851950, 4, 0, 851951, 4, 0, 851952, 4, 0, 851953, 4, 0, 851954, 4, 0, 851955, 4, 0, 851956, 4, 0, 851957, 4, 0, 851958, 4, 0, 851959, 4, 0, 851960, 4, 0, 851961, 4, 0, 851962, 4, 0, 851963, 4, 0, 851964, 4, 0, 851965, 2, 0, 851966, 3, 0, 851967, 3, 0, 786432, 3, 0, 786433, 536870914, 0, 786434, 4, 0, 786435, 4, 0, 786436, 4, 0, 786437, 4, 0, 786438, 4, 0, 786439, 4, 0, 786440, 2, 0, 917424, 2, 0, 917425, 4, 0, 917426, 4, 0, 917427, 4, 0, 917428, 4, 0, 917429, 4, 0, 917430, 4, 0, 917431, 4, 0, 917432, 4, 0, 917433, 4, 0, 917434, 4, 0, 917435, 4, 0, 917436, 4, 0, 917437, 4, 0, 917438, 4, 0, 917439, 4, 0, 917440, 4, 0, 917441, 4, 0, 917442, 4, 0, 917443, 4, 0, 917444, 4, 0, 917445, 4, 0, 917446, 4, 0, 917447, 4, 0, 917448, 4, 0, 917449, 4, 0, 917450, 4, 0, 917451, 4, 0, 917452, 4, 0, 917453, 4, 0, 917454, 4, 0, 917455, 4, 0, 917456, 4, 0, 917457, 4, 0, 917458, 4, 0, 917459, 4, 0, 917460, 4, 0, 917461, 4, 0, 917462, 4, 0, 917463, 4, 0, 917464, 4, 0, 917465, 4, 0, 917466, 2, 0, 917467, 3, 0, 917468, 3, 0, 917469, 3, 0, 917470, 3, 0, 917471, 3, 0, 917472, 3, 0, 917473, 3, 0, 917474, 3, 0, 917475, 3, 0, 917476, 3, 0, 917477, 3, 0, 917478, 3, 0, 917479, 3, 0, 917480, 3, 0, 917481, 3, 0, 917482, 536870914, 0, 917483, 4, 0, 917484, 4, 0, 917485, 4, 0, 917486, 4, 0, 917487, 4, 0, 917488, 4, 0, 917489, 4, 0, 917490, 4, 0, 917491, 4, 0, 917492, 4, 0, 917493, 4, 0, 917494, 4, 0, 917495, 4, 0, 917496, 4, 0, 917497, 4, 0, 917498, 4, 0, 917499, 4, 0, 917500, 4, 0, 917501, 2, 0, 917502, 3, 0, 917503, 3, 0, 851968, 3, 0, 851969, 536870914, 0, 851970, 4, 0, 851971, 4, 0, 851972, 4, 0, 851973, 4, 0, 851974, 4, 0, 851975, 4, 0, 851976, 2, 0, 982960, 2, 0, 982961, 4, 0, 982962, 4, 0, 982963, 4, 0, 982964, 4, 0, 982965, 4, 0, 982966, 4, 0, 982967, 4, 0, 982968, 4, 0, 982969, 4, 0, 982970, 4, 0, 982971, 4, 0, 982972, 4, 0, 982973, 4, 0, 982974, 4, 0, 982975, 4, 0, 982976, 4, 0, 982977, 4, 0, 982978, 4, 0, 982979, 4, 0, 982980, 4, 0, 982981, 4, 0, 982982, 4, 0, 982983, 4, 0, 982984, 4, 0, 982985, 4, 0, 982986, 4, 0, 982987, 4, 0, 982988, 4, 0, 982989, 4, 0, 982990, 4, 0, 982991, 4, 0, 982992, 4, 0, 982993, 4, 0, 982994, 4, 0, 982995, 4, 0, 982996, 4, 0, 982997, 4, 0, 982998, 4, 0, 982999, 4, 0, 983000, 4, 0, 983001, 4, 0, 983002, 2, 0, 983003, 3, 0, 983004, 3, 0, 983005, 3, 0, 983006, 3, 0, 983007, 3, 0, 983008, 3, 0, 983009, 3, 0, 983010, 3, 0, 983011, 3, 0, 983012, 3, 0, 983013, 3, 0, 983014, 3, 0, 983015, 3, 0, 983016, 3, 0, 983017, 3, 0, 983018, 536870914, 0, 983019, 4, 0, 983020, 4, 0, 983021, 4, 0, 983022, 4, 0, 983023, 4, 0, 983024, 4, 0, 983025, 4, 0, 983026, 4, 0, 983027, 4, 0, 983028, 4, 0, 983029, 4, 0, 983030, 4, 0, 983031, 4, 0, 983032, 4, 0, 983033, 4, 0, 983034, 4, 0, 983035, 4, 0, 983036, 4, 0, 983037, 2, 0, 983038, 3, 0, 983039, 3, 0, 917504, 3, 0, 917505, 536870914, 0, 917506, 4, 0, 917507, 4, 0, 917508, 4, 0, 917509, 4, 0, 917510, 4, 0, 917511, 4, 0, 917512, 2, 0, 1048496, 2, 0, 1048497, 4, 0, 1048498, 4, 0, 1048499, 4, 0, 1048500, 4, 0, 1048501, 4, 0, 1048502, 4, 0, 1048503, 4, 0, 1048504, 4, 0, 1048505, 4, 0, 1048506, 4, 0, 1048507, 4, 0, 1048508, 4, 0, 1048509, 4, 0, 1048510, 4, 0, 1048511, 4, 0, 1048512, 4, 0, 1048513, 4, 0, 1048514, 4, 0, 1048515, 4, 0, 1048516, 4, 0, 1048517, 4, 0, 1048518, 4, 0, 1048519, 4, 0, 1048520, 4, 0, 1048521, 4, 0, 1048522, 4, 0, 1048523, 4, 0, 1048524, 4, 0, 1048525, 4, 0, 1048526, 4, 0, 1048527, 4, 0, 1048528, 4, 0, 1048529, 4, 0, 1048530, 4, 0, 1048531, 4, 0, 1048532, 4, 0, 1048533, 4, 0, 1048534, 4, 0, 1048535, 4, 0, 1048536, 4, 0, 1048537, 4, 0, 1048538, 2, 0, 1048539, 3, 0, 1048540, 3, 0, 1048541, 3, 0, 1048542, 3, 0, 1048543, 3, 0, 1048544, 3, 0, 1048545, 3, 0, 1048546, 3, 0, 1048547, 3, 0, 1048548, 3, 0, 1048549, 3, 0, 1048550, 3, 0, 1048551, 3, 0, 1048552, 3, 0, 1048553, 3, 0, 1048554, 536870914, 0, 1048555, 4, 0, 1048556, 4, 0, 1048557, 4, 0, 1048558, 4, 0, 1048559, 4, 0, 1048560, 4, 0, 1048561, 4, 0, 1048562, 4, 0, 1048563, 4, 0, 1048564, 4, 0, 1048565, 4, 0, 1048566, 4, 0, 1048567, 4, 0, 1048568, 4, 0, 1048569, 4, 0, 1048570, 4, 0, 1048571, 4, 0, 1048572, 4, 0, 1048573, 2, 0, 1048574, 3, 0, 1048575, 3, 0, 983040, 3, 0, 983041, 536870914, 0, 983042, 4, 0, 983043, 4, 0, 983044, 4, 0, 983045, 4, 0, 983046, 4, 0, 983047, 4, 0, 983048, 2, 0, 1114032, 2, 0, 1114033, 4, 0, 1114034, 4, 0, 1114035, 4, 0, 1114036, 4, 0, 1114037, 4, 0, 1114038, 4, 0, 1114039, 4, 0, 1114040, 4, 0, 1114041, 4, 0, 1114042, 4, 0, 1114043, 4, 0, 1114044, 4, 0, 1114045, 4, 0, 1114046, 4, 0, 1114047, 4, 0, 1114048, 4, 0, 1114049, 4, 0, 1114050, 4, 0, 1114051, 4, 0, 1114052, 4, 0, 1114053, 4, 0, 1114054, 4, 0, 1114055, 4, 0, 1114056, 4, 0, 1114057, 4, 0, 1114058, 4, 0, 1114059, 4, 0, 1114060, 4, 0, 1114061, 4, 0, 1114062, 4, 0, 1114063, 4, 0, 1114064, 4, 0, 1114065, 4, 0, 1114066, 4, 0, 1114067, 4, 0, 1114068, 4, 0, 1114069, 4, 0, 1114070, 4, 0, 1114071, 4, 0, 1114072, 4, 0, 1114073, 4, 0, 1114074, 2, 0, 1114075, 3, 0, 1114076, 3, 0, 1114077, 3, 0, 1114078, 3, 0, 1114079, 3, 0, 1114080, 3, 0, 1114081, 3, 0, 1114082, 3, 0, 1114083, 3, 0, 1114084, 3, 0, 1114085, 3, 0, 1114086, 3, 0, 1114087, 3, 0, 1114088, 3, 0, 1114089, 3, 0, 1114090, 536870914, 0, 1114091, 4, 0, 1114092, 4, 0, 1114093, 4, 0, 1114094, 4, 0, 1114095, 4, 0, 1114096, 4, 0, 1114097, 4, 0, 1114098, 4, 0, 1114099, 4, 0, 1114100, 4, 0, 1114101, 4, 0, 1114102, 4, 0, 1114103, 4, 0, 1114104, 4, 0, 1114105, 4, 0, 1114106, 4, 0, 1114107, 4, 0, 1114108, 4, 0, 1114109, 2, 0, 1114110, 3, 0, 1114111, 3, 0, 1048576, 3, 0, 1048577, 536870914, 0, 1048578, 4, 0, 1048579, 4, 0, 1048580, 4, 0, 1048581, 4, 0, 1048582, 4, 0, 1048583, 4, 0, 1048584, 2, 0, 1179568, 2, 0, 1179569, 4, 0, 1179570, 4, 0, 1179571, 4, 0, 1179572, 4, 0, 1179573, 4, 0, 1179574, 4, 0, 1179575, 4, 0, 1179576, 4, 0, 1179577, 4, 0, 1179578, 4, 0, 1179579, 4, 0, 1179580, 4, 0, 1179581, 4, 0, 1179582, 4, 0, 1179583, 4, 0, 1179584, 4, 0, 1179585, 4, 0, 1179586, 4, 0, 1179587, 4, 0, 1179588, 4, 0, 1179589, 4, 0, 1179590, 4, 0, 1179591, 4, 0, 1179592, 4, 0, 1179593, 4, 0, 1179594, 4, 0, 1179595, 4, 0, 1179596, 4, 0, 1179597, 4, 0, 1179598, 4, 0, 1179599, 4, 0, 1179600, 4, 0, 1179601, 4, 0, 1179602, 4, 0, 1179603, 4, 0, 1179604, 4, 0, 1179605, 4, 0, 1179606, 4, 0, 1179607, 4, 0, 1179608, 4, 0, 1179609, 4, 0, 1179610, 2, 0, 1179611, 3, 0, 1179612, 3, 0, 1179613, 3, 0, 1179614, 3, 0, 1179615, 3, 0, 1179616, 3, 0, 1179617, 3, 0, 1179618, 3, 0, 1179619, 3, 0, 1179620, 3, 0, 1179621, 3, 0, 1179622, 3, 0, 1179623, 3, 0, 1179624, 3, 0, 1179625, 3, 0, 1179626, 536870914, 0, 1179627, 4, 0, 1179628, 4, 0, 1179629, 4, 0, 1179630, 4, 0, 1179631, 4, 0, 1179632, 4, 0, 1179633, 4, 0, 1179634, 4, 0, 1179635, 4, 0, 1179636, 4, 0, 1179637, 4, 0, 1179638, 4, 0, 1179639, 4, 0, 1179640, 4, 0, 1179641, 4, 0, 1179642, 4, 0, 1179643, 4, 0, 1179644, 4, 0, 1179645, 2, 0, 1179646, 3, 0, 1179647, 3, 0, 1114112, 3, 0, 1114113, 536870914, 0, 1114114, 4, 0, 1114115, 4, 0, 1114116, 4, 0, 1114117, 4, 0, 1114118, 4, 0, 1114119, 4, 0, 1114120, 2, 0, 1245104, 2, 0, 1245105, 4, 0, 1245106, 4, 0, 1245107, 4, 0, 1245108, 4, 0, 1245109, 4, 0, 1245110, 4, 0, 1245111, 4, 0, 1245112, 4, 0, 1245113, 4, 0, 1245114, 4, 0, 1245115, 4, 0, 1245116, 4, 0, 1245117, 4, 0, 1245118, 4, 0, 1245119, 4, 0, 1245120, 4, 0, 1245121, 4, 0, 1245122, 4, 0, 1245123, 4, 0, 1245124, 4, 0, 1245125, 4, 0, 1245126, 4, 0, 1245127, 4, 0, 1245128, 4, 0, 1245129, 4, 0, 1245130, 4, 0, 1245131, 4, 0, 1245132, 4, 0, 1245133, 4, 0, 1245134, 4, 0, 1245135, 4, 0, 1245136, 4, 0, 1245137, 4, 0, 1245138, 4, 0, 1245139, 4, 0, 1245140, 4, 0, 1245141, 4, 0, 1245142, 4, 0, 1245143, 4, 0, 1245144, 4, 0, 1245145, 4, 0, 1245146, 536870913, 0, 1245147, 0, 0, 1245148, 0, 0, 1245149, 0, 0, 1245150, 0, 0, 1245151, 0, 0, 1245152, 1, 0, 1245153, 3, 0, 1245154, 3, 0, 1245155, 3, 0, 1245156, 536870913, 0, 1245157, 0, 0, 1245158, 0, 0, 1245159, 0, 0, 1245160, 0, 0, 1245161, 0, 0, 1245162, 1, 0, 1245163, 4, 0, 1245164, 4, 0, 1245165, 4, 0, 1245166, 4, 0, 1245167, 4, 0, 1245168, 4, 0, 1245169, 4, 0, 1245170, 4, 0, 1245171, 4, 0, 1245172, 4, 0, 1245173, 4, 0, 1245174, 4, 0, 1245175, 4, 0, 1245176, 4, 0, 1245177, 4, 0, 1245178, 4, 0, 1245179, 4, 0, 1245180, 4, 0, 1245181, 2, 0, 1245182, 3, 0, 1245183, 3, 0, 1179648, 3, 0, 1179649, 536870914, 0, 1179650, 4, 0, 1179651, 4, 0, 1179652, 4, 0, 1179653, 4, 0, 1179654, 4, 0, 1179655, 4, 0, 1179656, 2, 0, 1310640, 2, 0, 1310641, 4, 0, 1310642, 4, 0, 1310643, 4, 0, 1310644, 4, 0, 1310645, 4, 0, 1310646, 4, 0, 1310647, 4, 0, 1310648, 4, 0, 1310649, 4, 0, 1310650, 4, 0, 1310651, 4, 0, 1310652, 4, 0, 1310653, 4, 0, 1310654, 4, 0, 1310655, 4, 0, 1310656, 4, 0, 1310657, 4, 0, 1310658, 4, 0, 1310659, 4, 0, 1310660, 4, 0, 1310661, 4, 0, 1310662, 4, 0, 1310663, 4, 0, 1310664, 4, 0, 1310665, 4, 0, 1310666, 4, 0, 1310667, 4, 0, 1310668, 4, 0, 1310669, 4, 0, 1310670, 4, 0, 1310671, 4, 0, 1310672, 4, 0, 1310673, 4, 0, 1310674, 4, 0, 1310675, 4, 0, 1310676, 4, 0, 1310677, 4, 0, 1310678, 4, 0, 1310679, 4, 0, 1310680, 4, 0, 1310681, 4, 0, 1310682, 4, 0, 1310683, 4, 0, 1310684, 4, 0, 1310685, 4, 0, 1310686, 4, 0, 1310687, 4, 0, 1310688, 2, 0, 1310689, 3, 0, 1310690, 3, 0, 1310691, 3, 0, 1310692, 536870914, 0, 1310693, 4, 0, 1310694, 4, 0, 1310695, 4, 0, 1310696, 4, 0, 1310697, 4, 0, 1310698, 4, 0, 1310699, 4, 0, 1310700, 4, 0, 1310701, 4, 0, 1310702, 4, 0, 1310703, 4, 0, 1310704, 4, 0, 1310705, 4, 0, 1310706, 4, 0, 1310707, 4, 0, 1310708, 4, 0, 1310709, 4, 0, 1310710, 4, 0, 1310711, 4, 0, 1310712, 4, 0, 1310713, 4, 0, 1310714, 4, 0, 1310715, 4, 0, 1310716, 4, 0, 1310717, 2, 0, 1310718, 3, 0, 1310719, 3, 0, 1245184, 3, 0, 1245185, 536870914, 0, 1245186, 4, 0, 1245187, 4, 0, 1245188, 4, 0, 1245189, 4, 0, 1245190, 4, 0, 1245191, 4, 0, 1245192, 2, 0, 1376176, 2, 0, 1376177, 4, 0, 1376178, 4, 0, 1376179, 4, 0, 1376180, 4, 0, 1376181, 4, 0, 1376182, 4, 0, 1376183, 4, 0, 1376184, 4, 0, 1376185, 4, 0, 1376186, 4, 0, 1376187, 4, 0, 1376188, 4, 0, 1376189, 4, 0, 1376190, 4, 0, 1376191, 4, 0, 1376192, 4, 0, 1376193, 4, 0, 1376194, 4, 0, 1376195, 4, 0, 1376196, 4, 0, 1376197, 4, 0, 1376198, 4, 0, 1376199, 4, 0, 1376200, 4, 0, 1376201, 4, 0, 1376202, 4, 0, 1376203, 4, 0, 1376204, 4, 0, 1376205, 4, 0, 1376206, 4, 0, 1376207, 4, 0, 1376208, 4, 0, 1376209, 4, 0, 1376210, 4, 0, 1376211, 4, 0, 1376212, 4, 0, 1376213, 4, 0, 1376214, 4, 0, 1376215, 4, 0, 1376216, 4, 0, 1376217, 4, 0, 1376218, 4, 0, 1376219, 4, 0, 1376220, 4, 0, 1376221, 4, 0, 1376222, 4, 0, 1376223, 4, 0, 1376224, 2, 0, 1376225, 3, 0, 1376226, 3, 0, 1376227, 3, 0, 1376228, 536870914, 0, 1376229, 4, 0, 1376230, 4, 0, 1376231, 4, 0, 1376232, 4, 0, 1376233, 4, 0, 1376234, 4, 0, 1376235, 4, 0, 1376236, 4, 0, 1376237, 4, 0, 1376238, 4, 0, 1376239, 4, 0, 1376240, 4, 0, 1376241, 4, 0, 1376242, 4, 0, 1376243, 4, 0, 1376244, 4, 0, 1376245, 4, 0, 1376246, 4, 0, 1376247, 4, 0, 1376248, 4, 0, 1376249, 4, 0, 1376250, 4, 0, 1376251, 4, 0, 1376252, 4, 0, 1376253, 2, 0, 1376254, 3, 0, 1376255, 3, 0, 1310720, 3, 0, 1310721, 536870914, 0, 1310722, 4, 0, 1310723, 4, 0, 1310724, 4, 0, 1310725, 4, 0, 1310726, 4, 0, 1310727, 4, 0, 1310728, 2, 0, 1441712, 2, 0, 1441713, 4, 0, 1441714, 4, 0, 1441715, 4, 0, 1441716, 4, 0, 1441717, 4, 0, 1441718, 4, 0, 1441719, 4, 0, 1441720, 4, 0, 1441721, 4, 0, 1441722, 4, 0, 1441723, 4, 0, 1441724, 4, 0, 1441725, 4, 0, 1441726, 4, 0, 1441727, 4, 0, 1441728, 4, 0, 1441729, 4, 0, 1441730, 4, 0, 1441731, 4, 0, 1441732, 4, 0, 1441733, 4, 0, 1441734, 4, 0, 1441735, 4, 0, 1441736, 4, 0, 1441737, 4, 0, 1441738, 4, 0, 1441739, 4, 0, 1441740, 4, 0, 1441741, 4, 0, 1441742, 4, 0, 1441743, 4, 0, 1441744, 4, 0, 1441745, 4, 0, 1441746, 4, 0, 1441747, 4, 0, 1441748, 4, 0, 1441749, 4, 0, 1441750, 4, 0, 1441751, 4, 0, 1441752, 4, 0, 1441753, 4, 0, 1441754, 4, 0, 1441755, 4, 0, 1441756, 4, 0, 1441757, 4, 0, 1441758, 4, 0, 1441759, 4, 0, 1441760, 2, 0, 1441761, 3, 0, 1441762, 3, 0, 1441763, 3, 0, 1441764, 536870914, 0, 1441765, 4, 0, 1441766, 4, 0, 1441767, 4, 0, 1441768, 4, 0, 1441769, 4, 0, 1441770, 4, 0, 1441771, 4, 0, 1441772, 4, 0, 1441773, 4, 0, 1441774, 4, 0, 1441775, 4, 0, 1441776, 4, 0, 1441777, 4, 0, 1441778, 4, 0, 1441779, 4, 0, 1441780, 4, 0, 1441781, 4, 0, 1441782, 4, 0, 1441783, 4, 0, 1441784, 4, 0, 1441785, 4, 0, 1441786, 4, 0, 1441787, 4, 0, 1441788, 4, 0, 1441789, 2, 0, 1441790, 3, 0, 1441791, 3, 0, 1376256, 3, 0, 1376257, 536870914, 0, 1376258, 4, 0, 1376259, 4, 0, 1376260, 4, 0, 1376261, 4, 0, 1376262, 4, 0, 1376263, 4, 0, 1376264, 2, 0, 1507248, 2, 0, 1507249, 4, 0, 1507250, 4, 0, 1507251, 4, 0, 1507252, 4, 0, 1507253, 4, 0, 1507254, 4, 0, 1507255, 4, 0, 1507256, 4, 0, 1507257, 4, 0, 1507258, 4, 0, 1507259, 4, 0, 1507260, 4, 0, 1507261, 4, 0, 1507262, 4, 0, 1507263, 4, 0, 1507264, 4, 0, 1507265, 4, 0, 1507266, 4, 0, 1507267, 4, 0, 1507268, 4, 0, 1507269, 4, 0, 1507270, 4, 0, 1507271, 4, 0, 1507272, 4, 0, 1507273, 4, 0, 1507274, 4, 0, 1507275, 4, 0, 1507276, 4, 0, 1507277, 4, 0, 1507278, 4, 0, 1507279, 4, 0, 1507280, 4, 0, 1507281, 4, 0, 1507282, 4, 0, 1507283, 4, 0, 1507284, 4, 0, 1507285, 4, 0, 1507286, 4, 0, 1507287, 4, 0, 1507288, 4, 0, 1507289, 4, 0, 1507290, 4, 0, 1507291, 4, 0, 1507292, 4, 0, 1507293, 4, 0, 1507294, 4, 0, 1507295, 4, 0, 1507296, 2, 0, 1507297, 3, 0, 1507298, 3, 0, 1507299, 3, 0, 1507300, 536870914, 0, 1507301, 4, 0, 1507302, 4, 0, 1507303, 4, 0, 1507304, 4, 0, 1507305, 4, 0, 1507306, 4, 0, 1507307, 4, 0, 1507308, 4, 0, 1507309, 4, 0, 1507310, 4, 0, 1507311, 4, 0, 1507312, 4, 0, 1507313, 4, 0, 1507314, 4, 0, 1507315, 4, 0, 1507316, 4, 0, 1507317, 4, 0, 1507318, 4, 0, 1507319, 4, 0, 1507320, 4, 0, 1507321, 4, 0, 1507322, 4, 0, 1507323, 4, 0, 1507324, 4, 0, 1507325, 2, 0, 1507326, 3, 0, 1507327, 3, 0, 1441792, 3, 0, 1441793, 536870914, 0, 1441794, 4, 0, 1441795, 4, 0, 1441796, 4, 0, 1441797, 4, 0, 1441798, 4, 0, 1441799, 4, 0, 1441800, 2, 0, 1572784, 2, 0, 1572785, 4, 0, 1572786, 4, 0, 1572787, 4, 0, 1572788, 4, 0, 1572789, 4, 0, 1572790, 4, 0, 1572791, 4, 0, 1572792, 4, 0, 1572793, 4, 0, 1572794, 4, 0, 1572795, 4, 0, 1572796, 4, 0, 1572797, 4, 0, 1572798, 4, 0, 1572799, 4, 0, 1572800, 4, 0, 1572801, 4, 0, 1572802, 4, 0, 1572803, 4, 0, 1572804, 4, 0, 1572805, 4, 0, 1572806, 4, 0, 1572807, 4, 0, 1572808, 4, 0, 1572809, 4, 0, 1572810, 4, 0, 1572811, 4, 0, 1572812, 4, 0, 1572813, 4, 0, 1572814, 4, 0, 1572815, 4, 0, 1572816, 4, 0, 1572817, 4, 0, 1572818, 4, 0, 1572819, 4, 0, 1572820, 4, 0, 1572821, 4, 0, 1572822, 4, 0, 1572823, 4, 0, 1572824, 4, 0, 1572825, 4, 0, 1572826, 4, 0, 1572827, 4, 0, 1572828, 4, 0, 1572829, 4, 0, 1572830, 4, 0, 1572831, 4, 0, 1572832, 2, 0, 1572833, 3, 0, 1572834, 3, 0, 1572835, 3, 0, 1572836, 536870914, 0, 1572837, 4, 0, 1572838, 4, 0, 1572839, 4, 0, 1572840, 4, 0, 1572841, 4, 0, 1572842, 4, 0, 1572843, 4, 0, 1572844, 4, 0, 1572845, 4, 0, 1572846, 4, 0, 1572847, 4, 0, 1572848, 4, 0, 1572849, 4, 0, 1572850, 4, 0, 1572851, 4, 0, 1572852, 4, 0, 1572853, 4, 0, 1572854, 4, 0, 1572855, 4, 0, 1572856, 4, 0, 1572857, 4, 0, 1572858, 4, 0, 1572859, 4, 0, 1572860, 4, 0, 1572861, 2, 0, 1572862, 3, 0, 1572863, 3, 0, 1507328, 3, 0, 1507329, 536870914, 0, 1507330, 4, 0, 1507331, 4, 0, 1507332, 4, 0, 1507333, 4, 0, 1507334, 4, 0, 1507335, 4, 0, 1507336, 2, 0, 1638320, 2, 0, 1638321, 4, 0, 1638322, 4, 0, 1638323, 4, 0, 1638324, 4, 0, 1638325, 4, 0, 1638326, 4, 0, 1638327, 4, 0, 1638328, 4, 0, 1638329, 4, 0, 1638330, 4, 0, 1638331, 4, 0, 1638332, 4, 0, 1638333, 4, 0, 1638334, 4, 0, 1638335, 4, 0, 1638336, 4, 0, 1638337, 4, 0, 1638338, 4, 0, 1638339, 4, 0, 1638340, 4, 0, 1638341, 4, 0, 1638342, 4, 0, 1638343, 4, 0, 1638344, 4, 0, 1638345, 4, 0, 1638346, 4, 0, 1638347, 4, 0, 1638348, 4, 0, 1638349, 4, 0, 1638350, 4, 0, 1638351, 4, 0, 1638352, 4, 0, 1638353, 4, 0, 1638354, 4, 0, 1638355, 4, 0, 1638356, 4, 0, 1638357, 4, 0, 1638358, 4, 0, 1638359, 4, 0, 1638360, 4, 0, 1638361, 4, 0, 1638362, 4, 0, 1638363, 4, 0, 1638364, 4, 0, 1638365, 4, 0, 1638366, 4, 0, 1638367, 4, 0, 1638368, 2, 0, 1638369, 3, 0, 1638370, 3, 0, 1638371, 3, 0, 1638372, 536870914, 0, 1638373, 4, 0, 1638374, 4, 0, 1638375, 4, 0, 1638376, 4, 0, 1638377, 4, 0, 1638378, 4, 0, 1638379, 4, 0, 1638380, 4, 0, 1638381, 4, 0, 1638382, 4, 0, 1638383, 4, 0, 1638384, 4, 0, 1638385, 4, 0, 1638386, 4, 0, 1638387, 4, 0, 1638388, 4, 0, 1638389, 4, 0, 1638390, 4, 0, 1638391, 4, 0, 1638392, 4, 0, 1638393, 4, 0, 1638394, 4, 0, 1638395, 4, 0, 1638396, 4, 0, 1638397, 2, 0, 1638398, 3, 0, 1638399, 3, 0, 1572864, 3, 0, 1572865, 536870914, 0, 1572866, 4, 0, 1572867, 4, 0, 1572868, 4, 0, 1572869, 4, 0, 1572870, 4, 0, 1572871, 4, 0, 1572872, 2, 0 )

[node name="DecoGroup" type="Node2D" parent="tilemap"]

[node name="TileMap" type="TileMap" parent="tilemap/DecoGroup"]
tile_set = ExtResource( 2 )
cell_size = Vector2( 32, 32 )
compatibility_mode = true
format = 1
tile_data = PoolIntArray( -1704012, 4, 0, -1703999, 2, 0, -1703983, 4, 0, -1703970, 4, 0, -1703954, 3, 0, -1703942, 2, 0, -1769467, 3, 0, -1572908, 6, 0, -1441790, 1, 0, -1310784, 0, 0, -1310759, 536870912, 0, -1310734, 536870913, 0, -1179706, 4, 0, -1179670, 5, 0, -983082, 1, 0, -917519, 0, 0, -786472, 536870913, 0, -786462, 4, 0, -786448, 3, 0, -524346, 536870913, 0, -524330, 1, 0, -524311, 1, 0, -393290, 536870913, 0, -262190, 536870912, 0, -262161, 536870912, 0, -327678, 1, 0, -131123, 4, 0, -131110, 2, 0, -131093, 2, 0, -131080, 4, 0, -71, 1, 0, -53, 5, 0, -42, 5, 0, -24, 1, 0, -8, 6, 0, 262078, 536870912, 0, 262091, 0, 0, 262119, 0, 0, 196612, 0, 0, 786403, 536870916, 0, 1179621, 0, 0, 536870912, 0, 0, 536870913, 0, 0, 536870914, 0, 0, 536870918, 0, 0 )

[node name="ClimbableGroup" type="Node2D" parent="tilemap"]

[node name="ClimbableBlock" parent="tilemap/ClimbableGroup" instance=ExtResource( 3 )]
position = Vector2( -336, -432 )
physics_material_override = SubResource( 1 )

[node name="Sprite" parent="tilemap/ClimbableGroup/ClimbableBlock" index="0"]
flip_h = false

[node name="ClimbableBlock1" parent="tilemap/ClimbableGroup" instance=ExtResource( 3 )]
position = Vector2( -1008, -624 )
physics_material_override = SubResource( 2 )

[node name="Sprite" parent="tilemap/ClimbableGroup/ClimbableBlock1" index="0"]
flip_h = false

[node name="ClimbableBlock2" parent="tilemap/ClimbableGroup" instance=ExtResource( 3 )]
position = Vector2( -2160, -624 )
physics_material_override = SubResource( 3 )

[node name="TorchGroup" type="Node2D" parent="tilemap"]

[node name="torch" parent="tilemap/TorchGroup" instance=ExtResource( 4 )]
position = Vector2( 112, 0 )
mode = "strong"

[node name="torch3" parent="tilemap/TorchGroup" instance=ExtResource( 4 )]
position = Vector2( -528, 0 )
type = "ITEM"
reward = "res://scenes/items/gold/gold.tscn"
value = 50
mode = "strong"

[node name="torch4" parent="tilemap/TorchGroup" instance=ExtResource( 4 )]
position = Vector2( -1168, 0 )
mode = "strong"

[node name="torch15" parent="tilemap/TorchGroup" instance=ExtResource( 4 )]
position = Vector2( -944, 480 )
mode = "strong"

[node name="torch5" parent="tilemap/TorchGroup" instance=ExtResource( 4 )]
position = Vector2( -1808, 0 )
type = "ITEM"
reward = "res://scenes/items/gold/gold.tscn"
value = 75
mode = "strong"

[node name="torch6" parent="tilemap/TorchGroup" instance=ExtResource( 4 )]
position = Vector2( -2416, 0 )
mode = "strong"

[node name="torch7" parent="tilemap/TorchGroup" instance=ExtResource( 4 )]
position = Vector2( -2352, -512 )
type = "ITEM"
reward = "res://scenes/items/gold/gold.tscn"
value = 100
mode = "strong"

[node name="torch8" parent="tilemap/TorchGroup" instance=ExtResource( 4 )]
position = Vector2( -2032, -736 )
type = "ITEM"
reward = "res://scenes/items/gold/gold.tscn"
value = 50
mode = "strong"

[node name="torch9" parent="tilemap/TorchGroup" instance=ExtResource( 4 )]
position = Vector2( -1584, -736 )
type = "ITEM"
reward = "res://scenes/items/gold/gold.tscn"
value = 50
mode = "strong"

[node name="torch10" parent="tilemap/TorchGroup" instance=ExtResource( 4 )]
position = Vector2( -1136, -736 )
type = "ITEM"
reward = "res://scenes/items/gold/gold.tscn"
value = 50
mode = "strong"

[node name="torch11" parent="tilemap/TorchGroup" instance=ExtResource( 4 )]
position = Vector2( -656, -640 )
mode = "strong"

[node name="torch12" parent="tilemap/TorchGroup" instance=ExtResource( 4 )]
position = Vector2( -1616, -384 )
type = "ITEM"
reward = "res://scenes/items/gold/gold.tscn"
value = 100
mode = "strong"

[node name="torch13" parent="tilemap/TorchGroup" instance=ExtResource( 4 )]
position = Vector2( -976, -256 )
type = "ITEM"
reward = "res://scenes/items/gold/gold.tscn"
value = 75
mode = "strong"

[node name="torch14" parent="tilemap/TorchGroup" instance=ExtResource( 4 )]
position = Vector2( -272, -256 )
type = "ITEM"
reward = "res://scenes/items/gold/gold.tscn"
value = 75
mode = "strong"

[node name="torch2" parent="tilemap/TorchGroup" instance=ExtResource( 4 )]
position = Vector2( 112, -512 )
mode = "strong"

[node name="LadderGroup" type="Node2D" parent="tilemap"]

[node name="TestLadder" parent="tilemap/LadderGroup" instance=ExtResource( 5 )]
position = Vector2( -16, 464 )

[node name="Sprite" parent="tilemap/LadderGroup/TestLadder/KinematicBody2D" index="0"]
region_rect = Rect2( 0, 0, 32, 672 )

[node name="ladder" parent="tilemap/LadderGroup/TestLadder/KinematicBody2D" index="1"]
scale = Vector2( 1, 21 )

[node name="TestLadder 2" parent="tilemap/LadderGroup" instance=ExtResource( 6 )]
position = Vector2( -16, 112 )

[node name="TestLadder3" parent="tilemap/LadderGroup" instance=ExtResource( 6 )]
position = Vector2( -944, 560 )

[node name="TestLadder2" parent="tilemap/LadderGroup" instance=ExtResource( 5 )]
position = Vector2( -944, 688 )

[node name="Sprite" parent="tilemap/LadderGroup/TestLadder2/KinematicBody2D" index="0"]
region_rect = Rect2( 0, 0, 32, 224 )

[node name="ladder" parent="tilemap/LadderGroup/TestLadder2/KinematicBody2D" index="1"]
scale = Vector2( 1, 7 )

[node name="TestLadder1" parent="tilemap/LadderGroup" instance=ExtResource( 5 )]
position = Vector2( 112, -848 )

[node name="Sprite" parent="tilemap/LadderGroup/TestLadder1/KinematicBody2D" index="0"]
region_rect = Rect2( 0, 0, 32, 96 )

[node name="ladder" parent="tilemap/LadderGroup/TestLadder1/KinematicBody2D" index="1"]
scale = Vector2( 1, 3 )

[node name="One-WayPlatformGroup" type="Node2D" parent="tilemap"]

[node name="One-WayPlatform" parent="tilemap/One-WayPlatformGroup" instance=ExtResource( 7 )]
position = Vector2( -2352, -336 )

[node name="One-WayPlatform1" parent="tilemap/One-WayPlatformGroup" instance=ExtResource( 7 )]
position = Vector2( -2384, -336 )

[node name="Sprite" parent="tilemap/One-WayPlatformGroup/One-WayPlatform1/KinematicBody2D" index="0"]
texture = ExtResource( 8 )
offset = Vector2( -3, 0 )
flip_h = true

[node name="One-WayPlatform2" parent="tilemap/One-WayPlatformGroup" instance=ExtResource( 7 )]
position = Vector2( -2320, -336 )

[node name="Sprite" parent="tilemap/One-WayPlatformGroup/One-WayPlatform2/KinematicBody2D" index="0"]
texture = ExtResource( 8 )
offset = Vector2( 3, 0 )

[node name="HangableGroup" type="Node2D" parent="tilemap"]

[node name="HangBlock" parent="tilemap/HangableGroup" instance=ExtResource( 9 )]
position = Vector2( -2352, -304 )

[node name="HangBlock1" parent="tilemap/HangableGroup" instance=ExtResource( 9 )]
position = Vector2( -2320, -304 )

[node name="Sprite" parent="tilemap/HangableGroup/HangBlock1" index="0"]
texture = ExtResource( 10 )
flip_h = true

[node name="HangBlock2" parent="tilemap/HangableGroup" instance=ExtResource( 9 )]
position = Vector2( -2384, -304 )

[node name="Sprite" parent="tilemap/HangableGroup/HangBlock2" index="0"]
texture = ExtResource( 10 )

[node name="MovingPlatformGroup" type="Node2D" parent="tilemap"]

[node name="MovingPlatform" parent="tilemap/MovingPlatformGroup" instance=ExtResource( 11 )]
position = Vector2( 112, -368 )
motion = Vector2( 0, 192 )
cycle = 15.0

[node name="EnemiesGroup" type="Node2D" parent="tilemap"]

[node name="Orc" parent="tilemap/EnemiesGroup" instance=ExtResource( 12 )]
position = Vector2( -1904, -192 )

[node name="Orc1" parent="tilemap/EnemiesGroup" instance=ExtResource( 12 )]
position = Vector2( -1024, -192 )

[node name="Plant" parent="tilemap/EnemiesGroup" instance=ExtResource( 13 )]
position = Vector2( -1600, -224 )
scale = Vector2( -1, 1 )

[node name="Imp" parent="tilemap/EnemiesGroup" instance=ExtResource( 14 )]
position = Vector2( -384, -144 )

[node name="MagicGroup" type="Node2D" parent="tilemap"]

[node name="ITEM_THUNDER" parent="tilemap/MagicGroup" instance=ExtResource( 15 )]
position = Vector2( -944, 416 )

[node name="Watcher" type="Node2D" parent="tilemap"]
script = ExtResource( 16 )
reward = "MovingPlatformGroup/MovingPlatform"
target_container = "EnemiesGroup"
watch_class = "res://scenes/common/damagables/BaseEnemy.gd"
show_target = true
target_pos = Vector2( -288, -664 )

[node name="TeleportGroup" type="Node2D" parent="tilemap"]

[node name="Teleport" parent="tilemap/TeleportGroup" instance=ExtResource( 17 )]
position = Vector2( -16, 816 )
is_horizontal = false
target_level = "res://levels/mausoleum/0-4.tscn"
teleport_to = Vector2( -272, -144 )

[node name="teleport" parent="tilemap/TeleportGroup/Teleport" index="0"]
scale = Vector2( 3, 1 )

[node name="Teleport3" parent="tilemap/TeleportGroup" instance=ExtResource( 17 )]
position = Vector2( -944, 816 )
is_horizontal = false
target_level = "res://levels/mausoleum/0-4.tscn"
teleport_to = Vector2( -1200, -144 )

[node name="teleport" parent="tilemap/TeleportGroup/Teleport3" index="0"]
scale = Vector2( 3, 1 )

[node name="Teleport1" parent="tilemap/TeleportGroup" instance=ExtResource( 17 )]
position = Vector2( 112, -912 )
is_horizontal = false
target_level = "res://levels/mausoleum/0-6.tscn"
teleport_to = Vector2( 752, 512 )

[node name="teleport" parent="tilemap/TeleportGroup/Teleport1" index="0"]
scale = Vector2( 3, 1 )

[node name="Teleport2" parent="tilemap/TeleportGroup" instance=ExtResource( 17 )]
position = Vector2( -2576, 48 )
target_level = "res://levels/mausoleum/2-1.tscn"
teleport_to = Vector2( 716, -176 )

[node name="teleport" parent="tilemap/TeleportGroup/Teleport2" index="0"]
scale = Vector2( 1, 5 )

[node name="boundaries" type="Node2D" parent="tilemap"]

[node name="NW" type="Position2D" parent="tilemap/boundaries"]
position = Vector2( -2566, -902 )

[node name="SE" type="Position2D" parent="tilemap/boundaries"]
position = Vector2( 298, 810 )

[editable path="tilemap/ClimbableGroup/ClimbableBlock"]

[editable path="tilemap/ClimbableGroup/ClimbableBlock1"]

[editable path="tilemap/LadderGroup/TestLadder"]

[editable path="tilemap/LadderGroup/TestLadder2"]

[editable path="tilemap/LadderGroup/TestLadder1"]

[editable path="tilemap/One-WayPlatformGroup/One-WayPlatform1"]

[editable path="tilemap/One-WayPlatformGroup/One-WayPlatform2"]

[editable path="tilemap/HangableGroup/HangBlock1"]

[editable path="tilemap/HangableGroup/HangBlock2"]

[editable path="tilemap/TeleportGroup/Teleport"]

[editable path="tilemap/TeleportGroup/Teleport3"]

[editable path="tilemap/TeleportGroup/Teleport1"]

[editable path="tilemap/TeleportGroup/Teleport2"]
