[gd_scene load_steps=5 format=2]

[ext_resource path="res://scenes/dungeon/BGs/chain.png" type="Texture" id=1]
[ext_resource path="res://scenes/dungeon/BGs/gate.png" type="Texture" id=2]
[ext_resource path="res://scenes/dungeon/BGs/sewage.png" type="Texture" id=3]
[ext_resource path="res://scenes/dungeon/BGs/moss.png" type="Texture" id=4]

[node name="Node2D" type="Node2D" index="0"]

[node name="ring" type="Sprite" parent="." index="0"]

texture = ExtResource( 1 )
region_enabled = true
region_rect = Rect2( 0, 0, 32, 32 )
_sections_unfolded = [ "Region" ]

[node name="chain" type="Sprite" parent="." index="1"]

position = Vector2( 32, 0 )
texture = ExtResource( 1 )
region_enabled = true
region_rect = Rect2( 0, 32, 32, 32 )
_sections_unfolded = [ "Region", "Transform" ]

[node name="chain2" type="Sprite" parent="." index="2"]

position = Vector2( 64, 0 )
texture = ExtResource( 1 )
region_enabled = true
region_rect = Rect2( 0, 64, 32, 32 )
_sections_unfolded = [ "Region", "Transform" ]

[node name="gate" type="Sprite" parent="." index="3"]

position = Vector2( 96, 0 )
texture = ExtResource( 2 )
region_enabled = true
region_rect = Rect2( 0, 0, 32, 32 )
_sections_unfolded = [ "Region", "Transform" ]

[node name="gate2" type="Sprite" parent="." index="4"]

position = Vector2( 128, 0 )
texture = ExtResource( 2 )
region_enabled = true
region_rect = Rect2( 32, 0, 32, 32 )
_sections_unfolded = [ "Region", "Transform" ]

[node name="gate3" type="Sprite" parent="." index="5"]

position = Vector2( 160, 0 )
texture = ExtResource( 2 )
region_enabled = true
region_rect = Rect2( 0, 32, 32, 32 )
_sections_unfolded = [ "Region", "Transform" ]

[node name="gate4" type="Sprite" parent="." index="6"]

position = Vector2( 192, 0 )
texture = ExtResource( 2 )
region_enabled = true
region_rect = Rect2( 32, 32, 32, 32 )
_sections_unfolded = [ "Region", "Transform" ]

[node name="sewage" type="Sprite" parent="." index="7"]

position = Vector2( 240, 16 )
texture = ExtResource( 3 )
region_rect = Rect2( 32, 32, 32, 32 )
_sections_unfolded = [ "Region", "Transform" ]

[node name="moss" type="Sprite" parent="." index="8"]

position = Vector2( 288, 16 )
texture = ExtResource( 4 )
region_rect = Rect2( 32, 32, 32, 32 )
_sections_unfolded = [ "Transform" ]


