[gd_scene load_steps=14 format=2]

[ext_resource path="res://scenes/summerislandcastle/tileset.tres" type="TileSet" id=1]
[ext_resource path="res://scenes/summerislandcastle/climbableblock.tscn" type="PackedScene" id=2]
[ext_resource path="res://scenes/summerislandcastle/onewayplatform.tscn" type="PackedScene" id=3]
[ext_resource path="res://scenes/summerislandcastle/BGs/oneway-edge.png" type="Texture" id=4]
[ext_resource path="res://scenes/common/breakables/lamp.tscn" type="PackedScene" id=5]
[ext_resource path="res://scenes/common/hangable.tscn" type="PackedScene" id=6]
[ext_resource path="res://scenes/common/hangblockend.png" type="Texture" id=7]
[ext_resource path="res://scenes/common/swingable.tscn" type="PackedScene" id=8]
[ext_resource path="res://scenes/dungeon/movingplatform/movingplatform.tscn" type="PackedScene" id=9]
[ext_resource path="res://scenes/common/damagables/orc/orc.tscn" type="PackedScene" id=10]
[ext_resource path="res://scenes/common/teleport.tscn" type="PackedScene" id=11]

[sub_resource type="PhysicsMaterial" id=1]
friction = 0.0

[sub_resource type="PhysicsMaterial" id=2]
friction = 0.0

[node name="LVL_NOTITLE" type="Node2D"]
__meta__ = {
"__editor_plugin_screen__": "2D"
}

[node name="tilemap" type="TileMap" parent="."]
tile_set = ExtResource( 1 )
cell_size = Vector2( 32, 32 )
compatibility_mode = true
collision_layer = 524288
format = 1
tile_data = PoolIntArray( -3932157, 28, 0, -3932156, 28, 0, -3932155, 28, 0, -3932154, 28, 0, -3932153, 28, 0, -3932152, 28, 0, -3932151, 28, 0, -3932150, 28, 0, -3932149, 28, 0, -3932148, 28, 0, -3932147, 28, 0, -3932146, 28, 0, -3932145, 28, 0, -3932144, 28, 0, -3932143, 28, 0, -3932142, 28, 0, -3932141, 28, 0, -3932140, 28, 0, -3932139, 28, 0, -3932138, 28, 0, -3932137, 28, 0, -3866621, 28, 0, -3866620, 28, 0, -3866619, 28, 0, -3866618, 28, 0, -3866617, 28, 0, -3866616, 28, 0, -3866615, 28, 0, -3866614, 28, 0, -3866613, 28, 0, -3866612, 28, 0, -3866611, 28, 0, -3866610, 28, 0, -3866609, 28, 0, -3866608, 28, 0, -3866607, 28, 0, -3866606, 28, 0, -3866605, 28, 0, -3866604, 28, 0, -3866603, 28, 0, -3866602, 28, 0, -3866601, 28, 0, -3801085, 28, 0, -3801084, 28, 0, -3801083, 28, 0, -3801082, 28, 0, -3801081, 28, 0, -3801080, 28, 0, -3801079, 28, 0, -3801078, 28, 0, -3801077, 28, 0, -3801076, 28, 0, -3801075, 28, 0, -3801074, 28, 0, -3801073, 28, 0, -3801072, 28, 0, -3801071, 28, 0, -3801070, 28, 0, -3801069, 28, 0, -3801068, 28, 0, -3801067, 28, 0, -3801066, 28, 0, -3801065, 28, 0, -3735549, 28, 0, -3735548, 28, 0, -3735547, 28, 0, -3735546, 28, 0, -3735545, 28, 0, -3735544, 28, 0, -3735543, 28, 0, -3735542, 28, 0, -3735541, 28, 0, -3735540, 28, 0, -3735539, 28, 0, -3735538, 28, 0, -3735537, 28, 0, -3735536, 28, 0, -3735535, 28, 0, -3735534, 28, 0, -3735533, 28, 0, -3735532, 28, 0, -3735531, 28, 0, -3735530, 28, 0, -3735529, 28, 0, -3670013, 28, 0, -3670012, 28, 0, -3670011, 28, 0, -3670010, 28, 0, -3670009, 28, 0, -3670008, 28, 0, -3670007, 28, 0, -3670006, 28, 0, -3670005, 28, 0, -3670004, 28, 0, -3670003, 28, 0, -3670002, 28, 0, -3670001, 28, 0, -3670000, 28, 0, -3669999, 28, 0, -3669998, 28, 0, -3669997, 28, 0, -3669996, 28, 0, -3669995, 28, 0, -3669994, 28, 0, -3669993, 28, 0, -3604477, 28, 0, -3604476, 28, 0, -3604475, 28, 0, -3604474, 28, 0, -3604473, 28, 0, -3604472, 28, 0, -3604471, 28, 0, -3604470, 28, 0, -3604469, 28, 0, -3604468, 28, 0, -3604467, 28, 0, -3604466, 28, 0, -3604465, 28, 0, -3604464, 28, 0, -3604463, 28, 0, -3604462, 28, 0, -3604461, 28, 0, -3604460, 28, 0, -3604459, 28, 0, -3604458, 28, 0, -3604457, 28, 0, -3538941, 28, 0, -3538940, 28, 0, -3538939, 28, 0, -3538938, 28, 0, -3538937, 28, 0, -3538936, 28, 0, -3538935, 28, 0, -3538934, 28, 0, -3538933, 28, 0, -3538932, 28, 0, -3538931, 28, 0, -3538930, 28, 0, -3538929, 28, 0, -3538928, 28, 0, -3538927, 28, 0, -3538926, 28, 0, -3538925, 28, 0, -3538924, 28, 0, -3538923, 28, 0, -3538922, 28, 0, -3538921, 28, 0, -3473405, 28, 0, -3473404, 28, 0, -3473403, 28, 0, -3473402, 28, 0, -3473401, 28, 0, -3473400, 28, 0, -3473399, 28, 0, -3473398, 28, 0, -3473397, 28, 0, -3473396, 28, 0, -3473395, 28, 0, -3473394, 28, 0, -3473393, 28, 0, -3473392, 28, 0, -3473391, 28, 0, -3473390, 28, 0, -3473389, 28, 0, -3473388, 28, 0, -3473387, 28, 0, -3473386, 28, 0, -3473385, 28, 0, -3407869, 28, 0, -3407868, 28, 0, -3407867, 28, 0, -3407866, 28, 0, -3407865, 28, 0, -3407864, 28, 0, -3407863, 28, 0, -3407862, 28, 0, -3407861, 28, 0, -3407860, 28, 0, -3407859, 28, 0, -3407858, 28, 0, -3407857, 28, 0, -3407856, 28, 0, -3407855, 28, 0, -3407854, 28, 0, -3407853, 28, 0, -3407852, 28, 0, -3407851, 28, 0, -3407850, 28, 0, -3407849, 28, 0, -3342333, 28, 0, -3342332, 28, 0, -3342331, 28, 0, -3342330, 28, 0, -3342329, 28, 0, -3342328, 28, 0, -3342327, 28, 0, -3342326, 28, 0, -3342325, 28, 0, -3342324, 28, 0, -3342323, 28, 0, -3342322, 28, 0, -3342321, 28, 0, -3342320, 28, 0, -3342319, 28, 0, -3342318, 28, 0, -3342317, 28, 0, -3342316, 28, 0, -3342315, 28, 0, -3342314, 28, 0, -3342313, 28, 0, -3276797, 28, 0, -3276796, 28, 0, -3276795, 28, 0, -3276794, 28, 0, -3276793, 28, 0, -3276792, 28, 0, -3276791, 28, 0, -3276790, 28, 0, -3276789, 28, 0, -3276788, 28, 0, -3276787, 28, 0, -3276786, 28, 0, -3276785, 28, 0, -3276784, 28, 0, -3276783, 28, 0, -3276782, 28, 0, -3276781, 28, 0, -3276780, 28, 0, -3276779, 28, 0, -3276778, 28, 0, -3276777, 28, 0, -3145735, 1610612737, 0, -3145734, 1073741824, 0, -3145733, 1073741824, 0, -3145732, 1073741824, 0, -3145731, 1073741824, 0, -3145730, 1073741824, 0, -3145729, 1073741824, 0, -3211264, 1073741824, 0, -3211263, 1073741824, 0, -3211262, 1073741824, 0, -3211261, 1073741824, 0, -3211260, 1073741824, 0, -3211259, 1073741824, 0, -3211258, 1073741824, 0, -3211257, 1073741824, 0, -3211256, 1073741824, 0, -3211255, 1073741824, 0, -3211254, 1073741824, 0, -3211253, 1073741824, 0, -3211252, 1073741824, 0, -3211251, 1073741824, 0, -3211250, 1073741824, 0, -3211249, 1073741824, 0, -3211248, 1073741824, 0, -3211247, 1073741824, 0, -3211246, 1073741824, 0, -3211245, 1073741824, 0, -3211244, 1073741824, 0, -3211243, 1073741824, 0, -3211242, 1073741824, 0, -3211241, 1073741824, 0, -3211240, 1073741824, 0, -3211239, 1073741824, 0, -3211238, 1073741824, 0, -3211237, 1073741824, 0, -3211236, 1073741824, 0, -3211235, 1073741824, 0, -3211234, 1073741825, 0, -3080199, 2, 0, -3080198, 10, 0, -3080194, 10, 0, -3145726, 10, 0, -3145722, 10, 0, -3145718, 10, 0, -3145714, 10, 0, -3145710, 10, 0, -3145706, 10, 0, -3145702, 10, 0, -3145698, 2, 0, -3014663, 2, 0, -3080162, 2, 0, -2949127, 2, 0, -2949126, 11, 0, -2949122, 11, 0, -3014654, 11, 0, -3014650, 11, 0, -3014646, 11, 0, -3014642, 11, 0, -3014638, 11, 0, -3014634, 11, 0, -3014630, 11, 0, -3014626, 2, 0, -2883591, 2, 0, -2949090, 2, 0, -2818055, 2, 0, -2883554, 2, 0, -2752519, 1073741825, 0, -2752518, 6, 0, -2752514, 12, 0, -2818046, 6, 0, -2818042, 12, 0, -2818038, 6, 0, -2818034, 12, 0, -2818030, 6, 0, -2818026, 12, 0, -2818022, 6, 0, -2818018, 1610612737, 0, -2686983, 7, 0, -2752482, 7, 0, -2621447, 7, 0, -2686946, 7, 0, -2555911, 7, 0, -2621410, 7, 0, -2490375, 7, 0, -2555874, 7, 0, -2424839, 7, 0, -2490338, 7, 0, -2359303, 536870913, 0, -2359302, 0, 0, -2359301, 0, 0, -2359300, 0, 0, -2359299, 0, 0, -2359298, 0, 0, -2424807, 0, 0, -2424806, 0, 0, -2424805, 0, 0, -2424804, 0, 0, -2424803, 0, 0, -2424802, 1, 0, -2293767, 2, 0, -2359266, 2, 0, -2228231, 2, 0, -2228230, 12, 0, -2228226, 6, 0, -2293758, 12, 0, -2293738, 6, 0, -2293734, 25, 0, -2293730, 2, 0, -2162695, 2, 0, -2228194, 2, 0, -2097159, 2, 0, -2162658, 2, 0, -2031623, 2, 0, -2097122, 2, 0, -1966087, 2, 0, -2031586, 2, 0, -1900551, 2, 0, -1966050, 2, 0, -1835015, 2, 0, -1900514, 2, 0, -1769479, 2, 0, -1834978, 2, 0, -1703943, 2, 0, -1703942, 6, 0, -1703938, 12, 0, -1769470, 6, 0, -1769450, 12, 0, -1769446, 6, 0, -1769442, 2, 0, -1638407, 2, 0, -1703906, 2, 0, -1572871, 2, 0, -1638370, 2, 0, -1507335, 2, 0, -1572834, 2, 0, -1441799, 2, 0, -1507298, 2, 0, -1376263, 2, 0, -1441762, 2, 0, -1310727, 2, 0, -1376226, 2, 0, -1245191, 2, 0, -1310690, 2, 0, -1179655, 2, 0, -1179654, 23, 0, -1179650, 6, 0, -1245182, 23, 0, -1245162, 6, 0, -1245158, 24, 0, -1245154, 2, 0, -1114119, 2, 0, -1179618, 2, 0, -1048583, 2, 0, -1114082, 2, 0, -983047, 2, 0, -1048546, 2, 0, -917511, 2, 0, -983010, 2, 0, -851975, 2, 0, -917474, 2, 0, -786439, 2, 0, -851938, 2, 0, -720903, 2, 0, -786402, 2, 0, -655367, 2, 0, -655366, 6, 0, -655362, 12, 0, -720894, 6, 0, -720874, 12, 0, -720870, 6, 0, -720866, 2, 0, -589831, 2, 0, -655330, 2, 0, -524295, 2, 0, -589794, 2, 0, -458759, 2, 0, -524258, 2, 0, -393223, 2, 0, -458722, 2, 0, -327687, 2, 0, -393186, 2, 0, -262151, 2, 0, -327650, 2, 0, -196615, 2, 0, -262114, 2, 0, -131079, 2, 0, -131078, 26, 0, -131074, 25, 0, -196606, 25, 0, -196586, 6, 0, -196582, 26, 0, -196578, 2, 0, -65543, 2, 0, -131042, 2, 0, -7, 2, 0, -65506, 2, 0, 65529, 2, 0, 30, 2, 0, 131065, 2, 0, 65566, 2, 0, 196601, 2, 0, 131102, 2, 0, 262137, 2, 0, 196638, 2, 0, 327673, 2, 0, 262174, 2, 0, 393209, 2, 0, 393210, 6, 0, 393214, 13, 0, 327682, 6, 0, 327702, 13, 0, 327706, 6, 0, 327710, 2, 0, 458745, 2, 0, 393246, 2, 0, 524281, 1073741825, 0, 458782, 1610612737, 0, 589817, 7, 0, 524318, 7, 0, 655353, 7, 0, 589854, 7, 0, 720889, 7, 0, 655390, 7, 0, 786425, 7, 0, 720926, 7, 0, 851961, 7, 0, 786462, 7, 0, 917497, 536870913, 0, 917498, 0, 0, 917499, 0, 0, 917500, 0, 0, 917501, 0, 0, 917502, 0, 0, 917503, 0, 0, 851968, 0, 0, 851969, 0, 0, 851970, 0, 0, 851971, 0, 0, 851972, 0, 0, 851973, 0, 0, 851974, 0, 0, 851975, 0, 0, 851976, 0, 0, 851977, 0, 0, 851978, 0, 0, 851979, 0, 0, 851980, 0, 0, 851981, 0, 0, 851982, 0, 0, 851983, 0, 0, 851984, 0, 0, 851985, 0, 0, 851986, 0, 0, 851987, 0, 0, 851988, 0, 0, 851989, 0, 0, 851990, 0, 0, 851991, 0, 0, 851992, 0, 0, 851993, 0, 0, 851994, 0, 0, 851995, 0, 0, 851996, 0, 0, 851997, 0, 0, 851998, 1, 0, 983033, 2, 0, 983034, 3, 0, 983035, -1610612732, 0, 983036, -1610612732, 0, 983037, -1610612732, 0, 983038, -1610612732, 0, 983039, -1610612732, 0, 917504, -1610612732, 0, 917505, -1610612732, 0, 917506, -1610612732, 0, 917507, -1610612732, 0, 917508, -1610612732, 0, 917509, -1610612732, 0, 917510, -1610612732, 0, 917511, -1610612732, 0, 917512, -1610612732, 0, 917513, -1610612732, 0, 917514, -1610612732, 0, 917515, -1610612732, 0, 917516, -1610612732, 0, 917517, -1610612732, 0, 917518, -1610612732, 0, 917519, -1610612732, 0, 917520, -1610612732, 0, 917521, -1610612732, 0, 917522, -1610612732, 0, 917523, -1610612732, 0, 917524, -1610612732, 0, 917525, -1610612732, 0, 917526, -1610612732, 0, 917527, -1610612732, 0, 917528, -1610612732, 0, 917529, -1610612732, 0, 917530, -1610612732, 0, 917531, -1610612732, 0, 917532, -1610612732, 0, 917533, 536870915, 0, 917534, 2, 0, 1048569, 2, 0, 1048570, 4, 0, 1048571, 5, 0, 1048572, 5, 0, 1048573, 5, 0, 1048574, 5, 0, 1048575, 5, 0, 983040, 5, 0, 983041, 5, 0, 983042, 5, 0, 983043, 5, 0, 983044, 5, 0, 983045, 5, 0, 983046, 5, 0, 983047, 5, 0, 983048, 5, 0, 983049, 5, 0, 983050, 5, 0, 983051, 5, 0, 983052, 5, 0, 983053, 5, 0, 983054, 5, 0, 983055, 5, 0, 983056, 5, 0, 983057, 5, 0, 983058, 5, 0, 983059, 5, 0, 983060, 5, 0, 983061, 5, 0, 983062, 5, 0, 983063, 5, 0, 983064, 5, 0, 983065, 5, 0, 983066, 5, 0, 983067, 5, 0, 983068, 5, 0, 983069, 4, 0, 983070, 2, 0, 1114105, 2, 0, 1114106, 1073741827, 0, 1114107, -1610612732, 0, 1114108, -1610612732, 0, 1114109, -1610612732, 0, 1114110, -1610612732, 0, 1114111, -1610612732, 0, 1048576, -1610612732, 0, 1048577, -1610612732, 0, 1048578, -1610612732, 0, 1048579, -1610612732, 0, 1048580, -1610612732, 0, 1048581, -1610612732, 0, 1048582, -1610612732, 0, 1048583, -1610612732, 0, 1048584, -1610612732, 0, 1048585, -1610612732, 0, 1048586, -1610612732, 0, 1048587, -1610612732, 0, 1048588, -1610612732, 0, 1048589, -1610612732, 0, 1048590, -1610612732, 0, 1048591, -1610612732, 0, 1048592, -1610612732, 0, 1048593, -1610612732, 0, 1048594, -1610612732, 0, 1048595, -1610612732, 0, 1048596, -1610612732, 0, 1048597, -1610612732, 0, 1048598, -1610612732, 0, 1048599, -1610612732, 0, 1048600, -1610612732, 0, 1048601, -1610612732, 0, 1048602, -1610612732, 0, 1048603, -1610612732, 0, 1048604, -1610612732, 0, 1048605, 1610612739, 0, 1048606, 2, 0, 1114116, 28, 0, 1114117, 28, 0, 1114118, 28, 0, 1114119, 28, 0, 1114120, 28, 0, 1114121, 28, 0, 1114122, 28, 0, 1114123, 28, 0, 1114124, 28, 0, 1114125, 28, 0, 1114126, 28, 0, 1114127, 28, 0, 1114128, 28, 0, 1114129, 28, 0, 1114130, 28, 0, 1114131, 28, 0, 1114132, 28, 0, 1114133, 28, 0, 1114134, 28, 0, 1114135, 28, 0, 1179652, 28, 0, 1179653, 28, 0, 1179654, 28, 0, 1179655, 28, 0, 1179656, 28, 0, 1179657, 28, 0, 1179658, 28, 0, 1179659, 28, 0, 1179660, 28, 0, 1179661, 28, 0, 1179662, 28, 0, 1179663, 28, 0, 1179664, 28, 0, 1179665, 28, 0, 1179666, 28, 0, 1179667, 28, 0, 1179668, 28, 0, 1179669, 28, 0, 1179670, 28, 0, 1179671, 28, 0, 1245188, 28, 0, 1245189, 28, 0, 1245190, 28, 0, 1245191, 28, 0, 1245192, 28, 0, 1245193, 28, 0, 1245194, 28, 0, 1245195, 28, 0, 1245196, 28, 0, 1245197, 28, 0, 1245198, 28, 0, 1245199, 28, 0, 1245200, 28, 0, 1245201, 28, 0, 1245202, 28, 0, 1245203, 28, 0, 1245204, 28, 0, 1245205, 28, 0, 1245206, 28, 0, 1245207, 28, 0, 1310724, 28, 0, 1310725, 28, 0, 1310726, 28, 0, 1310727, 28, 0, 1310728, 28, 0, 1310729, 28, 0, 1310730, 28, 0, 1310731, 28, 0, 1310732, 28, 0, 1310733, 28, 0, 1310734, 28, 0, 1310735, 28, 0, 1310736, 28, 0, 1310737, 28, 0, 1310738, 28, 0, 1310739, 28, 0, 1310740, 28, 0, 1310741, 28, 0, 1310742, 28, 0, 1310743, 28, 0, 1376260, 28, 0, 1376261, 28, 0, 1376262, 28, 0, 1376263, 28, 0, 1376264, 28, 0, 1376265, 28, 0, 1376266, 28, 0, 1376267, 28, 0, 1376268, 28, 0, 1376269, 28, 0, 1376270, 28, 0, 1376271, 28, 0, 1376272, 28, 0, 1376273, 28, 0, 1376274, 28, 0, 1376275, 28, 0, 1376276, 28, 0, 1376277, 28, 0, 1376278, 28, 0, 1376279, 28, 0, 1441796, 28, 0, 1441797, 28, 0, 1441798, 28, 0, 1441799, 28, 0, 1441800, 28, 0, 1441801, 28, 0, 1441802, 28, 0, 1441803, 28, 0, 1441804, 28, 0, 1441805, 28, 0, 1441806, 28, 0, 1441807, 28, 0, 1441808, 28, 0, 1441809, 28, 0, 1441810, 28, 0, 1441811, 28, 0, 1441812, 28, 0, 1441813, 28, 0, 1441814, 28, 0, 1441815, 28, 0, 1507332, 28, 0, 1507333, 28, 0, 1507334, 28, 0, 1507335, 28, 0, 1507336, 28, 0, 1507337, 28, 0, 1507338, 28, 0, 1507339, 28, 0, 1507340, 28, 0, 1507341, 28, 0, 1507342, 28, 0, 1507343, 28, 0, 1507344, 28, 0, 1507345, 28, 0, 1507346, 28, 0, 1507347, 28, 0, 1507348, 28, 0, 1507349, 28, 0, 1507350, 28, 0, 1507351, 28, 0, 1572868, 28, 0, 1572869, 28, 0, 1572870, 28, 0, 1572871, 28, 0, 1572872, 28, 0, 1572873, 28, 0, 1572874, 28, 0, 1572875, 28, 0, 1572876, 28, 0, 1572877, 28, 0, 1572878, 28, 0, 1572879, 28, 0, 1572880, 28, 0, 1572881, 28, 0, 1572882, 28, 0, 1572883, 28, 0, 1572884, 28, 0, 1572885, 28, 0, 1572886, 28, 0, 1572887, 28, 0, 1638404, 28, 0, 1638405, 28, 0, 1638406, 28, 0, 1638407, 28, 0, 1638408, 28, 0, 1638409, 28, 0, 1638410, 28, 0, 1638411, 28, 0, 1638412, 28, 0, 1638413, 28, 0, 1638414, 28, 0, 1638415, 28, 0, 1638416, 28, 0, 1638417, 28, 0, 1638418, 28, 0, 1638419, 28, 0, 1638420, 28, 0, 1638421, 28, 0, 1638422, 28, 0, 1638423, 28, 0, 1703940, 28, 0, 1703941, 28, 0, 1703942, 28, 0, 1703943, 28, 0, 1703944, 28, 0, 1703945, 28, 0, 1703946, 28, 0, 1703947, 28, 0, 1703948, 28, 0, 1703949, 28, 0, 1703950, 28, 0, 1703951, 28, 0, 1703952, 28, 0, 1703953, 28, 0, 1703954, 28, 0, 1703955, 28, 0, 1703956, 28, 0, 1703957, 28, 0, 1703958, 28, 0, 1703959, 28, 0, 1769476, 28, 0, 1769477, 28, 0, 1769478, 28, 0, 1769479, 28, 0, 1769480, 28, 0, 1769481, 28, 0, 1769482, 28, 0, 1769483, 28, 0, 1769484, 28, 0, 1769485, 28, 0, 1769486, 28, 0, 1769487, 28, 0, 1769488, 28, 0, 1769489, 28, 0, 1769490, 28, 0, 1769491, 28, 0, 1769492, 28, 0, 1769493, 28, 0, 1769494, 28, 0, 1769495, 28, 0 )

[node name="ClimbableGroup" type="Node2D" parent="tilemap"]

[node name="ClimbableBlock" parent="tilemap/ClimbableGroup" instance=ExtResource( 2 )]
position = Vector2( 784, -1168 )
physics_material_override = SubResource( 1 )

[node name="ClimbableBlock1" parent="tilemap/ClimbableGroup" instance=ExtResource( 2 )]
position = Vector2( -16, -1168 )
physics_material_override = SubResource( 2 )

[node name="Sprite" parent="tilemap/ClimbableGroup/ClimbableBlock1" index="0"]
flip_h = false

[node name="One-WayPlatformGroup" type="Node2D" parent="tilemap"]

[node name="One-WayPlatform" parent="tilemap/One-WayPlatformGroup" instance=ExtResource( 3 )]
position = Vector2( 512, -256 )

[node name="Sprite" parent="tilemap/One-WayPlatformGroup/One-WayPlatform/KinematicBody2D" index="0"]
region_enabled = true
region_rect = Rect2( 0, 0, 96, 32 )

[node name="oneway" parent="tilemap/One-WayPlatformGroup/One-WayPlatform/KinematicBody2D" index="1"]
scale = Vector2( 3, 1 )

[node name="One-WayPlatform1" parent="tilemap/One-WayPlatformGroup" instance=ExtResource( 3 )]
position = Vector2( 576, -256 )

[node name="Sprite" parent="tilemap/One-WayPlatformGroup/One-WayPlatform1/KinematicBody2D" index="0"]
texture = ExtResource( 4 )

[node name="One-WayPlatform2" parent="tilemap/One-WayPlatformGroup" instance=ExtResource( 3 )]
position = Vector2( 448, -256 )

[node name="Sprite" parent="tilemap/One-WayPlatformGroup/One-WayPlatform2/KinematicBody2D" index="0"]
texture = ExtResource( 4 )
flip_h = true

[node name="LampGroup" type="Node2D" parent="tilemap"]

[node name="lamp" parent="tilemap/LampGroup" instance=ExtResource( 5 )]
position = Vector2( 768, 16 )

[node name="lamp2" parent="tilemap/LampGroup" instance=ExtResource( 5 )]
position = Vector2( 0, -496 )

[node name="lamp3" parent="tilemap/LampGroup" instance=ExtResource( 5 )]
position = Vector2( 0, -1008 )

[node name="lamp4" parent="tilemap/LampGroup" instance=ExtResource( 5 )]
position = Vector2( -128, -1264 )

[node name="lamp5" parent="tilemap/LampGroup" instance=ExtResource( 5 )]
position = Vector2( 896, -1264 )

[node name="HangableGroup" type="Node2D" parent="tilemap"]

[node name="HangBlock" parent="tilemap/HangableGroup" instance=ExtResource( 6 )]
position = Vector2( 512, -224 )

[node name="Sprite" parent="tilemap/HangableGroup/HangBlock" index="0"]
region_enabled = true
region_rect = Rect2( 0, 0, 96, 32 )

[node name="hangable" parent="tilemap/HangableGroup/HangBlock" index="1"]
scale = Vector2( 3, 1 )

[node name="HangBlock1" parent="tilemap/HangableGroup" instance=ExtResource( 6 )]
position = Vector2( 576, -224 )

[node name="Sprite" parent="tilemap/HangableGroup/HangBlock1" index="0"]
texture = ExtResource( 7 )
flip_h = true

[node name="HangBlock2" parent="tilemap/HangableGroup" instance=ExtResource( 6 )]
position = Vector2( 448, -224 )

[node name="Sprite" parent="tilemap/HangableGroup/HangBlock2" index="0"]
texture = ExtResource( 7 )

[node name="SwingableGroup" type="Node2D" parent="tilemap"]

[node name="SwingBlock" parent="tilemap/SwingableGroup" instance=ExtResource( 8 )]
position = Vector2( 384, -1344 )

[node name="MovingPlatformGroup" type="Node2D" parent="tilemap"]

[node name="MovingPlatform" parent="tilemap/MovingPlatformGroup" instance=ExtResource( 9 )]
position = Vector2( 144, -688 )
motion = Vector2( 0, 256 )
cycle = 16.0

[node name="EnemiesGroup" type="Node2D" parent="tilemap"]

[node name="Orc" parent="tilemap/EnemiesGroup" instance=ExtResource( 10 )]
position = Vector2( 320, 352 )

[node name="TeleportGroup" type="Node2D" parent="tilemap"]

[node name="Teleport" parent="tilemap/TeleportGroup" instance=ExtResource( 11 )]
position = Vector2( -240, 336 )
target_level = "res://levels/summerislandcastle/0-0.tscn"
teleport_to = Vector2( 844, 144 )

[node name="teleport" parent="tilemap/TeleportGroup/Teleport" index="0"]
scale = Vector2( 1, 5 )

[node name="Teleport1" parent="tilemap/TeleportGroup" instance=ExtResource( 11 )]
position = Vector2( 1008, 336 )
target_level = "res://levels/summerislandcastle/1-0.tscn"
teleport_to = Vector2( -364, -16 )

[node name="teleport" parent="tilemap/TeleportGroup/Teleport1" index="0"]
scale = Vector2( 1, 5 )

[node name="Teleport3" parent="tilemap/TeleportGroup" instance=ExtResource( 11 )]
position = Vector2( 1008, -1264 )
target_level = "res://levels/summerislandcastle/0-2.tscn"
teleport_to = Vector2( -556, 112 )

[node name="teleport" parent="tilemap/TeleportGroup/Teleport3" index="0"]
scale = Vector2( 1, 5 )

[node name="Teleport2" parent="tilemap/TeleportGroup" instance=ExtResource( 11 )]
position = Vector2( -240, -1264 )
target_level = "res://levels/summerislandcastle/3-0.tscn"
teleport_to = Vector2( 972, -400 )

[node name="teleport" parent="tilemap/TeleportGroup/Teleport2" index="0"]
scale = Vector2( 1, 5 )

[node name="boundaries" type="Node2D" parent="tilemap"]

[node name="NW" type="Position2D" parent="tilemap/boundaries"]
position = Vector2( -240, -1584 )

[node name="SE" type="Position2D" parent="tilemap/boundaries"]
position = Vector2( 1008, 560 )

[node name="ParallaxBackground" type="ParallaxBackground" parent="."]

[node name="ParallaxLayer" type="ParallaxLayer" parent="ParallaxBackground"]
motion_scale = Vector2( 1, 0.5 )
motion_mirroring = Vector2( 0, 1792 )

[node name="TileMap" type="TileMap" parent="ParallaxBackground/ParallaxLayer"]
position = Vector2( 0, 256 )
tile_set = ExtResource( 1 )
cell_size = Vector2( 32, 32 )
format = 1
tile_data = PoolIntArray( -2818042, 22, 0, -2818034, 536870934, 0, -2293754, 22, 0, -2293746, 536870934, 0, -1769466, 22, 0, -1769458, 536870934, 0, -1245178, 22, 0, -1245170, 536870934, 0, -720890, 22, 0, -720882, 536870934, 0, -196602, 22, 0, -196594, 536870934, 0, 327686, 22, 0, 327694, 536870934, 0 )

[editable path="tilemap/ClimbableGroup/ClimbableBlock1"]

[editable path="tilemap/One-WayPlatformGroup/One-WayPlatform"]

[editable path="tilemap/One-WayPlatformGroup/One-WayPlatform1"]

[editable path="tilemap/One-WayPlatformGroup/One-WayPlatform2"]

[editable path="tilemap/HangableGroup/HangBlock"]

[editable path="tilemap/HangableGroup/HangBlock1"]

[editable path="tilemap/HangableGroup/HangBlock2"]

[editable path="tilemap/TeleportGroup/Teleport"]

[editable path="tilemap/TeleportGroup/Teleport1"]

[editable path="tilemap/TeleportGroup/Teleport3"]

[editable path="tilemap/TeleportGroup/Teleport2"]
