[gd_scene load_steps=9 format=2]

[ext_resource path="res://scenes/summerislandcastle/tileset.tres" type="TileSet" id=1]
[ext_resource path="res://scenes/summerislandcastle/climbableblock.tscn" type="PackedScene" id=2]
[ext_resource path="res://scenes/summerislandcastle/slopes/slope31-0.tscn" type="PackedScene" id=3]
[ext_resource path="res://scenes/dungeon/slopes/slopea-b.tscn" type="PackedScene" id=4]
[ext_resource path="res://scenes/common/breakables/lamp.tscn" type="PackedScene" id=5]
[ext_resource path="res://scenes/common/damagables/demon/demon.tscn" type="PackedScene" id=6]
[ext_resource path="res://scenes/common/teleport.tscn" type="PackedScene" id=7]

[sub_resource type="PhysicsMaterial" id=1]
friction = 0.0

[node name="LVL_NOTITLE" type="Node2D"]
__meta__ = {
"__editor_plugin_screen__": "2D"
}

[node name="tilemap" type="TileMap" parent="."]
tile_set = ExtResource( 1 )
cell_size = Vector2( 32, 32 )
compatibility_mode = true
collision_layer = 524288
format = 1
tile_data = PoolIntArray( -3014676, 28, 0, -3014675, 28, 0, -3014674, 28, 0, -3014673, 28, 0, -3014672, 28, 0, -3014671, 28, 0, -3014670, 28, 0, -3014669, 28, 0, -3014668, 28, 0, -3014667, 28, 0, -3014666, 28, 0, -3014665, 28, 0, -3014664, 28, 0, -3014663, 28, 0, -3014662, 28, 0, -3014661, 28, 0, -3014660, 28, 0, -3014659, 28, 0, -3014658, 28, 0, -3014657, 28, 0, -3080192, 28, 0, -3080191, 28, 0, -3080190, 28, 0, -3080189, 28, 0, -3080188, 28, 0, -3080187, 28, 0, -3080186, 28, 0, -3080185, 28, 0, -3080184, 28, 0, -3080183, 28, 0, -3080182, 28, 0, -3080181, 28, 0, -3080180, 28, 0, -3080179, 28, 0, -3080178, 28, 0, -3080177, 28, 0, -3080176, 28, 0, -3080175, 28, 0, -3080174, 28, 0, -3080173, 28, 0, -2949140, 28, 0, -2949139, 28, 0, -2949138, 28, 0, -2949137, 28, 0, -2949136, 28, 0, -2949135, 28, 0, -2949134, 28, 0, -2949133, 28, 0, -2949132, 28, 0, -2949131, 28, 0, -2949130, 28, 0, -2949129, 28, 0, -2949128, 28, 0, -2949127, 28, 0, -2949126, 28, 0, -2949125, 28, 0, -2949124, 28, 0, -2949123, 28, 0, -2949122, 28, 0, -2949121, 28, 0, -3014656, 28, 0, -3014655, 28, 0, -3014654, 28, 0, -3014653, 28, 0, -3014652, 28, 0, -3014651, 28, 0, -3014650, 28, 0, -3014649, 28, 0, -3014648, 28, 0, -3014647, 28, 0, -3014646, 28, 0, -3014645, 28, 0, -3014644, 28, 0, -3014643, 28, 0, -3014642, 28, 0, -3014641, 28, 0, -3014640, 28, 0, -3014639, 28, 0, -3014638, 28, 0, -3014637, 28, 0, -2883604, 28, 0, -2883603, 28, 0, -2883602, 28, 0, -2883601, 28, 0, -2883600, 28, 0, -2883599, 28, 0, -2883598, 28, 0, -2883597, 28, 0, -2883596, 28, 0, -2883595, 28, 0, -2883594, 28, 0, -2883593, 28, 0, -2883592, 28, 0, -2883591, 28, 0, -2883590, 28, 0, -2883589, 28, 0, -2883588, 28, 0, -2883587, 28, 0, -2883586, 28, 0, -2883585, 28, 0, -2949120, 28, 0, -2949119, 28, 0, -2949118, 28, 0, -2949117, 28, 0, -2949116, 28, 0, -2949115, 28, 0, -2949114, 28, 0, -2949113, 28, 0, -2949112, 28, 0, -2949111, 28, 0, -2949110, 28, 0, -2949109, 28, 0, -2949108, 28, 0, -2949107, 28, 0, -2949106, 28, 0, -2949105, 28, 0, -2949104, 28, 0, -2949103, 28, 0, -2949102, 28, 0, -2949101, 28, 0, -2818068, 28, 0, -2818067, 28, 0, -2818066, 28, 0, -2818065, 28, 0, -2818064, 28, 0, -2818063, 28, 0, -2818062, 28, 0, -2818061, 28, 0, -2818060, 28, 0, -2818059, 28, 0, -2818058, 28, 0, -2818057, 28, 0, -2818056, 28, 0, -2818055, 28, 0, -2818054, 28, 0, -2818053, 28, 0, -2818052, 28, 0, -2818051, 28, 0, -2818050, 28, 0, -2818049, 28, 0, -2883584, 28, 0, -2883583, 28, 0, -2883582, 28, 0, -2883581, 28, 0, -2883580, 28, 0, -2883579, 28, 0, -2883578, 28, 0, -2883577, 28, 0, -2883576, 28, 0, -2883575, 28, 0, -2883574, 28, 0, -2883573, 28, 0, -2883572, 28, 0, -2883571, 28, 0, -2883570, 28, 0, -2883569, 28, 0, -2883568, 28, 0, -2883567, 28, 0, -2883566, 28, 0, -2883565, 28, 0, -2752532, 28, 0, -2752531, 28, 0, -2752530, 28, 0, -2752529, 28, 0, -2752528, 28, 0, -2752527, 28, 0, -2752526, 28, 0, -2752525, 28, 0, -2752524, 28, 0, -2752523, 28, 0, -2752522, 28, 0, -2752521, 28, 0, -2752520, 28, 0, -2752519, 28, 0, -2752518, 28, 0, -2752517, 28, 0, -2752516, 28, 0, -2752515, 28, 0, -2752514, 28, 0, -2752513, 28, 0, -2818048, 28, 0, -2818047, 28, 0, -2818046, 28, 0, -2818045, 28, 0, -2818044, 28, 0, -2818043, 28, 0, -2818042, 28, 0, -2818041, 28, 0, -2818040, 28, 0, -2818039, 28, 0, -2818038, 28, 0, -2818037, 28, 0, -2818036, 28, 0, -2818035, 28, 0, -2818034, 28, 0, -2818033, 28, 0, -2818032, 28, 0, -2818031, 28, 0, -2818030, 28, 0, -2818029, 28, 0, -2686996, 28, 0, -2686995, 28, 0, -2686994, 28, 0, -2686993, 28, 0, -2686992, 28, 0, -2686991, 28, 0, -2686990, 28, 0, -2686989, 28, 0, -2686988, 28, 0, -2686987, 28, 0, -2686986, 28, 0, -2686985, 28, 0, -2686984, 28, 0, -2686983, 28, 0, -2686982, 28, 0, -2686981, 28, 0, -2686980, 28, 0, -2686979, 28, 0, -2686978, 28, 0, -2686977, 28, 0, -2752512, 28, 0, -2752511, 28, 0, -2752510, 28, 0, -2752509, 28, 0, -2752508, 28, 0, -2752507, 28, 0, -2752506, 28, 0, -2752505, 28, 0, -2752504, 28, 0, -2752503, 28, 0, -2752502, 28, 0, -2752501, 28, 0, -2752500, 28, 0, -2752499, 28, 0, -2752498, 28, 0, -2752497, 28, 0, -2752496, 28, 0, -2752495, 28, 0, -2752494, 28, 0, -2752493, 28, 0, -2621460, 28, 0, -2621459, 28, 0, -2621458, 28, 0, -2621457, 28, 0, -2621456, 28, 0, -2621455, 28, 0, -2621454, 28, 0, -2621453, 28, 0, -2621452, 28, 0, -2621451, 28, 0, -2621450, 28, 0, -2621449, 28, 0, -2621448, 28, 0, -2621447, 28, 0, -2621446, 28, 0, -2621445, 28, 0, -2621444, 28, 0, -2621443, 28, 0, -2621442, 28, 0, -2621441, 28, 0, -2686976, 28, 0, -2686975, 28, 0, -2686974, 28, 0, -2686973, 28, 0, -2686972, 28, 0, -2686971, 28, 0, -2686970, 28, 0, -2686969, 28, 0, -2686968, 28, 0, -2686967, 28, 0, -2686966, 28, 0, -2686965, 28, 0, -2686964, 28, 0, -2686963, 28, 0, -2686962, 28, 0, -2686961, 28, 0, -2686960, 28, 0, -2686959, 28, 0, -2686958, 28, 0, -2686957, 28, 0, -2555924, 28, 0, -2555923, 28, 0, -2555922, 28, 0, -2555921, 28, 0, -2555920, 28, 0, -2555919, 28, 0, -2555918, 28, 0, -2555917, 28, 0, -2555916, 28, 0, -2555915, 28, 0, -2555914, 28, 0, -2555913, 28, 0, -2555912, 28, 0, -2555911, 28, 0, -2555910, 28, 0, -2555909, 28, 0, -2555908, 28, 0, -2555907, 28, 0, -2555906, 28, 0, -2555905, 28, 0, -2621440, 28, 0, -2621439, 28, 0, -2621438, 28, 0, -2621437, 28, 0, -2621436, 28, 0, -2621435, 28, 0, -2621434, 28, 0, -2621433, 28, 0, -2621432, 28, 0, -2621431, 28, 0, -2621430, 28, 0, -2621429, 28, 0, -2621428, 28, 0, -2621427, 28, 0, -2621426, 28, 0, -2621425, 28, 0, -2621424, 28, 0, -2621423, 28, 0, -2621422, 28, 0, -2621421, 28, 0, -2490388, 28, 0, -2490387, 28, 0, -2490386, 28, 0, -2490385, 28, 0, -2490384, 28, 0, -2490383, 28, 0, -2490382, 28, 0, -2490381, 28, 0, -2490380, 28, 0, -2490379, 28, 0, -2490378, 28, 0, -2490377, 28, 0, -2490376, 28, 0, -2490375, 28, 0, -2490374, 28, 0, -2490373, 28, 0, -2490372, 28, 0, -2490371, 28, 0, -2490370, 28, 0, -2490369, 28, 0, -2555904, 28, 0, -2555903, 28, 0, -2555902, 28, 0, -2555901, 28, 0, -2555900, 28, 0, -2555899, 28, 0, -2555898, 28, 0, -2555897, 28, 0, -2555896, 28, 0, -2555895, 28, 0, -2555894, 28, 0, -2555893, 28, 0, -2555892, 28, 0, -2555891, 28, 0, -2555890, 28, 0, -2555889, 28, 0, -2555888, 28, 0, -2555887, 28, 0, -2555886, 28, 0, -2555885, 28, 0, -2424852, 28, 0, -2424851, 28, 0, -2424850, 28, 0, -2424849, 28, 0, -2424848, 28, 0, -2424847, 28, 0, -2424846, 28, 0, -2424845, 28, 0, -2424844, 28, 0, -2424843, 28, 0, -2424842, 28, 0, -2424841, 28, 0, -2424840, 28, 0, -2424839, 28, 0, -2424838, 28, 0, -2424837, 28, 0, -2424836, 28, 0, -2424835, 28, 0, -2424834, 28, 0, -2424833, 28, 0, -2490368, 28, 0, -2490367, 28, 0, -2490366, 28, 0, -2490365, 28, 0, -2490364, 28, 0, -2490363, 28, 0, -2490362, 28, 0, -2490361, 28, 0, -2490360, 28, 0, -2490359, 28, 0, -2490358, 28, 0, -2490357, 28, 0, -2490356, 28, 0, -2490355, 28, 0, -2490354, 28, 0, -2490353, 28, 0, -2490352, 28, 0, -2490351, 28, 0, -2490350, 28, 0, -2490349, 28, 0, -2359319, 1610612737, 0, -2359318, 1073741824, 0, -2359317, 1073741824, 0, -2359316, 1073741824, 0, -2359315, 1073741824, 0, -2359314, 1073741824, 0, -2359313, 1073741824, 0, -2359312, 1073741824, 0, -2359311, 1073741824, 0, -2359310, 1073741824, 0, -2359309, 1073741824, 0, -2359308, 1073741824, 0, -2359307, 1073741824, 0, -2359306, 1073741824, 0, -2359305, 1073741824, 0, -2359304, 1073741824, 0, -2359303, 1073741824, 0, -2359302, 1073741824, 0, -2359301, 1073741824, 0, -2359300, 1073741824, 0, -2359299, 1073741824, 0, -2359298, 1073741824, 0, -2359297, 1073741824, 0, -2424832, 1073741824, 0, -2424831, 1073741824, 0, -2424830, 1073741824, 0, -2424829, 1073741824, 0, -2424828, 1073741824, 0, -2424827, 1073741824, 0, -2424826, 1073741824, 0, -2424825, 1073741824, 0, -2424824, 1073741824, 0, -2424823, 1073741824, 0, -2424822, 1073741824, 0, -2424821, 1073741824, 0, -2424820, 1073741824, 0, -2424819, 1073741824, 0, -2424818, 1073741824, 0, -2424817, 1073741824, 0, -2424816, 1073741824, 0, -2424815, 1073741824, 0, -2424814, 1073741824, 0, -2424813, 1073741824, 0, -2424812, 1073741824, 0, -2424811, 1073741824, 0, -2424810, 1073741824, 0, -2424809, 1073741824, 0, -2424808, 1073741824, 0, -2424807, 1073741824, 0, -2424806, 1073741825, 0, -2293783, 2, 0, -2293782, 6, 0, -2293762, 23, 0, -2359278, 6, 0, -2359274, 12, 0, -2359270, 2, 0, -2228247, 2, 0, -2293734, 2, 0, -2162711, 2, 0, -2228198, 2, 0, -2097175, 2, 0, -2162662, 2, 0, -2031639, 2, 0, -2097126, 2, 0, -1966103, 1073741825, 0, -2031590, 2, 0, -1900567, 7, 0, -1966054, 2, 0, -1835031, 7, 0, -1900518, 2, 0, -1769495, 7, 0, -1769494, 6, 0, -1769474, 6, 0, -1834990, 12, 0, -1834986, 6, 0, -1834982, 2, 0, -1703959, 7, 0, -1769446, 2, 0, -1638423, 7, 0, -1638418, 27, 0, -1638417, 27, 0, -1638416, 27, 0, -1638415, 27, 0, -1638414, 27, 0, -1638413, 27, 0, -1638412, 27, 0, -1638411, 27, 0, -1638410, 27, 0, -1703910, 2, 0, -1572887, 536870913, 0, -1572886, 0, 0, -1572885, 0, 0, -1572884, 0, 0, -1572883, 0, 0, -1572882, 0, 0, -1572881, 0, 0, -1572880, 0, 0, -1572879, 0, 0, -1572878, 0, 0, -1572877, 0, 0, -1572876, 0, 0, -1572875, 0, 0, -1572874, 0, 0, -1638374, 2, 0, -1507351, 2, 0, -1572838, 2, 0, -1441815, 2, 0, -1507302, 2, 0, -1376279, 2, 0, -1441766, 2, 0, -1310743, 2, 0, -1376230, 2, 0, -1245207, 2, 0, -1245206, 23, 0, -1245186, 23, 0, -1310702, 6, 0, -1310698, 12, 0, -1310694, 2, 0, -1179671, 2, 0, -1245158, 2, 0, -1114135, 2, 0, -1179622, 2, 0, -1048599, 2, 0, -1114086, 2, 0, -983063, 2, 0, -1048550, 2, 0, -917527, 2, 0, -983014, 2, 0, -851991, 2, 0, -917478, 1610612737, 0, -786455, 2, 0, -851942, 7, 0, -720919, 2, 0, -720918, 24, 0, -720898, 6, 0, -786414, 9, 0, -786413, 8, 0, -786412, 8, 0, -786411, 9, 0, -786410, 9, 0, -786409, 8, 0, -786408, 8, 0, -786407, 9, 0, -786406, 7, 0, -655383, 2, 0, -720878, 11, 0, -720874, 11, 0, -720870, 7, 0, -589847, 2, 0, -655334, 7, 0, -524311, 2, 0, -589798, 7, 0, -458775, 2, 0, -524272, 21, 0, -524271, 0, 0, -524270, 0, 0, -524269, 0, 0, -524268, 0, 0, -524267, 0, 0, -524266, 0, 0, -524265, 0, 0, -524264, 0, 0, -524263, 0, 0, -524262, 1, 0, -393239, 2, 0, -458737, 536870926, 0, -458736, 3, 0, -458735, -1610612732, 0, -458734, -1610612732, 0, -458733, -1610612732, 0, -458732, -1610612732, 0, -458731, -1610612732, 0, -458730, -1610612732, 0, -458729, -1610612732, 0, -458728, -1610612732, 0, -458727, 536870915, 0, -458726, 2, 0, -327703, 2, 0, -393202, 536870926, 0, -393201, 3, 0, -393200, 1610612739, 0, -393199, 5, 0, -393198, 5, 0, -393197, 5, 0, -393196, 5, 0, -393195, 5, 0, -393194, 5, 0, -393193, 5, 0, -393192, 5, 0, -393191, 4, 0, -393190, 2, 0, -262167, 2, 0, -327667, 536870926, 0, -327666, 3, 0, -327665, 1610612739, 0, -327664, 5, 0, -327663, 5, 0, -327662, 5, 0, -327661, 5, 0, -327660, 5, 0, -327659, 5, 0, -327658, 5, 0, -327657, 5, 0, -327656, 5, 0, -327655, 4, 0, -327654, 2, 0, -196631, 2, 0, -196630, 6, 0, -196610, 13, 0, -262132, 536870926, 0, -262131, 3, 0, -262130, 1610612739, 0, -262129, 5, 0, -262128, 5, 0, -262127, 5, 0, -262126, 5, 0, -262125, 5, 0, -262124, 5, 0, -262123, 5, 0, -262122, 5, 0, -262121, 5, 0, -262120, 5, 0, -262119, 4, 0, -262118, 2, 0, -131095, 2, 0, -196597, 536870926, 0, -196596, 3, 0, -196595, 1610612739, 0, -196594, 5, 0, -196593, 5, 0, -196592, 5, 0, -196591, 5, 0, -196590, 5, 0, -196589, 5, 0, -196588, 5, 0, -196587, 5, 0, -196586, 5, 0, -196585, 5, 0, -196584, 5, 0, -196583, 4, 0, -196582, 2, 0, -65559, 2, 0, -131062, 536870926, 0, -131061, 3, 0, -131060, 1610612739, 0, -131059, 5, 0, -131058, 5, 0, -131057, 5, 0, -131056, 5, 0, -131055, 5, 0, -131054, 5, 0, -131053, 5, 0, -131052, 5, 0, -131051, 5, 0, -131050, 5, 0, -131049, 5, 0, -131048, 5, 0, -131047, 4, 0, -131046, 2, 0, -23, 2, 0, -65527, 536870926, 0, -65526, 3, 0, -65525, 1610612739, 0, -65524, 5, 0, -65523, 5, 0, -65522, 5, 0, -65521, 5, 0, -65520, 5, 0, -65519, 5, 0, -65518, 5, 0, -65517, 5, 0, -65516, 5, 0, -65515, 5, 0, -65514, 5, 0, -65513, 5, 0, -65512, 5, 0, -65511, 4, 0, -65510, 2, 0, 65513, 2, 0, 8, 536870926, 0, 9, 3, 0, 10, 1610612739, 0, 11, 5, 0, 12, 5, 0, 13, 5, 0, 14, 5, 0, 15, 5, 0, 16, 5, 0, 17, 5, 0, 18, 5, 0, 19, 5, 0, 20, 5, 0, 21, 5, 0, 22, 5, 0, 23, 5, 0, 24, 5, 0, 25, 4, 0, 26, 2, 0, 131049, 2, 0, 65543, 536870926, 0, 65544, 3, 0, 65545, 1610612739, 0, 65546, 5, 0, 65547, 5, 0, 65548, 5, 0, 65549, 5, 0, 65550, 5, 0, 65551, 5, 0, 65552, 5, 0, 65553, 5, 0, 65554, 5, 0, 65555, 5, 0, 65556, 5, 0, 65557, 5, 0, 65558, 5, 0, 65559, 5, 0, 65560, 5, 0, 65561, 4, 0, 65562, 2, 0, 196585, 2, 0, 131078, 536870926, 0, 131079, 3, 0, 131080, 1610612739, 0, 131081, 5, 0, 131082, 5, 0, 131083, 5, 0, 131084, 5, 0, 131085, 5, 0, 131086, 5, 0, 131087, 5, 0, 131088, 5, 0, 131089, 5, 0, 131090, 5, 0, 131091, 5, 0, 131092, 5, 0, 131093, 5, 0, 131094, 5, 0, 131095, 5, 0, 131096, 5, 0, 131097, 4, 0, 131098, 2, 0, 262121, 2, 0, 196613, 536870926, 0, 196614, 3, 0, 196615, 1610612739, 0, 196616, 5, 0, 196617, 5, 0, 196618, 5, 0, 196619, 5, 0, 196620, 5, 0, 196621, 5, 0, 196622, 5, 0, 196623, 5, 0, 196624, 5, 0, 196625, 5, 0, 196626, 5, 0, 196627, 5, 0, 196628, 5, 0, 196629, 5, 0, 196630, 5, 0, 196631, 5, 0, 196632, 5, 0, 196633, 4, 0, 196634, 2, 0, 327657, 536870913, 0, 327658, 0, 0, 327659, 0, 0, 327660, 0, 0, 327661, 0, 0, 327662, 0, 0, 327663, 0, 0, 327664, 0, 0, 327665, 0, 0, 327666, 0, 0, 327667, 0, 0, 327668, 0, 0, 327669, 0, 0, 327670, 0, 0, 327671, 0, 0, 327672, 0, 0, 327673, 0, 0, 327674, 0, 0, 327675, 0, 0, 327676, 0, 0, 327677, 0, 0, 327678, 0, 0, 327679, 0, 0, 262144, 0, 0, 262145, 0, 0, 262146, 0, 0, 262147, 21, 0, 262148, 536870926, 0, 262149, 5, 0, 262150, 1073741827, 0, 262151, -1610612732, 0, 262152, -1610612732, 0, 262153, -1610612732, 0, 262154, -1610612732, 0, 262155, -1610612732, 0, 262156, -1610612732, 0, 262157, -1610612732, 0, 262158, -1610612732, 0, 262159, -1610612732, 0, 262160, -1610612732, 0, 262161, -1610612732, 0, 262162, -1610612732, 0, 262163, -1610612732, 0, 262164, -1610612732, 0, 262165, -1610612732, 0, 262166, -1610612732, 0, 262167, -1610612732, 0, 262168, -1610612732, 0, 262169, 1610612739, 0, 262170, 1, 0, 393196, 28, 0, 393197, 28, 0, 393198, 28, 0, 393199, 28, 0, 393200, 28, 0, 393201, 28, 0, 393202, 28, 0, 393203, 28, 0, 393204, 28, 0, 393205, 28, 0, 393206, 28, 0, 393207, 28, 0, 393208, 28, 0, 393209, 28, 0, 393210, 28, 0, 393211, 28, 0, 393212, 28, 0, 393213, 28, 0, 393214, 28, 0, 393215, 28, 0, 327680, 28, 0, 327681, 28, 0, 327682, 28, 0, 327683, 28, 0, 327684, 28, 0, 327685, 28, 0, 327686, 28, 0, 327687, 28, 0, 327688, 28, 0, 327689, 28, 0, 327690, 28, 0, 327691, 28, 0, 327692, 28, 0, 327693, 28, 0, 327694, 28, 0, 327695, 28, 0, 327696, 28, 0, 327697, 28, 0, 327698, 28, 0, 327699, 28, 0, 458732, 28, 0, 458733, 28, 0, 458734, 28, 0, 458735, 28, 0, 458736, 28, 0, 458737, 28, 0, 458738, 28, 0, 458739, 28, 0, 458740, 28, 0, 458741, 28, 0, 458742, 28, 0, 458743, 28, 0, 458744, 28, 0, 458745, 28, 0, 458746, 28, 0, 458747, 28, 0, 458748, 28, 0, 458749, 28, 0, 458750, 28, 0, 458751, 28, 0, 393216, 28, 0, 393217, 28, 0, 393218, 28, 0, 393219, 28, 0, 393220, 28, 0, 393221, 28, 0, 393222, 28, 0, 393223, 28, 0, 393224, 28, 0, 393225, 28, 0, 393226, 28, 0, 393227, 28, 0, 393228, 28, 0, 393229, 28, 0, 393230, 28, 0, 393231, 28, 0, 393232, 28, 0, 393233, 28, 0, 393234, 28, 0, 393235, 28, 0, 524268, 28, 0, 524269, 28, 0, 524270, 28, 0, 524271, 28, 0, 524272, 28, 0, 524273, 28, 0, 524274, 28, 0, 524275, 28, 0, 524276, 28, 0, 524277, 28, 0, 524278, 28, 0, 524279, 28, 0, 524280, 28, 0, 524281, 28, 0, 524282, 28, 0, 524283, 28, 0, 524284, 28, 0, 524285, 28, 0, 524286, 28, 0, 524287, 28, 0, 458752, 28, 0, 458753, 28, 0, 458754, 28, 0, 458755, 28, 0, 458756, 28, 0, 458757, 28, 0, 458758, 28, 0, 458759, 28, 0, 458760, 28, 0, 458761, 28, 0, 458762, 28, 0, 458763, 28, 0, 458764, 28, 0, 458765, 28, 0, 458766, 28, 0, 458767, 28, 0, 458768, 28, 0, 458769, 28, 0, 458770, 28, 0, 458771, 28, 0, 589804, 28, 0, 589805, 28, 0, 589806, 28, 0, 589807, 28, 0, 589808, 28, 0, 589809, 28, 0, 589810, 28, 0, 589811, 28, 0, 589812, 28, 0, 589813, 28, 0, 589814, 28, 0, 589815, 28, 0, 589816, 28, 0, 589817, 28, 0, 589818, 28, 0, 589819, 28, 0, 589820, 28, 0, 589821, 28, 0, 589822, 28, 0, 589823, 28, 0, 524288, 28, 0, 524289, 28, 0, 524290, 28, 0, 524291, 28, 0, 524292, 28, 0, 524293, 28, 0, 524294, 28, 0, 524295, 28, 0, 524296, 28, 0, 524297, 28, 0, 524298, 28, 0, 524299, 28, 0, 524300, 28, 0, 524301, 28, 0, 524302, 28, 0, 524303, 28, 0, 524304, 28, 0, 524305, 28, 0, 524306, 28, 0, 524307, 28, 0, 655340, 28, 0, 655341, 28, 0, 655342, 28, 0, 655343, 28, 0, 655344, 28, 0, 655345, 28, 0, 655346, 28, 0, 655347, 28, 0, 655348, 28, 0, 655349, 28, 0, 655350, 28, 0, 655351, 28, 0, 655352, 28, 0, 655353, 28, 0, 655354, 28, 0, 655355, 28, 0, 655356, 28, 0, 655357, 28, 0, 655358, 28, 0, 655359, 28, 0, 589824, 28, 0, 589825, 28, 0, 589826, 28, 0, 589827, 28, 0, 589828, 28, 0, 589829, 28, 0, 589830, 28, 0, 589831, 28, 0, 589832, 28, 0, 589833, 28, 0, 589834, 28, 0, 589835, 28, 0, 589836, 28, 0, 589837, 28, 0, 589838, 28, 0, 589839, 28, 0, 589840, 28, 0, 589841, 28, 0, 589842, 28, 0, 589843, 28, 0, 720876, 28, 0, 720877, 28, 0, 720878, 28, 0, 720879, 28, 0, 720880, 28, 0, 720881, 28, 0, 720882, 28, 0, 720883, 28, 0, 720884, 28, 0, 720885, 28, 0, 720886, 28, 0, 720887, 28, 0, 720888, 28, 0, 720889, 28, 0, 720890, 28, 0, 720891, 28, 0, 720892, 28, 0, 720893, 28, 0, 720894, 28, 0, 720895, 28, 0, 655360, 28, 0, 655361, 28, 0, 655362, 28, 0, 655363, 28, 0, 655364, 28, 0, 655365, 28, 0, 655366, 28, 0, 655367, 28, 0, 655368, 28, 0, 655369, 28, 0, 655370, 28, 0, 655371, 28, 0, 655372, 28, 0, 655373, 28, 0, 655374, 28, 0, 655375, 28, 0, 655376, 28, 0, 655377, 28, 0, 655378, 28, 0, 655379, 28, 0, 786412, 28, 0, 786413, 28, 0, 786414, 28, 0, 786415, 28, 0, 786416, 28, 0, 786417, 28, 0, 786418, 28, 0, 786419, 28, 0, 786420, 28, 0, 786421, 28, 0, 786422, 28, 0, 786423, 28, 0, 786424, 28, 0, 786425, 28, 0, 786426, 28, 0, 786427, 28, 0, 786428, 28, 0, 786429, 28, 0, 786430, 28, 0, 786431, 28, 0, 720896, 28, 0, 720897, 28, 0, 720898, 28, 0, 720899, 28, 0, 720900, 28, 0, 720901, 28, 0, 720902, 28, 0, 720903, 28, 0, 720904, 28, 0, 720905, 28, 0, 720906, 28, 0, 720907, 28, 0, 720908, 28, 0, 720909, 28, 0, 720910, 28, 0, 720911, 28, 0, 720912, 28, 0, 720913, 28, 0, 720914, 28, 0, 720915, 28, 0, 851948, 28, 0, 851949, 28, 0, 851950, 28, 0, 851951, 28, 0, 851952, 28, 0, 851953, 28, 0, 851954, 28, 0, 851955, 28, 0, 851956, 28, 0, 851957, 28, 0, 851958, 28, 0, 851959, 28, 0, 851960, 28, 0, 851961, 28, 0, 851962, 28, 0, 851963, 28, 0, 851964, 28, 0, 851965, 28, 0, 851966, 28, 0, 851967, 28, 0, 786432, 28, 0, 786433, 28, 0, 786434, 28, 0, 786435, 28, 0, 786436, 28, 0, 786437, 28, 0, 786438, 28, 0, 786439, 28, 0, 786440, 28, 0, 786441, 28, 0, 786442, 28, 0, 786443, 28, 0, 786444, 28, 0, 786445, 28, 0, 786446, 28, 0, 786447, 28, 0, 786448, 28, 0, 786449, 28, 0, 786450, 28, 0, 786451, 28, 0, 917484, 28, 0, 917485, 28, 0, 917486, 28, 0, 917487, 28, 0, 917488, 28, 0, 917489, 28, 0, 917490, 28, 0, 917491, 28, 0, 917492, 28, 0, 917493, 28, 0, 917494, 28, 0, 917495, 28, 0, 917496, 28, 0, 917497, 28, 0, 917498, 28, 0, 917499, 28, 0, 917500, 28, 0, 917501, 28, 0, 917502, 28, 0, 917503, 28, 0, 851968, 28, 0, 851969, 28, 0, 851970, 28, 0, 851971, 28, 0, 851972, 28, 0, 851973, 28, 0, 851974, 28, 0, 851975, 28, 0, 851976, 28, 0, 851977, 28, 0, 851978, 28, 0, 851979, 28, 0, 851980, 28, 0, 851981, 28, 0, 851982, 28, 0, 851983, 28, 0, 851984, 28, 0, 851985, 28, 0, 851986, 28, 0, 851987, 28, 0, 983020, 28, 0, 983021, 28, 0, 983022, 28, 0, 983023, 28, 0, 983024, 28, 0, 983025, 28, 0, 983026, 28, 0, 983027, 28, 0, 983028, 28, 0, 983029, 28, 0, 983030, 28, 0, 983031, 28, 0, 983032, 28, 0, 983033, 28, 0, 983034, 28, 0, 983035, 28, 0, 983036, 28, 0, 983037, 28, 0, 983038, 28, 0, 983039, 28, 0, 917504, 28, 0, 917505, 28, 0, 917506, 28, 0, 917507, 28, 0, 917508, 28, 0, 917509, 28, 0, 917510, 28, 0, 917511, 28, 0, 917512, 28, 0, 917513, 28, 0, 917514, 28, 0, 917515, 28, 0, 917516, 28, 0, 917517, 28, 0, 917518, 28, 0, 917519, 28, 0, 917520, 28, 0, 917521, 28, 0, 917522, 28, 0, 917523, 28, 0 )

[node name="ClimbableGroup" type="Node2D" parent="tilemap"]

[node name="ClimbableBlock" parent="tilemap/ClimbableGroup" instance=ExtResource( 2 )]
position = Vector2( -272, -784 )
physics_material_override = SubResource( 1 )

[node name="Sprite" parent="tilemap/ClimbableGroup/ClimbableBlock" index="0"]
flip_h = false

[node name="SlopeGroup" type="Node2D" parent="tilemap"]

[node name="Slope31-0" parent="tilemap/SlopeGroup" instance=ExtResource( 3 )]
position = Vector2( 496, -240 )

[node name="Slope31-1" parent="tilemap/SlopeGroup" instance=ExtResource( 3 )]
position = Vector2( 464, -208 )

[node name="Slope31-2" parent="tilemap/SlopeGroup" instance=ExtResource( 3 )]
position = Vector2( 432, -176 )

[node name="Slope31-3" parent="tilemap/SlopeGroup" instance=ExtResource( 3 )]
position = Vector2( 400, -144 )

[node name="Slope31-4" parent="tilemap/SlopeGroup" instance=ExtResource( 3 )]
position = Vector2( 368, -112 )

[node name="Slope31-5" parent="tilemap/SlopeGroup" instance=ExtResource( 3 )]
position = Vector2( 336, -80 )

[node name="Slope31-6" parent="tilemap/SlopeGroup" instance=ExtResource( 3 )]
position = Vector2( 304, -48 )

[node name="Slope31-7" parent="tilemap/SlopeGroup" instance=ExtResource( 3 )]
position = Vector2( 272, -16 )

[node name="Slope31-8" parent="tilemap/SlopeGroup" instance=ExtResource( 3 )]
position = Vector2( 240, 16 )

[node name="Slope31-9" parent="tilemap/SlopeGroup" instance=ExtResource( 3 )]
position = Vector2( 208, 48 )

[node name="Slope31-10" parent="tilemap/SlopeGroup" instance=ExtResource( 3 )]
position = Vector2( 176, 80 )

[node name="Slope31-11" parent="tilemap/SlopeGroup" instance=ExtResource( 3 )]
position = Vector2( 144, 112 )

[node name="TestSlopea-b" parent="tilemap/SlopeGroup" instance=ExtResource( 4 )]
position = Vector2( 528, -240 )

[node name="TestSlopea-b1" parent="tilemap/SlopeGroup" instance=ExtResource( 4 )]
position = Vector2( 496, -208 )

[node name="TestSlopea-b2" parent="tilemap/SlopeGroup" instance=ExtResource( 4 )]
position = Vector2( 464, -176 )

[node name="TestSlopea-b3" parent="tilemap/SlopeGroup" instance=ExtResource( 4 )]
position = Vector2( 432, -144 )

[node name="TestSlopea-b4" parent="tilemap/SlopeGroup" instance=ExtResource( 4 )]
position = Vector2( 400, -112 )

[node name="TestSlopea-b5" parent="tilemap/SlopeGroup" instance=ExtResource( 4 )]
position = Vector2( 368, -80 )

[node name="TestSlopea-b6" parent="tilemap/SlopeGroup" instance=ExtResource( 4 )]
position = Vector2( 336, -48 )

[node name="TestSlopea-b7" parent="tilemap/SlopeGroup" instance=ExtResource( 4 )]
position = Vector2( 304, -16 )

[node name="TestSlopea-b8" parent="tilemap/SlopeGroup" instance=ExtResource( 4 )]
position = Vector2( 272, 16 )

[node name="TestSlopea-b9" parent="tilemap/SlopeGroup" instance=ExtResource( 4 )]
position = Vector2( 240, 48 )

[node name="TestSlopea-b10" parent="tilemap/SlopeGroup" instance=ExtResource( 4 )]
position = Vector2( 208, 80 )

[node name="TestSlopea-b11" parent="tilemap/SlopeGroup" instance=ExtResource( 4 )]
position = Vector2( 176, 112 )

[node name="TestSlopea-b12" parent="tilemap/SlopeGroup" instance=ExtResource( 4 )]
position = Vector2( 144, 144 )

[node name="TestSlopea-b13" parent="tilemap/SlopeGroup" instance=ExtResource( 4 )]
position = Vector2( 112, 144 )

[node name="LampGroup" type="Node2D" parent="tilemap"]

[node name="lamp" parent="tilemap/LampGroup" instance=ExtResource( 5 )]
position = Vector2( 640, -528 )

[node name="lamp2" parent="tilemap/LampGroup" instance=ExtResource( 5 )]
position = Vector2( 0, -272 )

[node name="lamp3" parent="tilemap/LampGroup" instance=ExtResource( 5 )]
position = Vector2( -640, -1040 )

[node name="lamp4" parent="tilemap/LampGroup" instance=ExtResource( 5 )]
position = Vector2( 0, -784 )

[node name="EnemiesGroup" type="Node2D" parent="tilemap"]

[node name="Demon" parent="tilemap/EnemiesGroup" instance=ExtResource( 6 )]
position = Vector2( 112, -400 )

[node name="Demon2" parent="tilemap/EnemiesGroup" instance=ExtResource( 6 )]
position = Vector2( -176, -560 )

[node name="TeleportGroup" type="Node2D" parent="tilemap"]

[node name="Teleport" parent="tilemap/TeleportGroup" instance=ExtResource( 7 )]
position = Vector2( 880, -336 )
target_level = "res://levels/summerislandcastle/0-10.tscn"
teleport_to = Vector2( -492, 48 )

[node name="teleport" parent="tilemap/TeleportGroup/Teleport" index="0"]
scale = Vector2( 1, 5 )

[node name="Teleport1" parent="tilemap/TeleportGroup" instance=ExtResource( 7 )]
position = Vector2( -752, -880 )
target_level = "res://levels/summerislandcastle/0-12.tscn"
teleport_to = Vector2( 428, -1840 )

[node name="teleport" parent="tilemap/TeleportGroup/Teleport1" index="0"]
scale = Vector2( 1, 5 )

[node name="boundaries" type="Node2D" parent="tilemap"]

[node name="NW" type="Position2D" parent="tilemap/boundaries"]
position = Vector2( -752, -1200 )

[node name="SE" type="Position2D" parent="tilemap/boundaries"]
position = Vector2( 880, 176 )

[node name="ParallaxBackground" type="ParallaxBackground" parent="."]

[node name="ParallaxLayer" type="ParallaxLayer" parent="ParallaxBackground"]
motion_scale = Vector2( 1, 0.5 )
motion_mirroring = Vector2( 0, 1280 )

[node name="TileMap" type="TileMap" parent="ParallaxBackground/ParallaxLayer"]
position = Vector2( 0, 512 )
tile_set = ExtResource( 1 )
cell_size = Vector2( 32, 32 )
format = 1
tile_data = PoolIntArray( -2293778, 22, 0, -2293770, 536870934, 0, -2359294, 22, 0, -2359286, 536870934, 0, -1769490, 22, 0, -1769482, 536870934, 0, -1835006, 22, 0, -1834998, 536870934, 0, -1245202, 22, 0, -1245194, 536870934, 0, -1310718, 22, 0, -1310710, 536870934, 0, -720914, 22, 0, -720906, 536870934, 0, -786430, 22, 0, -786422, 536870934, 0, -196626, 22, 0, -196618, 536870934, 0, -262142, 22, 0, -262134, 536870934, 0 )

[editable path="tilemap/ClimbableGroup/ClimbableBlock"]

[editable path="tilemap/TeleportGroup/Teleport"]

[editable path="tilemap/TeleportGroup/Teleport1"]
