[gd_scene load_steps=10 format=2]

[ext_resource path="res://scenes/fallislandcastle/tileset.tres" type="TileSet" id=1]
[ext_resource path="res://scenes/fallislandcastle/climbableblock.tscn" type="PackedScene" id=2]
[ext_resource path="res://scenes/common/breakables/lamp.tscn" type="PackedScene" id=3]
[ext_resource path="res://scenes/common/damagables/flyingskull/flyingskull.tscn" type="PackedScene" id=4]
[ext_resource path="res://scenes/common/teleport.tscn" type="PackedScene" id=5]

[sub_resource type="PhysicsMaterial" id=1]
friction = 0.0

[sub_resource type="PhysicsMaterial" id=2]
friction = 0.0

[sub_resource type="PhysicsMaterial" id=3]
friction = 0.0

[sub_resource type="PhysicsMaterial" id=4]
friction = 0.0

[node name="LVL_NOTITLE" type="Node2D"]
__meta__ = {
"__editor_plugin_screen__": "2D"
}

[node name="tilemap" type="TileMap" parent="."]
tile_set = ExtResource( 1 )
cell_size = Vector2( 32, 32 )
compatibility_mode = true
collision_layer = 524288
format = 1
tile_data = PoolIntArray( -1376281, 24, 0, -1376280, 24, 0, -1376279, 24, 0, -1376278, 24, 0, -1376277, 24, 0, -1376276, 24, 0, -1376275, 24, 0, -1376274, 24, 0, -1376273, 24, 0, -1376272, 24, 0, -1376271, 24, 0, -1376270, 24, 0, -1376269, 24, 0, -1376268, 24, 0, -1376267, 24, 0, -1376266, 24, 0, -1376265, 24, 0, -1376264, 24, 0, -1376263, 24, 0, -1376262, 24, 0, -1376261, 24, 0, -1376260, 24, 0, -1376259, 24, 0, -1376258, 24, 0, -1376257, 24, 0, -1441792, 24, 0, -1441791, 24, 0, -1441790, 24, 0, -1441789, 24, 0, -1441788, 24, 0, -1441787, 24, 0, -1441786, 24, 0, -1441785, 24, 0, -1441784, 24, 0, -1441783, 24, 0, -1441782, 24, 0, -1441781, 24, 0, -1441780, 24, 0, -1441779, 24, 0, -1441778, 24, 0, -1441777, 24, 0, -1441776, 24, 0, -1441775, 24, 0, -1441774, 24, 0, -1441773, 24, 0, -1441772, 24, 0, -1441771, 24, 0, -1441770, 24, 0, -1441769, 24, 0, -1441768, 24, 0, -1441767, 24, 0, -1441766, 24, 0, -1441765, 24, 0, -1441764, 24, 0, -1441763, 24, 0, -1441762, 24, 0, -1441761, 24, 0, -1441760, 24, 0, -1310745, 24, 0, -1310744, 24, 0, -1310743, 24, 0, -1310742, 24, 0, -1310741, 24, 0, -1310740, 24, 0, -1310739, 24, 0, -1310738, 24, 0, -1310737, 24, 0, -1310736, 24, 0, -1310735, 24, 0, -1310734, 24, 0, -1310733, 24, 0, -1310732, 24, 0, -1310731, 24, 0, -1310730, 24, 0, -1310729, 24, 0, -1310728, 24, 0, -1310727, 24, 0, -1310726, 24, 0, -1310725, 24, 0, -1310724, 24, 0, -1310723, 24, 0, -1310722, 24, 0, -1310721, 24, 0, -1376256, 24, 0, -1376255, 24, 0, -1376254, 24, 0, -1376253, 24, 0, -1376252, 24, 0, -1376251, 24, 0, -1376250, 24, 0, -1376249, 24, 0, -1376248, 24, 0, -1376247, 24, 0, -1376246, 24, 0, -1376245, 24, 0, -1376244, 24, 0, -1376243, 24, 0, -1376242, 24, 0, -1376241, 24, 0, -1376240, 24, 0, -1376239, 24, 0, -1376238, 24, 0, -1376237, 24, 0, -1376236, 24, 0, -1376235, 24, 0, -1376234, 24, 0, -1376233, 24, 0, -1376232, 24, 0, -1376231, 24, 0, -1376230, 24, 0, -1376229, 24, 0, -1376228, 24, 0, -1376227, 24, 0, -1376226, 24, 0, -1376225, 24, 0, -1376224, 24, 0, -1245209, 24, 0, -1245208, 24, 0, -1245207, 24, 0, -1245206, 24, 0, -1245205, 24, 0, -1245204, 24, 0, -1245203, 24, 0, -1245202, 24, 0, -1245201, 24, 0, -1245200, 24, 0, -1245199, 24, 0, -1245198, 24, 0, -1245197, 24, 0, -1245196, 24, 0, -1245195, 24, 0, -1245194, 24, 0, -1245193, 24, 0, -1245192, 24, 0, -1245191, 24, 0, -1245190, 24, 0, -1245189, 24, 0, -1245188, 24, 0, -1245187, 24, 0, -1245186, 24, 0, -1245185, 24, 0, -1310720, 24, 0, -1310719, 24, 0, -1310718, 24, 0, -1310717, 24, 0, -1310716, 24, 0, -1310715, 24, 0, -1310714, 24, 0, -1310713, 24, 0, -1310712, 24, 0, -1310711, 24, 0, -1310710, 24, 0, -1310709, 24, 0, -1310708, 24, 0, -1310707, 24, 0, -1310706, 24, 0, -1310705, 24, 0, -1310704, 24, 0, -1310703, 24, 0, -1310702, 24, 0, -1310701, 24, 0, -1310700, 24, 0, -1310699, 24, 0, -1310698, 24, 0, -1310697, 24, 0, -1310696, 24, 0, -1310695, 24, 0, -1310694, 24, 0, -1310693, 24, 0, -1310692, 24, 0, -1310691, 24, 0, -1310690, 24, 0, -1310689, 24, 0, -1310688, 24, 0, -1179673, 24, 0, -1179672, 24, 0, -1179671, 24, 0, -1179670, 24, 0, -1179669, 24, 0, -1179668, 24, 0, -1179667, 24, 0, -1179666, 24, 0, -1179665, 24, 0, -1179664, 24, 0, -1179663, 24, 0, -1179662, 24, 0, -1179661, 24, 0, -1179660, 24, 0, -1179659, 24, 0, -1179658, 24, 0, -1179657, 24, 0, -1179656, 24, 0, -1179655, 24, 0, -1179654, 24, 0, -1179653, 24, 0, -1179652, 24, 0, -1179651, 24, 0, -1179650, 24, 0, -1179649, 24, 0, -1245184, 24, 0, -1245183, 24, 0, -1245182, 24, 0, -1245181, 24, 0, -1245180, 24, 0, -1245179, 24, 0, -1245178, 24, 0, -1245177, 24, 0, -1245176, 24, 0, -1245175, 24, 0, -1245174, 24, 0, -1245173, 24, 0, -1245172, 24, 0, -1245171, 24, 0, -1245170, 24, 0, -1245169, 24, 0, -1245168, 24, 0, -1245167, 24, 0, -1245166, 24, 0, -1245165, 24, 0, -1245164, 24, 0, -1245163, 24, 0, -1245162, 24, 0, -1245161, 24, 0, -1245160, 24, 0, -1245159, 24, 0, -1245158, 24, 0, -1245157, 24, 0, -1245156, 24, 0, -1245155, 24, 0, -1245154, 24, 0, -1245153, 24, 0, -1245152, 24, 0, -1114137, 24, 0, -1114136, 24, 0, -1114135, 24, 0, -1114134, 24, 0, -1114133, 24, 0, -1114132, 24, 0, -1114131, 24, 0, -1114130, 24, 0, -1114129, 24, 0, -1114128, 24, 0, -1114127, 24, 0, -1114126, 24, 0, -1114125, 24, 0, -1114124, 24, 0, -1114123, 24, 0, -1114122, 24, 0, -1114121, 24, 0, -1114120, 24, 0, -1114119, 24, 0, -1114118, 24, 0, -1114117, 24, 0, -1114116, 24, 0, -1114115, 24, 0, -1114114, 24, 0, -1114113, 24, 0, -1179648, 24, 0, -1179647, 24, 0, -1179646, 24, 0, -1179645, 24, 0, -1179644, 24, 0, -1179643, 24, 0, -1179642, 24, 0, -1179641, 24, 0, -1179640, 24, 0, -1179639, 24, 0, -1179638, 24, 0, -1179637, 24, 0, -1179636, 24, 0, -1179635, 24, 0, -1179634, 24, 0, -1179633, 24, 0, -1179632, 24, 0, -1179631, 24, 0, -1179630, 24, 0, -1179629, 24, 0, -1179628, 24, 0, -1179627, 24, 0, -1179626, 24, 0, -1179625, 24, 0, -1179624, 24, 0, -1179623, 24, 0, -1179622, 24, 0, -1179621, 24, 0, -1179620, 24, 0, -1179619, 24, 0, -1179618, 24, 0, -1179617, 24, 0, -1179616, 24, 0, -1048601, 24, 0, -1048600, 24, 0, -1048599, 24, 0, -1048598, 24, 0, -1048597, 24, 0, -1048596, 24, 0, -1048595, 24, 0, -1048594, 24, 0, -1048593, 24, 0, -1048592, 24, 0, -1048591, 24, 0, -1048590, 24, 0, -1048589, 24, 0, -1048588, 24, 0, -1048587, 24, 0, -1048586, 24, 0, -1048585, 24, 0, -1048584, 24, 0, -1048583, 24, 0, -1048582, 24, 0, -1048581, 24, 0, -1048580, 24, 0, -1048579, 24, 0, -1048578, 24, 0, -1048577, 24, 0, -1114112, 24, 0, -1114111, 24, 0, -1114110, 24, 0, -1114109, 24, 0, -1114108, 24, 0, -1114107, 24, 0, -1114106, 24, 0, -1114105, 24, 0, -1114104, 24, 0, -1114103, 24, 0, -1114102, 24, 0, -1114101, 24, 0, -1114100, 24, 0, -1114099, 24, 0, -1114098, 24, 0, -1114097, 24, 0, -1114096, 24, 0, -1114095, 24, 0, -1114094, 24, 0, -1114093, 24, 0, -1114092, 24, 0, -1114091, 24, 0, -1114090, 24, 0, -1114089, 24, 0, -1114088, 24, 0, -1114087, 24, 0, -1114086, 24, 0, -1114085, 24, 0, -1114084, 24, 0, -1114083, 24, 0, -1114082, 24, 0, -1114081, 24, 0, -1114080, 24, 0, -983065, 24, 0, -983064, 24, 0, -983063, 24, 0, -983062, 24, 0, -983061, 24, 0, -983060, 24, 0, -983059, 24, 0, -983058, 24, 0, -983057, 24, 0, -983056, 24, 0, -983055, 24, 0, -983054, 24, 0, -983053, 24, 0, -983052, 24, 0, -983051, 24, 0, -983050, 24, 0, -983049, 24, 0, -983048, 24, 0, -983047, 24, 0, -983046, 24, 0, -983045, 24, 0, -983044, 24, 0, -983043, 24, 0, -983042, 24, 0, -983041, 24, 0, -1048576, 24, 0, -1048575, 24, 0, -1048574, 24, 0, -1048573, 24, 0, -1048572, 24, 0, -1048571, 24, 0, -1048570, 24, 0, -1048569, 24, 0, -1048568, 24, 0, -1048567, 24, 0, -1048566, 24, 0, -1048565, 24, 0, -1048564, 24, 0, -1048563, 24, 0, -1048562, 24, 0, -1048561, 24, 0, -1048560, 24, 0, -1048559, 24, 0, -1048558, 24, 0, -1048557, 24, 0, -1048556, 24, 0, -1048555, 24, 0, -1048554, 24, 0, -1048553, 24, 0, -1048552, 24, 0, -1048551, 24, 0, -1048550, 24, 0, -1048549, 24, 0, -1048548, 24, 0, -1048547, 24, 0, -1048546, 24, 0, -1048545, 24, 0, -1048544, 24, 0, -917529, 24, 0, -917528, 24, 0, -917527, 24, 0, -917526, 24, 0, -917525, 24, 0, -917524, 24, 0, -917523, 24, 0, -917522, 24, 0, -917521, 24, 0, -917520, 24, 0, -917519, 24, 0, -917518, 24, 0, -917517, 24, 0, -917516, 24, 0, -917515, 24, 0, -917514, 24, 0, -917513, 24, 0, -917512, 24, 0, -917511, 24, 0, -917510, 24, 0, -917509, 24, 0, -917508, 24, 0, -917507, 24, 0, -917506, 24, 0, -917505, 24, 0, -983040, 24, 0, -983039, 24, 0, -983038, 24, 0, -983037, 24, 0, -983036, 24, 0, -983035, 24, 0, -983034, 24, 0, -983033, 24, 0, -983032, 24, 0, -983031, 24, 0, -983030, 24, 0, -983029, 24, 0, -983028, 24, 0, -983027, 24, 0, -983026, 24, 0, -983025, 24, 0, -983024, 24, 0, -983023, 24, 0, -983022, 24, 0, -983021, 24, 0, -983020, 24, 0, -983019, 24, 0, -983018, 24, 0, -983017, 24, 0, -983016, 24, 0, -983015, 24, 0, -983014, 24, 0, -983013, 24, 0, -983012, 24, 0, -983011, 24, 0, -983010, 24, 0, -983009, 24, 0, -983008, 24, 0, -851993, 24, 0, -851992, 24, 0, -851991, 24, 0, -851990, 24, 0, -851989, 24, 0, -851988, 24, 0, -851987, 24, 0, -851986, 24, 0, -851985, 24, 0, -851984, 24, 0, -851983, 24, 0, -851982, 24, 0, -851981, 24, 0, -851980, 24, 0, -851979, 24, 0, -851978, 24, 0, -851977, 24, 0, -851976, 24, 0, -851975, 24, 0, -851974, 24, 0, -851973, 24, 0, -851972, 24, 0, -851971, 24, 0, -851970, 24, 0, -851969, 24, 0, -917504, 24, 0, -917503, 24, 0, -917502, 24, 0, -917501, 24, 0, -917500, 24, 0, -917499, 24, 0, -917498, 24, 0, -917497, 24, 0, -917496, 24, 0, -917495, 24, 0, -917494, 24, 0, -917493, 24, 0, -917492, 24, 0, -917491, 24, 0, -917490, 24, 0, -917489, 24, 0, -917488, 24, 0, -917487, 24, 0, -917486, 24, 0, -917485, 24, 0, -917484, 24, 0, -917483, 24, 0, -917482, 24, 0, -917481, 24, 0, -917480, 24, 0, -917479, 24, 0, -917478, 24, 0, -917477, 24, 0, -917476, 24, 0, -917475, 24, 0, -917474, 24, 0, -917473, 24, 0, -917472, 24, 0, -786457, 24, 0, -786456, 24, 0, -786455, 24, 0, -786454, 24, 0, -786453, 24, 0, -786452, 24, 0, -786451, 24, 0, -786450, 24, 0, -786449, 24, 0, -786448, 24, 0, -786447, 24, 0, -786446, 24, 0, -786445, 24, 0, -786444, 24, 0, -786443, 1610612737, 0, -786442, 1073741824, 0, -786441, 1073741824, 0, -786440, 1073741824, 0, -786439, 1073741824, 0, -786438, 1073741824, 0, -786437, 1073741824, 0, -786436, 1073741824, 0, -786435, 1073741824, 0, -786434, 1073741824, 0, -786433, 1073741824, 0, -851968, 1073741824, 0, -851967, 1073741824, 0, -851966, 1073741824, 0, -851965, 1073741824, 0, -851964, 1073741824, 0, -851963, 1073741824, 0, -851962, 1073741824, 0, -851961, 1073741824, 0, -851960, 1073741824, 0, -851959, 1073741824, 0, -851958, 1073741824, 0, -851957, 1073741824, 0, -851956, 1073741824, 0, -851955, 1073741824, 0, -851954, 1073741824, 0, -851953, 1073741824, 0, -851952, 1073741824, 0, -851951, 1073741824, 0, -851950, 1073741824, 0, -851949, 1073741824, 0, -851948, 1073741824, 0, -851947, 1073741824, 0, -851946, 1073741825, 0, -851945, 24, 0, -851944, 24, 0, -851943, 24, 0, -851942, 24, 0, -851941, 24, 0, -851940, 24, 0, -851939, 24, 0, -851938, 24, 0, -851937, 24, 0, -851936, 24, 0, -720921, 24, 0, -720920, 24, 0, -720919, 24, 0, -720918, 24, 0, -720917, 24, 0, -720916, 24, 0, -720915, 24, 0, -720914, 24, 0, -720913, 24, 0, -720912, 24, 0, -720911, 24, 0, -720910, 24, 0, -720909, 24, 0, -720908, 24, 0, -720907, 1073741826, 0, -720906, 10, 0, -720902, 10, 0, -720898, 10, 0, -786414, 10, 0, -786410, 1073741826, 0, -786409, 24, 0, -786408, 24, 0, -786407, 24, 0, -786406, 24, 0, -786405, 24, 0, -786404, 24, 0, -786403, 24, 0, -786402, 24, 0, -786401, 24, 0, -786400, 24, 0, -655385, 24, 0, -655384, 24, 0, -655383, 24, 0, -655382, 24, 0, -655381, 24, 0, -655380, 24, 0, -655379, 24, 0, -655378, 24, 0, -655377, 24, 0, -655376, 24, 0, -655375, 24, 0, -655374, 24, 0, -655373, 24, 0, -655372, 24, 0, -655371, 1073741826, 0, -720874, 1073741826, 0, -720873, 24, 0, -720872, 24, 0, -720871, 24, 0, -720870, 24, 0, -720869, 24, 0, -720868, 24, 0, -720867, 24, 0, -720866, 24, 0, -720865, 24, 0, -720864, 24, 0, -589849, 24, 0, -589848, 24, 0, -589847, 24, 0, -589846, 24, 0, -589845, 24, 0, -589844, 24, 0, -589843, 24, 0, -589842, 24, 0, -589841, 24, 0, -589840, 24, 0, -589839, 24, 0, -589838, 24, 0, -589837, 24, 0, -589836, 24, 0, -589835, 1073741826, 0, -589834, 11, 0, -589830, 11, 0, -589826, 11, 0, -655342, 11, 0, -655338, 1073741826, 0, -655337, 24, 0, -655336, 24, 0, -655335, 24, 0, -655334, 24, 0, -655333, 24, 0, -655332, 24, 0, -655331, 24, 0, -655330, 24, 0, -655329, 24, 0, -655328, 24, 0, -524313, 24, 0, -524312, 24, 0, -524311, 24, 0, -524310, 24, 0, -524309, 24, 0, -524308, 24, 0, -524307, 24, 0, -524306, 24, 0, -524305, 24, 0, -524304, 24, 0, -524303, 24, 0, -524302, 24, 0, -524301, 24, 0, -524300, 24, 0, -524299, 1073741826, 0, -589802, 1073741826, 0, -589801, 24, 0, -589800, 24, 0, -589799, 24, 0, -589798, 24, 0, -589797, 24, 0, -589796, 24, 0, -589795, 24, 0, -589794, 24, 0, -589793, 24, 0, -589792, 24, 0, -458777, 24, 0, -458776, 24, 0, -458775, 24, 0, -458774, 24, 0, -458773, 24, 0, -458772, 24, 0, -458771, 24, 0, -458770, 24, 0, -458769, 24, 0, -458768, 24, 0, -458767, 24, 0, -458766, 24, 0, -458765, 24, 0, -458764, 24, 0, -458763, 1073741826, 0, -524266, 1610612737, 0, -524265, 24, 0, -524264, 24, 0, -524263, 24, 0, -524262, 24, 0, -524261, 24, 0, -524260, 24, 0, -524259, 24, 0, -524258, 24, 0, -524257, 24, 0, -524256, 24, 0, -393241, 24, 0, -393240, 24, 0, -393239, 24, 0, -393238, 24, 0, -393237, 24, 0, -393236, 24, 0, -393235, 24, 0, -393234, 24, 0, -393233, 24, 0, -393232, 24, 0, -393231, 24, 0, -393230, 24, 0, -393229, 24, 0, -393228, 24, 0, -393227, 1073741826, 0, -393226, 6, 0, -393222, 26, 0, -393218, 6, 0, -458734, 6, 0, -458730, 7, 0, -458729, 24, 0, -458728, 24, 0, -458727, 24, 0, -458726, 24, 0, -458725, 24, 0, -458724, 24, 0, -458723, 24, 0, -458722, 24, 0, -458721, 24, 0, -458720, 24, 0, -327705, 24, 0, -327704, 24, 0, -327703, 24, 0, -327702, 24, 0, -327701, 24, 0, -327700, 24, 0, -327699, 24, 0, -327698, 24, 0, -327697, 24, 0, -327696, 24, 0, -327695, 24, 0, -327694, 24, 0, -327693, 24, 0, -327692, 24, 0, -327691, 1073741826, 0, -393194, 7, 0, -393193, 24, 0, -393192, 24, 0, -393191, 24, 0, -393190, 24, 0, -393189, 24, 0, -393188, 24, 0, -393187, 24, 0, -393186, 24, 0, -393185, 24, 0, -393184, 24, 0, -262169, 24, 0, -262168, 24, 0, -262167, 24, 0, -262166, 24, 0, -262165, 24, 0, -262164, 24, 0, -262163, 24, 0, -262162, 24, 0, -262161, 24, 0, -262160, 24, 0, -262159, 24, 0, -262158, 24, 0, -262157, 24, 0, -262156, 24, 0, -262155, 1073741826, 0, -327658, 7, 0, -327657, 24, 0, -327656, 24, 0, -327655, 24, 0, -327654, 24, 0, -327653, 24, 0, -327652, 24, 0, -327651, 24, 0, -327650, 24, 0, -327649, 24, 0, -327648, 24, 0, -196633, 24, 0, -196632, 24, 0, -196631, 24, 0, -196630, 24, 0, -196629, 24, 0, -196628, 24, 0, -196627, 24, 0, -196626, 24, 0, -196625, 24, 0, -196624, 24, 0, -196623, 24, 0, -196622, 24, 0, -196621, 24, 0, -196620, 24, 0, -196619, 1073741826, 0, -262122, 7, 0, -262121, 24, 0, -262120, 24, 0, -262119, 24, 0, -262118, 24, 0, -262117, 24, 0, -262116, 24, 0, -262115, 24, 0, -262114, 24, 0, -262113, 24, 0, -262112, 24, 0, -131097, 24, 0, -131096, 24, 0, -131095, 24, 0, -131094, 24, 0, -131093, 24, 0, -131092, 24, 0, -131091, 24, 0, -131090, 24, 0, -131089, 24, 0, -131088, 24, 0, -131087, 24, 0, -131086, 24, 0, -131085, 24, 0, -131084, 24, 0, -131083, 1073741826, 0, -196586, 7, 0, -196585, 24, 0, -196584, 24, 0, -196583, 24, 0, -196582, 24, 0, -196581, 24, 0, -196580, 24, 0, -196579, 24, 0, -196578, 24, 0, -196577, 24, 0, -196576, 24, 0, -65561, 24, 0, -65560, 24, 0, -65559, 24, 0, -65558, 24, 0, -65557, 24, 0, -65556, 24, 0, -65555, 24, 0, -65554, 24, 0, -65553, 24, 0, -65552, 24, 0, -65551, 24, 0, -65550, 24, 0, -65549, 24, 0, -65548, 24, 0, -65547, 1073741826, 0, -131053, 0, 0, -131052, 0, 0, -131051, 0, 0, -131050, 0, 0, -131049, 24, 0, -131048, 24, 0, -131047, 24, 0, -131046, 24, 0, -131045, 24, 0, -131044, 24, 0, -131043, 24, 0, -131042, 24, 0, -131041, 24, 0, -131040, 24, 0, -25, 24, 0, -24, 24, 0, -23, 24, 0, -22, 24, 0, -21, 24, 0, -20, 24, 0, -19, 24, 0, -18, 24, 0, -17, 24, 0, -16, 24, 0, -15, 24, 0, -14, 24, 0, -13, 24, 0, -12, 24, 0, -11, 1073741826, 0, -65514, 2, 0, -65513, 24, 0, -65512, 24, 0, -65511, 24, 0, -65510, 24, 0, -65509, 24, 0, -65508, 24, 0, -65507, 24, 0, -65506, 24, 0, -65505, 24, 0, -65504, 24, 0, 65511, 24, 0, 65512, 24, 0, 65513, 24, 0, 65514, 24, 0, 65515, 24, 0, 65516, 24, 0, 65517, 24, 0, 65518, 24, 0, 65519, 24, 0, 65520, 24, 0, 65521, 24, 0, 65522, 24, 0, 65523, 24, 0, 65524, 24, 0, 65525, 1073741826, 0, 22, 2, 0, 23, 24, 0, 24, 24, 0, 25, 24, 0, 26, 24, 0, 27, 24, 0, 28, 24, 0, 29, 24, 0, 30, 24, 0, 31, 24, 0, 32, 24, 0, 131047, 24, 0, 131048, 24, 0, 131049, 24, 0, 131050, 24, 0, 131051, 24, 0, 131052, 24, 0, 131053, 24, 0, 131054, 24, 0, 131055, 24, 0, 131056, 24, 0, 131057, 24, 0, 131058, 24, 0, 131059, 24, 0, 131060, 24, 0, 131061, 1073741826, 0, 131062, 6, 0, 131066, 6, 0, 131070, 6, 0, 65554, 6, 0, 65558, 2, 0, 65559, 24, 0, 65560, 24, 0, 65561, 24, 0, 65562, 24, 0, 65563, 24, 0, 65564, 24, 0, 65565, 24, 0, 65566, 24, 0, 65567, 24, 0, 65568, 24, 0, 196583, 24, 0, 196584, 24, 0, 196585, 24, 0, 196586, 24, 0, 196587, 24, 0, 196588, 24, 0, 196589, 24, 0, 196590, 24, 0, 196591, 24, 0, 196592, 24, 0, 196593, 24, 0, 196594, 24, 0, 196595, 24, 0, 196596, 24, 0, 196597, 1073741826, 0, 131094, 2, 0, 131095, 24, 0, 131096, 24, 0, 131097, 24, 0, 131098, 24, 0, 131099, 24, 0, 131100, 24, 0, 131101, 24, 0, 131102, 24, 0, 131103, 24, 0, 131104, 24, 0, 262119, 24, 0, 262120, 24, 0, 262121, 24, 0, 262122, 24, 0, 262123, 24, 0, 262124, 24, 0, 262125, 24, 0, 262126, 24, 0, 262127, 24, 0, 262128, 24, 0, 262129, 24, 0, 262130, 24, 0, 262131, 24, 0, 262132, 24, 0, 262133, 1073741826, 0, 196630, 2, 0, 196631, 24, 0, 196632, 24, 0, 196633, 24, 0, 196634, 24, 0, 196635, 24, 0, 196636, 24, 0, 196637, 24, 0, 196638, 24, 0, 196639, 24, 0, 196640, 24, 0, 327655, 24, 0, 327656, 24, 0, 327657, 24, 0, 327658, 24, 0, 327659, 24, 0, 327660, 24, 0, 327661, 24, 0, 327662, 24, 0, 327663, 24, 0, 327664, 24, 0, 327665, 24, 0, 327666, 24, 0, 327667, 24, 0, 327668, 24, 0, 327669, 1073741826, 0, 262166, 2, 0, 262167, 24, 0, 262168, 24, 0, 262169, 24, 0, 262170, 24, 0, 262171, 24, 0, 262172, 24, 0, 262173, 24, 0, 262174, 24, 0, 262175, 24, 0, 262176, 24, 0, 393191, 24, 0, 393192, 24, 0, 393193, 24, 0, 393194, 24, 0, 393195, 24, 0, 393196, 24, 0, 393197, 24, 0, 393198, 24, 0, 393199, 24, 0, 393200, 24, 0, 393201, 24, 0, 393202, 24, 0, 393203, 24, 0, 393204, 24, 0, 393205, 1073741826, 0, 327702, 2, 0, 327703, 24, 0, 327704, 24, 0, 327705, 24, 0, 327706, 24, 0, 327707, 24, 0, 327708, 24, 0, 327709, 24, 0, 327710, 24, 0, 327711, 24, 0, 327712, 24, 0, 458727, 24, 0, 458728, 24, 0, 458729, 24, 0, 458730, 24, 0, 458731, 24, 0, 458732, 24, 0, 458733, 24, 0, 458734, 24, 0, 458735, 24, 0, 458736, 24, 0, 458737, 24, 0, 458738, 24, 0, 458739, 24, 0, 458740, 24, 0, 458741, 1073741826, 0, 393238, 2, 0, 393239, 24, 0, 393240, 24, 0, 393241, 24, 0, 393242, 24, 0, 393243, 24, 0, 393244, 24, 0, 393245, 24, 0, 393246, 24, 0, 393247, 24, 0, 393248, 24, 0, 524263, 24, 0, 524264, 24, 0, 524265, 24, 0, 524266, 24, 0, 524267, 24, 0, 524268, 24, 0, 524269, 24, 0, 524270, 24, 0, 524271, 24, 0, 524272, 24, 0, 524273, 24, 0, 524274, 24, 0, 524275, 24, 0, 524276, 24, 0, 524277, 1073741826, 0, 458774, 2, 0, 458775, 24, 0, 458776, 24, 0, 458777, 24, 0, 458778, 24, 0, 458779, 24, 0, 458780, 24, 0, 458781, 24, 0, 458782, 24, 0, 458783, 24, 0, 458784, 24, 0, 589799, 24, 0, 589800, 24, 0, 589801, 24, 0, 589802, 24, 0, 589803, 24, 0, 589804, 24, 0, 589805, 24, 0, 589806, 24, 0, 589807, 24, 0, 589808, 24, 0, 589809, 24, 0, 589810, 24, 0, 589811, 24, 0, 589812, 24, 0, 589813, 1073741826, 0, 524310, 2, 0, 524311, 24, 0, 524312, 24, 0, 524313, 24, 0, 524314, 24, 0, 524315, 24, 0, 524316, 24, 0, 524317, 24, 0, 524318, 24, 0, 524319, 24, 0, 524320, 24, 0, 655335, 24, 0, 655336, 24, 0, 655337, 24, 0, 655338, 24, 0, 655339, 24, 0, 655340, 24, 0, 655341, 24, 0, 655342, 24, 0, 655343, 24, 0, 655344, 24, 0, 655345, 24, 0, 655346, 24, 0, 655347, 24, 0, 655348, 24, 0, 655349, 1073741826, 0, 655350, 25, 0, 655354, 25, 0, 655358, 28, 0, 589842, 6, 0, 589846, 2, 0, 589847, 24, 0, 589848, 24, 0, 589849, 24, 0, 589850, 24, 0, 589851, 24, 0, 589852, 24, 0, 589853, 24, 0, 589854, 24, 0, 589855, 24, 0, 589856, 24, 0, 720871, 24, 0, 720872, 24, 0, 720873, 24, 0, 720874, 24, 0, 720875, 24, 0, 720876, 24, 0, 720877, 24, 0, 720878, 24, 0, 720879, 24, 0, 720880, 24, 0, 720881, 24, 0, 720882, 24, 0, 720883, 24, 0, 720884, 24, 0, 720885, 1073741826, 0, 655382, 2, 0, 655383, 24, 0, 655384, 24, 0, 655385, 24, 0, 655386, 24, 0, 655387, 24, 0, 655388, 24, 0, 655389, 24, 0, 655390, 24, 0, 655391, 24, 0, 655392, 24, 0, 786407, 24, 0, 786408, 24, 0, 786409, 24, 0, 786410, 24, 0, 786411, 24, 0, 786412, 24, 0, 786413, 24, 0, 786414, 24, 0, 786415, 24, 0, 786416, 24, 0, 786417, 24, 0, 786418, 24, 0, 786419, 24, 0, 786420, 24, 0, 786421, 1073741826, 0, 720918, 2, 0, 720919, 24, 0, 720920, 24, 0, 720921, 24, 0, 720922, 24, 0, 720923, 24, 0, 720924, 24, 0, 720925, 24, 0, 720926, 24, 0, 720927, 24, 0, 720928, 24, 0, 851943, 24, 0, 851944, 24, 0, 851945, 24, 0, 851946, 24, 0, 851947, 24, 0, 851948, 24, 0, 851949, 24, 0, 851950, 24, 0, 851951, 24, 0, 851952, 24, 0, 851953, 24, 0, 851954, 24, 0, 851955, 24, 0, 851956, 24, 0, 851957, 1073741826, 0, 786454, 2, 0, 786455, 24, 0, 786456, 24, 0, 786457, 24, 0, 786458, 24, 0, 786459, 24, 0, 786460, 24, 0, 786461, 24, 0, 786462, 24, 0, 786463, 24, 0, 786464, 24, 0, 917479, 24, 0, 917480, 24, 0, 917481, 24, 0, 917482, 24, 0, 917483, 24, 0, 917484, 24, 0, 917485, 24, 0, 917486, 24, 0, 917487, 24, 0, 917488, 24, 0, 917489, 24, 0, 917490, 24, 0, 917491, 24, 0, 917492, 24, 0, 917493, 1073741825, 0, 851990, 2, 0, 851991, 24, 0, 851992, 24, 0, 851993, 24, 0, 851994, 24, 0, 851995, 24, 0, 851996, 24, 0, 851997, 24, 0, 851998, 24, 0, 851999, 24, 0, 852000, 24, 0, 983015, 24, 0, 983016, 24, 0, 983017, 24, 0, 983018, 24, 0, 983019, 24, 0, 983020, 24, 0, 983021, 24, 0, 983022, 24, 0, 983023, 24, 0, 983024, 24, 0, 983025, 24, 0, 983026, 24, 0, 983027, 24, 0, 983028, 24, 0, 983029, 7, 0, 917526, 2, 0, 917527, 24, 0, 917528, 24, 0, 917529, 24, 0, 917530, 24, 0, 917531, 24, 0, 917532, 24, 0, 917533, 24, 0, 917534, 24, 0, 917535, 24, 0, 917536, 24, 0, 1048551, 24, 0, 1048552, 24, 0, 1048553, 24, 0, 1048554, 24, 0, 1048555, 24, 0, 1048556, 24, 0, 1048557, 24, 0, 1048558, 24, 0, 1048559, 24, 0, 1048560, 24, 0, 1048561, 24, 0, 1048562, 24, 0, 1048563, 24, 0, 1048564, 24, 0, 1048565, 7, 0, 983062, 2, 0, 983063, 24, 0, 983064, 24, 0, 983065, 24, 0, 983066, 24, 0, 983067, 24, 0, 983068, 24, 0, 983069, 24, 0, 983070, 24, 0, 983071, 24, 0, 983072, 24, 0, 1114087, 24, 0, 1114088, 24, 0, 1114089, 24, 0, 1114090, 24, 0, 1114091, 24, 0, 1114092, 24, 0, 1114093, 24, 0, 1114094, 24, 0, 1114095, 24, 0, 1114096, 24, 0, 1114097, 24, 0, 1114098, 24, 0, 1114099, 24, 0, 1114100, 24, 0, 1114101, 7, 0, 1048598, 2, 0, 1048599, 24, 0, 1048600, 24, 0, 1048601, 24, 0, 1048602, 24, 0, 1048603, 24, 0, 1048604, 24, 0, 1048605, 24, 0, 1048606, 24, 0, 1048607, 24, 0, 1048608, 24, 0, 1179623, 24, 0, 1179624, 24, 0, 1179625, 24, 0, 1179626, 24, 0, 1179627, 24, 0, 1179628, 24, 0, 1179629, 24, 0, 1179630, 24, 0, 1179631, 24, 0, 1179632, 24, 0, 1179633, 24, 0, 1179634, 24, 0, 1179635, 24, 0, 1179636, 24, 0, 1179637, 7, 0, 1179638, 6, 0, 1179642, 6, 0, 1179646, 6, 0, 1114130, 6, 0, 1114134, 2, 0, 1114135, 24, 0, 1114136, 24, 0, 1114137, 24, 0, 1114138, 24, 0, 1114139, 24, 0, 1114140, 24, 0, 1114141, 24, 0, 1114142, 24, 0, 1114143, 24, 0, 1114144, 24, 0, 1245159, 24, 0, 1245160, 24, 0, 1245161, 24, 0, 1245162, 24, 0, 1245163, 24, 0, 1245164, 24, 0, 1245165, 24, 0, 1245166, 24, 0, 1245167, 24, 0, 1245168, 24, 0, 1245169, 24, 0, 1245170, 24, 0, 1245171, 24, 0, 1245172, 24, 0, 1245173, 7, 0, 1179670, 2, 0, 1179671, 24, 0, 1179672, 24, 0, 1179673, 24, 0, 1179674, 24, 0, 1179675, 24, 0, 1179676, 24, 0, 1179677, 24, 0, 1179678, 24, 0, 1179679, 24, 0, 1179680, 24, 0, 1310695, 24, 0, 1310696, 24, 0, 1310697, 24, 0, 1310698, 24, 0, 1310699, 24, 0, 1310700, 24, 0, 1310701, 24, 0, 1310702, 24, 0, 1310703, 24, 0, 1310704, 24, 0, 1310705, 24, 0, 1310706, 24, 0, 1310707, 24, 0, 1310708, 24, 0, 1310709, 0, 0, 1310710, 0, 0, 1310711, 0, 0, 1310712, 0, 0, 1310719, 0, 0, 1245184, 0, 0, 1245206, 2, 0, 1245207, 24, 0, 1245208, 24, 0, 1245209, 24, 0, 1245210, 24, 0, 1245211, 24, 0, 1245212, 24, 0, 1245213, 24, 0, 1245214, 24, 0, 1245215, 24, 0, 1245216, 24, 0, 1376231, 24, 0, 1376232, 24, 0, 1376233, 24, 0, 1376234, 24, 0, 1376235, 24, 0, 1376236, 24, 0, 1376237, 24, 0, 1376238, 24, 0, 1376239, 24, 0, 1376240, 24, 0, 1376241, 24, 0, 1376242, 24, 0, 1376243, 24, 0, 1376244, 24, 0, 1376245, 2, 0, 1376254, 2, 0, 1376255, 3, 0, 1310720, 536870915, 0, 1310721, 2, 0, 1310742, 2, 0, 1310743, 24, 0, 1310744, 24, 0, 1310745, 24, 0, 1310746, 24, 0, 1310747, 24, 0, 1310748, 24, 0, 1310749, 24, 0, 1310750, 24, 0, 1310751, 24, 0, 1310752, 24, 0, 1441767, 24, 0, 1441768, 24, 0, 1441769, 24, 0, 1441770, 24, 0, 1441771, 24, 0, 1441772, 24, 0, 1441773, 24, 0, 1441774, 24, 0, 1441775, 24, 0, 1441776, 24, 0, 1441777, 24, 0, 1441778, 24, 0, 1441779, 24, 0, 1441780, 24, 0, 1441781, 2, 0, 1441790, 2, 0, 1441791, 4, 0, 1376256, 4, 0, 1376257, 2, 0, 1376278, 2, 0, 1376279, 24, 0, 1376280, 24, 0, 1376281, 24, 0, 1376282, 24, 0, 1376283, 24, 0, 1376284, 24, 0, 1376285, 24, 0, 1376286, 24, 0, 1376287, 24, 0, 1376288, 24, 0, 1507303, 24, 0, 1507304, 24, 0, 1507305, 24, 0, 1507306, 24, 0, 1507307, 24, 0, 1507308, 24, 0, 1507309, 24, 0, 1507310, 24, 0, 1507311, 24, 0, 1507312, 24, 0, 1507313, 24, 0, 1507314, 24, 0, 1507315, 24, 0, 1507316, 24, 0, 1507317, 2, 0, 1507326, 2, 0, 1507327, 4, 0, 1441792, 4, 0, 1441793, 2, 0, 1441814, 2, 0, 1441815, 24, 0, 1441816, 24, 0, 1441817, 24, 0, 1441818, 24, 0, 1441819, 24, 0, 1441820, 24, 0, 1441821, 24, 0, 1441822, 24, 0, 1441823, 24, 0, 1441824, 24, 0, 1572839, 24, 0, 1572840, 24, 0, 1572841, 24, 0, 1572842, 24, 0, 1572843, 24, 0, 1572844, 24, 0, 1572845, 24, 0, 1572846, 24, 0, 1572847, 24, 0, 1572848, 24, 0, 1572849, 24, 0, 1572850, 24, 0, 1572851, 24, 0, 1572852, 24, 0, 1572853, 2, 0, 1572862, 2, 0, 1572863, 4, 0, 1507328, 4, 0, 1507329, 2, 0, 1507350, 2, 0, 1507351, 24, 0, 1507352, 24, 0, 1507353, 24, 0, 1507354, 24, 0, 1507355, 24, 0, 1507356, 24, 0, 1507357, 24, 0, 1507358, 24, 0, 1507359, 24, 0, 1507360, 24, 0, 1638375, 24, 0, 1638376, 24, 0, 1638377, 24, 0, 1638378, 24, 0, 1638379, 24, 0, 1638380, 24, 0, 1638381, 24, 0, 1638382, 24, 0, 1638383, 24, 0, 1638384, 24, 0, 1638385, 24, 0, 1638386, 24, 0, 1638387, 24, 0, 1638388, 24, 0, 1638389, 2, 0, 1638398, 2, 0, 1638399, 4, 0, 1572864, 4, 0, 1572865, 2, 0, 1572886, 2, 0, 1572887, 24, 0, 1572888, 24, 0, 1572889, 24, 0, 1572890, 24, 0, 1572891, 24, 0, 1572892, 24, 0, 1572893, 24, 0, 1572894, 24, 0, 1572895, 24, 0, 1572896, 24, 0, 1703911, 24, 0, 1703912, 24, 0, 1703913, 24, 0, 1703914, 24, 0, 1703915, 24, 0, 1703916, 24, 0, 1703917, 24, 0, 1703918, 24, 0, 1703919, 24, 0, 1703920, 24, 0, 1703921, 24, 0, 1703922, 24, 0, 1703923, 24, 0, 1703924, 24, 0, 1703925, 24, 0, 1703926, 24, 0, 1703927, 24, 0, 1703928, 24, 0, 1703929, 24, 0, 1703930, 24, 0, 1703931, 24, 0, 1703932, 24, 0, 1703933, 24, 0, 1703934, 24, 0, 1703935, 24, 0, 1638400, 24, 0, 1638401, 24, 0, 1638402, 24, 0, 1638403, 24, 0, 1638404, 24, 0, 1638405, 24, 0, 1638406, 24, 0, 1638407, 24, 0, 1638408, 24, 0, 1638409, 24, 0, 1638410, 24, 0, 1638411, 24, 0, 1638412, 24, 0, 1638413, 24, 0, 1638414, 24, 0, 1638415, 24, 0, 1638416, 24, 0, 1638417, 24, 0, 1638418, 24, 0, 1638419, 24, 0, 1638420, 24, 0, 1638421, 24, 0, 1638422, 24, 0, 1638423, 24, 0, 1638424, 24, 0, 1638425, 24, 0, 1638426, 24, 0, 1638427, 24, 0, 1638428, 24, 0, 1638429, 24, 0, 1638430, 24, 0, 1638431, 24, 0, 1638432, 24, 0, 1769447, 24, 0, 1769448, 24, 0, 1769449, 24, 0, 1769450, 24, 0, 1769451, 24, 0, 1769452, 24, 0, 1769453, 24, 0, 1769454, 24, 0, 1769455, 24, 0, 1769456, 24, 0, 1769457, 24, 0, 1769458, 24, 0, 1769459, 24, 0, 1769460, 24, 0, 1769461, 24, 0, 1769462, 24, 0, 1769463, 24, 0, 1769464, 24, 0, 1769465, 24, 0, 1769466, 24, 0, 1769467, 24, 0, 1769468, 24, 0, 1769469, 24, 0, 1769470, 24, 0, 1769471, 24, 0, 1703936, 24, 0, 1703937, 24, 0, 1703938, 24, 0, 1703939, 24, 0, 1703940, 24, 0, 1703941, 24, 0, 1703942, 24, 0, 1703943, 24, 0, 1703944, 24, 0, 1703945, 24, 0, 1703946, 24, 0, 1703947, 24, 0, 1703948, 24, 0, 1703949, 24, 0, 1703950, 24, 0, 1703951, 24, 0, 1703952, 24, 0, 1703953, 24, 0, 1703954, 24, 0, 1703955, 24, 0, 1703956, 24, 0, 1703957, 24, 0, 1703958, 24, 0, 1703959, 24, 0, 1703960, 24, 0, 1703961, 24, 0, 1703962, 24, 0, 1703963, 24, 0, 1703964, 24, 0, 1703965, 24, 0, 1703966, 24, 0, 1703967, 24, 0, 1703968, 24, 0, 1834983, 24, 0, 1834984, 24, 0, 1834985, 24, 0, 1834986, 24, 0, 1834987, 24, 0, 1834988, 24, 0, 1834989, 24, 0, 1834990, 24, 0, 1834991, 24, 0, 1834992, 24, 0, 1834993, 24, 0, 1834994, 24, 0, 1834995, 24, 0, 1834996, 24, 0, 1834997, 24, 0, 1834998, 24, 0, 1834999, 24, 0, 1835000, 24, 0, 1835001, 24, 0, 1835002, 24, 0, 1835003, 24, 0, 1835004, 24, 0, 1835005, 24, 0, 1835006, 24, 0, 1835007, 24, 0, 1769472, 24, 0, 1769473, 24, 0, 1769474, 24, 0, 1769475, 24, 0, 1769476, 24, 0, 1769477, 24, 0, 1769478, 24, 0, 1769479, 24, 0, 1769480, 24, 0, 1769481, 24, 0, 1769482, 24, 0, 1769483, 24, 0, 1769484, 24, 0, 1769485, 24, 0, 1769486, 24, 0, 1769487, 24, 0, 1769488, 24, 0, 1769489, 24, 0, 1769490, 24, 0, 1769491, 24, 0, 1769492, 24, 0, 1769493, 24, 0, 1769494, 24, 0, 1769495, 24, 0, 1769496, 24, 0, 1769497, 24, 0, 1769498, 24, 0, 1769499, 24, 0, 1769500, 24, 0, 1769501, 24, 0, 1769502, 24, 0, 1769503, 24, 0, 1769504, 24, 0, 1900519, 24, 0, 1900520, 24, 0, 1900521, 24, 0, 1900522, 24, 0, 1900523, 24, 0, 1900524, 24, 0, 1900525, 24, 0, 1900526, 24, 0, 1900527, 24, 0, 1900528, 24, 0, 1900529, 24, 0, 1900530, 24, 0, 1900531, 24, 0, 1900532, 24, 0, 1900533, 24, 0, 1900534, 24, 0, 1900535, 24, 0, 1900536, 24, 0, 1900537, 24, 0, 1900538, 24, 0, 1900539, 24, 0, 1900540, 24, 0, 1900541, 24, 0, 1900542, 24, 0, 1900543, 24, 0, 1835008, 24, 0, 1835009, 24, 0, 1835010, 24, 0, 1835011, 24, 0, 1835012, 24, 0, 1835013, 24, 0, 1835014, 24, 0, 1835015, 24, 0, 1835016, 24, 0, 1835017, 24, 0, 1835018, 24, 0, 1835019, 24, 0, 1835020, 24, 0, 1835021, 24, 0, 1835022, 24, 0, 1835023, 24, 0, 1835024, 24, 0, 1835025, 24, 0, 1835026, 24, 0, 1835027, 24, 0, 1835028, 24, 0, 1835029, 24, 0, 1835030, 24, 0, 1835031, 24, 0, 1835032, 24, 0, 1835033, 24, 0, 1835034, 24, 0, 1835035, 24, 0, 1835036, 24, 0, 1835037, 24, 0, 1835038, 24, 0, 1835039, 24, 0, 1835040, 24, 0, 1966055, 24, 0, 1966056, 24, 0, 1966057, 24, 0, 1966058, 24, 0, 1966059, 24, 0, 1966060, 24, 0, 1966061, 24, 0, 1966062, 24, 0, 1966063, 24, 0, 1966064, 24, 0, 1966065, 24, 0, 1966066, 24, 0, 1966067, 24, 0, 1966068, 24, 0, 1966069, 24, 0, 1966070, 24, 0, 1966071, 24, 0, 1966072, 24, 0, 1966073, 24, 0, 1966074, 24, 0, 1966075, 24, 0, 1966076, 24, 0, 1966077, 24, 0, 1966078, 24, 0, 1966079, 24, 0, 1900544, 24, 0, 1900545, 24, 0, 1900546, 24, 0, 1900547, 24, 0, 1900548, 24, 0, 1900549, 24, 0, 1900550, 24, 0, 1900551, 24, 0, 1900552, 24, 0, 1900553, 24, 0, 1900554, 24, 0, 1900555, 24, 0, 1900556, 24, 0, 1900557, 24, 0, 1900558, 24, 0, 1900559, 24, 0, 1900560, 24, 0, 1900561, 24, 0, 1900562, 24, 0, 1900563, 24, 0, 1900564, 24, 0, 1900565, 24, 0, 1900566, 24, 0, 1900567, 24, 0, 1900568, 24, 0, 1900569, 24, 0, 1900570, 24, 0, 1900571, 24, 0, 1900572, 24, 0, 1900573, 24, 0, 1900574, 24, 0, 1900575, 24, 0, 1900576, 24, 0, 2031591, 24, 0, 2031592, 24, 0, 2031593, 24, 0, 2031594, 24, 0, 2031595, 24, 0, 2031596, 24, 0, 2031597, 24, 0, 2031598, 24, 0, 2031599, 24, 0, 2031600, 24, 0, 2031601, 24, 0, 2031602, 24, 0, 2031603, 24, 0, 2031604, 24, 0, 2031605, 24, 0, 2031606, 24, 0, 2031607, 24, 0, 2031608, 24, 0, 2031609, 24, 0, 2031610, 24, 0, 2031611, 24, 0, 2031612, 24, 0, 2031613, 24, 0, 2031614, 24, 0, 2031615, 24, 0, 1966080, 24, 0, 1966081, 24, 0, 1966082, 24, 0, 1966083, 24, 0, 1966084, 24, 0, 1966085, 24, 0, 1966086, 24, 0, 1966087, 24, 0, 1966088, 24, 0, 1966089, 24, 0, 1966090, 24, 0, 1966091, 24, 0, 1966092, 24, 0, 1966093, 24, 0, 1966094, 24, 0, 1966095, 24, 0, 1966096, 24, 0, 1966097, 24, 0, 1966098, 24, 0, 1966099, 24, 0, 1966100, 24, 0, 1966101, 24, 0, 1966102, 24, 0, 1966103, 24, 0, 1966104, 24, 0, 1966105, 24, 0, 1966106, 24, 0, 1966107, 24, 0, 1966108, 24, 0, 1966109, 24, 0, 1966110, 24, 0, 1966111, 24, 0, 1966112, 24, 0, 2097127, 24, 0, 2097128, 24, 0, 2097129, 24, 0, 2097130, 24, 0, 2097131, 24, 0, 2097132, 24, 0, 2097133, 24, 0, 2097134, 24, 0, 2097135, 24, 0, 2097136, 24, 0, 2097137, 24, 0, 2097138, 24, 0, 2097139, 24, 0, 2097140, 24, 0, 2097141, 24, 0, 2097142, 24, 0, 2097143, 24, 0, 2097144, 24, 0, 2097145, 24, 0, 2097146, 24, 0, 2097147, 24, 0, 2097148, 24, 0, 2097149, 24, 0, 2097150, 24, 0, 2097151, 24, 0, 2031616, 24, 0, 2031617, 24, 0, 2031618, 24, 0, 2031619, 24, 0, 2031620, 24, 0, 2031621, 24, 0, 2031622, 24, 0, 2031623, 24, 0, 2031624, 24, 0, 2031625, 24, 0, 2031626, 24, 0, 2031627, 24, 0, 2031628, 24, 0, 2031629, 24, 0, 2031630, 24, 0, 2031631, 24, 0, 2031632, 24, 0, 2031633, 24, 0, 2031634, 24, 0, 2031635, 24, 0, 2031636, 24, 0, 2031637, 24, 0, 2031638, 24, 0, 2031639, 24, 0, 2031640, 24, 0, 2031641, 24, 0, 2031642, 24, 0, 2031643, 24, 0, 2031644, 24, 0, 2031645, 24, 0, 2031646, 24, 0, 2031647, 24, 0, 2031648, 24, 0, 2162663, 24, 0, 2162664, 24, 0, 2162665, 24, 0, 2162666, 24, 0, 2162667, 24, 0, 2162668, 24, 0, 2162669, 24, 0, 2162670, 24, 0, 2162671, 24, 0, 2162672, 24, 0, 2162673, 24, 0, 2162674, 24, 0, 2162675, 24, 0, 2162676, 24, 0, 2162677, 24, 0, 2162678, 24, 0, 2162679, 24, 0, 2162680, 24, 0, 2162681, 24, 0, 2162682, 24, 0, 2162683, 24, 0, 2162684, 24, 0, 2162685, 24, 0, 2162686, 24, 0, 2162687, 24, 0, 2097152, 24, 0, 2097153, 24, 0, 2097154, 24, 0, 2097155, 24, 0, 2097156, 24, 0, 2097157, 24, 0, 2097158, 24, 0, 2097159, 24, 0, 2097160, 24, 0, 2097161, 24, 0, 2097162, 24, 0, 2097163, 24, 0, 2097164, 24, 0, 2097165, 24, 0, 2097166, 24, 0, 2097167, 24, 0, 2097168, 24, 0, 2097169, 24, 0, 2097170, 24, 0, 2097171, 24, 0, 2097172, 24, 0, 2097173, 24, 0, 2097174, 24, 0, 2097175, 24, 0, 2097176, 24, 0, 2097177, 24, 0, 2097178, 24, 0, 2097179, 24, 0, 2097180, 24, 0, 2097181, 24, 0, 2097182, 24, 0, 2097183, 24, 0, 2097184, 24, 0, 2228199, 24, 0, 2228200, 24, 0, 2228201, 24, 0, 2228202, 24, 0, 2228203, 24, 0, 2228204, 24, 0, 2228205, 24, 0, 2228206, 24, 0, 2228207, 24, 0, 2228208, 24, 0, 2228209, 24, 0, 2228210, 24, 0, 2228211, 24, 0, 2228212, 24, 0, 2228213, 24, 0, 2228214, 24, 0, 2228215, 24, 0, 2228216, 24, 0, 2228217, 24, 0, 2228218, 24, 0, 2228219, 24, 0, 2228220, 24, 0, 2228221, 24, 0, 2228222, 24, 0, 2228223, 24, 0, 2162688, 24, 0, 2162689, 24, 0, 2162690, 24, 0, 2162691, 24, 0, 2162692, 24, 0, 2162693, 24, 0, 2162694, 24, 0, 2162695, 24, 0, 2162696, 24, 0, 2162697, 24, 0, 2162698, 24, 0, 2162699, 24, 0, 2162700, 24, 0, 2162701, 24, 0, 2162702, 24, 0, 2162703, 24, 0, 2162704, 24, 0, 2162705, 24, 0, 2162706, 24, 0, 2162707, 24, 0, 2162708, 24, 0, 2162709, 24, 0, 2162710, 24, 0, 2162711, 24, 0, 2162712, 24, 0, 2162713, 24, 0, 2162714, 24, 0, 2162715, 24, 0, 2162716, 24, 0, 2162717, 24, 0, 2162718, 24, 0, 2162719, 24, 0, 2162720, 24, 0, 2293735, 24, 0, 2293736, 24, 0, 2293737, 24, 0, 2293738, 24, 0, 2293739, 24, 0, 2293740, 24, 0, 2293741, 24, 0, 2293742, 24, 0, 2293743, 24, 0, 2293744, 24, 0, 2293745, 24, 0, 2293746, 24, 0, 2293747, 24, 0, 2293748, 24, 0, 2293749, 24, 0, 2293750, 24, 0, 2293751, 24, 0, 2293752, 24, 0, 2293753, 24, 0, 2293754, 24, 0, 2293755, 24, 0, 2293756, 24, 0, 2293757, 24, 0, 2293758, 24, 0, 2293759, 24, 0, 2228224, 24, 0, 2228225, 24, 0, 2228226, 24, 0, 2228227, 24, 0, 2228228, 24, 0, 2228229, 24, 0, 2228230, 24, 0, 2228231, 24, 0, 2228232, 24, 0, 2228233, 24, 0, 2228234, 24, 0, 2228235, 24, 0, 2228236, 24, 0, 2228237, 24, 0, 2228238, 24, 0, 2228239, 24, 0, 2228240, 24, 0, 2228241, 24, 0, 2228242, 24, 0, 2228243, 24, 0, 2228244, 24, 0, 2228245, 24, 0, 2228246, 24, 0, 2228247, 24, 0, 2228248, 24, 0, 2228249, 24, 0, 2228250, 24, 0, 2228251, 24, 0, 2228252, 24, 0, 2228253, 24, 0, 2228254, 24, 0, 2228255, 24, 0, 2228256, 24, 0, 2359271, 24, 0, 2359272, 24, 0, 2359273, 24, 0, 2359274, 24, 0, 2359275, 24, 0, 2359276, 24, 0, 2359277, 24, 0, 2359278, 24, 0, 2359279, 24, 0, 2359280, 24, 0, 2359281, 24, 0, 2359282, 24, 0, 2359283, 24, 0, 2359284, 24, 0, 2359285, 24, 0, 2359286, 24, 0, 2359287, 24, 0, 2359288, 24, 0, 2359289, 24, 0, 2359290, 24, 0, 2359291, 24, 0, 2359292, 24, 0, 2359293, 24, 0, 2359294, 24, 0, 2359295, 24, 0, 2293760, 24, 0, 2293761, 24, 0, 2293762, 24, 0, 2293763, 24, 0, 2293764, 24, 0, 2293765, 24, 0, 2293766, 24, 0, 2293767, 24, 0, 2293768, 24, 0, 2293769, 24, 0, 2293770, 24, 0, 2293771, 24, 0, 2293772, 24, 0, 2293773, 24, 0, 2293774, 24, 0, 2293775, 24, 0, 2293776, 24, 0, 2293777, 24, 0, 2293778, 24, 0, 2293779, 24, 0, 2293780, 24, 0, 2293781, 24, 0, 2293782, 24, 0, 2293783, 24, 0, 2293784, 24, 0, 2293785, 24, 0, 2293786, 24, 0, 2293787, 24, 0, 2293788, 24, 0, 2293789, 24, 0, 2293790, 24, 0, 2293791, 24, 0, 2293792, 24, 0 )

[node name="ClimbableGroup" type="Node2D" parent="tilemap"]

[node name="ClimbableBlock" parent="tilemap/ClimbableGroup" instance=ExtResource( 2 )]
position = Vector2( 592, -48 )
physics_material_override = SubResource( 1 )

[node name="ClimbableBlock1" parent="tilemap/ClimbableGroup" instance=ExtResource( 2 )]
position = Vector2( -48, 624 )
physics_material_override = SubResource( 2 )

[node name="ClimbableBlock2" parent="tilemap/ClimbableGroup" instance=ExtResource( 2 )]
position = Vector2( 48, 624 )
physics_material_override = SubResource( 3 )

[node name="Sprite" parent="tilemap/ClimbableGroup/ClimbableBlock2" index="0"]
flip_h = false

[node name="ClimbableBlock3" parent="tilemap/ClimbableGroup" instance=ExtResource( 2 )]
position = Vector2( -208, 624 )
physics_material_override = SubResource( 4 )

[node name="Sprite" parent="tilemap/ClimbableGroup/ClimbableBlock3" index="0"]
flip_h = false

[node name="LampGroup" type="Node2D" parent="tilemap"]

[node name="lamp" parent="tilemap/LampGroup" instance=ExtResource( 3 )]
position = Vector2( 640, -272 )

[node name="lamp2" parent="tilemap/LampGroup" instance=ExtResource( 3 )]
position = Vector2( 0, -112 )

[node name="lamp3" parent="tilemap/LampGroup" instance=ExtResource( 3 )]
position = Vector2( -192, 400 )

[node name="EnemiesGroup" type="Node2D" parent="tilemap"]

[node name="FlyingSkull" parent="tilemap/EnemiesGroup" instance=ExtResource( 4 )]
position = Vector2( -256, 432 )

[node name="TeleportGroup" type="Node2D" parent="tilemap"]

[node name="Teleport" parent="tilemap/TeleportGroup" instance=ExtResource( 5 )]
position = Vector2( 752, -144 )
target_level = "res://levels/bergfortress/0-3.tscn"
teleport_to = Vector2( -1740, 368 )

[node name="teleport" parent="tilemap/TeleportGroup/Teleport" index="0"]
scale = Vector2( 1, 5 )

[node name="Teleport3" parent="tilemap/TeleportGroup" instance=ExtResource( 5 )]
position = Vector2( -368, 528 )
target_level = "res://levels/bergfortress/3-0.tscn"
teleport_to = Vector2( 460, 336 )

[node name="teleport" parent="tilemap/TeleportGroup/Teleport3" index="0"]
scale = Vector2( 1, 5 )

[node name="Teleport1" parent="tilemap/TeleportGroup" instance=ExtResource( 5 )]
position = Vector2( -192, 816 )
is_horizontal = false
target_level = "res://levels/bergfortress/0-5.tscn"
teleport_to = Vector2( -352, -1328 )

[node name="teleport" parent="tilemap/TeleportGroup/Teleport1" index="0"]
scale = Vector2( 8, 1 )

[node name="Teleport2" parent="tilemap/TeleportGroup" instance=ExtResource( 5 )]
position = Vector2( 384, 816 )
is_horizontal = false
target_level = "res://levels/bergfortress/0-5.tscn"
teleport_to = Vector2( 224, -1328 )

[node name="teleport" parent="tilemap/TeleportGroup/Teleport2" index="0"]
scale = Vector2( 20, 1 )

[node name="boundaries" type="Node2D" parent="tilemap"]

[node name="NW" type="Position2D" parent="tilemap/boundaries"]
position = Vector2( -358, -422 )

[node name="SE" type="Position2D" parent="tilemap/boundaries"]
position = Vector2( 746, 810 )

[node name="ParallaxBackground" type="ParallaxBackground" parent="."]

[node name="ParallaxLayer" type="ParallaxLayer" parent="ParallaxBackground"]
motion_scale = Vector2( 1, 0.5 )

[node name="TileMap" type="TileMap" parent="ParallaxBackground/ParallaxLayer"]
tile_set = ExtResource( 1 )
cell_size = Vector2( 32, 32 )
format = 1
tile_data = PoolIntArray( -786430, 22, 0, -786422, 536870934, 0, -262142, 22, 0, -262134, 536870934, 0, 262146, 22, 0, 262154, 536870934, 0, 786434, 22, 0, 786442, 536870934, 0, 1310722, 22, 0, 1310730, 536870934, 0 )

[editable path="tilemap/ClimbableGroup/ClimbableBlock2"]

[editable path="tilemap/ClimbableGroup/ClimbableBlock3"]

[editable path="tilemap/TeleportGroup/Teleport"]

[editable path="tilemap/TeleportGroup/Teleport3"]

[editable path="tilemap/TeleportGroup/Teleport1"]

[editable path="tilemap/TeleportGroup/Teleport2"]
