[gd_scene load_steps=11 format=2]

[ext_resource path="res://scenes/fallislandcastle/tileset.tres" type="TileSet" id=1]
[ext_resource path="res://scenes/fallislandcastle/climbableblock.tscn" type="PackedScene" id=2]
[ext_resource path="res://scenes/common/damagables/spiketile.tscn" type="PackedScene" id=3]
[ext_resource path="res://scenes/common/damagables/lizardman/lizardman.tscn" type="PackedScene" id=4]
[ext_resource path="res://scenes/items/gold/gold.tscn" type="PackedScene" id=5]
[ext_resource path="res://scenes/common/teleport.tscn" type="PackedScene" id=6]
[ext_resource path="res://scenes/fallislandcastle/parallax.tscn" type="PackedScene" id=7]

[sub_resource type="PhysicsMaterial" id=1]
friction = 0.0

[sub_resource type="PhysicsMaterial" id=2]
friction = 0.0

[sub_resource type="PhysicsMaterial" id=3]
friction = 0.0

[node name="LVL_NOTITLE" type="Node2D"]
__meta__ = {
"__editor_plugin_screen__": "2D"
}

[node name="tilemap" type="TileMap" parent="."]
tile_set = ExtResource( 1 )
cell_size = Vector2( 32, 32 )
compatibility_mode = true
collision_layer = 524288
format = 1
tile_data = PoolIntArray( -2818064, 2, 0, -2818055, 2, 0, -2818054, 4, 0, -2818053, 4, 0, -2818052, 2, 0, -2883567, 1073741826, 0, -2752528, 2, 0, -2752519, 2, 0, -2752518, 4, 0, -2752517, 4, 0, -2752516, 2, 0, -2818031, 1073741826, 0, -2686992, 2, 0, -2686983, 2, 0, -2686982, 4, 0, -2686981, 4, 0, -2686980, 2, 0, -2752495, 1073741826, 0, -2621456, 2, 0, -2621447, 2, 0, -2621446, 4, 0, -2621445, 4, 0, -2621444, 2, 0, -2686959, 1073741826, 0, -2555920, 2, 0, -2555911, 2, 0, -2555910, 4, 0, -2555909, 4, 0, -2555908, 2, 0, -2621423, 1073741826, 0, -2490384, 2, 0, -2490375, 2, 0, -2490374, 4, 0, -2490373, 4, 0, -2490372, 2, 0, -2555887, 1073741826, 0, -2424848, 2, 0, -2424839, 2, 0, -2424838, 4, 0, -2424837, 4, 0, -2424836, 2, 0, -2490351, 1610612737, 0, -2359312, 2, 0, -2359303, 2, 0, -2359302, 4, 0, -2359301, 4, 0, -2359300, 2, 0, -2293776, 2, 0, -2293767, 2, 0, -2293766, 4, 0, -2293765, 4, 0, -2293764, 2, 0, -2228240, 2, 0, -2228231, 2, 0, -2228230, 4, 0, -2228229, 4, 0, -2228228, 2, 0, -2162704, 2, 0, -2162695, 2, 0, -2162694, 4, 0, -2162693, 4, 0, -2162692, 2, 0, -2097168, 2, 0, -2097159, 2, 0, -2097158, 4, 0, -2097157, 4, 0, -2097156, 1073741826, 0, -2031632, 2, 0, -2031623, 2, 0, -2031622, 4, 0, -2031621, 4, 0, -2031620, 536870913, 0, -2031619, 0, 0, -2031618, 0, 0, -2031617, 0, 0, -2097152, 0, 0, -2097151, 0, 0, -2097150, 0, 0, -2097149, 0, 0, -2097148, 0, 0, -2097147, 0, 0, -2097146, 0, 0, -2097145, 0, 0, -2097144, 1, 0, -2097138, 0, 0, -2097137, 0, 0, -2097136, 0, 0, -2097135, 0, 0, -1966096, 2, 0, -1966087, 2, 0, -1966086, 4, 0, -1966085, 1073741827, 0, -1966084, -1610612732, 0, -1966083, -1610612732, 0, -1966082, -1610612732, 0, -1966081, -1610612732, 0, -2031616, -1610612732, 0, -2031615, -1610612732, 0, -2031614, -1610612732, 0, -2031613, -1610612732, 0, -2031612, -1610612732, 0, -2031611, -1610612732, 0, -2031610, -1610612732, 0, -2031609, 536870915, 0, -2031608, 2, 0, -2031599, 1073741826, 0, -1900560, 2, 0, -1900551, 1073741826, 0, -1900550, 1073741827, 0, -1900549, -1610612732, 0, -1900548, -1610612732, 0, -1900547, -1610612732, 0, -1900546, -1610612732, 0, -1900545, -1610612732, 0, -1966080, -1610612732, 0, -1966079, -1610612732, 0, -1966078, -1610612732, 0, -1966077, -1610612732, 0, -1966076, -1610612732, 0, -1966075, -1610612732, 0, -1966074, 536870915, 0, -1966073, 4, 0, -1966072, 2, 0, -1966063, 1073741826, 0, -1835024, 2, 0, -1835015, 1610612737, 0, -1835014, 1073741824, 0, -1835013, 1073741824, 0, -1835012, 1073741824, 0, -1835011, 1073741824, 0, -1835010, 1073741824, 0, -1835009, 1073741824, 0, -1900544, 1073741824, 0, -1900543, 1073741824, 0, -1900542, 1073741824, 0, -1900541, 1073741824, 0, -1900540, 1073741824, 0, -1900539, 1073741825, 0, -1900538, 4, 0, -1900537, 4, 0, -1900536, 2, 0, -1900527, 1073741826, 0, -1769488, 2, 0, -1835003, 2, 0, -1835002, 4, 0, -1835001, 4, 0, -1835000, 2, 0, -1834991, 1073741826, 0, -1703952, 2, 0, -1769467, 2, 0, -1769466, 4, 0, -1769465, 4, 0, -1769464, 2, 0, -1769455, 1073741826, 0, -1638416, 2, 0, -1703931, 2, 0, -1703930, 4, 0, -1703929, 4, 0, -1703928, 2, 0, -1703919, 1073741826, 0, -1572880, 2, 0, -1638395, 2, 0, -1638394, 4, 0, -1638393, 4, 0, -1638392, 2, 0, -1638383, 1073741826, 0, -1507344, 2, 0, -1572859, 2, 0, -1572858, 4, 0, -1572857, 4, 0, -1572856, 2, 0, -1572847, 1073741826, 0, -1441808, 2, 0, -1441798, 0, 0, -1441797, 0, 0, -1507323, 2, 0, -1507322, 4, 0, -1507321, 4, 0, -1507320, 2, 0, -1507311, 1073741826, 0, -1376272, 2, 0, -1376263, 2, 0, -1376262, 3, 0, -1376261, 536870915, 0, -1376260, 2, 0, -1441787, 2, 0, -1441786, 4, 0, -1441785, 4, 0, -1441784, 2, 0, -1441775, 1073741826, 0, -1310736, 2, 0, -1310727, 2, 0, -1310726, 4, 0, -1310725, 4, 0, -1310724, 2, 0, -1376251, 2, 0, -1376250, 4, 0, -1376249, 4, 0, -1376248, 2, 0, -1376239, 1073741826, 0, -1245200, 2, 0, -1245191, 2, 0, -1245190, 4, 0, -1245189, 4, 0, -1245188, 2, 0, -1310715, 2, 0, -1310714, 4, 0, -1310713, 4, 0, -1310712, 2, 0, -1310703, 1073741826, 0, -1179664, 2, 0, -1179655, 2, 0, -1179654, 4, 0, -1179653, 4, 0, -1179652, 2, 0, -1245179, 2, 0, -1245178, 4, 0, -1245177, 4, 0, -1245176, 2, 0, -1245167, 1073741826, 0, -1114128, 2, 0, -1114119, 2, 0, -1114118, 4, 0, -1114117, 4, 0, -1114116, 2, 0, -1179643, 2, 0, -1179642, 4, 0, -1179641, 4, 0, -1179640, 2, 0, -1179631, 1073741826, 0, -1048592, 2, 0, -1048583, 2, 0, -1048582, 4, 0, -1048581, 4, 0, -1048580, 2, 0, -1114107, 2, 0, -1114106, 4, 0, -1114105, 4, 0, -1114104, 2, 0, -1114095, 1073741826, 0, -983056, 2, 0, -983047, 2, 0, -983046, 4, 0, -983045, 4, 0, -983044, 2, 0, -1048571, 2, 0, -1048570, 4, 0, -1048569, 4, 0, -1048568, 2, 0, -1048559, 1073741826, 0, -917520, 2, 0, -917511, 2, 0, -917510, 4, 0, -917509, 4, 0, -917508, 2, 0, -983035, 2, 0, -983034, 4, 0, -983033, 4, 0, -983032, 2, 0, -983023, 1073741826, 0, -851984, 2, 0, -851975, 2, 0, -851974, 4, 0, -851973, 4, 0, -851972, 2, 0, -917499, 2, 0, -917498, 4, 0, -917497, 4, 0, -917496, 2, 0, -917487, 1073741826, 0, -786448, 2, 0, -786439, 2, 0, -786438, 4, 0, -786437, 4, 0, -786436, 2, 0, -851963, 2, 0, -851962, 4, 0, -851961, 4, 0, -851960, 2, 0, -851951, 1073741826, 0, -720912, 2, 0, -720903, 2, 0, -720902, 4, 0, -720901, 4, 0, -720900, 2, 0, -786427, 2, 0, -786426, 4, 0, -786425, 4, 0, -786424, 2, 0, -786415, 1073741826, 0, -655376, 2, 0, -655367, 2, 0, -655366, 4, 0, -655365, 4, 0, -655364, 2, 0, -720891, 2, 0, -720890, 4, 0, -720889, 4, 0, -720888, 2, 0, -720879, 1073741826, 0, -589840, 2, 0, -589831, 2, 0, -589830, 4, 0, -589829, 4, 0, -589828, 2, 0, -655355, 2, 0, -655354, 4, 0, -655353, 4, 0, -655352, 2, 0, -655343, 1073741826, 0, -524304, 2, 0, -524295, 2, 0, -524294, 4, 0, -524293, 4, 0, -524292, 2, 0, -589819, 2, 0, -589818, 4, 0, -589817, 4, 0, -589816, 2, 0, -589807, 1073741826, 0, -458768, 2, 0, -458759, 2, 0, -458758, 4, 0, -458757, 4, 0, -458756, 2, 0, -524283, 2, 0, -524282, 4, 0, -524281, 4, 0, -524280, 2, 0, -524271, 1073741826, 0, -393232, 2, 0, -393223, 2, 0, -393222, 4, 0, -393221, 4, 0, -393220, 2, 0, -458747, 2, 0, -458746, 4, 0, -458745, 4, 0, -458744, 2, 0, -458735, 1073741826, 0, -327696, 2, 0, -327687, 2, 0, -327686, 4, 0, -327685, 4, 0, -327684, 2, 0, -393211, 2, 0, -393210, 4, 0, -393209, 4, 0, -393208, 2, 0, -393199, 1073741826, 0, -262160, 2, 0, -262151, 2, 0, -262150, 4, 0, -262149, 4, 0, -262148, 2, 0, -327675, 2, 0, -327674, 4, 0, -327673, 4, 0, -327672, 2, 0, -327663, 1073741826, 0, -196624, 2, 0, -196615, 2, 0, -196614, 4, 0, -196613, 4, 0, -196612, 2, 0, -262139, 2, 0, -262138, 4, 0, -262137, 4, 0, -262136, 2, 0, -262127, 1073741826, 0, -131088, 2, 0, -131079, 2, 0, -131078, 4, 0, -131077, 4, 0, -131076, 2, 0, -196603, 2, 0, -196602, 4, 0, -196601, 4, 0, -196600, 2, 0, -196591, 1073741826, 0, -65552, 2, 0, -65543, 2, 0, -65542, 4, 0, -65541, 4, 0, -65540, 2, 0, -131067, 2, 0, -131066, 4, 0, -131065, 4, 0, -131064, 2, 0, -131055, 1073741826, 0, -16, 2, 0, -7, 2, 0, -6, 4, 0, -5, 4, 0, -4, 2, 0, -65531, 2, 0, -65530, 4, 0, -65529, 4, 0, -65528, 2, 0, -65519, 1073741826, 0, 65520, 2, 0, 65529, 2, 0, 65530, 4, 0, 65531, 4, 0, 65532, 2, 0, 5, 2, 0, 6, 4, 0, 7, 4, 0, 8, 2, 0, 17, 1073741826, 0, 131056, 2, 0, 131065, 2, 0, 131066, 4, 0, 131067, 4, 0, 131068, 2, 0, 65541, 2, 0, 65542, 4, 0, 65543, 4, 0, 65544, 2, 0, 65553, 1073741826, 0, 196592, 2, 0, 196601, 2, 0, 196602, 4, 0, 196603, 4, 0, 196604, 2, 0, 131077, 2, 0, 131078, 4, 0, 131079, 4, 0, 131080, 2, 0, 131089, 1073741826, 0, 262128, 2, 0, 262137, 2, 0, 262138, 4, 0, 262139, 4, 0, 262140, 2, 0, 196613, 2, 0, 196614, 4, 0, 196615, 4, 0, 196616, 2, 0, 196625, 1073741826, 0, 327664, 2, 0, 327673, 2, 0, 327674, 4, 0, 327675, 4, 0, 327676, 2, 0, 262149, 2, 0, 262150, 4, 0, 262151, 4, 0, 262152, 2, 0, 262161, 1073741826, 0, 393200, 2, 0, 393209, 2, 0, 393210, 4, 0, 393211, 4, 0, 393212, 2, 0, 327685, 2, 0, 327686, 4, 0, 327687, 4, 0, 327688, 2, 0, 327697, 1073741826, 0, 458736, 2, 0, 458745, 2, 0, 458746, 4, 0, 458747, 4, 0, 458748, 2, 0, 393221, 2, 0, 393222, 4, 0, 393223, 4, 0, 393224, 2, 0, 393233, 1073741826, 0, 524272, 2, 0, 524281, 2, 0, 524282, 4, 0, 524283, 4, 0, 524284, 2, 0, 458757, 2, 0, 458758, 4, 0, 458759, 4, 0, 458760, 2, 0, 458769, 1073741826, 0, 589808, 2, 0, 589817, 2, 0, 589818, 4, 0, 589819, 4, 0, 589820, 2, 0, 524293, 2, 0, 524294, 4, 0, 524295, 4, 0, 524296, 2, 0, 524305, 1073741826, 0, 655344, 2, 0, 655353, 2, 0, 655354, 4, 0, 655355, 4, 0, 655356, 2, 0, 589829, 2, 0, 589830, 4, 0, 589831, 4, 0, 589832, 2, 0, 589841, 1073741826, 0, 720880, 2, 0, 720889, 2, 0, 720890, 4, 0, 720891, 4, 0, 720892, 2, 0, 655365, 2, 0, 655366, 4, 0, 655367, 4, 0, 655368, 2, 0, 655377, 1073741826, 0, 786416, 2, 0, 786425, 2, 0, 786426, 4, 0, 786427, 4, 0, 786428, 2, 0, 720901, 2, 0, 720902, 4, 0, 720903, 4, 0, 720904, 2, 0, 720913, 1073741826, 0, 851952, 2, 0, 851961, 2, 0, 851962, 4, 0, 851963, 4, 0, 851964, 2, 0, 786437, 2, 0, 786438, 4, 0, 786439, 4, 0, 786440, 2, 0, 786449, 1073741826, 0, 917488, 2, 0, 917497, 2, 0, 917498, 4, 0, 917499, 4, 0, 917500, 2, 0, 851973, 2, 0, 851974, 4, 0, 851975, 4, 0, 851976, 2, 0, 851985, 1073741826, 0, 983024, 2, 0, 983033, 2, 0, 983034, 4, 0, 983035, 4, 0, 983036, 2, 0, 917509, 2, 0, 917510, 4, 0, 917511, 4, 0, 917512, 2, 0, 917521, 1073741826, 0, 1048560, 2, 0, 1048569, 2, 0, 1048570, 4, 0, 1048571, 4, 0, 1048572, 2, 0, 983045, 2, 0, 983046, 4, 0, 983047, 4, 0, 983048, 2, 0, 983057, 1073741826, 0, 1114096, 2, 0, 1114105, 2, 0, 1114106, 4, 0, 1114107, 4, 0, 1114108, 2, 0, 1048581, 2, 0, 1048582, 4, 0, 1048583, 4, 0, 1048584, 2, 0, 1048593, 1073741826, 0, 1179632, 2, 0, 1179641, 2, 0, 1179642, 4, 0, 1179643, 4, 0, 1179644, 2, 0, 1114117, 2, 0, 1114118, 4, 0, 1114119, 4, 0, 1114120, 2, 0, 1114129, 1073741826, 0, 1245168, 2, 0, 1245177, 2, 0, 1245178, 1073741827, 0, 1245179, 1610612739, 0, 1245180, 2, 0, 1179653, 2, 0, 1179654, 1073741827, 0, 1179655, 1610612739, 0, 1179656, 2, 0, 1179665, 1073741826, 0, 1310704, 2, 0, 1310713, 1610612737, 0, 1310714, 1073741824, 0, 1310715, 1073741824, 0, 1310716, 1073741825, 0, 1245189, 1610612737, 0, 1245190, 1073741824, 0, 1245191, 1073741824, 0, 1245192, 1073741825, 0, 1245201, 1073741826, 0, 1376240, 2, 0, 1310737, 1073741826, 0, 1441776, 2, 0, 1376273, 1073741826, 0, 1507312, 2, 0, 1441809, 1073741826, 0, 1572848, 2, 0, 1638384, 2, 0, 1703920, 2, 0, 1769456, 2, 0, 1834992, 2, 0, 1834993, 29, 0, 1834994, 29, 0, 1834995, 29, 0, 1834996, 29, 0, 1834997, 29, 0, 1834998, 29, 0, 1834999, 29, 0, 1835000, 29, 0, 1835001, 29, 0, 1835002, 29, 0, 1835003, 29, 0, 1835004, 29, 0, 1835005, 29, 0, 1835006, 29, 0, 1835007, 29, 0, 1769472, 29, 0, 1769473, 29, 0, 1769474, 29, 0, 1769475, 29, 0, 1769476, 29, 0, 1769477, 29, 0, 1769478, 29, 0, 1769479, 29, 0, 1769480, 29, 0, 1769481, 29, 0, 1769482, 29, 0, 1769483, 29, 0, 1769484, 29, 0, 1769485, 29, 0, 1769486, 29, 0, 1769487, 29, 0, 1769488, 29, 0, 1769489, 29, 0, 1900528, 536870913, 0, 1900529, 0, 0, 1900530, 0, 0, 1900531, 0, 0, 1900532, 0, 0, 1900533, 0, 0, 1900534, 0, 0, 1900535, 0, 0, 1900536, 0, 0, 1900537, 0, 0, 1900538, 0, 0, 1900539, 0, 0, 1900540, 0, 0, 1900541, 0, 0, 1900542, 0, 0, 1900543, 0, 0, 1835008, 0, 0, 1835009, 0, 0, 1835010, 0, 0, 1835011, 0, 0, 1835012, 0, 0, 1835013, 0, 0, 1835014, 0, 0, 1835015, 0, 0, 1835016, 0, 0, 1835017, 0, 0, 1835018, 0, 0, 1835019, 0, 0, 1835020, 0, 0, 1835021, 0, 0, 1835022, 0, 0, 1835023, 0, 0, 1835024, 0, 0, 1835025, 1, 0 )

[node name="ClimbableGroup" type="Node2D" parent="tilemap"]

[node name="ClimbableBlock" parent="tilemap/ClimbableGroup" instance=ExtResource( 2 )]
position = Vector2( -208, -720 )
physics_material_override = SubResource( 1 )

[node name="ClimbableBlock1" parent="tilemap/ClimbableGroup" instance=ExtResource( 2 )]
position = Vector2( 432, -1008 )
physics_material_override = SubResource( 2 )

[node name="ClimbableBlock2" parent="tilemap/ClimbableGroup" instance=ExtResource( 2 )]
position = Vector2( -112, -720 )
physics_material_override = SubResource( 3 )

[node name="Sprite" parent="tilemap/ClimbableGroup/ClimbableBlock2" index="0"]
flip_h = false

[node name="DamageGroup" type="Node2D" parent="tilemap"]

[node name="SpikeTile" parent="tilemap/DamageGroup" instance=ExtResource( 3 )]
position = Vector2( -80, -1040 )

[node name="SpikeTile1" parent="tilemap/DamageGroup" instance=ExtResource( 3 )]
position = Vector2( -48, -1040 )

[node name="SpikeTile2" parent="tilemap/DamageGroup" instance=ExtResource( 3 )]
position = Vector2( -16, -1040 )

[node name="SpikeTile3" parent="tilemap/DamageGroup" instance=ExtResource( 3 )]
position = Vector2( 16, -1040 )

[node name="SpikeTile4" parent="tilemap/DamageGroup" instance=ExtResource( 3 )]
position = Vector2( 48, -1040 )

[node name="SpikeTile5" parent="tilemap/DamageGroup" instance=ExtResource( 3 )]
position = Vector2( 80, -1040 )

[node name="SpikeTile6" parent="tilemap/DamageGroup" instance=ExtResource( 3 )]
position = Vector2( 112, -1040 )

[node name="SpikeTile7" parent="tilemap/DamageGroup" instance=ExtResource( 3 )]
position = Vector2( 144, -1040 )

[node name="SpikeTile8" parent="tilemap/DamageGroup" instance=ExtResource( 3 )]
position = Vector2( 176, -1040 )

[node name="SpikeTile9" parent="tilemap/DamageGroup" instance=ExtResource( 3 )]
position = Vector2( 208, -1040 )

[node name="SpikeTile10" parent="tilemap/DamageGroup" instance=ExtResource( 3 )]
position = Vector2( 240, -1040 )

[node name="SpikeTile11" parent="tilemap/DamageGroup" instance=ExtResource( 3 )]
position = Vector2( 272, -1040 )

[node name="EnemiesGroup" type="Node2D" parent="tilemap"]

[node name="Lizardman" parent="tilemap/EnemiesGroup" instance=ExtResource( 4 )]
position = Vector2( -160, 832 )

[node name="Lizardman1" parent="tilemap/EnemiesGroup" instance=ExtResource( 4 )]
position = Vector2( 224, 832 )

[node name="ItemGroup" type="Node2D" parent="tilemap"]

[node name="Gold" parent="tilemap/ItemGroup" instance=ExtResource( 5 )]
position = Vector2( 32, -256 )
value = 100

[node name="TeleportGroup" type="Node2D" parent="tilemap"]

[node name="Teleport" parent="tilemap/TeleportGroup" instance=ExtResource( 6 )]
position = Vector2( 592, 816 )
target_level = "res://levels/bergfortress/0-6.tscn"
teleport_to = Vector2( -876, 80 )

[node name="teleport" parent="tilemap/TeleportGroup/Teleport" index="0"]
scale = Vector2( 1, 5 )

[node name="Teleport1" parent="tilemap/TeleportGroup" instance=ExtResource( 6 )]
position = Vector2( 592, -1104 )
target_level = "res://levels/bergfortress/2-0.tscn"
teleport_to = Vector2( -652, -112 )

[node name="teleport" parent="tilemap/TeleportGroup/Teleport1" index="0"]
scale = Vector2( 1, 5 )

[node name="Teleport2" parent="tilemap/TeleportGroup" instance=ExtResource( 6 )]
position = Vector2( 224, -1424 )
is_horizontal = false
target_level = "res://levels/bergfortress/0-4.tscn"
teleport_to = Vector2( 384, 672 )

[node name="teleport" parent="tilemap/TeleportGroup/Teleport2" index="0"]
scale = Vector2( 20, 1 )

[node name="Teleport3" parent="tilemap/TeleportGroup" instance=ExtResource( 6 )]
position = Vector2( -352, -1424 )
is_horizontal = false
target_level = "res://levels/bergfortress/0-4.tscn"
teleport_to = Vector2( -91, 672 )

[node name="teleport" parent="tilemap/TeleportGroup/Teleport3" index="0"]
scale = Vector2( 8, 1 )

[node name="boundaries" type="Node2D" parent="tilemap"]

[node name="NW" type="Position2D" parent="tilemap/boundaries"]
position = Vector2( -518, -1414 )

[node name="SE" type="Position2D" parent="tilemap/boundaries"]
position = Vector2( 586, 938 )

[node name="ParallaxBackground" parent="." instance=ExtResource( 7 )]

[node name="tilemap2" parent="ParallaxBackground/ParallaxLayer" index="0"]
position = Vector2( 896, 512 )

[editable path="tilemap/ClimbableGroup/ClimbableBlock2"]

[editable path="tilemap/TeleportGroup/Teleport"]

[editable path="tilemap/TeleportGroup/Teleport1"]

[editable path="tilemap/TeleportGroup/Teleport2"]

[editable path="tilemap/TeleportGroup/Teleport3"]

[editable path="ParallaxBackground"]
